
%% LilyPond file generated by Denemo version 2.0.8

%%http://www.gnu.org/software/denemo/

\version "2.18.0"

AutoBarline = {}
AutoEndMovementBarline = \bar "|."

				% The music follows

MvmntIVoiceI = {\voiceOne
		\partial 256*64  gis'8 gis'\AutoBarline
		\bar ".|:" a'4 a'8 a' a'4. a'8\AutoBarline
		b' b' a' a' gis'4 fis'8 gis'\AutoBarline
		\time 2/4  a'4 cis''8 cis''\AutoBarline
				%5
		\time 4/4  b'4 b'2.\AutoBarline
		d''4 cis''8 b' a'4 a'\AutoBarline
		b'8 b' fis' fis' gis'4 \breathe gis'4\AutoBarline
		a'2 a'4 fis'8 a'\AutoBarline
		b'2. gis'8 gis' \bar ":|."}


MvmntIVoiceII = {\voiceTwo
		 \partial 256*64  e'8 e'\AutoBarline
		 \bar ".|:" e'4 e'8 e' fis'4. fis'8\AutoBarline
		 fis' fis' fis' fis' e'4 e'8 e'\AutoBarline
		 \time 2/4  e'4 e'8 e'\AutoBarline
				%5
		 \time 4/4  e'4 e'2.\AutoBarline
		 fis'4 fis'8 fis' fis'4 fis'\AutoBarline
		 fis'8 fis' d' d' e'4 \breathe e'4\AutoBarline
		 fis'2 fis'4 d'8 fis'\AutoBarline
		 e'2. e'8 e' \bar ":|."}


MvmntIVoiceIII = {\voiceThree
		  \partial 256*64  gis8 gis\AutoBarline
		  \bar ".|:" a4 cis'8 cis' d'4. d'8\AutoBarline
		  d' d' b b b4 b8 b\AutoBarline
		  \time 2/4  a4 a8 a\AutoBarline
				%5
		  \time 4/4  gis4 gis2.\AutoBarline
		  b4 e'8 d' cis'4 cis'\AutoBarline
		  b8 b a a gis4 \breathe cis'4\AutoBarline
		  cis'2 b4 b8 b\AutoBarline
		  gis2. gis8 gis \bar ":|."}


MvmntIVoiceIV = {\voiceFour
		 \partial 256*64  e8 e\AutoBarline
		 \bar ".|:" cis4 a,8 a, d4. d8\AutoBarline
		 b, b, d d e4 d8 d\AutoBarline
		 \time 2/4  cis4 a,8 a,\AutoBarline
				%5
		 \time 4/4  e4 e2.\AutoBarline
		 b,4 cis8 d fis4 e\AutoBarline
		 d8 d fis fis cis4 \breathe b,4\AutoBarline
		 a,2 d4 b,8 b,\AutoBarline
		 e2. e8 e \bar ":|."}



OrigLyrics = \lyricmode { I am sure I shall see the good -- ness of
the Lord in the land of the liv -- ing.  Yes, I shall see the good --
ness of our God, hold firm, trust in the Lord.  I am
}


#(set-global-staff-size 20)
\paper {
  myStaffSize = #18
    #(define fonts
    (make-pango-font-tree "TeX Gyre Pagella"
                          "TeX Gyre Pagella"
     "TeX Gyre Pagella"
     (/ myStaffSize 20)
                           ))
   indent = 0\cm} 

\score { %Start of Movement
  <<

				%Start of Staff
    \new Staff  <<
      \new Voice = "VoiceIMvmntI"  { 
	\clef treble    \key a \major    \time 4/4   \MvmntIVoiceI
      } %End of voice
      \new Voice = "VoiceIIMvmntI"  { 
	\MvmntIVoiceII
      } %End of voice

    >> %End of Staff
    \new Lyrics = OrigLyrics \lyricsto VoiceIMvmntI \OrigLyrics

				%Start of Staff
    \new Staff << 
      \new Voice = "VoiceIIIMvmntI"  { 
	\clef bass    \key a \major    \time 4/4   \MvmntIVoiceIII
      } %End of voice
      \new Voice = "VoiceIVMvmntI"  { 
	\MvmntIVoiceIV
      } %End of voice

    >> %End of Staff

  >>
  \midi { }
  \layout { }

} %End of Movement



