%!PS-Adobe-2.0 EPSF-2.0
%%Creator: LilyPond 2.18.2
%%BoundingBox: -9 -106 336 0
%%Orientation: Portrait
%%DocumentSuppliedResources: font Emmentaler-18
%%DocumentSuppliedResources: font TeXGyrePagella-Italic
%%DocumentSuppliedResources: font TeXGyrePagella-Regular
%%EndComments
%%BeginProlog
/lilypond-datadir where {pop} {userdict /lilypond-datadir (/usr/share/lilypond/2.18.2) put } ifelse
%%BeginFont: Emmentaler-18
lilypond-datadir (/fonts/otf/emmentaler-18.otf) concatstrings (r) file .loadfont
%%EndFont

%%BeginFont: TeXGyrePagella-Italic
(/usr/share/texmf/fonts/opentype/public/tex-gyre/texgyrepagella-italic.otf) (r) file .loadfont
%%EndFont

%%BeginFont: TeXGyrePagella-Regular
(/usr/share/texmf/fonts/opentype/public/tex-gyre/texgyrepagella-regular.otf) (r) file .loadfont
%%EndFont

/magfontemmentaler-18mDWo { /Emmentaler-18 6.3263 output-scale div selectfont } bind def
/lily-output-units 2.83464566929134 def %% millimeter
/staff-line-thickness 0.1 def
/line-width 67.3237795275591 def
/paper-size (a4) def
/staff-height 4.0 def
/output-scale 1.75729901757299 def
/page-height 169.00937007874 def
/page-width 119.50157480315 def
%%BeginResource: procset (music-drawing-routines.ps) 1 0
%!PS-Adobe-2.0
%
% Functions for direct and embedded PostScript

% Careful with double % as comment prefix.
% Any %%X comment is interpreted as DSC comments.

% TODO: use dicts or prefixes to prevent namespace pollution.

/pdfmark where
{pop} {userdict /pdfmark /cleartomark load put} ifelse


% llx lly urx ury URI
/mark_URI
{
    /uri exch def
    /ury exch def
    /urx exch def
    /lly exch def
    /llx exch def
    [
	/Rect [ llx lly urx ury ]
	
	/Border [ 0 0 0 ]

        /Action
	    <<
		/Subtype /URI
		/URI uri
	    >>
        /Subtype /Link
    /ANN
    pdfmark
}
bind def

% llx lly urx ury page
/mark_page_link
{
    /page exch def
    /ury exch def
    /urx exch def
    /lly exch def
    /llx exch def
    [
        /Rect [ llx lly urx ury ]
        /Border [ 0 0 0 ]
        /Page page
        /Subtype /Link
    /ANN
    pdfmark
}
bind def

% from adobe tech note 5002.
/BeginEPSF { %def
    /b4_Inc_state save def % Save state for cleanup
    /dict_count countdictstack def % Count objects on dict stack
    /op_count count 1 sub def % Count objects on operand stack
    userdict begin % Push userdict on dict stack
    /showpage { } def % Redefine showpage, { } = null proc
    0 setgray 0 setlinecap % Prepare graphics state
    1 setlinewidth 0 setlinejoin
    10 setmiterlimit [ ] 0 setdash newpath
    false setoverprint
} bind def

/EndEPSF { %def
  count op_count sub {pop} repeat % Clean up stacks
  countdictstack dict_count sub {end} repeat
  b4_Inc_state restore
} bind def

/stroke_and_fill? {
    {
	gsave
	    false setstrokeadjust
	    stroke
	grestore
	fill
    }
    {
	stroke
    }
    ifelse
} bind def

/vector_add { % x1 y1 x2 y2 vector_add x1+x2 y1+y2
	exch
	4 1 roll
	add
	3 1 roll
	add
	exch
} bind def

/draw_round_box % width height x y blot
{
    0 max setlinewidth
    matrix currentmatrix 5 1 roll
    currentpoint translate newpath translate
    2 copy 0 min exch 0 min exch translate
    abs exch abs exch
    currentlinewidth 0 eq
    { % straight corners
	2 copy 2 mul gt
	{ % horizontal
	    0 1 index 2 div moveto
	    setlinewidth
	    0 rlineto
	    0 setlinecap
	    stroke
	}
	{
	    2 copy exch 2 mul gt
	    { % vertical
		1 index 2 div 0 moveto
		exch setlinewidth
		0 exch rlineto
		0 setlinecap
		stroke
	    }
	    {
		0 0 4 2 roll rectfill
	    }
	    ifelse
	}
	ifelse
    }
    { % rounded corners
	2 copy 0 eq exch 0 eq or
	{ % line shape
	    0 0 moveto
	    rlineto
	    1 setlinecap
	    stroke
	    0 setlinecap
	}
	{ % full shape
	    currentstrokeadjust {
		currentlinewidth 2 div
		0 0 2 index 180 270 arc
		2 index 0 2 index 270 360 arc
		3 copy 0 90 arc
		0 2 index 3 -1 roll 90 180 arc
		closepath
		2 copy 2 mul gt
		{ % horizontal
		    2 copy add currentlinewidth add 10 add % large enough
		    0 1 index neg moveto
		    2 index 1 index neg lineto
		    2 index 1 index lineto
		    0 exch lineto closepath
		    gsave clip newpath
		    0 1 index 2 div moveto
		    currentlinewidth add setlinewidth
		    0 rlineto
		    2 setlinecap
		    stroke
		    grestore
		}
		{
		    2 copy exch 2 mul gt
		    { % vertical
			2 copy add currentlinewidth add 10 add % large enough
			dup neg 0 moveto
			dup 0 lineto
			dup 2 index lineto
			neg 1 index lineto closepath
			gsave clip newpath
			1 index 2 div 0 moveto
			exch currentlinewidth add setlinewidth
			0 exch rlineto
			2 setlinecap
			stroke
			grestore
		    }
		    {
			pop pop
			fill
		    }
		    ifelse
		}
		ifelse
		newpath
	    }
	    {
		1 setlinejoin
		0 0 4 2 roll 4 copy rectstroke rectfill
	    }
	    ifelse
	}
	ifelse
    }
    ifelse
    setmatrix
} bind def

/draw_polygon % fill? x(n) y(n) x(n-1) y(n-1) ... x(0) y(0) n blot
{
	setlinewidth %set to blot

	0 setlinecap
	1 setlinejoin

	3 1 roll
	/polygon_x
	currentpoint
	/polygon_y exch def
	def
	rmoveto % x(0) y(0)
	{ polygon_x polygon_y vector_add lineto } repeat % n times
	closepath
	stroke_and_fill?
} bind def

/draw_circle % filled? radius thickness draw_circle
{
	setlinewidth	% f? r
	currentpoint	% f? r x0 y0
	3 2 roll	% f? x0 y0 r
	dup 0 rmoveto
	0 360 arc closepath
	stroke_and_fill?
} bind def

/draw_ellipse % filled? x-radius y-radius thickness draw_ellipse
{
  setlinewidth % f? x-r y-r
  /savematrix matrix currentmatrix def
  scale % f?
  currentpoint
  1 0 rmoveto
  1 0 360  arc closepath
  savematrix setmatrix
  stroke_and_fill?
} bind def

/draw_partial_ellipse % filled connect x-radius y-radius startangle endangle thickness draw_partial_ellipse
% Note that filled is not boolean to permit for different graylevels (ie for trill keys)
{
  gsave
  currentpoint translate
  /thickness exch def
  /endangle exch def
  /startangle exch def
  /y_radius exch def
  /x_radius exch def
  /endrad x_radius y_radius mul
    x_radius x_radius mul
    endangle cos endangle cos mul mul
    y_radius y_radius mul
    endangle sin endangle sin mul mul add sqrt div def
  /endangle endangle sin endrad mul y_radius div
    endangle cos endrad mul x_radius div atan def
  /startrad x_radius y_radius mul
    x_radius x_radius mul
      startangle cos startangle cos mul mul
    y_radius y_radius mul
      startangle sin startangle sin mul mul add sqrt div def
  /startangle startangle sin startrad mul y_radius div
    startangle cos startrad mul x_radius div atan def
  /connect exch def
  /filled exch def
  /savematrix matrix currentmatrix def
  thickness setlinewidth
  x_radius y_radius scale
  startangle cos startangle sin moveto
  0 0 1 startangle
    startangle endangle eq { endangle 360 add } { endangle } ifelse
    arc
  connect {
    startangle cos startangle sin moveto endangle cos endangle sin lineto }
    if
  savematrix setmatrix filled stroke_and_fill?
  grestore
} bind def

/draw_line % dx dy x1 y1 thickness draw_line
{
	setlinewidth % dx dy x1 y1
	1 setlinecap
	rmoveto % dx dy
	rlineto
	stroke
} bind def

/draw_dashed_line % dx dy thickness dashpattern offset draw_dashed_line
{
	1 setlinecap
	setdash % dx dy thickness
	setlinewidth %dx dy
	rlineto
	stroke
	[] 0 setdash % reset dash pattern
} bind def

/print_glyphs % w dx dy glyph print_glyphs
{
	{
		currentpoint %w dx dy glyph x0 y0
		5 2 roll %w x0 y0 dx dy glyph
		3 1 roll %w x0 y0 glyph dx dy
		rmoveto %w x0 y0 glyph
		glyphshow %w x0 y0
		moveto %w
		0 rmoveto
	}repeat
}bind def
%end music-drawing-routines.ps

%%EndResource
%%BeginResource: procset (lilyponddefs.ps) 1 0
%!PS-Adobe-2.0: lilyponddefs.ps
%
% Functions for direct PostScript output

% /setgray { 1 add } bind def

/set-ps-scale-to-lily-scale {
	lily-output-units output-scale mul dup scale
} bind def


/init-paper {
	gsave
	clippath pathbbox newpath
	/paper-height exch def
	/paper-width exch def pop pop pop
	% FIXME
	/top-margin 2 def
	paper-width line-width sub 2 div /left-margin exch def
	grestore
} bind def

/init-lilypond-parameters {
	staff-line-thickness setlinewidth
	staff-height init-paper
} bind def


% end lilyponddefs.ps

%%EndResource
%%EndProlog
%%BeginSetup
init-lilypond-parameters
%%EndSetup

/mark_page_link { pop pop pop pop pop } bind def
gsave set-ps-scale-to-lily-scale
0.0000 -5.6667 moveto 67.2238 0.0000 0.0500 0.0000 0.1000 draw_line
0.0000 -4.6667 moveto 67.2238 0.0000 0.0500 0.0000 0.1000 draw_line
0.0000 -3.6667 moveto 67.2238 0.0000 0.0500 0.0000 0.1000 draw_line
0.0000 -2.6667 moveto 67.2238 0.0000 0.0500 0.0000 0.1000 draw_line
0.0000 -1.6667 moveto 67.2238 0.0000 0.0500 0.0000 0.1000 draw_line
0.0000 -19.5992 moveto 67.2238 0.0000 0.0500 0.0000 0.1000 draw_line
0.0000 -18.5992 moveto 67.2238 0.0000 0.0500 0.0000 0.1000 draw_line
0.0000 -17.5992 moveto 67.2238 0.0000 0.0500 0.0000 0.1000 draw_line
0.0000 -16.5992 moveto 67.2238 0.0000 0.0500 0.0000 0.1000 draw_line
0.0000 -15.5992 moveto 67.2238 0.0000 0.0500 0.0000 0.1000 draw_line
0.0000 -14.5992 moveto 1.5761 0.0000 7.5940 0.0000 0.2000 draw_round_box
0.0000 -14.5992 moveto 1.5761 0.0000 11.4851 0.0000 0.2000 draw_round_box
0.0000 -14.5992 moveto 1.5761 0.0000 14.2033 0.0000 0.2000 draw_round_box
0.0000 -14.5992 moveto 1.5761 0.0000 16.9215 0.0000 0.2000 draw_round_box
0.0000 -14.5992 moveto 1.5761 0.0000 20.4030 0.0000 0.2000 draw_round_box
0.0000 -14.5992 moveto 1.5761 0.0000 24.7380 0.0000 0.2000 draw_round_box
0.0000 -14.5992 moveto 1.5761 0.0000 28.4584 0.0000 0.2000 draw_round_box
0.0000 -13.5992 moveto 1.5761 0.0000 28.4584 0.0000 0.2000 draw_round_box
0.0000 -14.5992 moveto 1.5761 0.0000 33.9875 0.0000 0.2000 draw_round_box
0.0000 -13.5992 moveto 1.5761 0.0000 33.9875 0.0000 0.2000 draw_round_box
0.0000 -14.5992 moveto 1.6821 0.0000 39.2221 0.0000 0.2000 draw_round_box
0.0000 -14.5992 moveto 2.1854 0.0000 54.7672 0.0000 0.2000 draw_round_box
40.6255 -3.6667 moveto 0.0500 3.1901 -0.0250 -0.2301 0.0800 draw_round_box
39.4358 -17.5992 moveto magfontemmentaler-18mDWo /noteheads.s1 glyphshow 
37.9858 -15.5992 moveto magfontemmentaler-18mDWo /scripts.rcomma glyphshow 
39.4358 -14.0992 moveto magfontemmentaler-18mDWo /noteheads.s1 glyphshow 
39.5008 -3.6667 moveto 0.0500 2.5234 -0.0250 -4.2933 0.0800 draw_round_box
37.9858 -15.5992 moveto magfontemmentaler-18mDWo /scripts.rcomma glyphshow 
39.4358 -9.5651 moveto /TeXGyrePagella-Regular 3.90625000 output-scale div selectfont
1.7413 0.0000 0.0000 /A
1 print_glyphs
39.4358 -5.1667 moveto magfontemmentaler-18mDWo /noteheads.s1 glyphshow 
37.9858 -1.6667 moveto magfontemmentaler-18mDWo /scripts.rcomma glyphshow 
39.4358 -4.1667 moveto magfontemmentaler-18mDWo /noteheads.s1 glyphshow 
37.9858 -1.6667 moveto magfontemmentaler-18mDWo /scripts.rcomma glyphshow 
28.6544 -13.5992 moveto magfontemmentaler-18mDWo /noteheads.s2 glyphshow 
46.4201 -3.6667 moveto 0.0500 3.1901 -0.0250 -0.7301 0.0800 draw_round_box
45.2304 -17.0992 moveto magfontemmentaler-18mDWo /noteheads.s1 glyphshow 
45.2304 -15.0992 moveto magfontemmentaler-18mDWo /noteheads.s1 glyphshow 
45.2304 -5.6667 moveto magfontemmentaler-18mDWo /noteheads.s1 glyphshow 
45.2304 -4.6667 moveto magfontemmentaler-18mDWo /noteheads.s1 glyphshow 
39.5008 -17.5992 moveto 0.0500 3.0234 -0.0250 -3.2933 0.0800 draw_round_box
40.6255 -17.5992 moveto 0.0500 2.1901 -0.0250 3.7699 0.0800 draw_round_box
29.7735 -17.5992 moveto 0.0500 2.2570 -0.0250 4.2030 0.0800 draw_round_box
34.1835 -13.5992 moveto magfontemmentaler-18mDWo /noteheads.s2 glyphshow 
33.2220 -9.5651 moveto /TeXGyrePagella-Regular 3.90625000 output-scale div selectfont
0.5463 0.0000 0.0000 /period
0.6487 0.0000 0.0000 /l
0.6487 0.0000 0.0000 /i
1.2633 0.0000 0.0000 /v
4 print_glyphs
34.1835 -4.6667 moveto magfontemmentaler-18mDWo /noteheads.s2 glyphshow 
34.1835 -3.1667 moveto magfontemmentaler-18mDWo /noteheads.s2 glyphshow 
28.7194 -17.5992 moveto 0.0500 2.9237 -0.0250 -3.6267 0.0800 draw_round_box
34.1835 -18.0992 moveto magfontemmentaler-18mDWo /noteheads.s2 glyphshow 
28.7194 -3.6667 moveto 0.0500 2.7570 -0.0250 -3.9600 0.0800 draw_round_box
29.7735 -3.6667 moveto 0.0500 2.9237 -0.0250 0.7030 0.0800 draw_round_box
28.6544 -18.0992 moveto magfontemmentaler-18mDWo /noteheads.s2 glyphshow 
34.2485 -17.5992 moveto 0.0500 2.9237 -0.0250 -3.6267 0.0800 draw_round_box
35.3026 -17.5992 moveto 0.0500 2.2570 -0.0250 4.2030 0.0800 draw_round_box
34.2485 -3.6667 moveto 0.0500 2.7570 -0.0250 -3.9600 0.0800 draw_round_box
35.3026 -3.6667 moveto 0.0500 2.9237 -0.0250 0.7030 0.0800 draw_round_box
53.5022 -14.5992 moveto magfontemmentaler-18mDWo /accidentals.sharp glyphshow 
20.5990 -7.1667 moveto true 4.4250 0.2000 4.4250 -0.2000 0.0400 -0.2000 0.0400 0.2000 3 0.0800 draw_polygon
13.5840 -9.5651 moveto 0.5800 0.0500 0.0400 0.4600 0.0800 draw_round_box
15.7101 -9.5651 moveto 0.2959 0.0500 0.0400 0.4600 0.0800 draw_round_box
8.8441 -0.6667 moveto true 9.4175 0.2000 9.4175 -0.2000 0.0400 -0.2000 0.0400 0.2000 3 0.0800 draw_polygon
7.7900 -7.1667 moveto true 9.4175 0.2000 9.4175 -0.2000 0.0400 -0.2000 0.0400 0.2000 3 0.0800 draw_polygon
8.8441 -11.7892 moveto true 9.4175 0.2000 9.4175 -0.2000 0.0400 -0.2000 0.0400 0.2000 3 0.0800 draw_polygon
7.7900 -19.4092 moveto true 9.4175 0.2000 9.4175 -0.2000 0.0400 -0.2000 0.0400 0.2000 3 0.0800 draw_polygon
31.1688 -9.5651 moveto 0.5800 0.0500 0.0400 0.4600 0.0800 draw_round_box
21.6530 -0.6667 moveto true 4.4250 0.2000 4.4250 -0.2000 0.0400 -0.2000 0.0400 0.2000 3 0.0800 draw_polygon
21.6530 -11.7892 moveto true 4.4250 0.2000 4.4250 -0.2000 0.0400 -0.2000 0.0400 0.2000 3 0.0800 draw_polygon
20.5990 -19.4092 moveto true 4.4250 0.2000 4.4250 -0.2000 0.0400 -0.2000 0.0400 0.2000 3 0.0800 draw_polygon
39.4358 -3.6667 moveto gsave currentpoint translate
1 setlinecap 1 setlinejoin 0.08000000 setlinewidth
1.55475556 0.49862020 moveto  2.78686228 1.68999647 5.53312886 1.50020995 6.61935811 0.14862020 curveto  5.52485574 1.38049548 2.77858916 1.57028200 1.55475556 0.49862020 curveto   closepath  gsave stroke grestore fill grestore
39.4358 -3.6667 moveto gsave currentpoint translate
1 setlinecap 1 setlinejoin 0.08000000 setlinewidth
0.43000000 -2.49862020 moveto  1.48424098 -3.66738343 4.23217009 -3.93867117 5.49460255 -2.99862020 curveto  4.24395970 -3.81925172 1.49603060 -3.54796398 0.43000000 -2.49862020 curveto   closepath  gsave stroke grestore fill grestore
46.8926 -9.5651 moveto 0.5800 0.0500 0.0400 0.4600 0.0800 draw_round_box
39.4358 -17.5992 moveto gsave currentpoint translate
1 setlinecap 1 setlinejoin 0.08000000 setlinewidth
1.55475556 4.49862020 moveto  2.91526817 5.31923923 5.67284779 4.77475828 6.61935811 3.49862020 curveto  5.64960271 4.65703119 2.89202309 5.20151215 1.55475556 4.49862020 curveto   closepath  gsave stroke grestore fill grestore
39.4358 -17.5992 moveto gsave currentpoint translate
1 setlinecap 1 setlinejoin 0.08000000 setlinewidth
0.43000000 -1.14862020 moveto  1.72236224 -2.05310996 4.47253038 -1.70014854 5.49460255 -0.49862020 curveto  4.45725466 -1.58112480 1.70708652 -1.93408621 0.43000000 -1.14862020 curveto   closepath  gsave stroke grestore fill grestore
45.2954 -17.5992 moveto 0.0500 3.1901 -0.0250 -2.9600 0.0800 draw_round_box
46.4201 -17.5992 moveto 0.0500 2.1901 -0.0250 2.7699 0.0800 draw_round_box
45.2954 -3.6667 moveto 0.0500 2.3568 -0.0250 -4.6267 0.0800 draw_round_box
54.8422 -15.5992 moveto magfontemmentaler-18mDWo /noteheads.s0 glyphshow 
54.8422 -19.0992 moveto magfontemmentaler-18mDWo /noteheads.s0 glyphshow 
54.8422 -14.5992 moveto magfontemmentaler-18mDWo /noteheads.s0 glyphshow 
53.2681 -9.5651 moveto /TeXGyrePagella-Regular 3.90625000 output-scale div selectfont
0.6146 0.0000 0.0000 /exclam
1.2974 0.0000 0.0000 /n
1.0584 0.0000 0.0000 /e
1.9462 0.0000 0.0000 /m
4 print_glyphs
54.8422 -5.6667 moveto magfontemmentaler-18mDWo /noteheads.s0 glyphshow 
54.8422 -4.1667 moveto magfontemmentaler-18mDWo /noteheads.s0 glyphshow 
12.8002 -17.5992 moveto 0.0500 2.0670 -0.0250 3.7030 0.0800 draw_round_box
11.7462 -3.6667 moveto 0.0500 2.2570 -0.0250 -3.4600 0.0800 draw_round_box
12.8002 -3.6667 moveto 0.0500 2.7570 -0.0250 0.2030 0.0800 draw_round_box
11.6812 -16.0992 moveto magfontemmentaler-18mDWo /noteheads.s2 glyphshow 
11.6812 -14.0992 moveto magfontemmentaler-18mDWo /noteheads.s2 glyphshow 
11.0611 -9.5651 moveto /TeXGyrePagella-Regular 3.90625000 output-scale div selectfont
1.0584 0.0000 0.0000 /e
1.3657 0.0000 0.0000 /d
2 print_glyphs
11.6812 -4.6667 moveto magfontemmentaler-18mDWo /noteheads.s2 glyphshow 
11.6812 -3.6667 moveto magfontemmentaler-18mDWo /noteheads.s2 glyphshow 
15.5184 -3.6667 moveto 0.0500 2.7570 -0.0250 0.2030 0.0800 draw_round_box
15.5184 -17.5992 moveto 0.0500 2.0670 -0.0250 3.7030 0.0800 draw_round_box
28.7173 -9.5651 moveto /TeXGyrePagella-Regular 3.90625000 output-scale div selectfont
1.0584 0.0000 0.0000 /e
1 print_glyphs
14.4644 -3.6667 moveto 0.0500 2.2570 -0.0250 -3.4600 0.0800 draw_round_box
7.8550 -17.5992 moveto 0.0500 3.0670 -0.0250 -1.7700 0.0800 draw_round_box
14.3994 -16.0992 moveto magfontemmentaler-18mDWo /noteheads.s2 glyphshow 
14.3994 -14.0992 moveto magfontemmentaler-18mDWo /noteheads.s2 glyphshow 
14.3427 -9.5651 moveto /TeXGyrePagella-Regular 3.90625000 output-scale div selectfont
0.6487 0.0000 0.0000 /i
0.6487 0.0000 0.0000 /l
2 print_glyphs
14.3994 -4.6667 moveto magfontemmentaler-18mDWo /noteheads.s2 glyphshow 
14.3994 -3.6667 moveto magfontemmentaler-18mDWo /noteheads.s2 glyphshow 
11.7462 -17.5992 moveto 0.0500 3.0670 -0.0250 -1.7700 0.0800 draw_round_box
4.3000 -16.5992 moveto magfontemmentaler-18mDWo /accidentals.sharp glyphshow 
0.8000 -16.5992 moveto magfontemmentaler-18mDWo /clefs.F glyphshow 
4.3000 -1.6667 moveto magfontemmentaler-18mDWo /accidentals.sharp glyphshow 
0.8000 -4.6667 moveto magfontemmentaler-18mDWo /clefs.G glyphshow 
-0.0600 -10.6329 moveto 0.0600 17.9326 0.0500 -8.9663 0.1000 draw_round_box
-1.3100 -1.4142 moveto magfontemmentaler-18mDWo /brackettips.up glyphshow 
-1.3100 -19.8517 moveto magfontemmentaler-18mDWo /brackettips.down glyphshow 
-1.3100 -10.6329 moveto 0.4500 18.1226 0.0000 -9.0613 0.0000 draw_round_box
8.9091 -17.5992 moveto 0.0500 2.0670 -0.0250 3.7030 0.0800 draw_round_box
7.8550 -3.6667 moveto 0.0500 2.2570 -0.0250 -3.4600 0.0800 draw_round_box
8.9091 -3.6667 moveto 0.0500 2.7570 -0.0250 0.2030 0.0800 draw_round_box
7.7900 -16.0992 moveto magfontemmentaler-18mDWo /noteheads.s2 glyphshow 
7.7900 -14.0992 moveto magfontemmentaler-18mDWo /noteheads.s2 glyphshow 
6.4871 -9.5651 moveto /TeXGyrePagella-Regular 3.90625000 output-scale div selectfont
1.3657 0.0000 0.0000 /d
1.2974 0.0000 0.0000 /n
1.1267 0.0000 0.0000 /a
3 print_glyphs
7.7900 -4.6667 moveto magfontemmentaler-18mDWo /noteheads.s2 glyphshow 
7.7900 -3.6667 moveto magfontemmentaler-18mDWo /noteheads.s2 glyphshow 
24.9340 -14.0992 moveto magfontemmentaler-18mDWo /noteheads.s2 glyphshow 
23.1189 -9.5651 moveto /TeXGyrePagella-Regular 3.90625000 output-scale div selectfont
1.9462 0.0000 0.0000 /m
1.2292 0.0000 0.0000 /o
0.8877 0.0000 0.0000 /r
0.7512 0.0000 0.0000 /f
4 print_glyphs
24.9340 -4.6667 moveto magfontemmentaler-18mDWo /noteheads.s2 glyphshow 
24.9340 -3.6667 moveto magfontemmentaler-18mDWo /noteheads.s2 glyphshow 
20.6640 -17.5992 moveto 0.0500 3.0670 -0.0250 -1.7700 0.0800 draw_round_box
24.9340 -16.0992 moveto magfontemmentaler-18mDWo /noteheads.s2 glyphshow 
21.7180 -17.5992 moveto 0.0500 2.0670 -0.0250 3.7030 0.0800 draw_round_box
20.6640 -3.6667 moveto 0.0500 2.2570 -0.0250 -3.4600 0.0800 draw_round_box
26.0531 -17.5992 moveto 0.0500 2.0670 -0.0250 3.7030 0.0800 draw_round_box
28.6544 -4.6667 moveto magfontemmentaler-18mDWo /noteheads.s2 glyphshow 
28.6544 -3.1667 moveto magfontemmentaler-18mDWo /noteheads.s2 glyphshow 
24.9990 -17.5992 moveto 0.0500 3.0670 -0.0250 -1.7700 0.0800 draw_round_box
24.9990 -3.6667 moveto 0.0500 2.2570 -0.0250 -3.4600 0.0800 draw_round_box
26.0531 -3.6667 moveto 0.0500 2.7570 -0.0250 0.2030 0.0800 draw_round_box
17.1175 -14.0992 moveto magfontemmentaler-18mDWo /noteheads.s2 glyphshow 
21.7180 -3.6667 moveto 0.0500 2.7570 -0.0250 0.2030 0.0800 draw_round_box
17.1825 -3.6667 moveto 0.0500 2.2570 -0.0250 -3.4600 0.0800 draw_round_box
18.2366 -3.6667 moveto 0.0500 2.7570 -0.0250 0.2030 0.0800 draw_round_box
17.1175 -16.0992 moveto magfontemmentaler-18mDWo /noteheads.s2 glyphshow 
16.1561 -9.5651 moveto /TeXGyrePagella-Regular 3.90625000 output-scale div selectfont
0.8877 0.0000 0.0000 /r
1.0584 0.0000 0.0000 /e
1.1609 0.0000 0.0000 /v
3 print_glyphs
17.1175 -4.6667 moveto magfontemmentaler-18mDWo /noteheads.s2 glyphshow 
17.1175 -3.6667 moveto magfontemmentaler-18mDWo /noteheads.s2 glyphshow 
14.4644 -17.5992 moveto 0.0500 3.0670 -0.0250 -1.7700 0.0800 draw_round_box
18.2366 -17.5992 moveto 0.0500 2.0670 -0.0250 3.7030 0.0800 draw_round_box
20.5990 -4.6667 moveto magfontemmentaler-18mDWo /noteheads.s2 glyphshow 
20.5990 -3.6667 moveto magfontemmentaler-18mDWo /noteheads.s2 glyphshow 
17.1825 -17.5992 moveto 0.0500 3.0670 -0.0250 -1.7700 0.0800 draw_round_box
20.0472 -9.5651 moveto /TeXGyrePagella-Regular 3.90625000 output-scale div selectfont
0.9560 0.0000 0.0000 /s
1.3316 0.0000 0.0000 /u
2 print_glyphs
20.5990 -14.0992 moveto magfontemmentaler-18mDWo /noteheads.s2 glyphshow 
20.5990 -16.0992 moveto magfontemmentaler-18mDWo /noteheads.s2 glyphshow 
stroke grestore
%%Trailer
%%EOF
