%!PS-Adobe-2.0 EPSF-2.0
%%Creator: LilyPond 2.18.2
%%BoundingBox: -9 -111 336 1
%%Orientation: Portrait
%%DocumentSuppliedResources: font Emmentaler-18
%%DocumentSuppliedResources: font TeXGyrePagella-Italic
%%DocumentSuppliedResources: font TeXGyrePagella-Regular
%%EndComments
%%BeginProlog
/lilypond-datadir where {pop} {userdict /lilypond-datadir (/usr/share/lilypond/2.18.2) put } ifelse
%%BeginFont: Emmentaler-18
lilypond-datadir (/fonts/otf/emmentaler-18.otf) concatstrings (r) file .loadfont
%%EndFont

%%BeginFont: TeXGyrePagella-Italic
(/usr/share/texmf/fonts/opentype/public/tex-gyre/texgyrepagella-italic.otf) (r) file .loadfont
%%EndFont

%%BeginFont: TeXGyrePagella-Regular
(/usr/share/texmf/fonts/opentype/public/tex-gyre/texgyrepagella-regular.otf) (r) file .loadfont
%%EndFont

/magfontemmentaler-18mDWo { /Emmentaler-18 6.3263 output-scale div selectfont } bind def
/lily-output-units 2.83464566929134 def %% millimeter
/staff-line-thickness 0.1 def
/line-width 67.3237795275591 def
/paper-size (a4) def
/staff-height 4.0 def
/output-scale 1.75729901757299 def
/page-height 169.00937007874 def
/page-width 119.50157480315 def
%%BeginResource: procset (music-drawing-routines.ps) 1 0
%!PS-Adobe-2.0
%
% Functions for direct and embedded PostScript

% Careful with double % as comment prefix.
% Any %%X comment is interpreted as DSC comments.

% TODO: use dicts or prefixes to prevent namespace pollution.

/pdfmark where
{pop} {userdict /pdfmark /cleartomark load put} ifelse


% llx lly urx ury URI
/mark_URI
{
    /uri exch def
    /ury exch def
    /urx exch def
    /lly exch def
    /llx exch def
    [
	/Rect [ llx lly urx ury ]
	
	/Border [ 0 0 0 ]

        /Action
	    <<
		/Subtype /URI
		/URI uri
	    >>
        /Subtype /Link
    /ANN
    pdfmark
}
bind def

% llx lly urx ury page
/mark_page_link
{
    /page exch def
    /ury exch def
    /urx exch def
    /lly exch def
    /llx exch def
    [
        /Rect [ llx lly urx ury ]
        /Border [ 0 0 0 ]
        /Page page
        /Subtype /Link
    /ANN
    pdfmark
}
bind def

% from adobe tech note 5002.
/BeginEPSF { %def
    /b4_Inc_state save def % Save state for cleanup
    /dict_count countdictstack def % Count objects on dict stack
    /op_count count 1 sub def % Count objects on operand stack
    userdict begin % Push userdict on dict stack
    /showpage { } def % Redefine showpage, { } = null proc
    0 setgray 0 setlinecap % Prepare graphics state
    1 setlinewidth 0 setlinejoin
    10 setmiterlimit [ ] 0 setdash newpath
    false setoverprint
} bind def

/EndEPSF { %def
  count op_count sub {pop} repeat % Clean up stacks
  countdictstack dict_count sub {end} repeat
  b4_Inc_state restore
} bind def

/stroke_and_fill? {
    {
	gsave
	    false setstrokeadjust
	    stroke
	grestore
	fill
    }
    {
	stroke
    }
    ifelse
} bind def

/vector_add { % x1 y1 x2 y2 vector_add x1+x2 y1+y2
	exch
	4 1 roll
	add
	3 1 roll
	add
	exch
} bind def

/draw_round_box % width height x y blot
{
    0 max setlinewidth
    matrix currentmatrix 5 1 roll
    currentpoint translate newpath translate
    2 copy 0 min exch 0 min exch translate
    abs exch abs exch
    currentlinewidth 0 eq
    { % straight corners
	2 copy 2 mul gt
	{ % horizontal
	    0 1 index 2 div moveto
	    setlinewidth
	    0 rlineto
	    0 setlinecap
	    stroke
	}
	{
	    2 copy exch 2 mul gt
	    { % vertical
		1 index 2 div 0 moveto
		exch setlinewidth
		0 exch rlineto
		0 setlinecap
		stroke
	    }
	    {
		0 0 4 2 roll rectfill
	    }
	    ifelse
	}
	ifelse
    }
    { % rounded corners
	2 copy 0 eq exch 0 eq or
	{ % line shape
	    0 0 moveto
	    rlineto
	    1 setlinecap
	    stroke
	    0 setlinecap
	}
	{ % full shape
	    currentstrokeadjust {
		currentlinewidth 2 div
		0 0 2 index 180 270 arc
		2 index 0 2 index 270 360 arc
		3 copy 0 90 arc
		0 2 index 3 -1 roll 90 180 arc
		closepath
		2 copy 2 mul gt
		{ % horizontal
		    2 copy add currentlinewidth add 10 add % large enough
		    0 1 index neg moveto
		    2 index 1 index neg lineto
		    2 index 1 index lineto
		    0 exch lineto closepath
		    gsave clip newpath
		    0 1 index 2 div moveto
		    currentlinewidth add setlinewidth
		    0 rlineto
		    2 setlinecap
		    stroke
		    grestore
		}
		{
		    2 copy exch 2 mul gt
		    { % vertical
			2 copy add currentlinewidth add 10 add % large enough
			dup neg 0 moveto
			dup 0 lineto
			dup 2 index lineto
			neg 1 index lineto closepath
			gsave clip newpath
			1 index 2 div 0 moveto
			exch currentlinewidth add setlinewidth
			0 exch rlineto
			2 setlinecap
			stroke
			grestore
		    }
		    {
			pop pop
			fill
		    }
		    ifelse
		}
		ifelse
		newpath
	    }
	    {
		1 setlinejoin
		0 0 4 2 roll 4 copy rectstroke rectfill
	    }
	    ifelse
	}
	ifelse
    }
    ifelse
    setmatrix
} bind def

/draw_polygon % fill? x(n) y(n) x(n-1) y(n-1) ... x(0) y(0) n blot
{
	setlinewidth %set to blot

	0 setlinecap
	1 setlinejoin

	3 1 roll
	/polygon_x
	currentpoint
	/polygon_y exch def
	def
	rmoveto % x(0) y(0)
	{ polygon_x polygon_y vector_add lineto } repeat % n times
	closepath
	stroke_and_fill?
} bind def

/draw_circle % filled? radius thickness draw_circle
{
	setlinewidth	% f? r
	currentpoint	% f? r x0 y0
	3 2 roll	% f? x0 y0 r
	dup 0 rmoveto
	0 360 arc closepath
	stroke_and_fill?
} bind def

/draw_ellipse % filled? x-radius y-radius thickness draw_ellipse
{
  setlinewidth % f? x-r y-r
  /savematrix matrix currentmatrix def
  scale % f?
  currentpoint
  1 0 rmoveto
  1 0 360  arc closepath
  savematrix setmatrix
  stroke_and_fill?
} bind def

/draw_partial_ellipse % filled connect x-radius y-radius startangle endangle thickness draw_partial_ellipse
% Note that filled is not boolean to permit for different graylevels (ie for trill keys)
{
  gsave
  currentpoint translate
  /thickness exch def
  /endangle exch def
  /startangle exch def
  /y_radius exch def
  /x_radius exch def
  /endrad x_radius y_radius mul
    x_radius x_radius mul
    endangle cos endangle cos mul mul
    y_radius y_radius mul
    endangle sin endangle sin mul mul add sqrt div def
  /endangle endangle sin endrad mul y_radius div
    endangle cos endrad mul x_radius div atan def
  /startrad x_radius y_radius mul
    x_radius x_radius mul
      startangle cos startangle cos mul mul
    y_radius y_radius mul
      startangle sin startangle sin mul mul add sqrt div def
  /startangle startangle sin startrad mul y_radius div
    startangle cos startrad mul x_radius div atan def
  /connect exch def
  /filled exch def
  /savematrix matrix currentmatrix def
  thickness setlinewidth
  x_radius y_radius scale
  startangle cos startangle sin moveto
  0 0 1 startangle
    startangle endangle eq { endangle 360 add } { endangle } ifelse
    arc
  connect {
    startangle cos startangle sin moveto endangle cos endangle sin lineto }
    if
  savematrix setmatrix filled stroke_and_fill?
  grestore
} bind def

/draw_line % dx dy x1 y1 thickness draw_line
{
	setlinewidth % dx dy x1 y1
	1 setlinecap
	rmoveto % dx dy
	rlineto
	stroke
} bind def

/draw_dashed_line % dx dy thickness dashpattern offset draw_dashed_line
{
	1 setlinecap
	setdash % dx dy thickness
	setlinewidth %dx dy
	rlineto
	stroke
	[] 0 setdash % reset dash pattern
} bind def

/print_glyphs % w dx dy glyph print_glyphs
{
	{
		currentpoint %w dx dy glyph x0 y0
		5 2 roll %w x0 y0 dx dy glyph
		3 1 roll %w x0 y0 glyph dx dy
		rmoveto %w x0 y0 glyph
		glyphshow %w x0 y0
		moveto %w
		0 rmoveto
	}repeat
}bind def
%end music-drawing-routines.ps

%%EndResource
%%BeginResource: procset (lilyponddefs.ps) 1 0
%!PS-Adobe-2.0: lilyponddefs.ps
%
% Functions for direct PostScript output

% /setgray { 1 add } bind def

/set-ps-scale-to-lily-scale {
	lily-output-units output-scale mul dup scale
} bind def


/init-paper {
	gsave
	clippath pathbbox newpath
	/paper-height exch def
	/paper-width exch def pop pop pop
	% FIXME
	/top-margin 2 def
	paper-width line-width sub 2 div /left-margin exch def
	grestore
} bind def

/init-lilypond-parameters {
	staff-line-thickness setlinewidth
	staff-height init-paper
} bind def


% end lilyponddefs.ps

%%EndResource
%%EndProlog
%%BeginSetup
init-lilypond-parameters
%%EndSetup

/mark_page_link { pop pop pop pop pop } bind def
gsave set-ps-scale-to-lily-scale
0.0000 -5.3500 moveto 67.2238 0.0000 0.0500 0.0000 0.1000 draw_line
0.0000 -4.3500 moveto 67.2238 0.0000 0.0500 0.0000 0.1000 draw_line
0.0000 -3.3500 moveto 67.2238 0.0000 0.0500 0.0000 0.1000 draw_line
0.0000 -2.3500 moveto 67.2238 0.0000 0.0500 0.0000 0.1000 draw_line
0.0000 -1.3500 moveto 67.2238 0.0000 0.0500 0.0000 0.1000 draw_line
0.0000 -19.7767 moveto 67.2238 0.0000 0.0500 0.0000 0.1000 draw_line
0.0000 -18.7767 moveto 67.2238 0.0000 0.0500 0.0000 0.1000 draw_line
0.0000 -17.7767 moveto 67.2238 0.0000 0.0500 0.0000 0.1000 draw_line
0.0000 -16.7767 moveto 67.2238 0.0000 0.0500 0.0000 0.1000 draw_line
0.0000 -15.7767 moveto 67.2238 0.0000 0.0500 0.0000 0.1000 draw_line
0.0000 -14.7767 moveto 1.4551 0.0000 16.1675 0.0000 0.2000 draw_round_box
0.0000 -14.7767 moveto 1.6821 0.0000 23.1850 0.0000 0.2000 draw_round_box
0.0000 -14.7767 moveto 1.5761 0.0000 55.0272 0.0000 0.2000 draw_round_box
0.0000 -14.7767 moveto 1.5761 0.0000 60.9825 0.0000 0.2000 draw_round_box
44.0189 -17.7767 moveto 0.0500 3.0670 -0.0250 -2.7700 0.0800 draw_round_box
45.0730 -17.7767 moveto 0.0500 2.0670 -0.0250 2.7030 0.0800 draw_round_box
44.0189 -3.3500 moveto 0.0500 2.2570 -0.0250 -4.4600 0.0800 draw_round_box
50.5712 -3.3500 moveto 0.0500 2.2570 -0.0250 -4.4600 0.0800 draw_round_box
51.6252 -17.7767 moveto 0.0500 2.0670 -0.0250 2.7030 0.0800 draw_round_box
51.6252 -3.3500 moveto 0.0500 2.7570 -0.0250 -0.7970 0.0800 draw_round_box
50.5062 -17.2767 moveto magfontemmentaler-18mDWo /noteheads.s2 glyphshow 
50.5062 -15.2767 moveto magfontemmentaler-18mDWo /noteheads.s2 glyphshow 
48.5887 -10.2426 moveto /TeXGyrePagella-Regular 3.90625000 output-scale div selectfont
1.3316 0.0000 0.0000 /p
1.9120 0.0000 0.0000 /m
1.0584 0.0000 0.0000 /e
0.7170 0.0000 0.0000 /t
4 print_glyphs
50.5062 -5.3500 moveto magfontemmentaler-18mDWo /noteheads.s2 glyphshow 
50.5062 -4.3500 moveto magfontemmentaler-18mDWo /noteheads.s2 glyphshow 
38.7674 -5.3500 moveto magfontemmentaler-18mDWo /noteheads.s2 glyphshow 
38.8324 -3.3500 moveto 0.0500 2.2570 -0.0250 -4.4600 0.0800 draw_round_box
39.8865 -3.3500 moveto 0.0500 2.7570 -0.0250 -0.7970 0.0800 draw_round_box
38.7674 -17.2767 moveto magfontemmentaler-18mDWo /noteheads.s2 glyphshow 
38.7674 -15.2767 moveto magfontemmentaler-18mDWo /noteheads.s2 glyphshow 
38.2156 -10.2426 moveto /TeXGyrePagella-Regular 3.90625000 output-scale div selectfont
0.9560 0.0000 0.0000 /s
1.3316 0.0000 0.0000 /u
2 print_glyphs
38.7674 -4.3500 moveto magfontemmentaler-18mDWo /noteheads.s2 glyphshow 
45.0730 -3.3500 moveto 0.0500 2.7570 -0.0250 -0.7970 0.0800 draw_round_box
43.9539 -17.2767 moveto magfontemmentaler-18mDWo /noteheads.s2 glyphshow 
43.9539 -15.2767 moveto magfontemmentaler-18mDWo /noteheads.s2 glyphshow 
42.1388 -10.2426 moveto /TeXGyrePagella-Regular 3.90625000 output-scale div selectfont
1.9462 0.0000 0.0000 /m
1.2292 0.0000 0.0000 /o
0.8877 0.0000 0.0000 /r
0.7512 0.0000 0.0000 /f
4 print_glyphs
43.9539 -5.3500 moveto magfontemmentaler-18mDWo /noteheads.s2 glyphshow 
43.9539 -4.3500 moveto magfontemmentaler-18mDWo /noteheads.s2 glyphshow 
38.8324 -17.7767 moveto 0.0500 3.0670 -0.0250 -2.7700 0.0800 draw_round_box
39.8865 -17.7767 moveto 0.0500 2.0670 -0.0250 2.7030 0.0800 draw_round_box
65.6338 -1.3500 moveto magfontemmentaler-18mDWo /scripts.rcomma glyphshow 
65.6338 -15.7767 moveto magfontemmentaler-18mDWo /scripts.rcomma glyphshow 
65.6338 -15.7767 moveto magfontemmentaler-18mDWo /scripts.rcomma glyphshow 
65.6338 -1.3500 moveto magfontemmentaler-18mDWo /scripts.rcomma glyphshow 
61.2435 -17.7767 moveto 0.0500 3.0903 -0.0250 -3.2933 0.0800 draw_round_box
62.2975 -17.7767 moveto 0.0500 2.2570 -0.0250 3.7030 0.0800 draw_round_box
53.9205 -10.2426 moveto 0.5800 0.0500 0.0400 0.4600 0.0800 draw_round_box
12.9083 -10.2426 moveto 0.5800 0.0500 0.0400 0.4600 0.0800 draw_round_box
8.8441 -1.3500 moveto true 3.7401 0.2000 3.7401 -0.2000 0.0400 -0.2000 0.0400 0.2000 3 0.0800 draw_polygon
7.7900 -7.8500 moveto true 3.7401 0.2000 3.7401 -0.2000 0.0400 -0.2000 0.0400 0.2000 3 0.0800 draw_polygon
8.8441 -12.9667 moveto true 3.7401 0.2000 3.7401 -0.2000 0.0400 -0.2000 0.0400 0.2000 3 0.0800 draw_polygon
7.7900 -20.5867 moveto true 3.7401 0.2000 3.7401 -0.2000 0.0400 -0.2000 0.0400 0.2000 3 0.0800 draw_polygon
57.8141 -10.2426 moveto 0.5800 0.0500 0.0400 0.4600 0.0800 draw_round_box
34.5325 -1.3500 moveto true 17.1177 0.2000 17.1177 -0.2000 0.0400 -0.2000 0.0400 0.2000 3 0.0800 draw_polygon
33.4784 -7.8500 moveto true 17.1177 0.2000 17.1177 -0.2000 0.0400 -0.2000 0.0400 0.2000 3 0.0800 draw_polygon
34.5325 -12.9667 moveto true 17.1177 0.2000 17.1177 -0.2000 0.0400 -0.2000 0.0400 0.2000 3 0.0800 draw_polygon
33.4784 -20.5867 moveto true 17.1177 0.2000 17.1177 -0.2000 0.0400 -0.2000 0.0400 0.2000 3 0.0800 draw_polygon
55.2232 -17.7767 moveto magfontemmentaler-18mDWo /noteheads.s2 glyphshow 
56.3422 -17.7767 moveto 0.0500 2.2570 -0.0250 3.7030 0.0800 draw_round_box
55.2882 -3.3500 moveto 0.0500 2.5903 -0.0250 -4.2933 0.0800 draw_round_box
56.3422 -3.3500 moveto 0.0500 3.2570 -0.0250 -0.2970 0.0800 draw_round_box
55.2232 -14.2767 moveto magfontemmentaler-18mDWo /noteheads.s2 glyphshow 
54.8933 -10.2426 moveto /TeXGyrePagella-Regular 3.90625000 output-scale div selectfont
1.1267 0.0000 0.0000 /a
0.7170 0.0000 0.0000 /t
2 print_glyphs
55.2232 -4.8500 moveto magfontemmentaler-18mDWo /noteheads.s2 glyphshow 
55.2232 -3.8500 moveto magfontemmentaler-18mDWo /noteheads.s2 glyphshow 
59.5512 -10.2426 moveto /TeXGyrePagella-Regular 3.90625000 output-scale div selectfont
0.5463 0.0000 0.0000 /comma
1.2974 0.0000 0.0000 /n
1.2292 0.0000 0.0000 /o
0.6487 0.0000 0.0000 /i
0.7170 0.0000 0.0000 /t
5 print_glyphs
61.2435 -3.3500 moveto 0.0500 2.5903 -0.0250 -4.2933 0.0800 draw_round_box
62.2975 -3.3500 moveto 0.0500 3.2570 -0.0250 -0.2970 0.0800 draw_round_box
61.1785 -17.7767 moveto magfontemmentaler-18mDWo /noteheads.s2 glyphshow 
61.1785 -14.2767 moveto magfontemmentaler-18mDWo /noteheads.s2 glyphshow 
50.5712 -17.7767 moveto 0.0500 3.0670 -0.0250 -2.7700 0.0800 draw_round_box
61.1785 -4.8500 moveto magfontemmentaler-18mDWo /noteheads.s2 glyphshow 
61.1785 -3.8500 moveto magfontemmentaler-18mDWo /noteheads.s2 glyphshow 
55.2882 -17.7767 moveto 0.0500 3.0903 -0.0250 -3.2933 0.0800 draw_round_box
11.4401 -5.3500 moveto magfontemmentaler-18mDWo /noteheads.s2 glyphshow 
11.5051 -3.3500 moveto 0.0500 2.2570 -0.0250 -4.4600 0.0800 draw_round_box
12.5591 -3.3500 moveto 0.0500 2.7570 -0.0250 -0.7970 0.0800 draw_round_box
11.4401 -17.2767 moveto magfontemmentaler-18mDWo /noteheads.s2 glyphshow 
11.4401 -15.2767 moveto magfontemmentaler-18mDWo /noteheads.s2 glyphshow 
11.4687 -10.2426 moveto /TeXGyrePagella-Regular 3.90625000 output-scale div selectfont
1.1267 0.0000 0.0000 /a
1 print_glyphs
11.4401 -4.3500 moveto magfontemmentaler-18mDWo /noteheads.s2 glyphshow 
7.8550 -17.7767 moveto 0.0500 3.0670 -0.0250 -2.7700 0.0800 draw_round_box
16.2425 -15.7767 moveto magfontemmentaler-18mDWo /noteheads.s2 glyphshow 
16.2425 -19.2767 moveto magfontemmentaler-18mDWo /noteheads.s2 glyphshow 
13.8811 -10.2426 moveto /TeXGyrePagella-Regular 3.90625000 output-scale div selectfont
0.7170 0.0000 0.0000 /t
0.9219 0.0000 0.0000 /s
1.2974 0.0000 0.0000 /n
0.6487 0.0000 0.0000 /i
1.1267 0.0000 0.0000 /a
1.1950 0.0000 0.0000 /g
6 print_glyphs
16.2425 -5.3500 moveto magfontemmentaler-18mDWo /noteheads.s2 glyphshow 
16.2425 -3.8500 moveto magfontemmentaler-18mDWo /noteheads.s2 glyphshow 
11.5051 -17.7767 moveto 0.0500 3.0670 -0.0250 -2.7700 0.0800 draw_round_box
12.5591 -17.7767 moveto 0.0500 2.0670 -0.0250 2.7030 0.0800 draw_round_box
4.3000 -16.7767 moveto magfontemmentaler-18mDWo /accidentals.sharp glyphshow 
0.8000 -16.7767 moveto magfontemmentaler-18mDWo /clefs.F glyphshow 
4.3000 -1.3500 moveto magfontemmentaler-18mDWo /accidentals.sharp glyphshow 
0.8000 -4.3500 moveto magfontemmentaler-18mDWo /clefs.G glyphshow 
-0.0600 -10.5634 moveto 0.0600 18.4267 0.0500 -9.2134 0.1000 draw_round_box
-1.3100 -1.0975 moveto magfontemmentaler-18mDWo /brackettips.up glyphshow 
-1.3100 -20.0292 moveto magfontemmentaler-18mDWo /brackettips.down glyphshow 
-1.3100 -10.5634 moveto 0.4500 18.6167 0.0000 -9.3084 0.0000 draw_round_box
8.9091 -17.7767 moveto 0.0500 2.0670 -0.0250 2.7030 0.0800 draw_round_box
7.8550 -3.3500 moveto 0.0500 2.2570 -0.0250 -4.4600 0.0800 draw_round_box
16.2425 -14.7767 moveto magfontemmentaler-18mDWo /noteheads.s2 glyphshow 
8.9091 -3.3500 moveto 0.0500 2.7570 -0.0250 -0.7970 0.0800 draw_round_box
7.7900 -17.2767 moveto magfontemmentaler-18mDWo /noteheads.s2 glyphshow 
7.7900 -15.2767 moveto magfontemmentaler-18mDWo /noteheads.s2 glyphshow 
6.9310 -10.2426 moveto /TeXGyrePagella-Regular 3.90625000 output-scale div selectfont
1.2974 0.0000 0.0000 /n
0.6487 0.0000 0.0000 /i
0.9560 0.0000 0.0000 /s
3 print_glyphs
7.7900 -5.3500 moveto magfontemmentaler-18mDWo /noteheads.s2 glyphshow 
7.7900 -4.3500 moveto magfontemmentaler-18mDWo /noteheads.s2 glyphshow 
33.4784 -5.3500 moveto magfontemmentaler-18mDWo /noteheads.s2 glyphshow 
34.5975 -3.3500 moveto 0.0500 2.7570 -0.0250 -0.7970 0.0800 draw_round_box
33.4784 -17.2767 moveto magfontemmentaler-18mDWo /noteheads.s2 glyphshow 
30.3103 -15.7767 moveto magfontemmentaler-18mDWo /scripts.rcomma glyphshow 
33.4784 -15.2767 moveto magfontemmentaler-18mDWo /noteheads.s2 glyphshow 
30.3103 -15.7767 moveto magfontemmentaler-18mDWo /scripts.rcomma glyphshow 
31.5609 -10.2426 moveto /TeXGyrePagella-Regular 3.90625000 output-scale div selectfont
1.3316 0.0000 0.0000 /p
1.0584 0.0000 0.0000 /e
1.0584 0.0000 0.0000 /e
1.5706 0.0000 0.0000 /K
4 print_glyphs
33.5434 -3.3500 moveto 0.0500 2.2570 -0.0250 -4.4600 0.0800 draw_round_box
30.3103 -1.3500 moveto magfontemmentaler-18mDWo /scripts.rcomma glyphshow 
33.4784 -4.3500 moveto magfontemmentaler-18mDWo /noteheads.s2 glyphshow 
30.3103 -1.3500 moveto magfontemmentaler-18mDWo /scripts.rcomma glyphshow 
17.3615 -3.3500 moveto 0.0500 3.2570 -0.0250 -0.2970 0.0800 draw_round_box
23.4637 -17.7767 moveto 0.0500 6.0234 -0.0250 -4.2933 0.0800 draw_round_box
33.5434 -17.7767 moveto 0.0500 3.0670 -0.0250 -2.7700 0.0800 draw_round_box
34.5975 -17.7767 moveto 0.0500 2.0670 -0.0250 2.7030 0.0800 draw_round_box
23.3987 -3.8500 moveto magfontemmentaler-18mDWo /noteheads.s1 glyphshow 
14.9025 -14.7767 moveto magfontemmentaler-18mDWo /accidentals.sharp glyphshow 
16.3075 -17.7767 moveto 0.0500 6.0903 -0.0250 -4.2933 0.0800 draw_round_box
24.5884 -17.7767 moveto 0.0500 2.1901 -0.0250 3.2699 0.0800 draw_round_box
17.3615 -17.7767 moveto 0.0500 2.2570 -0.0250 3.2030 0.0800 draw_round_box
16.3075 -3.3500 moveto 0.0500 2.4237 -0.0250 -4.6267 0.0800 draw_round_box
22.6091 -10.2426 moveto /TeXGyrePagella-Regular 3.90625000 output-scale div selectfont
0.5463 0.0000 0.0000 /period
0.9560 0.0000 0.0000 /s
1.3316 0.0000 0.0000 /u
3 print_glyphs
23.4637 -3.3500 moveto 0.0500 2.3568 -0.0250 -4.6267 0.0800 draw_round_box
24.5884 -3.3500 moveto 0.0500 3.1901 -0.0250 -0.2301 0.0800 draw_round_box
23.3987 -5.3500 moveto magfontemmentaler-18mDWo /noteheads.s1 glyphshow 
23.3987 -14.7767 moveto magfontemmentaler-18mDWo /noteheads.s1 glyphshow 
23.3987 -19.2767 moveto magfontemmentaler-18mDWo /noteheads.s1 glyphshow 
23.3987 -15.7767 moveto magfontemmentaler-18mDWo /noteheads.s1 glyphshow 
stroke grestore
%%Trailer
%%EOF
