
%% LilyPond file generated by Denemo version 2.0.8

%%http://www.gnu.org/software/denemo/

\version "2.18.0"

titledPiece = {}
AutoBarline = {}
AutoEndMovementBarline = \bar "|."
				% The music follows

MvmntIVoiceI = {
  \voiceOne a'4. f'8 g'4. d'8\AutoBarline
  d'2 r4 a'\AutoBarline
  d'' d'' c'' g'\AutoBarline
  a'1\AutoBarline
				%5
  a'4. f'8 g'4. d'8\AutoBarline
  d'2 r4 d'\AutoBarline
  f' f' e' c'\AutoBarline
  d'2. r4 \AutoEndMovementBarline
}


MvmntIVoiceILyricsVerseI = \lyricmode { 
  Bless the Lord, my soul,  and bless God's ho -- ly name. Bless the Lord, my soul,  who leads me in -- to life. 
}
MvmntIVoiceILyricsVerseII = \lyricmode { 
  
}


MvmntIVoiceII = {
  \voiceTwo f'4. f'8 d'4. d'8\AutoBarline
  d'2 r4 f'\AutoBarline
  f' f' e' e'\AutoBarline
  f'2( e')\AutoBarline
				%5
  f'4. f'8 d'4. d'8\AutoBarline
  d'2 r4 d'\AutoBarline
  d' d' c' c'\AutoBarline
  a2. r4 \AutoEndMovementBarline
}


MvmntIVoiceIII = {
  a4. a8 b4. g8\AutoBarline
  a2 r4 a\AutoBarline
  bes a g c'\AutoBarline
  c'2( cis')\AutoBarline
				%5
  d'4. a8 b4. g8\AutoBarline
  a2 r4 a\AutoBarline
  bes a g g\AutoBarline
  f2. r4 \AutoEndMovementBarline
}


MvmntIVoiceIV = {
  d4. d8 g4. g8\AutoBarline
  d2 r4 d\AutoBarline
  bes, bes, c c\AutoBarline
  f( g a2)\AutoBarline
				%5
  d4. d8 g4. g8\AutoBarline
  d2 r4 d\AutoBarline
  bes, bes, c e\AutoBarline
  d2. r4 \AutoEndMovementBarline
}



MvmntIVoiceIVerseIIContext = \context Lyrics = MvmntIVoiceIVerseII \lyricsto VoiceIMvmntI \MvmntIVoiceILyricsVerseII

MvmntIVoiceIVerseIContext = \context Lyrics = MvmntIVoiceIVerseI \lyricsto VoiceIMvmntI \MvmntIVoiceILyricsVerseI


#(set-global-staff-size 20)
\paper {
  myStaffSize = #18
    #(define fonts
    (make-pango-font-tree "TeX Gyre Pagella"
                          "TeX Gyre Pagella"
     "TeX Gyre Pagella"
     (/ myStaffSize 20)
                           ))
   indent = 0\cm} 
\score { %Start of Movement

  <<

    \new ChoirStaff <<
      \new Staff = "SA"  <<
	\accidentalStyle modern 
	\new Voice = "VoiceIMvmntI"  { 
	  \clef treble    \key f \major    \time 4/4   \MvmntIVoiceI
	} %End of voice
	\new Voice = "VoiceIIMvmntI"  { 
	  \MvmntIVoiceII
	} %End of voice

      >> %End of Staff

      \new Lyrics = MvmntIVoiceIVerseI

      \MvmntIVoiceIVerseIContext

      \new Lyrics = MvmntIVoiceIVerseII

      \MvmntIVoiceIVerseIIContext

				%Start of Staff
      \new Staff = "Tenor"  <<
	\new Voice = "VoiceIIIMvmntI"  { \voiceOne
					 \clef bass    \key f \major    \time 4/4   \MvmntIVoiceIII
				       } %End of voice
	\new Voice = "VoiceIVMvmntI"  { \voiceTwo
	  \MvmntIVoiceIV
	} %End of voice

      >> %End of Staff
    >>

  >>
  \midi { }
  \layout { }
}




