,Introduction,Hymn,Psalms,Antiphon1,Antiphon2,Responsory,Nunc,Antiphon
"Saturdays or Vigils of Solemnities",intro-OT,jesus_to_us,2,"Alleluia, \* alleluia, alleluia.",,into_your-TP,nunc_english-OT,regina
"Sundays or Solemnities",intro-OT,jesus_to_us,1,"Alleluia, \* alleluia, alleluia.",,into_your-TP,nunc_english-OT,regina
Mondays,intro-OT,jesus_to_us,1,"Alleluia, \* alleluia, alleluia.",,into_your-TP,nunc_english-OT,regina
Tuesdays,intro-OT,jesus_to_us,1,"Alleluia, \* alleluia, alleluia.",,into_your-TP,nunc_english-OT,regina
Wednesdays,intro-OT,jesus_to_us,2,"Alleluia, \* alleluia, alleluia.",,into_your-TP,nunc_english-OT,regina
Thursdays,intro-OT,jesus_to_us,1,"Alleluia, \* alleluia, alleluia.",,into_your-TP,nunc_english-OT,regina
Fridays,intro-OT,jesus_to_us,1,"Alleluia, \* alleluia, alleluia.",,into_your-TP,nunc_english-OT,regina
