,introduction,Hymn,Psalms,Antiphon1,Antiphon2,Responsory,Nunc,Antiphon
"Saturdays or Vigils of Solemnities",intro-TQ,o_christ,2,"Lord, have mercy \* and hear me.",Bless the Lord \* through the night.,into_your-TQ,nunc_english-OT,ave
"Sundays or Solemnities",intro-TQ,o_christ,1,He will conceal you with his wings; \* you will not fear the terror of the night.,,into_your-TQ,nunc_english-OT,ave
Mondays,intro-TQ,o_christ,1,"You, Lord God, are slow to anger, \* abounding in love.",,into_your-TQ,nunc_english-OT,ave
Tuesdays,intro-TQ,o_christ,1,"Do not hid your face from me, \* for in you have I put my trust.",,into_your-TQ,nunc_english-OT,ave
Wednesdays,intro-TQ,o_christ,2,"O God, be my protector \* and my refuge.","Out of the depths \* I cry to you, O Lord.",into_your-TQ,nunc_english-OT,ave
Thursdays,intro-TQ,o_christ,1,My body \* shall rest in safety.,,into_your-TQ,nunc_english-OT,ave
Fridays,intro-TQ,o_christ,1,"Lord my God, I call for help by day; \* I cry at night before you. \+",,into_your-TQ,nunc_english-OT,ave
