
%% LilyPond file generated by Denemo version 2.2.0

%%http://www.gnu.org/software/denemo/

\version "2.18.0"

% The music follows

MvmntIVoiceII = {
         \tempo "Larghetto Sostenuto" f'1
         f'2 ees'
         d' ees'
         f' d'
%5
         ees' d'
         r1
         g'4( ees') c'( c'')
         a' f' g' a'
         bes'2 bes'
%10
         bes'1
	  a'4 g' f' e'
	  f'4( a'2) a'4
         bes' a'8( g') f'4 e'
         f'1
%15
	  r4 r8 ees' d'( f') bes'\noBeam bes'
         a'4 a'8 bes' c''4 a'
         bes'1\<
         a'4 \! g' f' e'
         f'( a'2) a'4
%20
         bes' a'8( g') f'4 e'
	  f'1 \bar "||"
	  \time 2/4  R1*2/4
         R1*2/4
         d''4. ees''16( c'')
%25
         bes'4 bes'
         a' bes'          c''4 bes'
         a'8( bes') bes'( c'')
         c''2
%30
         d''4. ees''16( c'')
         bes'4 bes'
         R1*2/4
         R1*2/4
         g'4-! c''-!
%35
         a'-! bes'-!
         bes'( a'8) a'
         bes'2
         r4 c''8 bes'
         a'4 bes'
%40
         bes'(\fermata a'8.) bes'16
         bes'2 \bar "|."
}


MvmntIVoiceI = {
         d''1
         d''2 c''
         bes' c''
         d'' bes'
%5
         g' f'
         f''4( d'') bes'2
         g'( ees''
         ees''4) a' bes' c''
         d''2 bes'
%10
         d''1
         c''4 bes' a' g'
         a'2 f''
         \grace {e''16}  c''4 bes'8( a') g'4 f'
         f'2 r4 f'
%15
         f'8( a') c''4 r r8 d''
         c''4 c''8 d'' ees''4 c''
         d''1\<
         c''4\! bes' a' g'
         a'2 f''
%20
         \grace {e''16}  d''4 c''8( bes') a'4 g'
         f'1
         \time 2/4\tempo "Allegro"  d''4. ees''16( c'')
         bes'4 bes'
	 R1*2/4
         %d''4. ees''16( c'')
%25
				%bes'4 bes'
	 R1*2/4
	 c''4 d''
         ees'' d''
         c''8( d'') d''( ees'')
         ees''2
%30
	 R1*2/4
	 R1*2/4
         %d''4. ees''16( c'')
         %bes'4 bes'
         d''4. ees''16( c'')
         bes'4 bes'
         ees''-! ees''-!
%35
         ees''-! d''-!
         c''( c''8) c''
         bes'2
         ees''4 ees''
         ees'' d''
%40
         d''(\fermata c''8.) bes'16
         bes'2 
}

voiceOneLyrics = \lyricmode {
  O Je -- su De -- us De -- us mag -- ne!
  Pas -- tor bo -- ne! dul -- cis ag -- ne!
  O Je -- su, Je -- su mi, O Je -- su, Je -- su mi,
  O Je -- su, O pa -- nis, O man -- na,
  O Je -- su, Je -- su mi, O Je -- su, Je -- su mi.

  O Po -- tes -- tas, quid non præ -- stas Ho -- mi -- ni?  Quid non
  præ -- stas, quid non præ -- stas Ho -- mi -- ni
  quid non præ stas  Ho -- mi -- ni.  }
voiceTwoLyrics = \lyricmode {
  O Je -- su De -- us De -- us mag -- ne!
  Pas -- tor bo -- ne! dul -- cis ag -- ne!
  O Je -- su, Je -- su mi, O Je -- su, Je -- su mi,
  O Je -- su, O pa -- nis, O man -- na,
  O Je -- su, Je -- su mi, O Je -- su, Je -- su mi.

  Quid non præ -- stas, quid non præ -- stas Ho -- mi -- ni?  Quid non
  præ -- stas, quid non præ -- stas Ho -- mi -- ni
  quid non præ stas  Ho -- mi -- ni.  }




%Default Score Layout
\header{}

\layout {indent = 12.6}
#(set-default-paper-size "a4")
#(set-global-staff-size 20)
\paper {

       }

\score { %Start of Movement
          <<

%Start of Staff
\new Staff = "Voice 1" \with { instrumentName = "Voice 1"} << 
 \new Voice = "MvmntIVoiceI"  { 
  \clef treble    \key bes \major    \time 4/4   \MvmntIVoiceI
                        } %End of voice

>> %End of Staff
\new Lyrics \lyricsto "MvmntIVoiceI" \voiceOneLyrics

%Start of Staff
  \new Staff = "Voice 2" \with { instrumentName = "Voice 2" } << 
 \new Voice = "MvmntIVoiceII"  { 
  \clef treble    \key bes \major    \time 4/4   \MvmntIVoiceII
                        } %End of voice

                        >> %End of Staff
\new Lyrics \lyricsto "MvmntIVoiceII" \voiceTwoLyrics

          >>

       } %End of Movement



