<?xml version="1.0" encoding="UTF-8"?>
<svg xmlns="http://www.w3.org/2000/svg" xmlns:xlink="http://www.w3.org/1999/xlink" width="348pt" height="104pt" viewBox="0 0 348 104" version="1.1">
<defs>
<g>
<symbol overflow="visible" id="glyph0-0">
<path style="stroke:none;" d="M 2 0 L 17.9375 0 L 17.9375 -19.28125 L 2 -19.28125 Z M 3.984375 -2 L 3.984375 -17.296875 L 15.9375 -17.296875 L 15.9375 -2 Z M 3.984375 -2 "/>
</symbol>
<symbol overflow="visible" id="glyph0-1">
<path style="stroke:none;" d="M 0.59375 0.125 C 2.03125 0.046875 3.5 0 4.9375 0 C 6.53125 0 8.171875 0.046875 9.765625 0.125 L 9.765625 -1.078125 L 8.28125 -1.203125 C 6.890625 -1.3125 6.375 -1.59375 6.375 -2.234375 C 6.375 -2.75 6.9375 -4.46875 7.765625 -6.453125 L 8.890625 -9.125 L 20.359375 -9.125 L 22.1875 -4.546875 C 22.875 -2.875 23.03125 -2.34375 23.03125 -2 C 23.03125 -1.546875 22.390625 -1.28125 21.390625 -1.203125 L 19.53125 -1.078125 L 19.53125 0.125 C 21.359375 0.046875 23.234375 0 25.0625 0 C 26.734375 0 28.453125 0.046875 30.125 0.125 L 30.125 -1.078125 L 28.765625 -1.203125 C 27.734375 -1.28125 27.296875 -2.03125 25.90625 -5.265625 L 16.25 -27.890625 L 14.984375 -27.890625 C 14.984375 -27.890625 14.546875 -26.53125 13.03125 -23.15625 L 4.21875 -3.140625 C 3.703125 -2 2.953125 -1.28125 2.078125 -1.203125 L 0.59375 -1.078125 Z M 9.5625 -10.71875 L 14.625 -22.59375 L 19.640625 -10.71875 Z M 9.5625 -10.71875 "/>
</symbol>
<symbol overflow="visible" id="glyph1-0">
<path style="stroke:none;" d="M 0.5 0 L 4.484375 0 L 4.484375 -4.828125 L 0.5 -4.828125 Z M 1 -0.5 L 1 -4.328125 L 3.984375 -4.328125 L 3.984375 -0.5 Z M 1 -0.5 "/>
</symbol>
<symbol overflow="visible" id="glyph1-1">
<path style="stroke:none;" d="M 0.390625 0.03125 C 0.90625 0.015625 1.421875 0 1.9375 0 C 2.453125 0 2.96875 0.015625 3.484375 0.03125 L 3.484375 -0.375 L 3.125 -0.40625 C 2.65625 -0.4375 2.640625 -0.453125 2.640625 -1.34375 L 2.640625 -5.40625 C 2.640625 -6.296875 2.65625 -6.3125 3.125 -6.359375 L 3.484375 -6.390625 L 3.484375 -6.78125 C 2.96875 -6.765625 2.453125 -6.765625 1.9375 -6.765625 C 1.421875 -6.765625 0.90625 -6.765625 0.390625 -6.78125 L 0.390625 -6.390625 L 0.75 -6.359375 C 1.21875 -6.3125 1.234375 -6.296875 1.234375 -5.40625 L 1.234375 -1.34375 C 1.234375 -0.453125 1.21875 -0.4375 0.75 -0.40625 L 0.390625 -0.375 Z M 0.390625 0.03125 "/>
</symbol>
<symbol overflow="visible" id="glyph1-2">
<path style="stroke:none;" d="M 0.203125 -6.421875 L 0.609375 -6.390625 C 0.859375 -6.375 1.015625 -6.1875 1.21875 -5.671875 L 3.609375 0.03125 L 4.359375 0.03125 C 4.5 -0.296875 4.609375 -0.640625 4.75 -0.953125 L 6.8125 -5.921875 C 6.953125 -6.234375 7.078125 -6.375 7.28125 -6.390625 L 7.609375 -6.421875 L 7.609375 -6.78125 C 7.21875 -6.765625 6.84375 -6.765625 6.453125 -6.765625 C 6.078125 -6.765625 5.6875 -6.765625 5.296875 -6.78125 L 5.296875 -6.421875 L 5.765625 -6.390625 C 5.984375 -6.375 6.125 -6.28125 6.125 -6.125 C 6.125 -5.984375 6.03125 -5.671875 5.828125 -5.140625 L 4.40625 -1.625 L 2.84375 -5.484375 C 2.625 -5.984375 2.625 -6.015625 2.625 -6.203125 C 2.625 -6.296875 2.75 -6.375 2.890625 -6.390625 L 3.390625 -6.421875 L 3.390625 -6.78125 C 2.84375 -6.765625 2.3125 -6.765625 1.78125 -6.765625 C 1.25 -6.765625 0.734375 -6.765625 0.203125 -6.78125 Z M 0.203125 -6.421875 "/>
</symbol>
<symbol overflow="visible" id="glyph1-3">
<path style="stroke:none;" d="M 0.234375 0.03125 C 0.625 0.015625 0.984375 0 1.359375 0 C 1.75 0 2.109375 0.015625 2.5 0.03125 L 2.5 -0.34375 L 2 -0.375 C 1.6875 -0.390625 1.671875 -0.71875 1.75 -0.9375 L 2.171875 -2.046875 L 4.671875 -2.046875 L 5.125 -0.921875 C 5.1875 -0.75 5.25 -0.390625 4.984375 -0.375 L 4.453125 -0.34375 L 4.453125 0.03125 C 4.96875 0.015625 5.46875 0 5.96875 0 C 6.5 0 7.015625 0.015625 7.546875 0.03125 L 7.546875 -0.34375 L 7.3125 -0.375 C 7.03125 -0.40625 6.890625 -0.515625 6.765625 -0.8125 L 4.171875 -6.84375 L 3.46875 -6.84375 L 2.90625 -5.328125 L 1.09375 -0.96875 C 0.9375 -0.578125 0.75 -0.390625 0.53125 -0.375 L 0.234375 -0.34375 Z M 2.40625 -2.609375 L 3.40625 -5.140625 L 4.453125 -2.609375 Z M 2.40625 -2.609375 "/>
</symbol>
<symbol overflow="visible" id="glyph1-4">
<path style="stroke:none;" d="M 0.21875 -3.640625 L 0.859375 -3.671875 L 0.859375 -1.09375 C 0.859375 -0.203125 1.21875 0.171875 2.09375 0.171875 C 2.40625 0.171875 2.65625 0.09375 2.734375 -0.015625 L 3.234375 -0.59375 L 3.15625 -0.78125 C 2.9375 -0.6875 2.84375 -0.65625 2.6875 -0.65625 C 2.21875 -0.65625 2.078125 -0.8125 2.078125 -1.3125 L 2.078125 -3.671875 L 3.125 -3.671875 L 3.203125 -4.328125 C 2.828125 -4.28125 2.453125 -4.265625 2.078125 -4.265625 L 2.078125 -4.84375 C 2.078125 -5.375 2.109375 -5.703125 2.1875 -6.203125 L 2.046875 -6.296875 C 1.65625 -6.109375 1.34375 -5.984375 0.84375 -5.796875 C 0.875 -5.28125 0.875 -5.09375 0.875 -4.890625 L 0.875 -4.28125 L 0.21875 -3.859375 Z M 0.21875 -3.640625 "/>
</symbol>
<symbol overflow="visible" id="glyph1-5">
<path style="stroke:none;" d="M 0.40625 -2.234375 C 0.40625 -0.703125 1.21875 0.171875 2.65625 0.171875 C 4.25 0.171875 5.15625 -0.734375 5.15625 -2.359375 C 5.15625 -3.875 4.34375 -4.6875 2.859375 -4.6875 C 1.28125 -4.6875 0.40625 -3.8125 0.40625 -2.234375 Z M 1.75 -2.46875 C 1.75 -3.671875 2.046875 -4.21875 2.734375 -4.21875 C 3.453125 -4.21875 3.796875 -3.515625 3.796875 -2.046875 C 3.796875 -0.828125 3.515625 -0.3125 2.84375 -0.3125 C 2.125 -0.3125 1.75 -1.03125 1.75 -2.46875 Z M 1.75 -2.46875 "/>
</symbol>
<symbol overflow="visible" id="glyph1-6">
<path style="stroke:none;" d="M 0.34375 0.03125 C 0.765625 0.015625 1.203125 0 1.625 0 C 2.078125 0 2.515625 0.015625 2.96875 0.03125 L 2.96875 -0.34375 L 2.625 -0.359375 C 2.3125 -0.375 2.265625 -0.453125 2.265625 -1 L 2.265625 -4.640625 L 2.15625 -4.6875 C 2.15625 -4.6875 1.75 -4.546875 1.46875 -4.46875 C 1.09375 -4.375 0.90625 -4.34375 0.484375 -4.28125 L 0.34375 -4.265625 L 0.34375 -3.90625 L 0.78125 -3.875 C 1.015625 -3.859375 1.046875 -3.765625 1.046875 -3.1875 L 1.046875 -1 C 1.046875 -0.453125 1 -0.375 0.6875 -0.359375 L 0.34375 -0.34375 Z M 0.984375 -5.984375 C 0.984375 -5.609375 1.28125 -5.296875 1.65625 -5.296875 C 2.03125 -5.296875 2.328125 -5.609375 2.328125 -5.96875 C 2.328125 -6.328125 2.03125 -6.640625 1.671875 -6.640625 C 1.28125 -6.640625 0.984375 -6.34375 0.984375 -5.984375 Z M 0.984375 -5.984375 "/>
</symbol>
<symbol overflow="visible" id="glyph1-7">
<path style="stroke:none;" d="M 0.234375 0.03125 C 0.671875 0.015625 1.09375 0 1.53125 0 C 1.96875 0 2.421875 0.015625 2.875 0.03125 L 2.875 -0.34375 L 2.515625 -0.359375 C 2.21875 -0.375 2.15625 -0.453125 2.15625 -1 L 2.15625 -3.15625 C 2.15625 -3.515625 2.578125 -3.84375 3.015625 -3.84375 C 3.671875 -3.84375 3.953125 -3.484375 3.953125 -2.6875 L 3.953125 0.03125 C 4.25 0.015625 4.546875 0 4.84375 0 C 5.1875 0 5.515625 0.015625 5.859375 0.03125 L 5.859375 -0.34375 L 5.515625 -0.359375 C 5.21875 -0.375 5.15625 -0.453125 5.15625 -1 L 5.15625 -2.84375 C 5.15625 -3.625 5.078125 -4 4.8125 -4.28125 C 4.5625 -4.546875 4.140625 -4.6875 3.65625 -4.6875 C 3.359375 -4.6875 3.125 -4.640625 2.953125 -4.5 L 2.15625 -3.890625 L 2.15625 -4.640625 L 2.109375 -4.6875 C 1.0625 -4.359375 0.78125 -4.296875 0.234375 -4.265625 L 0.234375 -3.90625 L 0.6875 -3.875 C 0.921875 -3.859375 0.953125 -3.765625 0.953125 -3.1875 L 0.953125 -1 C 0.953125 -0.453125 0.890625 -0.375 0.59375 -0.359375 L 0.234375 -0.34375 Z M 0.234375 0.03125 "/>
</symbol>
<symbol overflow="visible" id="glyph1-8">
<path style="stroke:none;" d="M 0.265625 1.234375 C 0.265625 2.109375 1.09375 2.65625 2.40625 2.65625 C 4.15625 2.65625 5.328125 1.75 5.328125 0.421875 C 5.328125 -0.421875 4.859375 -0.8125 3.859375 -0.8125 L 3.625 -0.8125 L 2.15625 -0.78125 C 1.859375 -0.765625 1.6875 -0.875 1.6875 -1.078125 C 1.6875 -1.21875 1.78125 -1.34375 1.984375 -1.46875 C 2.15625 -1.453125 2.265625 -1.453125 2.375 -1.453125 C 3.078125 -1.453125 3.703125 -1.671875 4.109375 -2.078125 C 4.421875 -2.390625 4.5625 -2.734375 4.5625 -3.234375 C 4.5625 -3.40625 4.546875 -3.515625 4.5 -3.703125 L 5.28125 -3.671875 L 5.328125 -4.3125 C 4.921875 -4.265625 4.71875 -4.25 4.5 -4.25 C 4.421875 -4.25 4.3125 -4.25 4.140625 -4.265625 C 3.734375 -4.5625 3.265625 -4.6875 2.625 -4.6875 C 1.359375 -4.6875 0.46875 -3.953125 0.46875 -2.90625 C 0.46875 -2.546875 0.59375 -2.21875 0.84375 -1.953125 C 1.03125 -1.75 1.171875 -1.671875 1.53125 -1.546875 L 0.8125 -1 C 0.71875 -0.9375 0.640625 -0.734375 0.640625 -0.53125 C 0.640625 -0.171875 0.828125 0.015625 1.328125 0.140625 L 0.515625 0.625 C 0.375 0.703125 0.265625 0.96875 0.265625 1.234375 Z M 1.203125 1.109375 C 1.203125 0.75 1.40625 0.40625 1.703125 0.265625 C 1.859375 0.171875 2.21875 0.15625 2.71875 0.15625 C 3.921875 0.15625 4.234375 0.3125 4.234375 0.953125 C 4.234375 1.640625 3.5625 2.15625 2.671875 2.15625 C 1.78125 2.15625 1.203125 1.734375 1.203125 1.109375 Z M 1.6875 -3.09375 C 1.6875 -3.8125 1.96875 -4.203125 2.515625 -4.203125 C 3.046875 -4.203125 3.328125 -3.765625 3.328125 -2.984375 C 3.328125 -2.265625 3.0625 -1.90625 2.53125 -1.90625 C 2.015625 -1.90625 1.6875 -2.359375 1.6875 -3.09375 Z M 1.6875 -3.09375 "/>
</symbol>
<symbol overflow="visible" id="glyph2-0">
<path style="stroke:none;" d="M 0.859375 0 L 0.859375 -17.21875 L 7.703125 -17.21875 L 7.703125 0 Z M 1.703125 -0.859375 L 6.84375 -0.859375 L 6.84375 -16.359375 L 1.703125 -16.359375 Z M 1.703125 -0.859375 "/>
</symbol>
<symbol overflow="visible" id="glyph2-1">
<path style="stroke:none;" d="M 0 -1.703125 L 0 -10.125 C 0 -10.988281 0.25 -11.648438 0.75 -12.109375 C 1.25 -12.566406 1.929688 -12.796875 2.796875 -12.796875 C 3.273438 -12.773438 3.644531 -12.644531 3.90625 -12.40625 C 4.164062 -12.175781 4.296875 -11.882812 4.296875 -11.53125 L 4.296875 -6.984375 L 4.03125 -7.203125 C 3.53125 -7.648438 2.894531 -7.875 2.125 -7.875 C 1.601562 -7.875 1.160156 -7.6875 0.796875 -7.3125 C 0.441406 -6.9375 0.265625 -6.472656 0.265625 -5.921875 C 0.265625 -5.367188 0.441406 -4.898438 0.796875 -4.515625 C 1.160156 -4.140625 1.601562 -3.953125 2.125 -3.953125 C 2.914062 -3.953125 3.550781 -4.160156 4.03125 -4.578125 L 4.296875 -4.828125 L 4.296875 -0.265625 C 4.296875 0.148438 4.144531 0.46875 3.84375 0.6875 C 3.550781 0.914062 3.203125 1.03125 2.796875 1.03125 C 1.929688 1.019531 1.25 0.773438 0.75 0.296875 C 0.25 -0.171875 0 -0.835938 0 -1.703125 Z M 0 -1.703125 "/>
</symbol>
<symbol overflow="visible" id="glyph2-2">
<path style="stroke:none;" d="M 2.125 -4.375 C 3.570312 -4.375 4.296875 -3.96875 4.296875 -3.15625 L 4.296875 0.9375 C 3.828125 0.445312 3.109375 0.203125 2.140625 0.203125 C 1.179688 0.203125 0.46875 0.445312 0 0.9375 L 0 -3.15625 C 0 -3.96875 0.707031 -4.375 2.125 -4.375 Z M 2.125 -4.375 "/>
</symbol>
<symbol overflow="visible" id="glyph2-3">
<path style="stroke:none;" d="M 3.3125 0.703125 C 3.21875 0.703125 3.035156 0.695312 2.765625 0.6875 C 2.492188 0.675781 2.25 0.671875 2.03125 0.671875 C 1.8125 0.671875 1.5625 0.675781 1.28125 0.6875 C 1 0.695312 0.8125 0.703125 0.71875 0.703125 C 0.414062 0.703125 0.21875 0.6875 0.125 0.65625 C 0.0390625 0.632812 0 0.570312 0 0.46875 L 0 -3 C 0 -3.15625 0.0507812 -3.234375 0.15625 -3.234375 L 0.265625 -3.234375 C 0.378906 -3.210938 0.9375 -3.203125 1.9375 -3.203125 L 2.796875 -3.203125 C 3.097656 -3.203125 3.304688 -3.207031 3.421875 -3.21875 C 3.535156 -3.226562 3.628906 -3.257812 3.703125 -3.3125 C 3.785156 -3.375 3.828125 -3.484375 3.828125 -3.640625 C 3.828125 -4.421875 3.316406 -4.8125 2.296875 -4.8125 C 1.472656 -4.8125 0.800781 -4.628906 0.28125 -4.265625 L 0.28125 -7.59375 C 0.28125 -8.457031 0.953125 -8.890625 2.296875 -8.890625 C 2.828125 -8.890625 3.289062 -8.789062 3.6875 -8.59375 C 4.09375 -8.394531 4.296875 -8.0625 4.296875 -7.59375 L 4.296875 0.4375 C 4.296875 0.539062 4.226562 0.609375 4.09375 0.640625 C 3.96875 0.679688 3.707031 0.703125 3.3125 0.703125 Z M 3.3125 0.703125 "/>
</symbol>
<symbol overflow="visible" id="glyph2-4">
<path style="stroke:none;" d="M 0 -17.65625 L 0.484375 -17.65625 L 0.484375 -9.40625 C 0.242188 -9.425781 0.0820312 -9.488281 0 -9.59375 Z M 0 -17.65625 "/>
</symbol>
<symbol overflow="visible" id="glyph2-5">
<path style="stroke:none;" d="M 0.484375 -9.96875 L 0.484375 7.578125 C 0.234375 7.585938 0.0703125 7.613281 0 7.65625 L 0 -9.890625 C 0.0820312 -9.941406 0.242188 -9.96875 0.484375 -9.96875 Z M 0.484375 -9.96875 "/>
</symbol>
<symbol overflow="visible" id="glyph2-6">
<path style="stroke:none;" d="M 0 0 L 0 -4.625 C 0.238281 -4.414062 0.453125 -4.273438 0.640625 -4.203125 C 0.835938 -4.140625 1.113281 -4.109375 1.46875 -4.109375 L 1.46875 -9.828125 C 1.46875 -10.148438 1.53125 -10.3125 1.65625 -10.3125 L 1.6875 -10.3125 C 1.820312 -10.289062 1.890625 -10.015625 1.890625 -9.484375 L 1.890625 1.265625 C 0.628906 1.078125 0 0.65625 0 0 Z M 0 0 "/>
</symbol>
<symbol overflow="visible" id="glyph2-7">
<path style="stroke:none;" d="M 0 -14.234375 L 0.484375 -14.234375 L 0.484375 10.5625 L 0 10.5625 Z M 0 -14.234375 "/>
</symbol>
<symbol overflow="visible" id="glyph3-0">
<path style="stroke:none;" d="M 0.5 0 L 4.484375 0 L 4.484375 -4.828125 L 0.5 -4.828125 Z M 1 -0.5 L 1 -4.328125 L 3.984375 -4.328125 L 3.984375 -0.5 Z M 1 -0.5 "/>
</symbol>
<symbol overflow="visible" id="glyph3-1">
<path style="stroke:none;" d="M 0.21875 -3.765625 L 0.984375 -3.8125 L 0.984375 -0.9375 C 0.984375 -0.203125 1.3125 0.125 2.078125 0.125 C 2.296875 0.125 2.546875 0.0625 2.609375 0 L 3.078125 -0.53125 L 2.953125 -0.703125 C 2.703125 -0.5625 2.546875 -0.515625 2.359375 -0.515625 C 1.96875 -0.515625 1.8125 -0.703125 1.8125 -1.203125 L 1.8125 -3.8125 L 3.09375 -3.8125 L 3.1875 -4.34375 L 1.8125 -4.28125 L 1.8125 -4.671875 C 1.8125 -5.078125 1.84375 -5.4375 1.921875 -6.078125 L 1.796875 -6.1875 C 1.5625 -6.046875 1.265625 -5.90625 0.953125 -5.8125 C 0.984375 -5.515625 1 -5.328125 1 -5.03125 L 1 -4.328125 L 0.21875 -3.984375 Z M 0.21875 -3.765625 "/>
</symbol>
<symbol overflow="visible" id="glyph3-2">
<path style="stroke:none;" d="M 0.203125 0.03125 C 0.625 0.015625 1.03125 0 1.453125 0 C 1.875 0 2.28125 0.015625 2.703125 0.03125 L 2.703125 -0.265625 L 2.25 -0.296875 C 1.90625 -0.3125 1.875 -0.390625 1.875 -1.015625 L 1.875 -7.15625 L 1.78125 -7.234375 C 1.34375 -7.0625 1.015625 -6.984375 0.234375 -6.875 L 0.234375 -6.59375 L 0.78125 -6.59375 C 0.96875 -6.59375 1.03125 -6.484375 1.03125 -6.1875 L 1.03125 -1.015625 C 1.03125 -0.390625 1 -0.3125 0.671875 -0.296875 L 0.203125 -0.265625 Z M 0.203125 0.03125 "/>
</symbol>
<symbol overflow="visible" id="glyph3-3">
<path style="stroke:none;" d="M 0.3125 -1.109375 C 0.3125 -0.328125 0.78125 0.125 1.578125 0.125 C 1.75 0.125 1.921875 0.09375 2 0.046875 L 3.234375 -0.8125 L 3.1875 0.03125 C 3.4375 0.015625 3.703125 0 3.953125 0 C 4.203125 0 4.453125 0.015625 4.6875 0.03125 L 4.6875 -0.265625 L 4.3125 -0.296875 C 4.0625 -0.296875 4.03125 -0.375 4.03125 -0.875 L 4.03125 -2.6875 C 4.03125 -4.140625 3.609375 -4.671875 2.453125 -4.671875 C 2.03125 -4.671875 1.625 -4.5625 1.25 -4.34375 L 0.71875 -4.015625 L 0.71875 -3.375 L 0.984375 -3.296875 L 1.109375 -3.609375 C 1.3125 -4.078125 1.421875 -4.140625 1.875 -4.140625 C 2.8125 -4.140625 3.203125 -3.78125 3.234375 -2.875 L 2.25 -2.6875 C 0.890625 -2.4375 0.3125 -1.96875 0.3125 -1.109375 Z M 1.171875 -1.25 C 1.171875 -1.609375 1.375 -1.96875 1.671875 -2.15625 C 1.921875 -2.296875 2.46875 -2.4375 3.234375 -2.546875 L 3.234375 -1.234375 C 2.9375 -0.828125 2.3125 -0.453125 1.921875 -0.453125 C 1.53125 -0.453125 1.171875 -0.8125 1.171875 -1.25 Z M 1.171875 -1.25 "/>
</symbol>
<symbol overflow="visible" id="glyph3-4">
<path style="stroke:none;" d="M 0.296875 -0.046875 C 0.8125 0.125 1.203125 0.203125 1.671875 0.203125 C 2.96875 0.203125 3.890625 -0.5 3.890625 -1.46875 C 3.890625 -1.78125 3.8125 -2.015625 3.625 -2.21875 C 3.359375 -2.46875 3.03125 -2.578125 2.15625 -2.75 C 1.328125 -2.90625 1.0625 -3.109375 1.0625 -3.5625 C 1.0625 -4.0625 1.421875 -4.34375 2.03125 -4.34375 C 2.6875 -4.34375 3.203125 -4 3.203125 -3.53125 L 3.203125 -3.296875 L 3.484375 -3.296875 C 3.484375 -3.875 3.5 -4.109375 3.53125 -4.421875 C 3 -4.609375 2.640625 -4.671875 2.234375 -4.671875 C 1.078125 -4.671875 0.375 -4.125 0.375 -3.234375 C 0.375 -2.75 0.59375 -2.40625 1.046875 -2.203125 C 1.3125 -2.078125 1.84375 -1.921875 2.515625 -1.78125 C 2.96875 -1.671875 3.15625 -1.46875 3.15625 -1.09375 C 3.15625 -0.546875 2.65625 -0.171875 1.953125 -0.171875 C 1.21875 -0.171875 0.703125 -0.515625 0.703125 -1.015625 L 0.703125 -1.421875 L 0.40625 -1.421875 C 0.40625 -0.734375 0.375 -0.4375 0.296875 -0.046875 Z M 0.296875 -0.046875 "/>
</symbol>
<symbol overflow="visible" id="glyph3-5">
<path style="stroke:none;" d="M 0.15625 1.4375 L 0.296875 1.546875 L 0.703125 1.359375 C 1.515625 0.3125 1.890625 -0.3125 2.171875 -1.09375 L 2.03125 -1.21875 C 1.765625 -1.140625 1.578125 -1.078125 1.0625 -0.921875 C 0.984375 -0.171875 0.734375 0.484375 0.15625 1.4375 Z M 0.15625 1.4375 "/>
</symbol>
<symbol overflow="visible" id="glyph3-6">
<path style="stroke:none;" d="M 0.171875 -2.1875 L 0.21875 -2.140625 L 2.8125 -2.140625 L 3.109375 -2.8125 L 3.0625 -2.859375 L 0.4375 -2.859375 Z M 0.171875 -2.1875 "/>
</symbol>
<symbol overflow="visible" id="glyph3-7">
<path style="stroke:none;" d="M 0.078125 2.5 L 0.078125 2.796875 C 0.5 2.78125 0.90625 2.765625 1.328125 2.765625 C 1.75 2.765625 2.15625 2.78125 2.578125 2.796875 L 2.578125 2.5 L 2.109375 2.46875 C 1.78125 2.453125 1.75 2.375 1.75 1.75 L 1.75 -0.125 C 2.046875 0.046875 2.359375 0.125 2.8125 0.125 C 3.09375 0.125 3.359375 0.0625 3.515625 -0.046875 L 4.65625 -0.78125 C 5.046875 -1.03125 5.515625 -2.0625 5.515625 -2.703125 C 5.515625 -3.8125 4.609375 -4.671875 3.453125 -4.671875 C 3.078125 -4.671875 2.71875 -4.578125 2.5625 -4.421875 L 1.75 -3.671875 L 1.75 -4.640625 L 1.65625 -4.671875 C 1.140625 -4.46875 0.625 -4.328125 0.09375 -4.265625 L 0.09375 -3.984375 L 0.46875 -3.984375 C 0.875 -3.984375 0.90625 -3.921875 0.90625 -3.265625 L 0.90625 1.75 C 0.90625 2.375 0.875 2.453125 0.53125 2.46875 Z M 1.75 -0.984375 L 1.75 -3.046875 C 1.75 -3.1875 1.796875 -3.296875 1.921875 -3.46875 C 2.21875 -3.84375 2.625 -4.03125 3.125 -4.03125 C 4.0625 -4.03125 4.65625 -3.375 4.65625 -2.328125 C 4.65625 -1.21875 3.984375 -0.390625 3.09375 -0.390625 C 2.546875 -0.390625 2.140625 -0.5625 1.75 -0.984375 Z M 1.75 -0.984375 "/>
</symbol>
<symbol overflow="visible" id="glyph3-8">
<path style="stroke:none;" d="M 0.3125 -2.15625 C 0.3125 -0.75 1.203125 0.203125 2.5 0.203125 C 4.03125 0.203125 5.125 -0.875 5.125 -2.359375 C 5.125 -3.703125 4.140625 -4.671875 2.78125 -4.671875 C 1.328125 -4.671875 0.3125 -3.65625 0.3125 -2.15625 Z M 1.25 -2.5 C 1.25 -3.703125 1.71875 -4.34375 2.609375 -4.34375 C 3.515625 -4.34375 4.203125 -3.34375 4.203125 -2 C 4.203125 -0.84375 3.6875 -0.125 2.875 -0.125 C 1.90625 -0.125 1.25 -1.09375 1.25 -2.5 Z M 1.25 -2.5 "/>
</symbol>
<symbol overflow="visible" id="glyph3-9">
<path style="stroke:none;" d="M 0.0625 -4.296875 L 0.34375 -4.28125 C 0.625 -4.25 0.75 -4.09375 1 -3.28125 L 2.015625 0.0625 L 2.484375 0.0625 L 3.453125 -2.21875 C 3.640625 -2.640625 3.984375 -3.34375 3.984375 -3.34375 L 5.328125 0.0625 L 5.796875 0.0625 L 7.15625 -3.40625 C 7.4375 -4.109375 7.578125 -4.25 7.796875 -4.28125 L 8.0625 -4.296875 L 8.0625 -4.578125 C 7.71875 -4.5625 7.40625 -4.546875 7.078125 -4.546875 C 6.75 -4.546875 6.4375 -4.5625 6.09375 -4.578125 L 6.09375 -4.296875 L 6.4375 -4.28125 C 6.84375 -4.25 6.890625 -4 6.765625 -3.609375 L 6.265625 -2.21875 L 5.78125 -0.984375 L 4.640625 -3.875 C 4.5 -4.203125 4.421875 -4.40625 4.34375 -4.671875 L 4.109375 -4.671875 L 2.53125 -1.03125 L 1.6875 -3.78125 C 1.609375 -4.09375 1.65625 -4.25 2.03125 -4.28125 L 2.4375 -4.296875 L 2.4375 -4.578125 C 2.03125 -4.5625 1.640625 -4.546875 1.25 -4.546875 C 0.84375 -4.546875 0.453125 -4.5625 0.0625 -4.578125 Z M 0.0625 -4.296875 "/>
</symbol>
<symbol overflow="visible" id="glyph3-10">
<path style="stroke:none;" d="M 0.265625 -2.1875 C 0.265625 -1.5625 0.40625 -1.015625 0.671875 -0.640625 C 1.0625 -0.109375 1.75 0.203125 2.5 0.203125 C 2.859375 0.203125 3.234375 0.125 3.640625 -0.0625 C 3.90625 -0.171875 4.109375 -0.296875 4.15625 -0.359375 L 4.359375 -0.703125 L 4.234375 -0.796875 C 3.59375 -0.421875 3.359375 -0.328125 2.9375 -0.328125 C 2.28125 -0.328125 1.75 -0.625 1.46875 -1.109375 C 1.28125 -1.4375 1.203125 -1.71875 1.1875 -2.296875 L 2.640625 -2.296875 C 3.328125 -2.296875 3.765625 -2.328125 4.453125 -2.4375 C 4.453125 -2.578125 4.46875 -2.65625 4.46875 -2.78125 C 4.46875 -3.921875 3.734375 -4.671875 2.609375 -4.671875 C 2.25 -4.671875 1.8125 -4.546875 1.40625 -4.3125 C 0.59375 -3.84375 0.265625 -3.21875 0.265625 -2.1875 Z M 1.203125 -2.6875 C 1.203125 -3.15625 1.25 -3.375 1.375 -3.640625 C 1.578125 -4.078125 2.015625 -4.34375 2.5 -4.34375 C 2.828125 -4.34375 3.078125 -4.21875 3.265625 -3.953125 C 3.484375 -3.625 3.578125 -3.328125 3.578125 -2.65625 L 2.46875 -2.625 C 2 -2.625 1.75 -2.640625 1.203125 -2.6875 Z M 1.203125 -2.6875 "/>
</symbol>
<symbol overflow="visible" id="glyph3-11">
<path style="stroke:none;" d="M 0.203125 0.03125 C 0.625 0.015625 1.03125 0 1.4375 0 C 1.90625 0 2.375 0.015625 2.859375 0.03125 L 2.859375 -0.265625 L 2.34375 -0.296875 C 1.890625 -0.328125 1.875 -0.359375 1.875 -1.015625 L 1.875 -2.734375 C 1.875 -3.328125 2.265625 -3.828125 2.765625 -3.828125 C 3.0625 -3.828125 3.265625 -3.6875 3.421875 -3.375 L 3.640625 -3.375 L 3.734375 -4.5625 C 3.625 -4.640625 3.4375 -4.671875 3.265625 -4.671875 C 2.953125 -4.671875 2.640625 -4.515625 2.4375 -4.265625 L 1.875 -3.609375 L 1.875 -4.640625 L 1.78125 -4.671875 C 1.28125 -4.46875 0.75 -4.328125 0.234375 -4.265625 L 0.234375 -3.984375 L 0.59375 -3.984375 C 1 -3.984375 1.03125 -3.921875 1.03125 -3.265625 L 1.03125 -1.015625 C 1.03125 -0.390625 1 -0.3125 0.671875 -0.296875 L 0.203125 -0.265625 Z M 0.203125 0.03125 "/>
</symbol>
<symbol overflow="visible" id="glyph3-12">
<path style="stroke:none;" d="M 0.234375 0.03125 C 0.640625 0.015625 1.0625 0 1.46875 0 C 1.890625 0 2.296875 0.015625 2.71875 0.03125 L 2.71875 -0.265625 L 2.265625 -0.296875 C 1.921875 -0.3125 1.890625 -0.390625 1.890625 -1.015625 L 1.890625 -3.84375 L 3.125 -3.84375 L 3.203125 -4.359375 C 2.765625 -4.34375 2.328125 -4.328125 1.890625 -4.328125 L 1.890625 -5.171875 C 1.890625 -6.3125 2.03125 -6.59375 2.59375 -6.59375 C 2.859375 -6.59375 3.046875 -6.53125 3.28125 -6.3125 L 3.40625 -6.375 L 3.40625 -7.140625 C 3.1875 -7.234375 3.078125 -7.25 2.9375 -7.25 C 2.625 -7.25 2.265625 -7.09375 2.046875 -6.84375 L 1.46875 -6.1875 C 1.1875 -5.859375 1.0625 -5.40625 1.0625 -4.75 L 1.0625 -4.328125 L 0.375 -4.015625 L 0.375 -3.796875 L 1.0625 -3.84375 L 1.0625 -1.015625 C 1.0625 -0.390625 1.03125 -0.3125 0.6875 -0.296875 L 0.234375 -0.265625 Z M 0.234375 0.03125 "/>
</symbol>
<symbol overflow="visible" id="glyph3-13">
<path style="stroke:none;" d="M 0.171875 -3.984375 L 0.546875 -3.984375 C 0.953125 -3.984375 0.984375 -3.921875 0.984375 -3.265625 L 0.984375 -1.578125 C 0.984375 -0.890625 1.046875 -0.578125 1.21875 -0.328125 C 1.453125 -0.03125 1.828125 0.125 2.390625 0.125 C 2.84375 0.125 3.234375 -0.015625 3.515625 -0.265625 L 4.171875 -0.890625 C 4.171875 -0.59375 4.171875 -0.4375 4.140625 0.03125 C 4.421875 0.015625 4.6875 0 4.96875 0 C 5.25 0 5.515625 0.015625 5.796875 0.03125 L 5.796875 -0.265625 L 5.390625 -0.296875 C 5.046875 -0.3125 5.015625 -0.375 5.015625 -1.015625 L 5.015625 -4.640625 L 4.921875 -4.671875 C 4.421875 -4.46875 3.890625 -4.328125 3.375 -4.265625 L 3.375 -3.984375 L 3.734375 -3.984375 C 4.140625 -3.984375 4.171875 -3.921875 4.171875 -3.265625 L 4.171875 -1.640625 C 4.171875 -1.421875 4.03125 -1.140625 3.8125 -0.90625 C 3.53125 -0.625 3.203125 -0.484375 2.828125 -0.484375 C 2.46875 -0.484375 2.1875 -0.59375 2.03125 -0.78125 C 1.890625 -0.953125 1.828125 -1.25 1.828125 -1.6875 L 1.828125 -4.640625 L 1.734375 -4.671875 C 1.21875 -4.46875 0.703125 -4.328125 0.171875 -4.265625 Z M 0.171875 -3.984375 "/>
</symbol>
<symbol overflow="visible" id="glyph3-14">
<path style="stroke:none;" d="M 0.15625 0.03125 C 0.546875 0.015625 0.921875 0 1.3125 0 C 1.71875 0 2.109375 0.015625 2.515625 0.03125 L 2.515625 -0.265625 L 2.078125 -0.296875 C 1.609375 -0.328125 1.5625 -0.421875 1.5625 -1.203125 L 1.5625 -5.765625 L 4.34375 0.125 L 4.546875 0.125 C 4.796875 -0.40625 4.875 -0.6875 5.078125 -1.140625 L 6.859375 -4.90625 L 7.296875 -5.765625 L 7.296875 -1.203125 C 7.296875 -0.40625 7.25 -0.34375 6.78125 -0.296875 L 6.453125 -0.265625 L 6.453125 0.03125 C 6.875 0.015625 7.296875 0 7.71875 0 C 8.21875 0 8.734375 0.015625 9.234375 0.03125 L 9.234375 -0.265625 L 8.75 -0.296875 C 8.296875 -0.328125 8.25 -0.40625 8.25 -1.203125 L 8.25 -5.671875 C 8.25 -6.453125 8.296875 -6.546875 8.75 -6.5625 L 9.171875 -6.59375 L 9.171875 -6.890625 C 8.859375 -6.875 8.546875 -6.875 8.25 -6.875 C 7.921875 -6.875 7.609375 -6.875 7.296875 -6.890625 L 4.6875 -1.359375 L 2.046875 -6.890625 C 1.734375 -6.875 1.421875 -6.875 1.109375 -6.875 C 0.78125 -6.875 0.484375 -6.875 0.15625 -6.890625 L 0.15625 -6.59375 L 0.59375 -6.5625 C 1.0625 -6.546875 1.109375 -6.453125 1.109375 -5.671875 L 1.109375 -1.203125 C 1.109375 -0.421875 1.0625 -0.328125 0.59375 -0.296875 L 0.15625 -0.265625 Z M 0.15625 0.03125 "/>
</symbol>
<symbol overflow="visible" id="glyph3-15">
<path style="stroke:none;" d="M 0.125 -4.296875 L 0.296875 -4.28125 C 0.546875 -4.25 0.671875 -4.140625 0.8125 -3.78125 L 2.46875 0.234375 L 2.234375 0.84375 C 1.90625 1.6875 1.53125 2.15625 1.140625 2.15625 C 0.984375 2.15625 0.8125 2.078125 0.640625 1.921875 L 0.515625 1.921875 L 0.265625 2.671875 C 0.453125 2.765625 0.625 2.828125 0.8125 2.828125 C 1.46875 2.828125 1.90625 2.46875 2.28125 1.59375 L 4.3125 -3.078125 C 4.703125 -3.984375 4.890625 -4.25 5.140625 -4.28125 L 5.421875 -4.296875 L 5.421875 -4.578125 C 5.109375 -4.5625 4.796875 -4.546875 4.46875 -4.546875 C 4.15625 -4.546875 3.84375 -4.5625 3.53125 -4.578125 L 3.53125 -4.296875 L 3.78125 -4.28125 C 4.203125 -4.25 4.296875 -4.125 4.140625 -3.765625 L 2.953125 -0.859375 C 2.734375 -1.234375 2.640625 -1.46875 2.453125 -1.953125 L 1.8125 -3.625 C 1.640625 -4.0625 1.671875 -4.25 2.046875 -4.28125 L 2.4375 -4.296875 L 2.4375 -4.578125 C 2.046875 -4.5625 1.671875 -4.546875 1.28125 -4.546875 C 0.890625 -4.546875 0.515625 -4.5625 0.125 -4.578125 Z M 0.125 -4.296875 "/>
</symbol>
<symbol overflow="visible" id="glyph3-16">
<path style="stroke:none;" d="M 0.3125 1.28125 C 0.3125 2.1875 1.203125 2.828125 2.46875 2.828125 C 3.984375 2.828125 5.15625 1.875 5.15625 0.65625 C 5.15625 -0.0625 4.6875 -0.5625 3.984375 -0.5625 L 2.390625 -0.5625 C 1.875 -0.5625 1.640625 -0.671875 1.640625 -0.953125 C 1.640625 -1.078125 1.71875 -1.1875 1.96875 -1.40625 C 2.03125 -1.453125 2.046875 -1.46875 2.09375 -1.515625 C 2.1875 -1.5 2.25 -1.5 2.328125 -1.5 C 2.765625 -1.5 3.296875 -1.6875 3.703125 -1.96875 C 4.140625 -2.296875 4.359375 -2.703125 4.359375 -3.234375 C 4.359375 -3.421875 4.34375 -3.5625 4.25 -3.765625 L 5.171875 -3.765625 L 5.421875 -4.171875 L 5.390625 -4.296875 L 3.96875 -4.25 C 3.59375 -4.5625 3.234375 -4.671875 2.75 -4.671875 C 2.3125 -4.671875 1.796875 -4.53125 1.390625 -4.296875 C 0.84375 -3.984375 0.546875 -3.484375 0.546875 -2.875 C 0.546875 -2.140625 1 -1.640625 1.75 -1.5625 L 0.953125 -0.953125 C 0.859375 -0.796875 0.8125 -0.671875 0.8125 -0.515625 C 0.8125 -0.234375 0.984375 -0.078125 1.46875 0.0625 L 0.59375 0.53125 C 0.453125 0.609375 0.3125 0.984375 0.3125 1.28125 Z M 1.078125 1.265625 C 1.078125 0.8125 1.328125 0.421875 1.734375 0.234375 C 1.890625 0.171875 2.171875 0.140625 2.859375 0.140625 C 3.984375 0.140625 4.375 0.375 4.375 1.015625 C 4.375 1.875 3.59375 2.515625 2.546875 2.515625 C 1.671875 2.515625 1.078125 2 1.078125 1.265625 Z M 1.390625 -3.125 C 1.390625 -3.890625 1.75 -4.34375 2.390625 -4.34375 C 3.078125 -4.34375 3.53125 -3.78125 3.53125 -2.9375 C 3.53125 -2.28125 3.109375 -1.828125 2.5 -1.828125 C 1.828125 -1.828125 1.390625 -2.359375 1.390625 -3.125 Z M 1.390625 -3.125 "/>
</symbol>
<symbol overflow="visible" id="glyph3-17">
<path style="stroke:none;" d="M 0.203125 0.03125 C 0.625 0.015625 1.03125 0 1.453125 0 C 1.875 0 2.28125 0.015625 2.703125 0.03125 L 2.703125 -0.265625 L 2.25 -0.296875 C 1.90625 -0.3125 1.875 -0.390625 1.875 -1.015625 L 1.875 -4.640625 L 1.78125 -4.671875 C 1.28125 -4.46875 0.75 -4.328125 0.234375 -4.265625 L 0.234375 -3.984375 L 0.59375 -3.984375 C 1 -3.984375 1.03125 -3.921875 1.03125 -3.265625 L 1.03125 -1.015625 C 1.03125 -0.390625 1 -0.3125 0.671875 -0.296875 L 0.203125 -0.265625 Z M 0.953125 -5.90625 C 0.953125 -5.609375 1.15625 -5.40625 1.453125 -5.40625 C 1.75 -5.40625 1.953125 -5.609375 1.953125 -5.90625 C 1.953125 -6.1875 1.75 -6.40625 1.46875 -6.40625 C 1.15625 -6.40625 0.953125 -6.203125 0.953125 -5.90625 Z M 0.953125 -5.90625 "/>
</symbol>
<symbol overflow="visible" id="glyph3-18">
<path style="stroke:none;" d="M 0.0625 -4.296875 L 0.40625 -4.28125 C 0.578125 -4.265625 0.609375 -4.171875 0.703125 -3.953125 L 2.421875 0.0625 L 2.921875 0.0625 C 2.984375 -0.265625 3.125 -0.5625 3.328125 -1.015625 L 4.5 -3.609375 C 4.734375 -4.109375 4.859375 -4.265625 5.0625 -4.28125 L 5.375 -4.296875 L 5.375 -4.578125 C 5.0625 -4.5625 4.75 -4.546875 4.4375 -4.546875 C 4.125 -4.546875 3.8125 -4.5625 3.5 -4.578125 L 3.5 -4.296875 L 3.90625 -4.28125 C 4.234375 -4.25 4.234375 -3.96875 3.953125 -3.296875 L 3.53125 -2.234375 L 2.921875 -0.84375 L 1.734375 -3.703125 C 1.625 -3.984375 1.578125 -4.265625 1.890625 -4.28125 L 2.375 -4.296875 L 2.375 -4.578125 C 2 -4.5625 1.609375 -4.546875 1.21875 -4.546875 C 0.828125 -4.546875 0.453125 -4.5625 0.0625 -4.578125 Z M 0.0625 -4.296875 "/>
</symbol>
<symbol overflow="visible" id="glyph3-19">
<path style="stroke:none;" d="M 0.0625 0.03125 C 0.46875 0.015625 0.890625 0 1.296875 0 C 1.703125 0 2.125 0.015625 2.53125 0.03125 L 2.53125 -0.265625 L 2.078125 -0.296875 C 1.75 -0.3125 1.71875 -0.390625 1.71875 -1.015625 L 1.71875 -3.125 C 1.71875 -3.578125 2.375 -4.0625 2.984375 -4.0625 C 3.65625 -4.0625 4.09375 -3.5625 4.09375 -2.796875 L 4.09375 0.03125 C 4.34375 0.015625 4.609375 0 4.875 0 C 5.15625 0 5.421875 0.015625 5.703125 0.03125 L 5.703125 -0.265625 L 5.296875 -0.296875 C 4.953125 -0.3125 4.921875 -0.375 4.921875 -1.015625 L 4.921875 -2.9375 C 4.921875 -4.109375 4.375 -4.671875 3.265625 -4.671875 C 2.890625 -4.671875 2.6875 -4.609375 2.46875 -4.421875 L 1.71875 -3.765625 L 1.71875 -4.640625 L 1.625 -4.671875 C 1.109375 -4.46875 0.59375 -4.328125 0.0625 -4.265625 L 0.0625 -3.984375 L 0.4375 -3.984375 C 0.84375 -3.984375 0.875 -3.921875 0.875 -3.265625 L 0.875 -1.015625 C 0.875 -0.390625 0.84375 -0.3125 0.515625 -0.296875 L 0.0625 -0.265625 Z M 0.0625 0.03125 "/>
</symbol>
<symbol overflow="visible" id="glyph3-20">
<path style="stroke:none;" d="M 0.265625 -2.09375 C 0.265625 -0.75 1.203125 0.203125 2.546875 0.203125 C 3.0625 0.203125 3.8125 0.015625 3.90625 -0.140625 L 4.109375 -0.453125 L 4.015625 -0.609375 C 3.65625 -0.40625 3.328125 -0.3125 2.96875 -0.3125 C 1.859375 -0.3125 1.140625 -1.171875 1.140625 -2.5 C 1.140625 -3.5625 1.640625 -4.15625 2.53125 -4.15625 C 2.96875 -4.15625 3.453125 -3.953125 3.625 -3.703125 L 3.703125 -3.09375 L 3.984375 -3.09375 C 3.984375 -3.5625 4.03125 -3.96875 4.109375 -4.328125 C 3.71875 -4.5625 3.375 -4.671875 2.953125 -4.671875 C 2.484375 -4.671875 1.921875 -4.484375 1.328125 -4.109375 C 0.625 -3.671875 0.265625 -2.96875 0.265625 -2.09375 Z M 0.265625 -2.09375 "/>
</symbol>
<symbol overflow="visible" id="glyph3-21">
<path style="stroke:none;" d="M 0.34375 -2.15625 C 0.34375 -1.359375 0.625 -0.703125 1.109375 -0.296875 C 1.453125 -0.015625 1.90625 0.125 2.5625 0.125 C 2.765625 0.125 2.984375 0.078125 3.046875 0.046875 L 4.140625 -0.890625 L 4.09375 0.03125 C 4.359375 0.015625 4.609375 0 4.859375 0 C 5.15625 0 5.46875 0.015625 5.765625 0.03125 L 5.765625 -0.265625 L 5.3125 -0.296875 C 4.96875 -0.3125 4.9375 -0.390625 4.9375 -1.015625 L 4.9375 -7.15625 L 4.859375 -7.234375 C 4.421875 -7.0625 4.09375 -6.984375 3.296875 -6.875 L 3.296875 -6.59375 L 3.859375 -6.59375 C 4.03125 -6.59375 4.109375 -6.484375 4.109375 -6.1875 L 4.109375 -4.359375 C 3.546875 -4.59375 3.265625 -4.671875 2.921875 -4.671875 C 2.65625 -4.671875 2.40625 -4.609375 2.15625 -4.484375 L 1.28125 -4.03125 C 0.71875 -3.734375 0.34375 -3 0.34375 -2.15625 Z M 1.21875 -2.484375 C 1.21875 -3.5625 1.75 -4.203125 2.65625 -4.203125 C 3.03125 -4.203125 3.421875 -4.078125 3.78125 -3.84375 C 3.984375 -3.703125 4.109375 -3.5625 4.109375 -3.484375 L 4.109375 -2.203125 C 4.109375 -1.5625 4.09375 -1.453125 3.953125 -1.21875 C 3.671875 -0.75 3.1875 -0.453125 2.71875 -0.453125 C 1.84375 -0.453125 1.21875 -1.296875 1.21875 -2.484375 Z M 1.21875 -2.484375 "/>
</symbol>
<symbol overflow="visible" id="glyph3-22">
<path style="stroke:none;" d="M 0.15625 0.03125 C 0.578125 0.015625 1 0 1.421875 0 C 1.828125 0 2.21875 0.015625 2.609375 0.03125 L 2.609375 -0.265625 L 2.1875 -0.296875 C 1.859375 -0.3125 1.828125 -0.390625 1.828125 -1.015625 L 1.828125 -3.125 C 1.828125 -3.578125 2.484375 -4.0625 3.078125 -4.0625 C 3.625 -4.0625 3.984375 -3.5625 3.984375 -2.796875 L 3.984375 -1.015625 C 3.984375 -0.390625 3.953125 -0.3125 3.625 -0.296875 L 3.15625 -0.265625 L 3.15625 0.03125 C 3.578125 0.015625 3.984375 0 4.40625 0 C 4.828125 0 5.234375 0.015625 5.65625 0.03125 L 5.65625 -0.265625 L 5.1875 -0.296875 C 4.859375 -0.3125 4.828125 -0.390625 4.828125 -1.015625 L 4.828125 -3.125 C 4.828125 -3.578125 5.484375 -4.0625 6.078125 -4.0625 C 6.625 -4.0625 6.984375 -3.5625 6.984375 -2.796875 L 6.984375 0.03125 C 7.25 0.015625 7.515625 0 7.78125 0 C 8.078125 0 8.359375 0.015625 8.65625 0.03125 L 8.65625 -0.265625 L 8.1875 -0.296875 C 7.859375 -0.3125 7.828125 -0.390625 7.828125 -1.015625 L 7.828125 -3.078125 C 7.828125 -4.0625 7.25 -4.671875 6.328125 -4.671875 C 5.984375 -4.671875 5.6875 -4.578125 5.515625 -4.421875 L 4.75 -3.75 C 4.4375 -4.40625 4.03125 -4.671875 3.34375 -4.671875 C 2.96875 -4.671875 2.6875 -4.578125 2.515625 -4.421875 L 1.828125 -3.78125 L 1.828125 -4.640625 L 1.734375 -4.671875 C 1.21875 -4.46875 0.703125 -4.328125 0.171875 -4.265625 L 0.171875 -3.984375 L 0.546875 -3.984375 C 0.953125 -3.984375 0.984375 -3.921875 0.984375 -3.265625 L 0.984375 -1.015625 C 0.984375 -0.390625 0.953125 -0.3125 0.625 -0.296875 L 0.15625 -0.265625 Z M 0.15625 0.03125 "/>
</symbol>
<symbol overflow="visible" id="glyph3-23">
<path style="stroke:none;" d="M 0.15625 1.421875 L 0.296875 1.53125 L 0.703125 1.328125 C 1.515625 0.296875 1.890625 -0.34375 2.171875 -1.109375 L 2.03125 -1.25 C 1.765625 -1.15625 1.578125 -1.09375 1.0625 -0.953125 C 0.984375 -0.1875 0.734375 0.453125 0.15625 1.421875 Z M 0.921875 -3.96875 C 0.921875 -3.671875 1.203125 -3.390625 1.484375 -3.390625 C 1.796875 -3.390625 2.078125 -3.65625 2.078125 -3.953125 C 2.078125 -4.265625 1.796875 -4.546875 1.5 -4.546875 C 1.203125 -4.546875 0.921875 -4.265625 0.921875 -3.96875 Z M 0.921875 -3.96875 "/>
</symbol>
<symbol overflow="visible" id="glyph4-0">
<path style="stroke:none;" d="M 0.328125 0 L 0.328125 -6.640625 L 2.96875 -6.640625 L 2.96875 0 Z M 0.65625 -0.328125 L 2.640625 -0.328125 L 2.640625 -6.3125 L 0.65625 -6.3125 Z M 0.65625 -0.328125 "/>
</symbol>
<symbol overflow="visible" id="glyph4-1">
<path style="stroke:none;" d="M 2.328125 -3.6875 C 2.304688 -3.78125 2.269531 -3.925781 2.21875 -4.125 C 2.175781 -4.332031 2.144531 -4.488281 2.125 -4.59375 C 2.101562 -4.707031 2.078125 -4.835938 2.046875 -4.984375 C 2.015625 -5.140625 1.992188 -5.269531 1.984375 -5.375 C 1.972656 -5.488281 1.96875 -5.59375 1.96875 -5.6875 C 1.96875 -5.738281 1.96875 -5.789062 1.96875 -5.84375 C 2.0625 -6.144531 2.21875 -6.296875 2.4375 -6.296875 C 2.53125 -6.296875 2.609375 -6.273438 2.671875 -6.234375 C 2.742188 -6.203125 2.796875 -6.148438 2.828125 -6.078125 C 2.859375 -6.015625 2.878906 -5.96875 2.890625 -5.9375 C 2.898438 -5.90625 2.90625 -5.875 2.90625 -5.84375 C 2.914062 -5.8125 2.921875 -5.773438 2.921875 -5.734375 C 2.921875 -5.554688 2.890625 -5.296875 2.828125 -4.953125 C 2.765625 -4.617188 2.695312 -4.320312 2.625 -4.0625 L 2.546875 -3.6875 C 2.679688 -3.738281 2.898438 -3.804688 3.203125 -3.890625 C 3.515625 -3.972656 3.765625 -4.023438 3.953125 -4.046875 C 4.054688 -4.046875 4.160156 -4.007812 4.265625 -3.9375 C 4.367188 -3.875 4.421875 -3.765625 4.421875 -3.609375 C 4.421875 -3.472656 4.367188 -3.363281 4.265625 -3.28125 C 4.171875 -3.207031 4.070312 -3.171875 3.96875 -3.171875 C 3.84375 -3.171875 3.671875 -3.210938 3.453125 -3.296875 C 3.359375 -3.328125 3.234375 -3.359375 3.078125 -3.390625 C 2.921875 -3.429688 2.796875 -3.460938 2.703125 -3.484375 L 2.546875 -3.5 L 2.546875 1.71875 C 2.546875 1.75 2.507812 1.765625 2.4375 1.765625 C 2.363281 1.765625 2.328125 1.75 2.328125 1.71875 L 2.328125 -3.515625 C 2.128906 -3.460938 1.953125 -3.410156 1.796875 -3.359375 C 1.640625 -3.316406 1.53125 -3.28125 1.46875 -3.25 C 1.414062 -3.226562 1.347656 -3.207031 1.265625 -3.1875 C 1.179688 -3.175781 1.070312 -3.171875 0.9375 -3.171875 C 0.800781 -3.171875 0.6875 -3.210938 0.59375 -3.296875 C 0.507812 -3.378906 0.46875 -3.484375 0.46875 -3.609375 C 0.46875 -3.753906 0.519531 -3.863281 0.625 -3.9375 C 0.738281 -4.007812 0.835938 -4.046875 0.921875 -4.046875 C 1.015625 -4.046875 1.09375 -4.039062 1.15625 -4.03125 C 1.21875 -4.03125 1.296875 -4.015625 1.390625 -3.984375 C 1.484375 -3.960938 1.550781 -3.945312 1.59375 -3.9375 C 1.644531 -3.925781 1.753906 -3.890625 1.921875 -3.828125 C 2.085938 -3.773438 2.222656 -3.726562 2.328125 -3.6875 Z M 2.328125 -3.6875 "/>
</symbol>
<symbol overflow="visible" id="glyph4-2">
<path style="stroke:none;" d="M 2.40625 -3.875 L 2.40625 -3.953125 C 2.132812 -3.785156 1.960938 -3.664062 1.890625 -3.59375 C 1.816406 -3.53125 1.675781 -3.378906 1.46875 -3.140625 C 1.320312 -2.984375 1.179688 -2.90625 1.046875 -2.90625 C 0.828125 -2.9375 0.707031 -3.050781 0.6875 -3.25 C 0.6875 -3.4375 0.816406 -3.570312 1.078125 -3.65625 C 1.140625 -3.664062 1.21875 -3.679688 1.3125 -3.703125 C 1.65625 -3.765625 1.957031 -3.875 2.21875 -4.03125 C 2.25 -4.050781 2.285156 -4.070312 2.328125 -4.09375 L 2.21875 -4.171875 C 2.03125 -4.296875 1.742188 -4.394531 1.359375 -4.46875 C 0.921875 -4.539062 0.695312 -4.695312 0.6875 -4.9375 C 0.6875 -5.101562 0.765625 -5.21875 0.921875 -5.28125 C 0.960938 -5.289062 1 -5.296875 1.03125 -5.296875 C 1.164062 -5.296875 1.320312 -5.1875 1.5 -4.96875 C 1.78125 -4.664062 2.066406 -4.429688 2.359375 -4.265625 L 2.40625 -4.25 L 2.40625 -4.375 C 2.40625 -4.644531 2.351562 -4.945312 2.25 -5.28125 C 2.1875 -5.507812 2.15625 -5.679688 2.15625 -5.796875 C 2.15625 -5.960938 2.234375 -6.070312 2.390625 -6.125 C 2.421875 -6.132812 2.457031 -6.140625 2.5 -6.140625 C 2.664062 -6.140625 2.78125 -6.0625 2.84375 -5.90625 C 2.851562 -5.863281 2.859375 -5.816406 2.859375 -5.765625 C 2.859375 -5.671875 2.828125 -5.519531 2.765625 -5.3125 C 2.648438 -4.988281 2.59375 -4.710938 2.59375 -4.484375 L 2.59375 -4.234375 L 2.65625 -4.265625 C 2.882812 -4.390625 3.125 -4.601562 3.375 -4.90625 C 3.613281 -5.175781 3.800781 -5.3125 3.9375 -5.3125 C 4.125 -5.3125 4.238281 -5.222656 4.28125 -5.046875 C 4.289062 -5.003906 4.296875 -4.960938 4.296875 -4.921875 C 4.296875 -4.734375 4.191406 -4.609375 3.984375 -4.546875 C 3.921875 -4.535156 3.851562 -4.519531 3.78125 -4.5 C 3.445312 -4.445312 3.125 -4.335938 2.8125 -4.171875 L 2.671875 -4.09375 L 2.75 -4.03125 C 3.019531 -3.863281 3.34375 -3.753906 3.71875 -3.703125 C 4.0625 -3.648438 4.253906 -3.539062 4.296875 -3.375 L 4.3125 -3.265625 C 4.3125 -3.054688 4.21875 -2.9375 4.03125 -2.90625 L 3.953125 -2.890625 C 3.785156 -2.890625 3.585938 -3.03125 3.359375 -3.3125 C 3.097656 -3.625 2.863281 -3.828125 2.65625 -3.921875 L 2.59375 -3.953125 L 2.59375 -3.875 C 2.59375 -3.488281 2.660156 -3.117188 2.796875 -2.765625 C 2.847656 -2.617188 2.875 -2.507812 2.875 -2.4375 C 2.875 -2.269531 2.789062 -2.148438 2.625 -2.078125 C 2.582031 -2.054688 2.535156 -2.046875 2.484375 -2.046875 C 2.328125 -2.046875 2.21875 -2.117188 2.15625 -2.265625 C 2.144531 -2.316406 2.140625 -2.363281 2.140625 -2.40625 C 2.140625 -2.53125 2.175781 -2.6875 2.25 -2.875 C 2.351562 -3.164062 2.40625 -3.414062 2.40625 -3.625 Z M 2.40625 -3.875 "/>
</symbol>
</g>
<clipPath id="clip1">
  <path d="M 42 4 L 347.761719 4 L 347.761719 5 L 42 5 Z M 42 4 "/>
</clipPath>
<clipPath id="clip2">
  <path d="M 42 12 L 347.761719 12 L 347.761719 13 L 42 13 Z M 42 12 "/>
</clipPath>
<clipPath id="clip3">
  <path d="M 42 20 L 347.761719 20 L 347.761719 21 L 42 21 Z M 42 20 "/>
</clipPath>
<clipPath id="clip4">
  <path d="M 42 28 L 347.761719 28 L 347.761719 30 L 42 30 Z M 42 28 "/>
</clipPath>
<clipPath id="clip5">
  <path d="M 345 0 L 347.761719 0 L 347.761719 12 L 345 12 Z M 345 0 "/>
</clipPath>
<clipPath id="clip6">
  <path d="M 0 59 L 347.761719 59 L 347.761719 60 L 0 60 Z M 0 59 "/>
</clipPath>
<clipPath id="clip7">
  <path d="M 0 67 L 347.761719 67 L 347.761719 68 L 0 68 Z M 0 67 "/>
</clipPath>
<clipPath id="clip8">
  <path d="M 0 75 L 347.761719 75 L 347.761719 76 L 0 76 Z M 0 75 "/>
</clipPath>
<clipPath id="clip9">
  <path d="M 0 83 L 347.761719 83 L 347.761719 84 L 0 84 Z M 0 83 "/>
</clipPath>
</defs>
<g id="surface1">
<g style="fill:rgb(0%,0%,0%);fill-opacity:1;">
  <use xlink:href="#glyph0-1" x="5.669" y="46.23"/>
</g>
<g style="fill:rgb(0%,0%,0%);fill-opacity:1;">
  <use xlink:href="#glyph1-1" x="12.055" y="9.907"/>
  <use xlink:href="#glyph1-2" x="15.930467" y="9.907"/>
</g>
<g style="fill:rgb(0%,0%,0%);fill-opacity:1;">
  <use xlink:href="#glyph1-3" x="22.535697" y="9.907"/>
</g>
<g clip-path="url(#clip1)" clip-rule="nonzero">
<path style="fill:none;stroke-width:0.388;stroke-linecap:butt;stroke-linejoin:miter;stroke:rgb(0%,0%,0%);stroke-opacity:1;stroke-miterlimit:10;" d="M 0.00175 -0.00159375 L 305.419719 -0.00159375 " transform="matrix(1,0,0,-1,42.342,4.432)"/>
</g>
<g clip-path="url(#clip2)" clip-rule="nonzero">
<path style="fill:none;stroke-width:0.388;stroke-linecap:butt;stroke-linejoin:miter;stroke:rgb(0%,0%,0%);stroke-opacity:1;stroke-miterlimit:10;" d="M 0.00175 -0.00121875 L 305.419719 -0.00121875 " transform="matrix(1,0,0,-1,42.342,12.573)"/>
</g>
<g clip-path="url(#clip3)" clip-rule="nonzero">
<path style="fill:none;stroke-width:0.388;stroke-linecap:butt;stroke-linejoin:miter;stroke:rgb(0%,0%,0%);stroke-opacity:1;stroke-miterlimit:10;" d="M 0.00175 -0.00184375 L 305.419719 -0.00184375 " transform="matrix(1,0,0,-1,42.342,20.713)"/>
</g>
<g clip-path="url(#clip4)" clip-rule="nonzero">
<path style="fill:none;stroke-width:0.388;stroke-linecap:butt;stroke-linejoin:miter;stroke:rgb(0%,0%,0%);stroke-opacity:1;stroke-miterlimit:10;" d="M 0.00175 -0.00146875 L 305.419719 -0.00146875 " transform="matrix(1,0,0,-1,42.342,28.854)"/>
</g>
<g style="fill:rgb(0%,0%,0%);fill-opacity:1;">
  <use xlink:href="#glyph2-1" x="42.342" y="18.452"/>
</g>
<g style="fill:rgb(0%,0%,0%);fill-opacity:1;">
  <use xlink:href="#glyph3-1" x="53.653" y="46.23"/>
</g>
<g style="fill:rgb(0%,0%,0%);fill-opacity:1;">
  <use xlink:href="#glyph2-2" x="53.132" y="10.311"/>
</g>
<g style="fill:rgb(0%,0%,0%);fill-opacity:1;">
  <use xlink:href="#glyph3-2" x="62.327" y="46.23"/>
  <use xlink:href="#glyph3-3" x="65.226128" y="46.23"/>
  <use xlink:href="#glyph3-4" x="70.207448" y="46.23"/>
</g>
<g style="fill:rgb(0%,0%,0%);fill-opacity:1;">
  <use xlink:href="#glyph3-1" x="74.282168" y="46.23"/>
  <use xlink:href="#glyph3-5" x="77.529989" y="46.23"/>
</g>
<g style="fill:rgb(0%,0%,0%);fill-opacity:1;">
  <use xlink:href="#glyph2-3" x="65.572" y="14.382"/>
</g>
<g style="fill:rgb(0%,0%,0%);fill-opacity:1;">
  <use xlink:href="#glyph3-3" x="84.769" y="46.23"/>
  <use xlink:href="#glyph3-2" x="89.75032" y="46.23"/>
  <use xlink:href="#glyph3-2" x="92.649448" y="46.23"/>
  <use xlink:href="#glyph3-6" x="95.548576" y="46.23"/>
</g>
<g style="fill:rgb(0%,0%,0%);fill-opacity:1;">
  <use xlink:href="#glyph2-2" x="85.114" y="10.311"/>
</g>
<g style="fill:rgb(0%,0%,0%);fill-opacity:1;">
  <use xlink:href="#glyph3-7" x="98.866" y="46.23"/>
  <use xlink:href="#glyph3-8" x="104.853547" y="46.23"/>
</g>
<g style="fill:rgb(0%,0%,0%);fill-opacity:1;">
  <use xlink:href="#glyph3-9" x="110.044082" y="46.23"/>
</g>
<g style="fill:rgb(0%,0%,0%);fill-opacity:1;">
  <use xlink:href="#glyph3-10" x="117.954418" y="46.23"/>
  <use xlink:href="#glyph3-11" x="122.726523" y="46.23"/>
</g>
<g style="fill:rgb(0%,0%,0%);fill-opacity:1;">
  <use xlink:href="#glyph2-2" x="105.428" y="10.311"/>
</g>
<g style="fill:rgb(0%,0%,0%);fill-opacity:1;">
  <use xlink:href="#glyph3-12" x="126.662" y="46.23"/>
  <use xlink:href="#glyph3-13" x="129.979559" y="46.23"/>
  <use xlink:href="#glyph3-2" x="135.987031" y="46.23"/>
</g>
<g style="fill:rgb(0%,0%,0%);fill-opacity:1;">
  <use xlink:href="#glyph2-2" x="130.838" y="10.311"/>
</g>
<g style="fill:rgb(0%,0%,0%);fill-opacity:1;">
  <use xlink:href="#glyph3-14" x="143.634" y="46.23"/>
  <use xlink:href="#glyph3-3" x="153.058657" y="46.23"/>
</g>
<g style="fill:rgb(0%,0%,0%);fill-opacity:1;">
  <use xlink:href="#glyph2-2" x="153.404" y="10.311"/>
</g>
<g style="fill:rgb(0%,0%,0%);fill-opacity:1;">
  <use xlink:href="#glyph3-4" x="158.04" y="46.23"/>
</g>
<g style="fill:rgb(0%,0%,0%);fill-opacity:1;">
  <use xlink:href="#glyph3-1" x="162.11472" y="46.23"/>
  <use xlink:href="#glyph3-10" x="165.36254" y="46.23"/>
  <use xlink:href="#glyph3-11" x="170.134645" y="46.23"/>
  <use xlink:href="#glyph3-5" x="174.069888" y="46.23"/>
</g>
<g style="fill:rgb(0%,0%,0%);fill-opacity:1;">
  <use xlink:href="#glyph2-2" x="165.603" y="14.382"/>
</g>
<g style="fill:rgb(0%,0%,0%);fill-opacity:1;">
  <use xlink:href="#glyph4-1" x="181.627" y="46.23"/>
</g>
<g style="fill:rgb(0%,0%,0%);fill-opacity:1;">
  <use xlink:href="#glyph2-4" x="183.606" y="18.452"/>
</g>
<g style="fill:rgb(0%,0%,0%);fill-opacity:1;">
  <use xlink:href="#glyph3-15" x="191.635" y="46.23"/>
</g>
<g style="fill:rgb(0%,0%,0%);fill-opacity:1;">
  <use xlink:href="#glyph3-8" x="196.825535" y="46.23"/>
  <use xlink:href="#glyph3-13" x="202.265137" y="46.23"/>
</g>
<g style="fill:rgb(0%,0%,0%);fill-opacity:1;">
  <use xlink:href="#glyph2-2" x="197.809" y="10.311"/>
</g>
<g style="fill:rgb(0%,0%,0%);fill-opacity:1;">
  <use xlink:href="#glyph3-16" x="213.021" y="46.23"/>
  <use xlink:href="#glyph3-17" x="218.560228" y="46.23"/>
  <use xlink:href="#glyph3-18" x="221.419506" y="46.23"/>
</g>
<g style="fill:rgb(0%,0%,0%);fill-opacity:1;">
  <use xlink:href="#glyph3-10" x="226.649892" y="46.23"/>
</g>
<g style="fill:rgb(0%,0%,0%);fill-opacity:1;">
  <use xlink:href="#glyph2-2" x="217.845" y="10.311"/>
</g>
<g style="fill:rgb(0%,0%,0%);fill-opacity:1;">
  <use xlink:href="#glyph3-2" x="236.17" y="46.23"/>
  <use xlink:href="#glyph3-10" x="239.069128" y="46.23"/>
  <use xlink:href="#glyph3-3" x="243.841233" y="46.23"/>
</g>
<g style="fill:rgb(0%,0%,0%);fill-opacity:1;">
  <use xlink:href="#glyph3-18" x="248.47386" y="46.23"/>
</g>
<g style="fill:rgb(0%,0%,0%);fill-opacity:1;">
  <use xlink:href="#glyph3-10" x="253.704246" y="46.23"/>
</g>
<g style="fill:rgb(0%,0%,0%);fill-opacity:1;">
  <use xlink:href="#glyph2-2" x="241.801" y="10.311"/>
</g>
<g style="fill:rgb(0%,0%,0%);fill-opacity:1;">
  <use xlink:href="#glyph1-4" x="263.225" y="46.23"/>
  <use xlink:href="#glyph1-5" x="266.542559" y="46.23"/>
</g>
<g style="fill:rgb(0%,0%,0%);fill-opacity:1;">
  <use xlink:href="#glyph2-2" x="267.167" y="14.382"/>
</g>
<g style="fill:rgb(0%,0%,0%);fill-opacity:1;">
  <use xlink:href="#glyph3-15" x="276.829" y="46.23"/>
</g>
<g style="fill:rgb(0%,0%,0%);fill-opacity:1;">
  <use xlink:href="#glyph3-8" x="282.019535" y="46.23"/>
  <use xlink:href="#glyph3-13" x="287.459137" y="46.23"/>
  <use xlink:href="#glyph3-11" x="293.466609" y="46.23"/>
</g>
<g style="fill:rgb(0%,0%,0%);fill-opacity:1;">
  <use xlink:href="#glyph2-2" x="283.003" y="10.311"/>
</g>
<g style="fill:rgb(0%,0%,0%);fill-opacity:1;">
  <use xlink:href="#glyph3-4" x="302.15" y="46.23"/>
  <use xlink:href="#glyph3-10" x="306.374159" y="46.23"/>
  <use xlink:href="#glyph3-11" x="311.146264" y="46.23"/>
</g>
<g style="fill:rgb(0%,0%,0%);fill-opacity:1;">
  <use xlink:href="#glyph2-2" x="306.616" y="6.241"/>
</g>
<g style="fill:rgb(0%,0%,0%);fill-opacity:1;">
  <use xlink:href="#glyph3-18" x="315.082" y="46.23"/>
</g>
<g style="fill:rgb(0%,0%,0%);fill-opacity:1;">
  <use xlink:href="#glyph3-3" x="320.412012" y="46.23"/>
  <use xlink:href="#glyph3-19" x="325.393332" y="46.23"/>
  <use xlink:href="#glyph3-1" x="331.191589" y="46.23"/>
</g>
<g style="fill:rgb(0%,0%,0%);fill-opacity:1;">
  <use xlink:href="#glyph2-2" x="320.758" y="10.311"/>
</g>
<g style="fill:rgb(0%,0%,0%);fill-opacity:1;">
  <use xlink:href="#glyph4-2" x="339.506" y="46.23"/>
</g>
<g style="fill:rgb(0%,0%,0%);fill-opacity:1;">
  <use xlink:href="#glyph2-5" x="338.837" y="18.452"/>
</g>
<g clip-path="url(#clip5)" clip-rule="nonzero">
<g style="fill:rgb(0%,0%,0%);fill-opacity:1;">
  <use xlink:href="#glyph2-6" x="345.848" y="10.311"/>
</g>
</g>
<g clip-path="url(#clip6)" clip-rule="nonzero">
<path style="fill:none;stroke-width:0.388;stroke-linecap:butt;stroke-linejoin:miter;stroke:rgb(0%,0%,0%);stroke-opacity:1;stroke-miterlimit:10;" d="M 0 0.0004375 L 347.761719 0.0004375 " transform="matrix(1,0,0,-1,0,59.227)"/>
</g>
<g clip-path="url(#clip7)" clip-rule="nonzero">
<path style="fill:none;stroke-width:0.388;stroke-linecap:butt;stroke-linejoin:miter;stroke:rgb(0%,0%,0%);stroke-opacity:1;stroke-miterlimit:10;" d="M 0 -0.0001875 L 347.761719 -0.0001875 " transform="matrix(1,0,0,-1,0,67.367)"/>
</g>
<g clip-path="url(#clip8)" clip-rule="nonzero">
<path style="fill:none;stroke-width:0.388;stroke-linecap:butt;stroke-linejoin:miter;stroke:rgb(0%,0%,0%);stroke-opacity:1;stroke-miterlimit:10;" d="M 0 0.0001875 L 347.761719 0.0001875 " transform="matrix(1,0,0,-1,0,75.508)"/>
</g>
<g clip-path="url(#clip9)" clip-rule="nonzero">
<path style="fill:none;stroke-width:0.388;stroke-linecap:butt;stroke-linejoin:miter;stroke:rgb(0%,0%,0%);stroke-opacity:1;stroke-miterlimit:10;" d="M 0 -0.0004375 L 347.761719 -0.0004375 " transform="matrix(1,0,0,-1,0,83.648)"/>
</g>
<g style="fill:rgb(0%,0%,0%);fill-opacity:1;">
  <use xlink:href="#glyph2-1" x="0" y="73.246"/>
</g>
<g style="fill:rgb(0%,0%,0%);fill-opacity:1;">
  <use xlink:href="#glyph3-1" x="7.086" y="101.025"/>
</g>
<g style="fill:rgb(0%,0%,0%);fill-opacity:1;">
  <use xlink:href="#glyph3-8" x="10.234194" y="101.025"/>
</g>
<g style="fill:rgb(0%,0%,0%);fill-opacity:1;">
  <use xlink:href="#glyph2-2" x="10.81" y="65.106"/>
</g>
<g style="fill:rgb(0%,0%,0%);fill-opacity:1;">
  <use xlink:href="#glyph3-16" x="20.493" y="101.025"/>
  <use xlink:href="#glyph3-8" x="26.032228" y="101.025"/>
</g>
<g style="fill:rgb(0%,0%,0%);fill-opacity:1;">
  <use xlink:href="#glyph2-2" x="26.607" y="65.106"/>
</g>
<g style="fill:rgb(0%,0%,0%);fill-opacity:1;">
  <use xlink:href="#glyph3-17" x="39.833" y="101.025"/>
  <use xlink:href="#glyph3-19" x="42.692278" y="101.025"/>
</g>
<g style="fill:rgb(0%,0%,0%);fill-opacity:1;">
  <use xlink:href="#glyph2-2" x="39.117" y="65.106"/>
</g>
<g style="fill:rgb(0%,0%,0%);fill-opacity:1;">
  <use xlink:href="#glyph3-7" x="53.309" y="101.025"/>
  <use xlink:href="#glyph3-10" x="59.296547" y="101.025"/>
  <use xlink:href="#glyph3-3" x="64.068651" y="101.025"/>
  <use xlink:href="#glyph3-20" x="69.049971" y="101.025"/>
  <use xlink:href="#glyph3-10" x="73.473383" y="101.025"/>
</g>
<g style="fill:rgb(0%,0%,0%);fill-opacity:1;">
  <use xlink:href="#glyph2-2" x="62.028" y="65.106"/>
</g>
<g style="fill:rgb(0%,0%,0%);fill-opacity:1;">
  <use xlink:href="#glyph3-3" x="83.064" y="101.025"/>
</g>
<g style="fill:rgb(0%,0%,0%);fill-opacity:1;">
  <use xlink:href="#glyph2-2" x="83.41" y="65.106"/>
</g>
<g style="fill:rgb(0%,0%,0%);fill-opacity:1;">
  <use xlink:href="#glyph3-20" x="88.046" y="101.025"/>
  <use xlink:href="#glyph3-20" x="92.469412" y="101.025"/>
  <use xlink:href="#glyph3-8" x="96.892824" y="101.025"/>
  <use xlink:href="#glyph3-11" x="102.332426" y="101.025"/>
</g>
<g style="fill:rgb(0%,0%,0%);fill-opacity:1;">
  <use xlink:href="#glyph3-21" x="106.118229" y="101.025"/>
</g>
<g style="fill:rgb(0%,0%,0%);fill-opacity:1;">
  <use xlink:href="#glyph2-2" x="97.467" y="65.106"/>
</g>
<g style="fill:rgb(0%,0%,0%);fill-opacity:1;">
  <use xlink:href="#glyph1-6" x="112.205" y="101.025"/>
  <use xlink:href="#glyph1-7" x="115.522559" y="101.025"/>
  <use xlink:href="#glyph1-8" x="121.609732" y="101.025"/>
</g>
<g style="fill:rgb(0%,0%,0%);fill-opacity:1;">
  <use xlink:href="#glyph2-2" x="111.719" y="69.176"/>
</g>
<g style="fill:rgb(0%,0%,0%);fill-opacity:1;">
  <use xlink:href="#glyph3-1" x="131.968" y="101.025"/>
</g>
<g style="fill:rgb(0%,0%,0%);fill-opacity:1;">
  <use xlink:href="#glyph3-8" x="135.116194" y="101.025"/>
</g>
<g style="fill:rgb(0%,0%,0%);fill-opacity:1;">
  <use xlink:href="#glyph2-2" x="135.691" y="65.106"/>
</g>
<g style="fill:rgb(0%,0%,0%);fill-opacity:1;">
  <use xlink:href="#glyph3-15" x="145.375" y="101.025"/>
</g>
<g style="fill:rgb(0%,0%,0%);fill-opacity:1;">
  <use xlink:href="#glyph3-8" x="150.565535" y="101.025"/>
  <use xlink:href="#glyph3-13" x="156.005137" y="101.025"/>
  <use xlink:href="#glyph3-11" x="162.012609" y="101.025"/>
</g>
<g style="fill:rgb(0%,0%,0%);fill-opacity:1;">
  <use xlink:href="#glyph2-2" x="151.548" y="61.036"/>
</g>
<g style="fill:rgb(0%,0%,0%);fill-opacity:1;">
  <use xlink:href="#glyph3-7" x="170.766" y="101.025"/>
  <use xlink:href="#glyph3-11" x="176.753547" y="101.025"/>
  <use xlink:href="#glyph3-8" x="180.688789" y="101.025"/>
</g>
<g style="fill:rgb(0%,0%,0%);fill-opacity:1;">
  <use xlink:href="#glyph2-2" x="181.264" y="69.176"/>
</g>
<g style="fill:rgb(0%,0%,0%);fill-opacity:1;">
  <use xlink:href="#glyph3-22" x="186.129" y="101.025"/>
  <use xlink:href="#glyph3-17" x="194.926011" y="101.025"/>
  <use xlink:href="#glyph3-4" x="197.785289" y="101.025"/>
  <use xlink:href="#glyph3-10" x="202.009448" y="101.025"/>
  <use xlink:href="#glyph3-23" x="206.781553" y="101.025"/>
</g>
<g style="fill:rgb(0%,0%,0%);fill-opacity:1;">
  <use xlink:href="#glyph2-2" x="194.21" y="77.317"/>
</g>
<g style="fill:rgb(0%,0%,0%);fill-opacity:1;">
  <use xlink:href="#glyph2-7" x="206.769" y="73.246"/>
</g>
<g style="fill:rgb(0%,0%,0%);fill-opacity:1;">
  <use xlink:href="#glyph2-7" x="210.361181" y="73.246"/>
</g>
</g>
</svg>
