%!PS-Adobe-2.0 EPSF-2.0
%%Creator: LilyPond 2.18.2
%%BoundingBox: -9 -128 336 0
%%Orientation: Portrait
%%DocumentSuppliedResources: font Emmentaler-18
%%DocumentSuppliedResources: font TeXGyrePagella-Italic
%%DocumentSuppliedResources: font TeXGyrePagella-Regular
%%EndComments
%%BeginProlog
/lilypond-datadir where {pop} {userdict /lilypond-datadir (/usr/share/lilypond/2.18.2) put } ifelse
%%BeginFont: Emmentaler-18
lilypond-datadir (/fonts/otf/emmentaler-18.otf) concatstrings (r) file .loadfont
%%EndFont

%%BeginFont: TeXGyrePagella-Italic
(/usr/share/texmf/fonts/opentype/public/tex-gyre/texgyrepagella-italic.otf) (r) file .loadfont
%%EndFont

%%BeginFont: TeXGyrePagella-Regular
(/usr/share/texmf/fonts/opentype/public/tex-gyre/texgyrepagella-regular.otf) (r) file .loadfont
%%EndFont

/magfontemmentaler-18mDWo { /Emmentaler-18 6.3263 output-scale div selectfont } bind def
/lily-output-units 2.83464566929134 def %% millimeter
/staff-line-thickness 0.1 def
/line-width 67.3237795275591 def
/paper-size (a4) def
/staff-height 4.0 def
/output-scale 1.75729901757299 def
/page-height 169.00937007874 def
/page-width 119.50157480315 def
%%BeginResource: procset (music-drawing-routines.ps) 1 0
%!PS-Adobe-2.0
%
% Functions for direct and embedded PostScript

% Careful with double % as comment prefix.
% Any %%X comment is interpreted as DSC comments.

% TODO: use dicts or prefixes to prevent namespace pollution.

/pdfmark where
{pop} {userdict /pdfmark /cleartomark load put} ifelse


% llx lly urx ury URI
/mark_URI
{
    /uri exch def
    /ury exch def
    /urx exch def
    /lly exch def
    /llx exch def
    [
	/Rect [ llx lly urx ury ]
	
	/Border [ 0 0 0 ]

        /Action
	    <<
		/Subtype /URI
		/URI uri
	    >>
        /Subtype /Link
    /ANN
    pdfmark
}
bind def

% llx lly urx ury page
/mark_page_link
{
    /page exch def
    /ury exch def
    /urx exch def
    /lly exch def
    /llx exch def
    [
        /Rect [ llx lly urx ury ]
        /Border [ 0 0 0 ]
        /Page page
        /Subtype /Link
    /ANN
    pdfmark
}
bind def

% from adobe tech note 5002.
/BeginEPSF { %def
    /b4_Inc_state save def % Save state for cleanup
    /dict_count countdictstack def % Count objects on dict stack
    /op_count count 1 sub def % Count objects on operand stack
    userdict begin % Push userdict on dict stack
    /showpage { } def % Redefine showpage, { } = null proc
    0 setgray 0 setlinecap % Prepare graphics state
    1 setlinewidth 0 setlinejoin
    10 setmiterlimit [ ] 0 setdash newpath
    false setoverprint
} bind def

/EndEPSF { %def
  count op_count sub {pop} repeat % Clean up stacks
  countdictstack dict_count sub {end} repeat
  b4_Inc_state restore
} bind def

/stroke_and_fill? {
    {
	gsave
	    false setstrokeadjust
	    stroke
	grestore
	fill
    }
    {
	stroke
    }
    ifelse
} bind def

/vector_add { % x1 y1 x2 y2 vector_add x1+x2 y1+y2
	exch
	4 1 roll
	add
	3 1 roll
	add
	exch
} bind def

/draw_round_box % width height x y blot
{
    0 max setlinewidth
    matrix currentmatrix 5 1 roll
    currentpoint translate newpath translate
    2 copy 0 min exch 0 min exch translate
    abs exch abs exch
    currentlinewidth 0 eq
    { % straight corners
	2 copy 2 mul gt
	{ % horizontal
	    0 1 index 2 div moveto
	    setlinewidth
	    0 rlineto
	    0 setlinecap
	    stroke
	}
	{
	    2 copy exch 2 mul gt
	    { % vertical
		1 index 2 div 0 moveto
		exch setlinewidth
		0 exch rlineto
		0 setlinecap
		stroke
	    }
	    {
		0 0 4 2 roll rectfill
	    }
	    ifelse
	}
	ifelse
    }
    { % rounded corners
	2 copy 0 eq exch 0 eq or
	{ % line shape
	    0 0 moveto
	    rlineto
	    1 setlinecap
	    stroke
	    0 setlinecap
	}
	{ % full shape
	    currentstrokeadjust {
		currentlinewidth 2 div
		0 0 2 index 180 270 arc
		2 index 0 2 index 270 360 arc
		3 copy 0 90 arc
		0 2 index 3 -1 roll 90 180 arc
		closepath
		2 copy 2 mul gt
		{ % horizontal
		    2 copy add currentlinewidth add 10 add % large enough
		    0 1 index neg moveto
		    2 index 1 index neg lineto
		    2 index 1 index lineto
		    0 exch lineto closepath
		    gsave clip newpath
		    0 1 index 2 div moveto
		    currentlinewidth add setlinewidth
		    0 rlineto
		    2 setlinecap
		    stroke
		    grestore
		}
		{
		    2 copy exch 2 mul gt
		    { % vertical
			2 copy add currentlinewidth add 10 add % large enough
			dup neg 0 moveto
			dup 0 lineto
			dup 2 index lineto
			neg 1 index lineto closepath
			gsave clip newpath
			1 index 2 div 0 moveto
			exch currentlinewidth add setlinewidth
			0 exch rlineto
			2 setlinecap
			stroke
			grestore
		    }
		    {
			pop pop
			fill
		    }
		    ifelse
		}
		ifelse
		newpath
	    }
	    {
		1 setlinejoin
		0 0 4 2 roll 4 copy rectstroke rectfill
	    }
	    ifelse
	}
	ifelse
    }
    ifelse
    setmatrix
} bind def

/draw_polygon % fill? x(n) y(n) x(n-1) y(n-1) ... x(0) y(0) n blot
{
	setlinewidth %set to blot

	0 setlinecap
	1 setlinejoin

	3 1 roll
	/polygon_x
	currentpoint
	/polygon_y exch def
	def
	rmoveto % x(0) y(0)
	{ polygon_x polygon_y vector_add lineto } repeat % n times
	closepath
	stroke_and_fill?
} bind def

/draw_circle % filled? radius thickness draw_circle
{
	setlinewidth	% f? r
	currentpoint	% f? r x0 y0
	3 2 roll	% f? x0 y0 r
	dup 0 rmoveto
	0 360 arc closepath
	stroke_and_fill?
} bind def

/draw_ellipse % filled? x-radius y-radius thickness draw_ellipse
{
  setlinewidth % f? x-r y-r
  /savematrix matrix currentmatrix def
  scale % f?
  currentpoint
  1 0 rmoveto
  1 0 360  arc closepath
  savematrix setmatrix
  stroke_and_fill?
} bind def

/draw_partial_ellipse % filled connect x-radius y-radius startangle endangle thickness draw_partial_ellipse
% Note that filled is not boolean to permit for different graylevels (ie for trill keys)
{
  gsave
  currentpoint translate
  /thickness exch def
  /endangle exch def
  /startangle exch def
  /y_radius exch def
  /x_radius exch def
  /endrad x_radius y_radius mul
    x_radius x_radius mul
    endangle cos endangle cos mul mul
    y_radius y_radius mul
    endangle sin endangle sin mul mul add sqrt div def
  /endangle endangle sin endrad mul y_radius div
    endangle cos endrad mul x_radius div atan def
  /startrad x_radius y_radius mul
    x_radius x_radius mul
      startangle cos startangle cos mul mul
    y_radius y_radius mul
      startangle sin startangle sin mul mul add sqrt div def
  /startangle startangle sin startrad mul y_radius div
    startangle cos startrad mul x_radius div atan def
  /connect exch def
  /filled exch def
  /savematrix matrix currentmatrix def
  thickness setlinewidth
  x_radius y_radius scale
  startangle cos startangle sin moveto
  0 0 1 startangle
    startangle endangle eq { endangle 360 add } { endangle } ifelse
    arc
  connect {
    startangle cos startangle sin moveto endangle cos endangle sin lineto }
    if
  savematrix setmatrix filled stroke_and_fill?
  grestore
} bind def

/draw_line % dx dy x1 y1 thickness draw_line
{
	setlinewidth % dx dy x1 y1
	1 setlinecap
	rmoveto % dx dy
	rlineto
	stroke
} bind def

/draw_dashed_line % dx dy thickness dashpattern offset draw_dashed_line
{
	1 setlinecap
	setdash % dx dy thickness
	setlinewidth %dx dy
	rlineto
	stroke
	[] 0 setdash % reset dash pattern
} bind def

/print_glyphs % w dx dy glyph print_glyphs
{
	{
		currentpoint %w dx dy glyph x0 y0
		5 2 roll %w x0 y0 dx dy glyph
		3 1 roll %w x0 y0 glyph dx dy
		rmoveto %w x0 y0 glyph
		glyphshow %w x0 y0
		moveto %w
		0 rmoveto
	}repeat
}bind def
%end music-drawing-routines.ps

%%EndResource
%%BeginResource: procset (lilyponddefs.ps) 1 0
%!PS-Adobe-2.0: lilyponddefs.ps
%
% Functions for direct PostScript output

% /setgray { 1 add } bind def

/set-ps-scale-to-lily-scale {
	lily-output-units output-scale mul dup scale
} bind def


/init-paper {
	gsave
	clippath pathbbox newpath
	/paper-height exch def
	/paper-width exch def pop pop pop
	% FIXME
	/top-margin 2 def
	paper-width line-width sub 2 div /left-margin exch def
	grestore
} bind def

/init-lilypond-parameters {
	staff-line-thickness setlinewidth
	staff-height init-paper
} bind def


% end lilyponddefs.ps

%%EndResource
%%EndProlog
%%BeginSetup
init-lilypond-parameters
%%EndSetup

/mark_page_link { pop pop pop pop pop } bind def
gsave set-ps-scale-to-lily-scale
0.0000 -23.1639 moveto 67.2238 0.0000 0.0500 0.0000 0.1000 draw_line
0.0000 -22.1639 moveto 67.2238 0.0000 0.0500 0.0000 0.1000 draw_line
0.0000 -21.1639 moveto 67.2238 0.0000 0.0500 0.0000 0.1000 draw_line
0.0000 -20.1639 moveto 67.2238 0.0000 0.0500 0.0000 0.1000 draw_line
0.0000 -19.1639 moveto 67.2238 0.0000 0.0500 0.0000 0.1000 draw_line
0.0000 -18.1639 moveto 1.5761 0.0000 7.5940 0.0000 0.2000 draw_round_box
0.0000 -18.1639 moveto 1.5761 0.0000 14.3667 0.0000 0.2000 draw_round_box
0.0000 -18.1639 moveto 1.5761 0.0000 18.7293 0.0000 0.2000 draw_round_box
0.0000 -18.1639 moveto 1.5761 0.0000 22.7552 0.0000 0.2000 draw_round_box
0.0000 -18.1639 moveto 1.5761 0.0000 26.4566 0.0000 0.2000 draw_round_box
0.0000 -18.1639 moveto 1.5761 0.0000 30.9434 0.0000 0.2000 draw_round_box
0.0000 -17.1639 moveto 1.5761 0.0000 30.9434 0.0000 0.2000 draw_round_box
0.0000 -18.1639 moveto 1.5761 0.0000 40.1750 0.0000 0.2000 draw_round_box
0.0000 -18.1639 moveto 1.5761 0.0000 43.6414 0.0000 0.2000 draw_round_box
0.0000 -18.1639 moveto 1.5761 0.0000 47.4833 0.0000 0.2000 draw_round_box
0.0000 -6.9204 moveto 67.2238 0.0000 0.0500 0.0000 0.1000 draw_line
0.0000 -5.9204 moveto 67.2238 0.0000 0.0500 0.0000 0.1000 draw_line
0.0000 -4.9204 moveto 67.2238 0.0000 0.0500 0.0000 0.1000 draw_line
0.0000 -3.9204 moveto 67.2238 0.0000 0.0500 0.0000 0.1000 draw_line
0.0000 -2.9204 moveto 67.2238 0.0000 0.0500 0.0000 0.1000 draw_line
48.7984 -4.9204 moveto 0.0500 3.0670 -0.0250 -0.2970 0.0800 draw_round_box
47.6793 -21.1639 moveto magfontemmentaler-18mDWo /noteheads.s2 glyphshow 
47.6793 -17.6639 moveto magfontemmentaler-18mDWo /noteheads.s2 glyphshow 
46.8544 -11.8993 moveto /TeXGyrePagella-Regular 3.90625000 output-scale div selectfont
0.8877 0.0000 0.0000 /r
1.2292 0.0000 0.0000 /o
0.7170 0.0000 0.0000 /f
3 print_glyphs
47.6793 -6.4204 moveto magfontemmentaler-18mDWo /noteheads.s2 glyphshow 
47.6793 -5.4204 moveto magfontemmentaler-18mDWo /noteheads.s2 glyphshow 
43.9024 -21.1639 moveto 0.0500 2.7570 -0.0250 -2.9600 0.0800 draw_round_box
44.9565 -21.1639 moveto 0.0500 2.0670 -0.0250 3.7030 0.0800 draw_round_box
51.8850 -4.9204 moveto 0.0500 2.4237 -0.0250 -4.6267 0.0800 draw_round_box
52.9391 -4.9204 moveto 0.0500 3.2570 -0.0250 -0.7970 0.0800 draw_round_box
51.8200 -20.6639 moveto magfontemmentaler-18mDWo /noteheads.s2 glyphshow 
51.8200 -18.6639 moveto magfontemmentaler-18mDWo /noteheads.s2 glyphshow 
50.3635 -11.8993 moveto /TeXGyrePagella-Regular 3.90625000 output-scale div selectfont
1.0584 0.0000 0.0000 /e
1.1609 0.0000 0.0000 /v
0.6487 0.0000 0.0000 /i
1.2292 0.0000 0.0000 /g
4 print_glyphs
51.8200 -6.9204 moveto magfontemmentaler-18mDWo /noteheads.s2 glyphshow 
51.8200 -5.9204 moveto magfontemmentaler-18mDWo /noteheads.s2 glyphshow 
47.7443 -4.9204 moveto 0.0500 2.0670 -0.0250 -3.7700 0.0800 draw_round_box
47.7443 -21.1639 moveto 0.0500 2.7570 -0.0250 -2.9600 0.0800 draw_round_box
48.7984 -21.1639 moveto 0.0500 2.0670 -0.0250 3.7030 0.0800 draw_round_box
40.3710 -21.1639 moveto magfontemmentaler-18mDWo /noteheads.s2 glyphshow 
41.4901 -21.1639 moveto 0.0500 2.0670 -0.0250 3.7030 0.0800 draw_round_box
40.4360 -4.9204 moveto 0.0500 2.0670 -0.0250 -3.7700 0.0800 draw_round_box
41.4901 -4.9204 moveto 0.0500 3.0670 -0.0250 -0.2970 0.0800 draw_round_box
38.9210 -19.1639 moveto magfontemmentaler-18mDWo /scripts.rcomma glyphshow 
40.3710 -17.6639 moveto magfontemmentaler-18mDWo /noteheads.s2 glyphshow 
38.9210 -19.1639 moveto magfontemmentaler-18mDWo /scripts.rcomma glyphshow 
39.9217 -11.8993 moveto /TeXGyrePagella-Regular 3.90625000 output-scale div selectfont
0.9560 0.0000 0.0000 /s
1.1267 0.0000 0.0000 /a
2 print_glyphs
40.3710 -6.4204 moveto magfontemmentaler-18mDWo /noteheads.s2 glyphshow 
38.9210 -2.9204 moveto magfontemmentaler-18mDWo /scripts.rcomma glyphshow 
40.3710 -5.4204 moveto magfontemmentaler-18mDWo /noteheads.s2 glyphshow 
38.9210 -2.9204 moveto magfontemmentaler-18mDWo /scripts.rcomma glyphshow 
43.9024 -4.9204 moveto 0.0500 2.0670 -0.0250 -3.7700 0.0800 draw_round_box
44.9565 -4.9204 moveto 0.0500 3.0670 -0.0250 -0.2970 0.0800 draw_round_box
43.8374 -21.1639 moveto magfontemmentaler-18mDWo /noteheads.s2 glyphshow 
43.8374 -17.6639 moveto magfontemmentaler-18mDWo /noteheads.s2 glyphshow 
43.0295 -11.8993 moveto /TeXGyrePagella-Regular 3.90625000 output-scale div selectfont
1.0584 0.0000 0.0000 /e
1.7413 0.0000 0.0000 /w
2 print_glyphs
43.8374 -6.4204 moveto magfontemmentaler-18mDWo /noteheads.s2 glyphshow 
43.8374 -5.4204 moveto magfontemmentaler-18mDWo /noteheads.s2 glyphshow 
40.4360 -21.1639 moveto 0.0500 2.7570 -0.0250 -2.9600 0.0800 draw_round_box
58.1150 -9.4204 moveto true 5.9464 0.2000 5.9464 -0.2000 0.0400 -0.2000 0.0400 0.2000 3 0.0800 draw_polygon
59.1691 -16.3539 moveto true 5.9464 0.2000 5.9464 -0.2000 0.0400 -0.2000 0.0400 0.2000 3 0.0800 draw_polygon
58.1150 -23.9739 moveto true 5.9464 0.2000 5.9464 -0.2000 0.0400 -0.2000 0.0400 0.2000 3 0.0800 draw_polygon
59.1691 -2.9204 moveto true 5.9464 0.2000 5.9464 -0.2000 0.0400 -0.2000 0.0400 0.2000 3 0.0800 draw_polygon
64.0364 -21.1639 moveto 0.0500 3.0670 -0.0250 -2.7700 0.0800 draw_round_box
65.0905 -21.1639 moveto 0.0500 2.0670 -0.0250 2.7030 0.0800 draw_round_box
18.9254 -8.4204 moveto true 7.8173 0.2000 7.8173 -0.2000 0.0400 -0.2000 0.0400 0.2000 3 0.0800 draw_polygon
16.8637 -11.8993 moveto 0.4551 0.0500 0.0400 0.4600 0.0800 draw_round_box
23.5154 -1.1267 moveto /TeXGyrePagella-Italic 2.76074219 output-scale div selectfont
0.7853 0.0000 0.0000 /three
1 print_glyphs
22.4614 -10.3067 moveto /TeXGyrePagella-Italic 2.76074219 output-scale div selectfont
0.7853 0.0000 0.0000 /three
1 print_glyphs
23.5154 -14.5602 moveto /TeXGyrePagella-Italic 2.76074219 output-scale div selectfont
0.7853 0.0000 0.0000 /three
1 print_glyphs
22.4614 -24.8602 moveto /TeXGyrePagella-Italic 2.76074219 output-scale div selectfont
0.7853 0.0000 0.0000 /three
1 print_glyphs
19.9794 -1.9204 moveto true 7.8173 0.2000 7.8173 -0.2000 0.0400 -0.2000 0.0400 0.2000 3 0.0800 draw_polygon
19.9794 -15.3539 moveto true 7.8173 0.2000 7.8173 -0.2000 0.0400 -0.2000 0.0400 0.2000 3 0.0800 draw_polygon
18.9254 -22.9739 moveto true 7.8173 0.2000 7.8173 -0.2000 0.0400 -0.2000 0.0400 0.2000 3 0.0800 draw_polygon
49.7583 -11.8993 moveto 0.4551 0.0500 0.0400 0.4600 0.0800 draw_round_box
41.4251 -2.1104 moveto true 7.3983 0.2000 7.3983 -0.2000 0.0400 -0.2000 0.0400 0.2000 3 0.0800 draw_polygon
40.3710 -8.7304 moveto true 7.3983 0.2000 7.3983 -0.2000 0.0400 -0.2000 0.0400 0.2000 3 0.0800 draw_polygon
41.4251 -15.3539 moveto true 7.3983 0.2000 7.3983 -0.2000 0.0400 -0.2000 0.0400 0.2000 3 0.0800 draw_polygon
40.3710 -24.1639 moveto true 7.3983 0.2000 7.3983 -0.2000 0.0400 -0.2000 0.0400 0.2000 3 0.0800 draw_polygon
58.1150 -6.9204 moveto magfontemmentaler-18mDWo /noteheads.s2 glyphshow 
58.1800 -4.9204 moveto 0.0500 2.2570 -0.0250 -4.4600 0.0800 draw_round_box
59.2341 -4.9204 moveto 0.0500 2.7570 -0.0250 -0.7970 0.0800 draw_round_box
58.1150 -20.6639 moveto magfontemmentaler-18mDWo /noteheads.s2 glyphshow 
58.1150 -18.6639 moveto magfontemmentaler-18mDWo /noteheads.s2 glyphshow 
56.0609 -11.8993 moveto /TeXGyrePagella-Regular 3.90625000 output-scale div selectfont
1.0584 0.0000 0.0000 /e
0.9560 0.0000 0.0000 /s
1.2292 0.0000 0.0000 /o
1.2974 0.0000 0.0000 /h
0.7512 0.0000 0.0000 /t
5 print_glyphs
58.1150 -5.9204 moveto magfontemmentaler-18mDWo /noteheads.s2 glyphshow 
51.8850 -21.1639 moveto 0.0500 3.2570 -0.0250 -2.9600 0.0800 draw_round_box
52.9391 -21.1639 moveto 0.0500 2.2570 -0.0250 2.7030 0.0800 draw_round_box
63.9714 -6.9204 moveto magfontemmentaler-18mDWo /noteheads.s2 glyphshow 
64.0364 -4.9204 moveto 0.0500 2.2570 -0.0250 -4.4600 0.0800 draw_round_box
65.0905 -4.9204 moveto 0.0500 2.7570 -0.0250 -0.7970 0.0800 draw_round_box
63.9714 -20.6639 moveto magfontemmentaler-18mDWo /noteheads.s2 glyphshow 
63.9714 -18.6639 moveto magfontemmentaler-18mDWo /noteheads.s2 glyphshow 
62.3783 -11.8993 moveto /TeXGyrePagella-Regular 3.90625000 output-scale div selectfont
1.2292 0.0000 0.0000 /o
1.2974 0.0000 0.0000 /h
1.8437 0.0000 0.0000 /w
3 print_glyphs
63.9714 -5.9204 moveto magfontemmentaler-18mDWo /noteheads.s2 glyphshow 
58.1800 -21.1639 moveto 0.0500 3.0670 -0.0250 -2.7700 0.0800 draw_round_box
59.2341 -21.1639 moveto 0.0500 2.0670 -0.0250 2.7030 0.0800 draw_round_box
14.6277 -4.9204 moveto 0.0500 2.8820 -0.0250 -4.0850 0.0800 draw_round_box
14.6277 -21.1639 moveto 0.0500 3.2570 -0.0250 -1.9600 0.0800 draw_round_box
15.7468 -14.7039 moveto magfontemmentaler-18mDWo /flags.u3 glyphshow 
15.6818 -21.1639 moveto 0.0500 2.7570 -0.0250 3.7030 0.0800 draw_round_box
14.6927 -9.0054 moveto magfontemmentaler-18mDWo /flags.d3 glyphshow 
14.6927 -23.1239 moveto magfontemmentaler-18mDWo /flags.d3 glyphshow 
15.7468 -1.5854 moveto magfontemmentaler-18mDWo /flags.u3 glyphshow 
15.6818 -4.9204 moveto 0.0500 3.1320 -0.0250 0.2030 0.0800 draw_round_box
14.5627 -19.6639 moveto magfontemmentaler-18mDWo /noteheads.s2 glyphshow 
13.1127 -19.1639 moveto magfontemmentaler-18mDWo /scripts.rcomma glyphshow 
14.5627 -17.6639 moveto magfontemmentaler-18mDWo /noteheads.s2 glyphshow 
13.1127 -19.1639 moveto magfontemmentaler-18mDWo /scripts.rcomma glyphshow 
13.5159 -11.8993 moveto /TeXGyrePagella-Regular 3.90625000 output-scale div selectfont
0.8877 0.0000 0.0000 /r
1.2292 0.0000 0.0000 /o
1.1609 0.0000 0.0000 /F
3 print_glyphs
14.5627 -5.9204 moveto magfontemmentaler-18mDWo /noteheads.s2 glyphshow 
13.1127 -2.9204 moveto magfontemmentaler-18mDWo /scripts.rcomma glyphshow 
14.5627 -4.9204 moveto magfontemmentaler-18mDWo /noteheads.s2 glyphshow 
18.9254 -19.6639 moveto magfontemmentaler-18mDWo /noteheads.s2 glyphshow 
20.0444 -21.1639 moveto 0.0500 2.0670 -0.0250 3.7030 0.0800 draw_round_box
18.9904 -4.9204 moveto 0.0500 2.2570 -0.0250 -3.4600 0.0800 draw_round_box
20.0444 -4.9204 moveto 0.0500 2.7570 -0.0250 0.2030 0.0800 draw_round_box
13.1127 -2.9204 moveto magfontemmentaler-18mDWo /scripts.rcomma glyphshow 
18.9254 -17.6639 moveto magfontemmentaler-18mDWo /noteheads.s2 glyphshow 
17.4688 -11.8993 moveto /TeXGyrePagella-Regular 3.90625000 output-scale div selectfont
1.0584 0.0000 0.0000 /e
1.1609 0.0000 0.0000 /v
0.6487 0.0000 0.0000 /i
1.2292 0.0000 0.0000 /g
4 print_glyphs
18.9254 -5.9204 moveto magfontemmentaler-18mDWo /noteheads.s2 glyphshow 
18.9254 -4.9204 moveto magfontemmentaler-18mDWo /noteheads.s2 glyphshow 
0.8000 -5.9204 moveto magfontemmentaler-18mDWo /clefs.G glyphshow 
7.7900 -6.4204 moveto magfontemmentaler-18mDWo /noteheads.s2 glyphshow 
7.7900 -5.4204 moveto magfontemmentaler-18mDWo /noteheads.s2 glyphshow 
4.3000 -20.1639 moveto magfontemmentaler-18mDWo /accidentals.sharp glyphshow 
0.8000 -20.1639 moveto magfontemmentaler-18mDWo /clefs.F glyphshow 
4.3000 -2.9204 moveto magfontemmentaler-18mDWo /accidentals.sharp glyphshow 
5.2750 -11.8993 moveto /TeXGyrePagella-Regular 3.90625000 output-scale div selectfont
0.5463 0.0000 0.0000 /period
1.3657 0.0000 0.0000 /d
1.1267 0.0000 0.0000 /a
1.0584 0.0000 0.0000 /e
0.8877 0.0000 0.0000 /r
1.2292 0.0000 0.0000 /b
6 print_glyphs
-0.0600 -13.0422 moveto 0.0600 20.2435 0.0500 -10.1217 0.1000 draw_round_box
-1.3100 -2.6679 moveto magfontemmentaler-18mDWo /brackettips.up glyphshow 
-1.3100 -23.4164 moveto magfontemmentaler-18mDWo /brackettips.down glyphshow 
-1.3100 -13.0422 moveto 0.4500 20.4335 0.0000 -10.2167 0.0000 draw_round_box
7.8550 -21.1639 moveto 0.0500 3.0903 -0.0250 -3.2933 0.0800 draw_round_box
9.3755 -21.6639 moveto magfontemmentaler-18mDWo /dots.dot glyphshow 
8.9091 -21.1639 moveto 0.0500 2.2570 -0.0250 3.7030 0.0800 draw_round_box
9.3755 -17.6639 moveto magfontemmentaler-18mDWo /dots.dot glyphshow 
7.8550 -4.9204 moveto 0.0500 2.5903 -0.0250 -4.2933 0.0800 draw_round_box
9.3755 -6.4204 moveto magfontemmentaler-18mDWo /dots.dot glyphshow 
8.9091 -4.9204 moveto 0.0500 3.2570 -0.0250 -0.2970 0.0800 draw_round_box
9.3755 -5.4204 moveto magfontemmentaler-18mDWo /dots.dot glyphshow 
7.7900 -21.1639 moveto magfontemmentaler-18mDWo /noteheads.s2 glyphshow 
7.7900 -17.6639 moveto magfontemmentaler-18mDWo /noteheads.s2 glyphshow 
32.2585 -4.9204 moveto 0.0500 2.9237 -0.0250 0.7030 0.0800 draw_round_box
32.7249 -4.4204 moveto magfontemmentaler-18mDWo /dots.dot glyphshow 
31.1394 -22.6639 moveto magfontemmentaler-18mDWo /noteheads.s2 glyphshow 
31.1394 -17.1639 moveto magfontemmentaler-18mDWo /noteheads.s2 glyphshow 
29.8024 -11.8993 moveto /TeXGyrePagella-Regular 3.90625000 output-scale div selectfont
0.9560 0.0000 0.0000 /s
1.2974 0.0000 0.0000 /n
0.6487 0.0000 0.0000 /i
0.9560 0.0000 0.0000 /s
4 print_glyphs
31.1394 -5.9204 moveto magfontemmentaler-18mDWo /noteheads.s2 glyphshow 
31.1394 -4.4204 moveto magfontemmentaler-18mDWo /noteheads.s2 glyphshow 
32.7249 -6.4204 moveto magfontemmentaler-18mDWo /dots.dot glyphshow 
26.7177 -21.1639 moveto 0.0500 3.0670 -0.0250 -1.7700 0.0800 draw_round_box
27.7717 -21.1639 moveto 0.0500 2.0670 -0.0250 3.7030 0.0800 draw_round_box
31.2044 -21.1639 moveto 0.0500 2.5903 -0.0250 -4.2933 0.0800 draw_round_box
32.7249 -22.6639 moveto magfontemmentaler-18mDWo /dots.dot glyphshow 
32.2585 -21.1639 moveto 0.0500 2.2570 -0.0250 4.2030 0.0800 draw_round_box
32.7249 -16.6639 moveto magfontemmentaler-18mDWo /dots.dot glyphshow 
31.2044 -4.9204 moveto 0.0500 2.7570 -0.0250 -3.9600 0.0800 draw_round_box
22.9512 -19.6639 moveto magfontemmentaler-18mDWo /noteheads.s2 glyphshow 
24.0703 -21.1639 moveto 0.0500 2.0670 -0.0250 3.7030 0.0800 draw_round_box
26.7177 -4.9204 moveto 0.0500 2.2570 -0.0250 -3.4600 0.0800 draw_round_box
23.0162 -4.9204 moveto 0.0500 2.2570 -0.0250 -3.4600 0.0800 draw_round_box
24.0703 -4.9204 moveto 0.0500 2.7570 -0.0250 0.2030 0.0800 draw_round_box
22.9512 -17.6639 moveto magfontemmentaler-18mDWo /noteheads.s2 glyphshow 
22.3994 -11.8993 moveto /TeXGyrePagella-Regular 3.90625000 output-scale div selectfont
0.9560 0.0000 0.0000 /s
1.3316 0.0000 0.0000 /u
2 print_glyphs
22.9512 -5.9204 moveto magfontemmentaler-18mDWo /noteheads.s2 glyphshow 
22.9512 -4.9204 moveto magfontemmentaler-18mDWo /noteheads.s2 glyphshow 
18.9904 -21.1639 moveto 0.0500 3.0670 -0.0250 -1.7700 0.0800 draw_round_box
27.7717 -4.9204 moveto 0.0500 2.7570 -0.0250 0.2030 0.0800 draw_round_box
26.6527 -19.6639 moveto magfontemmentaler-18mDWo /noteheads.s2 glyphshow 
26.6527 -17.6639 moveto magfontemmentaler-18mDWo /noteheads.s2 glyphshow 
25.5205 -11.8993 moveto /TeXGyrePagella-Regular 3.90625000 output-scale div selectfont
0.8877 0.0000 0.0000 /r
1.3316 0.0000 0.0000 /u
1.2292 0.0000 0.0000 /o
3 print_glyphs
26.6527 -5.9204 moveto magfontemmentaler-18mDWo /noteheads.s2 glyphshow 
26.6527 -4.9204 moveto magfontemmentaler-18mDWo /noteheads.s2 glyphshow 
23.0162 -21.1639 moveto 0.0500 3.0670 -0.0250 -1.7700 0.0800 draw_round_box
stroke grestore
%%Trailer
%%EOF
