%!PS-Adobe-2.0 EPSF-2.0
%%Creator: LilyPond 2.18.2
%%BoundingBox: -9 -125 336 0
%%Orientation: Portrait
%%DocumentSuppliedResources: font Emmentaler-18
%%DocumentSuppliedResources: font TeXGyrePagella-Italic
%%DocumentSuppliedResources: font TeXGyrePagella-Regular
%%EndComments
%%BeginProlog
/lilypond-datadir where {pop} {userdict /lilypond-datadir (/usr/share/lilypond/2.18.2) put } ifelse
%%BeginFont: Emmentaler-18
lilypond-datadir (/fonts/otf/emmentaler-18.otf) concatstrings (r) file .loadfont
%%EndFont

%%BeginFont: TeXGyrePagella-Italic
(/usr/share/texmf/fonts/opentype/public/tex-gyre/texgyrepagella-italic.otf) (r) file .loadfont
%%EndFont

%%BeginFont: TeXGyrePagella-Regular
(/usr/share/texmf/fonts/opentype/public/tex-gyre/texgyrepagella-regular.otf) (r) file .loadfont
%%EndFont

/magfontemmentaler-18mDWo { /Emmentaler-18 6.3263 output-scale div selectfont } bind def
/lily-output-units 2.83464566929134 def %% millimeter
/staff-line-thickness 0.1 def
/line-width 67.3237795275591 def
/paper-size (a4) def
/staff-height 4.0 def
/output-scale 1.75729901757299 def
/page-height 169.00937007874 def
/page-width 119.50157480315 def
%%BeginResource: procset (music-drawing-routines.ps) 1 0
%!PS-Adobe-2.0
%
% Functions for direct and embedded PostScript

% Careful with double % as comment prefix.
% Any %%X comment is interpreted as DSC comments.

% TODO: use dicts or prefixes to prevent namespace pollution.

/pdfmark where
{pop} {userdict /pdfmark /cleartomark load put} ifelse


% llx lly urx ury URI
/mark_URI
{
    /uri exch def
    /ury exch def
    /urx exch def
    /lly exch def
    /llx exch def
    [
	/Rect [ llx lly urx ury ]
	
	/Border [ 0 0 0 ]

        /Action
	    <<
		/Subtype /URI
		/URI uri
	    >>
        /Subtype /Link
    /ANN
    pdfmark
}
bind def

% llx lly urx ury page
/mark_page_link
{
    /page exch def
    /ury exch def
    /urx exch def
    /lly exch def
    /llx exch def
    [
        /Rect [ llx lly urx ury ]
        /Border [ 0 0 0 ]
        /Page page
        /Subtype /Link
    /ANN
    pdfmark
}
bind def

% from adobe tech note 5002.
/BeginEPSF { %def
    /b4_Inc_state save def % Save state for cleanup
    /dict_count countdictstack def % Count objects on dict stack
    /op_count count 1 sub def % Count objects on operand stack
    userdict begin % Push userdict on dict stack
    /showpage { } def % Redefine showpage, { } = null proc
    0 setgray 0 setlinecap % Prepare graphics state
    1 setlinewidth 0 setlinejoin
    10 setmiterlimit [ ] 0 setdash newpath
    false setoverprint
} bind def

/EndEPSF { %def
  count op_count sub {pop} repeat % Clean up stacks
  countdictstack dict_count sub {end} repeat
  b4_Inc_state restore
} bind def

/stroke_and_fill? {
    {
	gsave
	    false setstrokeadjust
	    stroke
	grestore
	fill
    }
    {
	stroke
    }
    ifelse
} bind def

/vector_add { % x1 y1 x2 y2 vector_add x1+x2 y1+y2
	exch
	4 1 roll
	add
	3 1 roll
	add
	exch
} bind def

/draw_round_box % width height x y blot
{
    0 max setlinewidth
    matrix currentmatrix 5 1 roll
    currentpoint translate newpath translate
    2 copy 0 min exch 0 min exch translate
    abs exch abs exch
    currentlinewidth 0 eq
    { % straight corners
	2 copy 2 mul gt
	{ % horizontal
	    0 1 index 2 div moveto
	    setlinewidth
	    0 rlineto
	    0 setlinecap
	    stroke
	}
	{
	    2 copy exch 2 mul gt
	    { % vertical
		1 index 2 div 0 moveto
		exch setlinewidth
		0 exch rlineto
		0 setlinecap
		stroke
	    }
	    {
		0 0 4 2 roll rectfill
	    }
	    ifelse
	}
	ifelse
    }
    { % rounded corners
	2 copy 0 eq exch 0 eq or
	{ % line shape
	    0 0 moveto
	    rlineto
	    1 setlinecap
	    stroke
	    0 setlinecap
	}
	{ % full shape
	    currentstrokeadjust {
		currentlinewidth 2 div
		0 0 2 index 180 270 arc
		2 index 0 2 index 270 360 arc
		3 copy 0 90 arc
		0 2 index 3 -1 roll 90 180 arc
		closepath
		2 copy 2 mul gt
		{ % horizontal
		    2 copy add currentlinewidth add 10 add % large enough
		    0 1 index neg moveto
		    2 index 1 index neg lineto
		    2 index 1 index lineto
		    0 exch lineto closepath
		    gsave clip newpath
		    0 1 index 2 div moveto
		    currentlinewidth add setlinewidth
		    0 rlineto
		    2 setlinecap
		    stroke
		    grestore
		}
		{
		    2 copy exch 2 mul gt
		    { % vertical
			2 copy add currentlinewidth add 10 add % large enough
			dup neg 0 moveto
			dup 0 lineto
			dup 2 index lineto
			neg 1 index lineto closepath
			gsave clip newpath
			1 index 2 div 0 moveto
			exch currentlinewidth add setlinewidth
			0 exch rlineto
			2 setlinecap
			stroke
			grestore
		    }
		    {
			pop pop
			fill
		    }
		    ifelse
		}
		ifelse
		newpath
	    }
	    {
		1 setlinejoin
		0 0 4 2 roll 4 copy rectstroke rectfill
	    }
	    ifelse
	}
	ifelse
    }
    ifelse
    setmatrix
} bind def

/draw_polygon % fill? x(n) y(n) x(n-1) y(n-1) ... x(0) y(0) n blot
{
	setlinewidth %set to blot

	0 setlinecap
	1 setlinejoin

	3 1 roll
	/polygon_x
	currentpoint
	/polygon_y exch def
	def
	rmoveto % x(0) y(0)
	{ polygon_x polygon_y vector_add lineto } repeat % n times
	closepath
	stroke_and_fill?
} bind def

/draw_circle % filled? radius thickness draw_circle
{
	setlinewidth	% f? r
	currentpoint	% f? r x0 y0
	3 2 roll	% f? x0 y0 r
	dup 0 rmoveto
	0 360 arc closepath
	stroke_and_fill?
} bind def

/draw_ellipse % filled? x-radius y-radius thickness draw_ellipse
{
  setlinewidth % f? x-r y-r
  /savematrix matrix currentmatrix def
  scale % f?
  currentpoint
  1 0 rmoveto
  1 0 360  arc closepath
  savematrix setmatrix
  stroke_and_fill?
} bind def

/draw_partial_ellipse % filled connect x-radius y-radius startangle endangle thickness draw_partial_ellipse
% Note that filled is not boolean to permit for different graylevels (ie for trill keys)
{
  gsave
  currentpoint translate
  /thickness exch def
  /endangle exch def
  /startangle exch def
  /y_radius exch def
  /x_radius exch def
  /endrad x_radius y_radius mul
    x_radius x_radius mul
    endangle cos endangle cos mul mul
    y_radius y_radius mul
    endangle sin endangle sin mul mul add sqrt div def
  /endangle endangle sin endrad mul y_radius div
    endangle cos endrad mul x_radius div atan def
  /startrad x_radius y_radius mul
    x_radius x_radius mul
      startangle cos startangle cos mul mul
    y_radius y_radius mul
      startangle sin startangle sin mul mul add sqrt div def
  /startangle startangle sin startrad mul y_radius div
    startangle cos startrad mul x_radius div atan def
  /connect exch def
  /filled exch def
  /savematrix matrix currentmatrix def
  thickness setlinewidth
  x_radius y_radius scale
  startangle cos startangle sin moveto
  0 0 1 startangle
    startangle endangle eq { endangle 360 add } { endangle } ifelse
    arc
  connect {
    startangle cos startangle sin moveto endangle cos endangle sin lineto }
    if
  savematrix setmatrix filled stroke_and_fill?
  grestore
} bind def

/draw_line % dx dy x1 y1 thickness draw_line
{
	setlinewidth % dx dy x1 y1
	1 setlinecap
	rmoveto % dx dy
	rlineto
	stroke
} bind def

/draw_dashed_line % dx dy thickness dashpattern offset draw_dashed_line
{
	1 setlinecap
	setdash % dx dy thickness
	setlinewidth %dx dy
	rlineto
	stroke
	[] 0 setdash % reset dash pattern
} bind def

/print_glyphs % w dx dy glyph print_glyphs
{
	{
		currentpoint %w dx dy glyph x0 y0
		5 2 roll %w x0 y0 dx dy glyph
		3 1 roll %w x0 y0 glyph dx dy
		rmoveto %w x0 y0 glyph
		glyphshow %w x0 y0
		moveto %w
		0 rmoveto
	}repeat
}bind def
%end music-drawing-routines.ps

%%EndResource
%%BeginResource: procset (lilyponddefs.ps) 1 0
%!PS-Adobe-2.0: lilyponddefs.ps
%
% Functions for direct PostScript output

% /setgray { 1 add } bind def

/set-ps-scale-to-lily-scale {
	lily-output-units output-scale mul dup scale
} bind def


/init-paper {
	gsave
	clippath pathbbox newpath
	/paper-height exch def
	/paper-width exch def pop pop pop
	% FIXME
	/top-margin 2 def
	paper-width line-width sub 2 div /left-margin exch def
	grestore
} bind def

/init-lilypond-parameters {
	staff-line-thickness setlinewidth
	staff-height init-paper
} bind def


% end lilyponddefs.ps

%%EndResource
%%EndProlog
%%BeginSetup
init-lilypond-parameters
%%EndSetup

/mark_page_link { pop pop pop pop pop } bind def
gsave set-ps-scale-to-lily-scale
0.0000 -5.9204 moveto 67.2238 0.0000 0.0500 0.0000 0.1000 draw_line
0.0000 -4.9204 moveto 67.2238 0.0000 0.0500 0.0000 0.1000 draw_line
0.0000 -3.9204 moveto 67.2238 0.0000 0.0500 0.0000 0.1000 draw_line
0.0000 -2.9204 moveto 67.2238 0.0000 0.0500 0.0000 0.1000 draw_line
0.0000 -1.9204 moveto 67.2238 0.0000 0.0500 0.0000 0.1000 draw_line
0.0000 -22.1639 moveto 67.2238 0.0000 0.0500 0.0000 0.1000 draw_line
0.0000 -21.1639 moveto 67.2238 0.0000 0.0500 0.0000 0.1000 draw_line
0.0000 -20.1639 moveto 67.2238 0.0000 0.0500 0.0000 0.1000 draw_line
0.0000 -19.1639 moveto 67.2238 0.0000 0.0500 0.0000 0.1000 draw_line
0.0000 -18.1639 moveto 67.2238 0.0000 0.0500 0.0000 0.1000 draw_line
0.0000 -17.1639 moveto 1.4551 0.0000 21.3186 0.0000 0.2000 draw_round_box
0.0000 -17.1639 moveto 1.6821 0.0000 26.9787 0.0000 0.2000 draw_round_box
51.6838 -20.1639 moveto 0.0500 2.0670 -0.0250 2.7030 0.0800 draw_round_box
50.6297 -3.9204 moveto 0.0500 2.2570 -0.0250 -4.4600 0.0800 draw_round_box
51.6838 -3.9204 moveto 0.0500 2.7570 -0.0250 -0.7970 0.0800 draw_round_box
50.5647 -19.6639 moveto magfontemmentaler-18mDWo /noteheads.s2 glyphshow 
50.5647 -17.6639 moveto magfontemmentaler-18mDWo /noteheads.s2 glyphshow 
49.3472 -11.8993 moveto /TeXGyrePagella-Regular 3.90625000 output-scale div selectfont
1.2292 0.0000 0.0000 /y
1.0243 0.0000 0.0000 /a
1.3657 0.0000 0.0000 /d
3 print_glyphs
50.5647 -5.9204 moveto magfontemmentaler-18mDWo /noteheads.s2 glyphshow 
50.5647 -4.9204 moveto magfontemmentaler-18mDWo /noteheads.s2 glyphshow 
56.6483 -3.9204 moveto 0.0500 2.7570 -0.0250 -0.7970 0.0800 draw_round_box
56.6483 -20.1639 moveto 0.0500 2.0670 -0.0250 2.7030 0.0800 draw_round_box
55.5942 -3.9204 moveto 0.0500 2.2570 -0.0250 -4.4600 0.0800 draw_round_box
55.5292 -19.6639 moveto magfontemmentaler-18mDWo /noteheads.s2 glyphshow 
55.5292 -17.6639 moveto magfontemmentaler-18mDWo /noteheads.s2 glyphshow 
54.3970 -11.8993 moveto /TeXGyrePagella-Regular 3.90625000 output-scale div selectfont
0.8877 0.0000 0.0000 /r
1.3316 0.0000 0.0000 /u
1.2292 0.0000 0.0000 /o
3 print_glyphs
55.5292 -5.9204 moveto magfontemmentaler-18mDWo /noteheads.s2 glyphshow 
55.5292 -4.9204 moveto magfontemmentaler-18mDWo /noteheads.s2 glyphshow 
50.6297 -20.1639 moveto 0.0500 3.0670 -0.0250 -2.7700 0.0800 draw_round_box
43.9068 -20.1639 moveto 0.0500 3.0670 -0.0250 -2.7700 0.0800 draw_round_box
44.9608 -20.1639 moveto 0.0500 2.0670 -0.0250 2.7030 0.0800 draw_round_box
43.9068 -3.9204 moveto 0.0500 2.2570 -0.0250 -4.4600 0.0800 draw_round_box
44.9608 -3.9204 moveto 0.0500 2.7570 -0.0250 -0.7970 0.0800 draw_round_box
43.8418 -19.6639 moveto magfontemmentaler-18mDWo /noteheads.s2 glyphshow 
43.8418 -17.6639 moveto magfontemmentaler-18mDWo /noteheads.s2 glyphshow 
43.2900 -11.8993 moveto /TeXGyrePagella-Regular 3.90625000 output-scale div selectfont
0.9560 0.0000 0.0000 /s
1.3316 0.0000 0.0000 /u
2 print_glyphs
43.8418 -5.9204 moveto magfontemmentaler-18mDWo /noteheads.s2 glyphshow 
43.8418 -4.9204 moveto magfontemmentaler-18mDWo /noteheads.s2 glyphshow 
47.1104 -20.1639 moveto 0.0500 3.0670 -0.0250 -2.7700 0.0800 draw_round_box
48.1644 -20.1639 moveto 0.0500 2.0670 -0.0250 2.7030 0.0800 draw_round_box
47.1104 -3.9204 moveto 0.0500 2.2570 -0.0250 -4.4600 0.0800 draw_round_box
48.1644 -3.9204 moveto 0.0500 2.7570 -0.0250 -0.7970 0.0800 draw_round_box
47.0454 -19.6639 moveto magfontemmentaler-18mDWo /noteheads.s2 glyphshow 
47.0454 -17.6639 moveto magfontemmentaler-18mDWo /noteheads.s2 glyphshow 
46.6814 -11.8993 moveto /TeXGyrePagella-Regular 3.90625000 output-scale div selectfont
1.2292 0.0000 0.0000 /o
0.6829 0.0000 0.0000 /t
2 print_glyphs
47.0454 -5.9204 moveto magfontemmentaler-18mDWo /noteheads.s2 glyphshow 
47.0454 -4.9204 moveto magfontemmentaler-18mDWo /noteheads.s2 glyphshow 
51.6188 -1.9204 moveto true 13.3360 0.2000 13.3360 -0.2000 0.0400 -0.2000 0.0400 0.2000 3 0.0800 draw_polygon
50.5647 -8.4204 moveto true 13.3360 0.2000 13.3360 -0.2000 0.0400 -0.2000 0.0400 0.2000 3 0.0800 draw_polygon
51.6188 -15.3539 moveto true 13.3360 0.2000 13.3360 -0.2000 0.0400 -0.2000 0.0400 0.2000 3 0.0800 draw_polygon
50.5647 -22.9739 moveto true 13.3360 0.2000 13.3360 -0.2000 0.0400 -0.2000 0.0400 0.2000 3 0.0800 draw_polygon
62.6277 -11.8993 moveto 0.5800 0.0500 0.0400 0.4600 0.0800 draw_round_box
63.8758 -20.1639 moveto 0.0500 3.0670 -0.0250 -2.7700 0.0800 draw_round_box
24.4276 -11.8993 moveto 0.5800 0.0500 0.0400 0.4600 0.0800 draw_round_box
14.8575 -1.9204 moveto true 3.5351 0.2000 3.5351 -0.2000 0.0400 -0.2000 0.0400 0.2000 3 0.0800 draw_polygon
13.8034 -8.4204 moveto true 3.5351 0.2000 3.5351 -0.2000 0.0400 -0.2000 0.0400 0.2000 3 0.0800 draw_polygon
14.8575 -15.3539 moveto true 3.5351 0.2000 3.5351 -0.2000 0.0400 -0.2000 0.0400 0.2000 3 0.0800 draw_polygon
13.8034 -22.9739 moveto true 3.5351 0.2000 3.5351 -0.2000 0.0400 -0.2000 0.0400 0.2000 3 0.0800 draw_polygon
43.9024 -1.1267 moveto /TeXGyrePagella-Italic 2.76074219 output-scale div selectfont
0.7853 0.0000 0.0000 /three
1 print_glyphs
42.8483 -10.3067 moveto /TeXGyrePagella-Italic 2.76074219 output-scale div selectfont
0.7853 0.0000 0.0000 /three
1 print_glyphs
43.9024 -14.5602 moveto /TeXGyrePagella-Italic 2.76074219 output-scale div selectfont
0.7853 0.0000 0.0000 /three
1 print_glyphs
42.8483 -24.8602 moveto /TeXGyrePagella-Italic 2.76074219 output-scale div selectfont
0.7853 0.0000 0.0000 /three
1 print_glyphs
48.6634 -11.8993 moveto 0.5338 0.0500 0.0400 0.4600 0.0800 draw_round_box
40.3607 -1.9204 moveto true 7.8288 0.2000 7.8288 -0.2000 0.0400 -0.2000 0.0400 0.2000 3 0.0800 draw_polygon
39.3066 -8.4204 moveto true 7.8288 0.2000 7.8288 -0.2000 0.0400 -0.2000 0.0400 0.2000 3 0.0800 draw_polygon
40.3607 -15.3539 moveto true 7.8288 0.2000 7.8288 -0.2000 0.0400 -0.2000 0.0400 0.2000 3 0.0800 draw_polygon
39.3066 -22.9739 moveto true 7.8288 0.2000 7.8288 -0.2000 0.0400 -0.2000 0.0400 0.2000 3 0.0800 draw_polygon
61.3738 -3.9204 moveto 0.0500 2.7570 -0.0250 -0.7970 0.0800 draw_round_box
61.3738 -20.1639 moveto 0.0500 2.0670 -0.0250 2.7030 0.0800 draw_round_box
60.3197 -3.9204 moveto 0.0500 2.2570 -0.0250 -4.4600 0.0800 draw_round_box
60.2547 -19.6639 moveto magfontemmentaler-18mDWo /noteheads.s2 glyphshow 
60.2547 -17.6639 moveto magfontemmentaler-18mDWo /noteheads.s2 glyphshow 
59.2762 -11.8993 moveto /TeXGyrePagella-Regular 3.90625000 output-scale div selectfont
0.6487 0.0000 0.0000 /i
1.1267 0.0000 0.0000 /a
1.3657 0.0000 0.0000 /d
3 print_glyphs
60.2547 -5.9204 moveto magfontemmentaler-18mDWo /noteheads.s2 glyphshow 
60.2547 -4.9204 moveto magfontemmentaler-18mDWo /noteheads.s2 glyphshow 
55.5942 -20.1639 moveto 0.0500 3.0670 -0.0250 -2.7700 0.0800 draw_round_box
63.8108 -19.6639 moveto magfontemmentaler-18mDWo /noteheads.s2 glyphshow 
64.9298 -20.1639 moveto 0.0500 2.0670 -0.0250 2.7030 0.0800 draw_round_box
63.8758 -3.9204 moveto 0.0500 2.2570 -0.0250 -4.4600 0.0800 draw_round_box
64.9298 -3.9204 moveto 0.0500 2.7570 -0.0250 -0.7970 0.0800 draw_round_box
63.8108 -17.6639 moveto magfontemmentaler-18mDWo /noteheads.s2 glyphshow 
63.4980 -11.8993 moveto /TeXGyrePagella-Regular 3.90625000 output-scale div selectfont
1.2292 0.0000 0.0000 /y
0.5804 0.0000 0.0000 /l
2 print_glyphs
63.8108 -5.9204 moveto magfontemmentaler-18mDWo /noteheads.s2 glyphshow 
63.8108 -4.9204 moveto magfontemmentaler-18mDWo /noteheads.s2 glyphshow 
60.3197 -20.1639 moveto 0.0500 3.0670 -0.0250 -2.7700 0.0800 draw_round_box
16.8675 -11.8993 moveto /TeXGyrePagella-Regular 3.90625000 output-scale div selectfont
1.2974 0.0000 0.0000 /n
0.6487 0.0000 0.0000 /i
2 print_glyphs
17.2486 -5.9204 moveto magfontemmentaler-18mDWo /noteheads.s2 glyphshow 
17.2486 -4.9204 moveto magfontemmentaler-18mDWo /noteheads.s2 glyphshow 
13.8684 -20.1639 moveto 0.0500 3.0670 -0.0250 -2.7700 0.0800 draw_round_box
17.2486 -17.6639 moveto magfontemmentaler-18mDWo /noteheads.s2 glyphshow 
14.9225 -20.1639 moveto 0.0500 2.0670 -0.0250 2.7030 0.0800 draw_round_box
13.8684 -3.9204 moveto 0.0500 2.2570 -0.0250 -4.4600 0.0800 draw_round_box
14.9225 -3.9204 moveto 0.0500 2.7570 -0.0250 -0.7970 0.0800 draw_round_box
18.3676 -20.1639 moveto 0.0500 2.0670 -0.0250 2.7030 0.0800 draw_round_box
21.3936 -5.9204 moveto magfontemmentaler-18mDWo /noteheads.s2 glyphshow 
21.3936 -4.4204 moveto magfontemmentaler-18mDWo /noteheads.s2 glyphshow 
17.3136 -20.1639 moveto 0.0500 3.0670 -0.0250 -2.7700 0.0800 draw_round_box
13.8034 -19.6639 moveto magfontemmentaler-18mDWo /noteheads.s2 glyphshow 
17.3136 -3.9204 moveto 0.0500 2.2570 -0.0250 -4.4600 0.0800 draw_round_box
18.3676 -3.9204 moveto 0.0500 2.7570 -0.0250 -0.7970 0.0800 draw_round_box
17.2486 -19.6639 moveto magfontemmentaler-18mDWo /noteheads.s2 glyphshow 
0.8000 -4.9204 moveto magfontemmentaler-18mDWo /clefs.G glyphshow 
7.7900 -4.9204 moveto magfontemmentaler-18mDWo /noteheads.s2 glyphshow 
4.3000 -19.1639 moveto magfontemmentaler-18mDWo /accidentals.sharp glyphshow 
0.8000 -19.1639 moveto magfontemmentaler-18mDWo /clefs.F glyphshow 
4.3000 -1.9204 moveto magfontemmentaler-18mDWo /accidentals.sharp glyphshow 
7.7900 -5.9204 moveto magfontemmentaler-18mDWo /noteheads.s2 glyphshow 
-0.0600 -12.0422 moveto 0.0600 20.2435 0.0500 -10.1217 0.1000 draw_round_box
-1.3100 -1.6679 moveto magfontemmentaler-18mDWo /brackettips.up glyphshow 
-1.3100 -22.4164 moveto magfontemmentaler-18mDWo /brackettips.down glyphshow 
-1.3100 -12.0422 moveto 0.4500 20.4335 0.0000 -10.2167 0.0000 draw_round_box
8.9091 -20.1639 moveto 0.0500 2.2570 -0.0250 2.7030 0.0800 draw_round_box
13.8034 -17.6639 moveto magfontemmentaler-18mDWo /noteheads.s2 glyphshow 
13.3541 -11.8993 moveto /TeXGyrePagella-Regular 3.90625000 output-scale div selectfont
0.9560 0.0000 0.0000 /s
1.1267 0.0000 0.0000 /a
2 print_glyphs
13.8034 -5.9204 moveto magfontemmentaler-18mDWo /noteheads.s2 glyphshow 
13.8034 -4.9204 moveto magfontemmentaler-18mDWo /noteheads.s2 glyphshow 
7.8550 -20.1639 moveto 0.0500 3.2570 -0.0250 -2.9600 0.0800 draw_round_box
7.8550 -3.9204 moveto 0.0500 2.4237 -0.0250 -4.6267 0.0800 draw_round_box
8.9091 -3.9204 moveto 0.0500 3.2570 -0.0250 -0.7970 0.0800 draw_round_box
7.7900 -19.6639 moveto magfontemmentaler-18mDWo /noteheads.s2 glyphshow 
7.7900 -17.6639 moveto magfontemmentaler-18mDWo /noteheads.s2 glyphshow 
5.8213 -11.8993 moveto /TeXGyrePagella-Regular 3.90625000 output-scale div selectfont
1.2974 0.0000 0.0000 /h
0.7512 0.0000 0.0000 /t
0.8877 0.0000 0.0000 /r
1.1267 0.0000 0.0000 /a
1.0584 0.0000 0.0000 /e
5 print_glyphs
37.8566 -1.9204 moveto magfontemmentaler-18mDWo /scripts.rcomma glyphshow 
39.3716 -20.1639 moveto 0.0500 3.0670 -0.0250 -2.7700 0.0800 draw_round_box
39.3066 -4.9204 moveto magfontemmentaler-18mDWo /noteheads.s2 glyphshow 
27.2574 -20.1639 moveto 0.0500 6.0234 -0.0250 -4.2933 0.0800 draw_round_box
40.4257 -20.1639 moveto 0.0500 2.0670 -0.0250 2.7030 0.0800 draw_round_box
39.3716 -3.9204 moveto 0.0500 2.2570 -0.0250 -4.4600 0.0800 draw_round_box
40.4257 -3.9204 moveto 0.0500 2.7570 -0.0250 -0.7970 0.0800 draw_round_box
39.3066 -19.6639 moveto magfontemmentaler-18mDWo /noteheads.s2 glyphshow 
37.8566 -18.1639 moveto magfontemmentaler-18mDWo /scripts.rcomma glyphshow 
39.3066 -17.6639 moveto magfontemmentaler-18mDWo /noteheads.s2 glyphshow 
37.8566 -18.1639 moveto magfontemmentaler-18mDWo /scripts.rcomma glyphshow 
37.6110 -11.8993 moveto /TeXGyrePagella-Regular 3.90625000 output-scale div selectfont
1.0584 0.0000 0.0000 /e
1.1609 0.0000 0.0000 /v
0.6487 0.0000 0.0000 /i
1.7072 0.0000 0.0000 /G
4 print_glyphs
39.3066 -5.9204 moveto magfontemmentaler-18mDWo /noteheads.s2 glyphshow 
37.8566 -1.9204 moveto magfontemmentaler-18mDWo /scripts.rcomma glyphshow 
21.4586 -20.1639 moveto 0.0500 6.0903 -0.0250 -4.2933 0.0800 draw_round_box
22.5127 -20.1639 moveto 0.0500 2.2570 -0.0250 3.2030 0.0800 draw_round_box
20.0536 -17.1639 moveto magfontemmentaler-18mDWo /accidentals.sharp glyphshow 
21.4586 -3.9204 moveto 0.0500 2.4237 -0.0250 -4.6267 0.0800 draw_round_box
22.5127 -3.9204 moveto 0.0500 3.2570 -0.0250 -0.2970 0.0800 draw_round_box
21.3936 -18.1639 moveto magfontemmentaler-18mDWo /noteheads.s2 glyphshow 
21.3936 -21.6639 moveto magfontemmentaler-18mDWo /noteheads.s2 glyphshow 
20.2443 -11.8993 moveto /TeXGyrePagella-Regular 3.90625000 output-scale div selectfont
1.1267 0.0000 0.0000 /a
1.0584 0.0000 0.0000 /e
1.2974 0.0000 0.0000 /h
3 print_glyphs
21.3936 -17.1639 moveto magfontemmentaler-18mDWo /noteheads.s2 glyphshow 
28.3822 -20.1639 moveto 0.0500 2.1901 -0.0250 3.2699 0.0800 draw_round_box
27.2574 -3.9204 moveto 0.0500 2.3568 -0.0250 -4.6267 0.0800 draw_round_box
28.3822 -3.9204 moveto 0.0500 3.1901 -0.0250 -0.2301 0.0800 draw_round_box
27.1924 -18.1639 moveto magfontemmentaler-18mDWo /noteheads.s1 glyphshow 
27.1924 -21.6639 moveto magfontemmentaler-18mDWo /noteheads.s1 glyphshow 
27.1924 -17.1639 moveto magfontemmentaler-18mDWo /noteheads.s1 glyphshow 
25.7883 -11.8993 moveto /TeXGyrePagella-Regular 3.90625000 output-scale div selectfont
0.5463 0.0000 0.0000 /period
1.2974 0.0000 0.0000 /n
1.0584 0.0000 0.0000 /e
1.1609 0.0000 0.0000 /v
4 print_glyphs
27.1924 -5.9204 moveto magfontemmentaler-18mDWo /noteheads.s1 glyphshow 
27.1924 -4.4204 moveto magfontemmentaler-18mDWo /noteheads.s1 glyphshow 
stroke grestore
%%Trailer
%%EOF
