%!PS-Adobe-2.0 EPSF-2.0
%%Creator: LilyPond 2.18.2
%%BoundingBox: -9 -111 336 0
%%Orientation: Portrait
%%DocumentSuppliedResources: font Emmentaler-18
%%DocumentSuppliedResources: font TeXGyrePagella-Italic
%%DocumentSuppliedResources: font TeXGyrePagella-Regular
%%EndComments
%%BeginProlog
/lilypond-datadir where {pop} {userdict /lilypond-datadir (/usr/share/lilypond/2.18.2) put } ifelse
%%BeginFont: Emmentaler-18
lilypond-datadir (/fonts/otf/emmentaler-18.otf) concatstrings (r) file .loadfont
%%EndFont

%%BeginFont: TeXGyrePagella-Italic
(/usr/share/texmf/fonts/opentype/public/tex-gyre/texgyrepagella-italic.otf) (r) file .loadfont
%%EndFont

%%BeginFont: TeXGyrePagella-Regular
(/usr/share/texmf/fonts/opentype/public/tex-gyre/texgyrepagella-regular.otf) (r) file .loadfont
%%EndFont

/magfontemmentaler-18mDWo { /Emmentaler-18 6.3263 output-scale div selectfont } bind def
/lily-output-units 2.83464566929134 def %% millimeter
/staff-line-thickness 0.1 def
/line-width 67.3237795275591 def
/paper-size (a4) def
/staff-height 4.0 def
/output-scale 1.75729901757299 def
/page-height 169.00937007874 def
/page-width 119.50157480315 def
%%BeginResource: procset (music-drawing-routines.ps) 1 0
%!PS-Adobe-2.0
%
% Functions for direct and embedded PostScript

% Careful with double % as comment prefix.
% Any %%X comment is interpreted as DSC comments.

% TODO: use dicts or prefixes to prevent namespace pollution.

/pdfmark where
{pop} {userdict /pdfmark /cleartomark load put} ifelse


% llx lly urx ury URI
/mark_URI
{
    /uri exch def
    /ury exch def
    /urx exch def
    /lly exch def
    /llx exch def
    [
	/Rect [ llx lly urx ury ]
	
	/Border [ 0 0 0 ]

        /Action
	    <<
		/Subtype /URI
		/URI uri
	    >>
        /Subtype /Link
    /ANN
    pdfmark
}
bind def

% llx lly urx ury page
/mark_page_link
{
    /page exch def
    /ury exch def
    /urx exch def
    /lly exch def
    /llx exch def
    [
        /Rect [ llx lly urx ury ]
        /Border [ 0 0 0 ]
        /Page page
        /Subtype /Link
    /ANN
    pdfmark
}
bind def

% from adobe tech note 5002.
/BeginEPSF { %def
    /b4_Inc_state save def % Save state for cleanup
    /dict_count countdictstack def % Count objects on dict stack
    /op_count count 1 sub def % Count objects on operand stack
    userdict begin % Push userdict on dict stack
    /showpage { } def % Redefine showpage, { } = null proc
    0 setgray 0 setlinecap % Prepare graphics state
    1 setlinewidth 0 setlinejoin
    10 setmiterlimit [ ] 0 setdash newpath
    false setoverprint
} bind def

/EndEPSF { %def
  count op_count sub {pop} repeat % Clean up stacks
  countdictstack dict_count sub {end} repeat
  b4_Inc_state restore
} bind def

/stroke_and_fill? {
    {
	gsave
	    false setstrokeadjust
	    stroke
	grestore
	fill
    }
    {
	stroke
    }
    ifelse
} bind def

/vector_add { % x1 y1 x2 y2 vector_add x1+x2 y1+y2
	exch
	4 1 roll
	add
	3 1 roll
	add
	exch
} bind def

/draw_round_box % width height x y blot
{
    0 max setlinewidth
    matrix currentmatrix 5 1 roll
    currentpoint translate newpath translate
    2 copy 0 min exch 0 min exch translate
    abs exch abs exch
    currentlinewidth 0 eq
    { % straight corners
	2 copy 2 mul gt
	{ % horizontal
	    0 1 index 2 div moveto
	    setlinewidth
	    0 rlineto
	    0 setlinecap
	    stroke
	}
	{
	    2 copy exch 2 mul gt
	    { % vertical
		1 index 2 div 0 moveto
		exch setlinewidth
		0 exch rlineto
		0 setlinecap
		stroke
	    }
	    {
		0 0 4 2 roll rectfill
	    }
	    ifelse
	}
	ifelse
    }
    { % rounded corners
	2 copy 0 eq exch 0 eq or
	{ % line shape
	    0 0 moveto
	    rlineto
	    1 setlinecap
	    stroke
	    0 setlinecap
	}
	{ % full shape
	    currentstrokeadjust {
		currentlinewidth 2 div
		0 0 2 index 180 270 arc
		2 index 0 2 index 270 360 arc
		3 copy 0 90 arc
		0 2 index 3 -1 roll 90 180 arc
		closepath
		2 copy 2 mul gt
		{ % horizontal
		    2 copy add currentlinewidth add 10 add % large enough
		    0 1 index neg moveto
		    2 index 1 index neg lineto
		    2 index 1 index lineto
		    0 exch lineto closepath
		    gsave clip newpath
		    0 1 index 2 div moveto
		    currentlinewidth add setlinewidth
		    0 rlineto
		    2 setlinecap
		    stroke
		    grestore
		}
		{
		    2 copy exch 2 mul gt
		    { % vertical
			2 copy add currentlinewidth add 10 add % large enough
			dup neg 0 moveto
			dup 0 lineto
			dup 2 index lineto
			neg 1 index lineto closepath
			gsave clip newpath
			1 index 2 div 0 moveto
			exch currentlinewidth add setlinewidth
			0 exch rlineto
			2 setlinecap
			stroke
			grestore
		    }
		    {
			pop pop
			fill
		    }
		    ifelse
		}
		ifelse
		newpath
	    }
	    {
		1 setlinejoin
		0 0 4 2 roll 4 copy rectstroke rectfill
	    }
	    ifelse
	}
	ifelse
    }
    ifelse
    setmatrix
} bind def

/draw_polygon % fill? x(n) y(n) x(n-1) y(n-1) ... x(0) y(0) n blot
{
	setlinewidth %set to blot

	0 setlinecap
	1 setlinejoin

	3 1 roll
	/polygon_x
	currentpoint
	/polygon_y exch def
	def
	rmoveto % x(0) y(0)
	{ polygon_x polygon_y vector_add lineto } repeat % n times
	closepath
	stroke_and_fill?
} bind def

/draw_circle % filled? radius thickness draw_circle
{
	setlinewidth	% f? r
	currentpoint	% f? r x0 y0
	3 2 roll	% f? x0 y0 r
	dup 0 rmoveto
	0 360 arc closepath
	stroke_and_fill?
} bind def

/draw_ellipse % filled? x-radius y-radius thickness draw_ellipse
{
  setlinewidth % f? x-r y-r
  /savematrix matrix currentmatrix def
  scale % f?
  currentpoint
  1 0 rmoveto
  1 0 360  arc closepath
  savematrix setmatrix
  stroke_and_fill?
} bind def

/draw_partial_ellipse % filled connect x-radius y-radius startangle endangle thickness draw_partial_ellipse
% Note that filled is not boolean to permit for different graylevels (ie for trill keys)
{
  gsave
  currentpoint translate
  /thickness exch def
  /endangle exch def
  /startangle exch def
  /y_radius exch def
  /x_radius exch def
  /endrad x_radius y_radius mul
    x_radius x_radius mul
    endangle cos endangle cos mul mul
    y_radius y_radius mul
    endangle sin endangle sin mul mul add sqrt div def
  /endangle endangle sin endrad mul y_radius div
    endangle cos endrad mul x_radius div atan def
  /startrad x_radius y_radius mul
    x_radius x_radius mul
      startangle cos startangle cos mul mul
    y_radius y_radius mul
      startangle sin startangle sin mul mul add sqrt div def
  /startangle startangle sin startrad mul y_radius div
    startangle cos startrad mul x_radius div atan def
  /connect exch def
  /filled exch def
  /savematrix matrix currentmatrix def
  thickness setlinewidth
  x_radius y_radius scale
  startangle cos startangle sin moveto
  0 0 1 startangle
    startangle endangle eq { endangle 360 add } { endangle } ifelse
    arc
  connect {
    startangle cos startangle sin moveto endangle cos endangle sin lineto }
    if
  savematrix setmatrix filled stroke_and_fill?
  grestore
} bind def

/draw_line % dx dy x1 y1 thickness draw_line
{
	setlinewidth % dx dy x1 y1
	1 setlinecap
	rmoveto % dx dy
	rlineto
	stroke
} bind def

/draw_dashed_line % dx dy thickness dashpattern offset draw_dashed_line
{
	1 setlinecap
	setdash % dx dy thickness
	setlinewidth %dx dy
	rlineto
	stroke
	[] 0 setdash % reset dash pattern
} bind def

/print_glyphs % w dx dy glyph print_glyphs
{
	{
		currentpoint %w dx dy glyph x0 y0
		5 2 roll %w x0 y0 dx dy glyph
		3 1 roll %w x0 y0 glyph dx dy
		rmoveto %w x0 y0 glyph
		glyphshow %w x0 y0
		moveto %w
		0 rmoveto
	}repeat
}bind def
%end music-drawing-routines.ps

%%EndResource
%%BeginResource: procset (lilyponddefs.ps) 1 0
%!PS-Adobe-2.0: lilyponddefs.ps
%
% Functions for direct PostScript output

% /setgray { 1 add } bind def

/set-ps-scale-to-lily-scale {
	lily-output-units output-scale mul dup scale
} bind def


/init-paper {
	gsave
	clippath pathbbox newpath
	/paper-height exch def
	/paper-width exch def pop pop pop
	% FIXME
	/top-margin 2 def
	paper-width line-width sub 2 div /left-margin exch def
	grestore
} bind def

/init-lilypond-parameters {
	staff-line-thickness setlinewidth
	staff-height init-paper
} bind def


% end lilyponddefs.ps

%%EndResource
%%EndProlog
%%BeginSetup
init-lilypond-parameters
%%EndSetup

/mark_page_link { pop pop pop pop pop } bind def
gsave set-ps-scale-to-lily-scale
0.0000 -5.6667 moveto 67.2238 0.0000 0.0500 0.0000 0.1000 draw_line
0.0000 -4.6667 moveto 67.2238 0.0000 0.0500 0.0000 0.1000 draw_line
0.0000 -3.6667 moveto 67.2238 0.0000 0.0500 0.0000 0.1000 draw_line
0.0000 -2.6667 moveto 67.2238 0.0000 0.0500 0.0000 0.1000 draw_line
0.0000 -1.6667 moveto 67.2238 0.0000 0.0500 0.0000 0.1000 draw_line
0.0000 -15.5869 moveto 1.5761 0.0000 13.6211 0.0000 0.2000 draw_round_box
0.0000 -15.5869 moveto 1.5761 0.0000 19.5856 0.0000 0.2000 draw_round_box
0.0000 -15.5869 moveto 1.5761 0.0000 25.6127 0.0000 0.2000 draw_round_box
0.0000 -15.5869 moveto 1.5761 0.0000 33.1483 0.0000 0.2000 draw_round_box
0.0000 -14.5869 moveto 1.5761 0.0000 33.1483 0.0000 0.2000 draw_round_box
0.0000 -15.5869 moveto 1.5761 0.0000 39.4017 0.0000 0.2000 draw_round_box
0.0000 -14.5869 moveto 1.5761 0.0000 39.4017 0.0000 0.2000 draw_round_box
0.0000 -15.5869 moveto 1.5761 0.0000 46.3662 0.0000 0.2000 draw_round_box
0.0000 -15.5869 moveto 1.5761 0.0000 52.1805 0.0000 0.2000 draw_round_box
0.0000 -20.5869 moveto 67.2238 0.0000 0.0500 0.0000 0.1000 draw_line
0.0000 -19.5869 moveto 67.2238 0.0000 0.0500 0.0000 0.1000 draw_line
0.0000 -18.5869 moveto 67.2238 0.0000 0.0500 0.0000 0.1000 draw_line
0.0000 -17.5869 moveto 67.2238 0.0000 0.0500 0.0000 0.1000 draw_line
0.0000 -16.5869 moveto 67.2238 0.0000 0.0500 0.0000 0.1000 draw_line
52.3765 -15.0869 moveto magfontemmentaler-18mDWo /noteheads.s2 glyphshow 
49.9810 -10.5527 moveto /TeXGyrePagella-Regular 3.90625000 output-scale div selectfont
1.3657 0.0000 0.0000 /d
1.0584 0.0000 0.0000 /e
1.7413 0.0000 0.0000 /w
1.1609 0.0000 0.0000 /o
0.6487 0.0000 0.0000 /l
5 print_glyphs
52.3765 -4.1667 moveto magfontemmentaler-18mDWo /noteheads.s2 glyphshow 
52.3765 -4.1667 moveto magfontemmentaler-18mDWo /noteheads.s2 glyphshow 
46.6273 -18.5869 moveto 0.0500 2.9455 -0.0250 -3.1485 0.0800 draw_round_box
52.4415 -18.5869 moveto 0.0500 2.8140 -0.0250 -3.0171 0.0800 draw_round_box
53.4956 -18.5869 moveto 0.0500 2.2056 -0.0250 3.7030 0.0800 draw_round_box
52.3765 -18.5869 moveto magfontemmentaler-18mDWo /noteheads.s2 glyphshow 
52.4415 -3.6667 moveto 0.0500 3.4168 -0.0250 -4.1199 0.0800 draw_round_box
53.4956 -3.6667 moveto 0.0500 2.3140 -0.0250 -0.2970 0.0800 draw_round_box
45.1123 -1.6667 moveto magfontemmentaler-18mDWo /scripts.rcomma glyphshow 
46.5623 -4.1667 moveto magfontemmentaler-18mDWo /noteheads.s2 glyphshow 
45.1123 -1.6667 moveto magfontemmentaler-18mDWo /scripts.rcomma glyphshow 
39.6627 -18.5869 moveto 0.0500 2.9237 -0.0250 -3.6267 0.0800 draw_round_box
46.5623 -4.1667 moveto magfontemmentaler-18mDWo /noteheads.s2 glyphshow 
40.7167 -18.5869 moveto 0.0500 2.2570 -0.0250 4.2030 0.0800 draw_round_box
39.6627 -3.6667 moveto 0.0500 2.7570 -0.0250 -3.9600 0.0800 draw_round_box
47.6813 -18.5869 moveto 0.0500 2.4443 -0.0250 3.7030 0.0800 draw_round_box
46.6273 -3.6667 moveto 0.0500 3.0709 -0.0250 -3.7739 0.0800 draw_round_box
47.6813 -3.6667 moveto 0.0500 2.4455 -0.0250 -0.2970 0.0800 draw_round_box
46.5623 -18.5869 moveto magfontemmentaler-18mDWo /noteheads.s2 glyphshow 
45.1123 -16.5869 moveto magfontemmentaler-18mDWo /scripts.rcomma glyphshow 
46.5623 -15.0869 moveto magfontemmentaler-18mDWo /noteheads.s2 glyphshow 
45.1123 -16.5869 moveto magfontemmentaler-18mDWo /scripts.rcomma glyphshow 
45.6178 -10.5527 moveto /TeXGyrePagella-Regular 3.90625000 output-scale div selectfont
0.6487 0.0000 0.0000 /l
1.1267 0.0000 0.0000 /a
1.2974 0.0000 0.0000 /h
3 print_glyphs
63.3018 -18.5869 moveto 0.0500 3.0685 -0.0250 -2.7715 0.0800 draw_round_box
64.3559 -18.5869 moveto 0.0500 2.7597 -0.0250 2.7030 0.0800 draw_round_box
46.5623 -7.4767 moveto true 16.7646 -0.8000 16.7646 -1.2000 0.0400 -0.2000 0.0400 0.2000 3 0.0800 draw_polygon
16.6261 -10.5527 moveto 0.5800 0.0500 0.0400 0.4600 0.0800 draw_round_box
36.5879 -10.5527 moveto 0.5800 0.0500 0.0400 0.4600 0.0800 draw_round_box
49.0059 -10.5527 moveto 0.5800 0.0500 0.0400 0.4600 0.0800 draw_round_box
47.6163 -1.4767 moveto true 16.7646 -0.1800 16.7646 -0.5800 0.0400 -0.2000 0.0400 0.2000 3 0.0800 draw_polygon
47.6163 -12.3969 moveto true 16.7646 -0.4900 16.7646 -0.8900 0.0400 -0.2000 0.0400 0.2000 3 0.0800 draw_polygon
46.5623 -21.7769 moveto true 16.7646 0.5800 16.7646 0.1800 0.0400 -0.2000 0.0400 0.2000 3 0.0800 draw_polygon
59.2672 -18.5869 moveto 0.0500 2.9686 -0.0250 2.7030 0.0800 draw_round_box
58.2131 -3.6667 moveto 0.0500 2.2603 -0.0250 -4.4633 0.0800 draw_round_box
59.2672 -3.6667 moveto 0.0500 2.6835 -0.0250 -0.7970 0.0800 draw_round_box
58.1481 -18.0869 moveto magfontemmentaler-18mDWo /noteheads.s2 glyphshow 
58.1481 -16.0869 moveto magfontemmentaler-18mDWo /noteheads.s2 glyphshow 
57.5963 -10.5527 moveto /TeXGyrePagella-Regular 3.90625000 output-scale div selectfont
1.0584 0.0000 0.0000 /e
1.2292 0.0000 0.0000 /b
2 print_glyphs
58.1481 -5.6667 moveto magfontemmentaler-18mDWo /noteheads.s2 glyphshow 
58.1481 -4.6667 moveto magfontemmentaler-18mDWo /noteheads.s2 glyphshow 
63.2368 -5.6667 moveto magfontemmentaler-18mDWo /noteheads.s2 glyphshow 
63.3018 -3.6667 moveto 0.0500 2.5631 -0.0250 -4.7661 0.0800 draw_round_box
64.3559 -3.6667 moveto 0.0500 2.5685 -0.0250 -0.7970 0.0800 draw_round_box
63.2368 -18.0869 moveto magfontemmentaler-18mDWo /noteheads.s2 glyphshow 
63.2368 -16.0869 moveto magfontemmentaler-18mDWo /noteheads.s2 glyphshow 
61.5242 -10.5527 moveto /TeXGyrePagella-Regular 3.90625000 output-scale div selectfont
0.8877 0.0000 0.0000 /r
1.3316 0.0000 0.0000 /u
1.2292 0.0000 0.0000 /o
1.1609 0.0000 0.0000 /y
4 print_glyphs
63.2368 -4.6667 moveto magfontemmentaler-18mDWo /noteheads.s2 glyphshow 
58.2131 -18.5869 moveto 0.0500 3.1835 -0.0250 -2.8865 0.0800 draw_round_box
14.9362 -18.5869 moveto 0.0500 2.2570 -0.0250 3.7030 0.0800 draw_round_box
13.8821 -3.6667 moveto 0.0500 2.5903 -0.0250 -4.2933 0.0800 draw_round_box
14.9362 -3.6667 moveto 0.0500 3.2570 -0.0250 -0.2970 0.0800 draw_round_box
13.8171 -18.5869 moveto magfontemmentaler-18mDWo /noteheads.s2 glyphshow 
13.8171 -15.0869 moveto magfontemmentaler-18mDWo /noteheads.s2 glyphshow 
13.2824 -10.5527 moveto /TeXGyrePagella-Regular 3.90625000 output-scale div selectfont
1.1267 0.0000 0.0000 /a
1.1267 0.0000 0.0000 /F
2 print_glyphs
13.8171 -5.1667 moveto magfontemmentaler-18mDWo /noteheads.s2 glyphshow 
13.8171 -4.1667 moveto magfontemmentaler-18mDWo /noteheads.s2 glyphshow 
19.7817 -18.5869 moveto magfontemmentaler-18mDWo /noteheads.s2 glyphshow 
19.8467 -3.6667 moveto 0.0500 2.5903 -0.0250 -4.2933 0.0800 draw_round_box
20.9007 -3.6667 moveto 0.0500 3.2570 -0.0250 -0.2970 0.0800 draw_round_box
19.7817 -15.0869 moveto magfontemmentaler-18mDWo /noteheads.s2 glyphshow 
18.3763 -10.5527 moveto /TeXGyrePagella-Regular 3.90625000 output-scale div selectfont
0.8877 0.0000 0.0000 /r
1.0584 0.0000 0.0000 /e
1.2974 0.0000 0.0000 /h
0.7512 0.0000 0.0000 /t
4 print_glyphs
19.7817 -5.1667 moveto magfontemmentaler-18mDWo /noteheads.s2 glyphshow 
19.7817 -4.1667 moveto magfontemmentaler-18mDWo /noteheads.s2 glyphshow 
13.8821 -18.5869 moveto 0.0500 3.0903 -0.0250 -3.2933 0.0800 draw_round_box
7.7900 -4.6667 moveto magfontemmentaler-18mDWo /noteheads.s2 glyphshow 
8.9091 -3.6667 moveto 0.0500 3.2570 -0.0250 -0.7970 0.0800 draw_round_box
4.3000 -17.5869 moveto magfontemmentaler-18mDWo /accidentals.sharp glyphshow 
0.8000 -17.5869 moveto magfontemmentaler-18mDWo /clefs.F glyphshow 
7.7900 -18.0869 moveto magfontemmentaler-18mDWo /noteheads.s2 glyphshow 
7.7900 -16.0869 moveto magfontemmentaler-18mDWo /noteheads.s2 glyphshow 
6.4017 -10.5527 moveto /TeXGyrePagella-Regular 3.90625000 output-scale div selectfont
0.8877 0.0000 0.0000 /r
1.3316 0.0000 0.0000 /u
1.7413 0.0000 0.0000 /O
3 print_glyphs
4.3000 -1.6667 moveto magfontemmentaler-18mDWo /accidentals.sharp glyphshow 
0.8000 -4.6667 moveto magfontemmentaler-18mDWo /clefs.G glyphshow 
7.7900 -5.6667 moveto magfontemmentaler-18mDWo /noteheads.s2 glyphshow 
-0.0600 -11.1268 moveto 0.0600 18.9202 0.0500 -9.4601 0.1000 draw_round_box
-1.3100 -1.4142 moveto magfontemmentaler-18mDWo /brackettips.up glyphshow 
-1.3100 -20.8394 moveto magfontemmentaler-18mDWo /brackettips.down glyphshow 
-1.3100 -11.1268 moveto 0.4500 19.1102 0.0000 -9.5551 0.0000 draw_round_box
7.8550 -18.5869 moveto 0.0500 3.2570 -0.0250 -2.9600 0.0800 draw_round_box
40.7167 -3.6667 moveto 0.0500 2.9237 -0.0250 0.7030 0.0800 draw_round_box
8.9091 -18.5869 moveto 0.0500 2.2570 -0.0250 2.7030 0.0800 draw_round_box
7.8550 -3.6667 moveto 0.0500 2.4237 -0.0250 -4.6267 0.0800 draw_round_box
34.4634 -18.5869 moveto 0.0500 2.2570 -0.0250 4.2030 0.0800 draw_round_box
33.4093 -18.5869 moveto 0.0500 2.9237 -0.0250 -3.6267 0.0800 draw_round_box
33.4093 -3.6667 moveto 0.0500 2.7570 -0.0250 -3.9600 0.0800 draw_round_box
34.4634 -3.6667 moveto 0.0500 2.9237 -0.0250 0.7030 0.0800 draw_round_box
33.3443 -19.0869 moveto magfontemmentaler-18mDWo /noteheads.s2 glyphshow 
20.9007 -18.5869 moveto 0.0500 2.2570 -0.0250 3.7030 0.0800 draw_round_box
32.1951 -10.5527 moveto /TeXGyrePagella-Regular 3.90625000 output-scale div selectfont
1.1267 0.0000 0.0000 /a
1.0584 0.0000 0.0000 /e
1.2974 0.0000 0.0000 /h
3 print_glyphs
33.3443 -4.6667 moveto magfontemmentaler-18mDWo /noteheads.s2 glyphshow 
39.5977 -19.0869 moveto magfontemmentaler-18mDWo /noteheads.s2 glyphshow 
39.5977 -14.5869 moveto magfontemmentaler-18mDWo /noteheads.s2 glyphshow 
38.1582 -10.5527 moveto /TeXGyrePagella-Regular 3.90625000 output-scale div selectfont
0.5463 0.0000 0.0000 /comma
1.2974 0.0000 0.0000 /n
1.0584 0.0000 0.0000 /e
1.1609 0.0000 0.0000 /v
4 print_glyphs
39.5977 -4.6667 moveto magfontemmentaler-18mDWo /noteheads.s2 glyphshow 
39.5977 -3.1667 moveto magfontemmentaler-18mDWo /noteheads.s2 glyphshow 
33.3443 -14.5869 moveto magfontemmentaler-18mDWo /noteheads.s2 glyphshow 
25.8087 -3.6667 moveto magfontemmentaler-18mDWo /noteheads.s2 glyphshow 
25.8737 -3.6667 moveto 0.0500 2.7570 -0.0250 -3.9600 0.0800 draw_round_box
26.9278 -3.6667 moveto 0.0500 3.0903 -0.0250 0.2030 0.0800 draw_round_box
25.8087 -17.0869 moveto magfontemmentaler-18mDWo /noteheads.s2 glyphshow 
25.8087 -15.0869 moveto magfontemmentaler-18mDWo /noteheads.s2 glyphshow 
25.4277 -10.5527 moveto /TeXGyrePagella-Regular 3.90625000 output-scale div selectfont
1.2974 0.0000 0.0000 /n
0.6487 0.0000 0.0000 /i
2 print_glyphs
25.8087 -4.6667 moveto magfontemmentaler-18mDWo /noteheads.s2 glyphshow 
19.8467 -18.5869 moveto 0.0500 3.0903 -0.0250 -3.2933 0.0800 draw_round_box
33.3443 -3.1667 moveto magfontemmentaler-18mDWo /noteheads.s2 glyphshow 
25.8737 -18.5869 moveto 0.0500 3.2570 -0.0250 -1.9600 0.0800 draw_round_box
26.9278 -18.5869 moveto 0.0500 2.2570 -0.0250 3.7030 0.0800 draw_round_box
stroke grestore
%%Trailer
%%EOF
