%!PS-Adobe-2.0 EPSF-2.0
%%Creator: LilyPond 2.18.2
%%BoundingBox: -9 -114 336 0
%%Orientation: Portrait
%%DocumentSuppliedResources: font Emmentaler-18
%%DocumentSuppliedResources: font TeXGyrePagella-Italic
%%DocumentSuppliedResources: font TeXGyrePagella-Regular
%%EndComments
%%BeginProlog
/lilypond-datadir where {pop} {userdict /lilypond-datadir (/usr/share/lilypond/2.18.2) put } ifelse
%%BeginFont: Emmentaler-18
lilypond-datadir (/fonts/otf/emmentaler-18.otf) concatstrings (r) file .loadfont
%%EndFont

%%BeginFont: TeXGyrePagella-Italic
(/usr/share/texmf/fonts/opentype/public/tex-gyre/texgyrepagella-italic.otf) (r) file .loadfont
%%EndFont

%%BeginFont: TeXGyrePagella-Regular
(/usr/share/texmf/fonts/opentype/public/tex-gyre/texgyrepagella-regular.otf) (r) file .loadfont
%%EndFont

/magfontemmentaler-18mDWo { /Emmentaler-18 6.3263 output-scale div selectfont } bind def
/lily-output-units 2.83464566929134 def %% millimeter
/staff-line-thickness 0.1 def
/line-width 67.3237795275591 def
/paper-size (a4) def
/staff-height 4.0 def
/output-scale 1.75729901757299 def
/page-height 169.00937007874 def
/page-width 119.50157480315 def
%%BeginResource: procset (music-drawing-routines.ps) 1 0
%!PS-Adobe-2.0
%
% Functions for direct and embedded PostScript

% Careful with double % as comment prefix.
% Any %%X comment is interpreted as DSC comments.

% TODO: use dicts or prefixes to prevent namespace pollution.

/pdfmark where
{pop} {userdict /pdfmark /cleartomark load put} ifelse


% llx lly urx ury URI
/mark_URI
{
    /uri exch def
    /ury exch def
    /urx exch def
    /lly exch def
    /llx exch def
    [
	/Rect [ llx lly urx ury ]
	
	/Border [ 0 0 0 ]

        /Action
	    <<
		/Subtype /URI
		/URI uri
	    >>
        /Subtype /Link
    /ANN
    pdfmark
}
bind def

% llx lly urx ury page
/mark_page_link
{
    /page exch def
    /ury exch def
    /urx exch def
    /lly exch def
    /llx exch def
    [
        /Rect [ llx lly urx ury ]
        /Border [ 0 0 0 ]
        /Page page
        /Subtype /Link
    /ANN
    pdfmark
}
bind def

% from adobe tech note 5002.
/BeginEPSF { %def
    /b4_Inc_state save def % Save state for cleanup
    /dict_count countdictstack def % Count objects on dict stack
    /op_count count 1 sub def % Count objects on operand stack
    userdict begin % Push userdict on dict stack
    /showpage { } def % Redefine showpage, { } = null proc
    0 setgray 0 setlinecap % Prepare graphics state
    1 setlinewidth 0 setlinejoin
    10 setmiterlimit [ ] 0 setdash newpath
    false setoverprint
} bind def

/EndEPSF { %def
  count op_count sub {pop} repeat % Clean up stacks
  countdictstack dict_count sub {end} repeat
  b4_Inc_state restore
} bind def

/stroke_and_fill? {
    {
	gsave
	    false setstrokeadjust
	    stroke
	grestore
	fill
    }
    {
	stroke
    }
    ifelse
} bind def

/vector_add { % x1 y1 x2 y2 vector_add x1+x2 y1+y2
	exch
	4 1 roll
	add
	3 1 roll
	add
	exch
} bind def

/draw_round_box % width height x y blot
{
    0 max setlinewidth
    matrix currentmatrix 5 1 roll
    currentpoint translate newpath translate
    2 copy 0 min exch 0 min exch translate
    abs exch abs exch
    currentlinewidth 0 eq
    { % straight corners
	2 copy 2 mul gt
	{ % horizontal
	    0 1 index 2 div moveto
	    setlinewidth
	    0 rlineto
	    0 setlinecap
	    stroke
	}
	{
	    2 copy exch 2 mul gt
	    { % vertical
		1 index 2 div 0 moveto
		exch setlinewidth
		0 exch rlineto
		0 setlinecap
		stroke
	    }
	    {
		0 0 4 2 roll rectfill
	    }
	    ifelse
	}
	ifelse
    }
    { % rounded corners
	2 copy 0 eq exch 0 eq or
	{ % line shape
	    0 0 moveto
	    rlineto
	    1 setlinecap
	    stroke
	    0 setlinecap
	}
	{ % full shape
	    currentstrokeadjust {
		currentlinewidth 2 div
		0 0 2 index 180 270 arc
		2 index 0 2 index 270 360 arc
		3 copy 0 90 arc
		0 2 index 3 -1 roll 90 180 arc
		closepath
		2 copy 2 mul gt
		{ % horizontal
		    2 copy add currentlinewidth add 10 add % large enough
		    0 1 index neg moveto
		    2 index 1 index neg lineto
		    2 index 1 index lineto
		    0 exch lineto closepath
		    gsave clip newpath
		    0 1 index 2 div moveto
		    currentlinewidth add setlinewidth
		    0 rlineto
		    2 setlinecap
		    stroke
		    grestore
		}
		{
		    2 copy exch 2 mul gt
		    { % vertical
			2 copy add currentlinewidth add 10 add % large enough
			dup neg 0 moveto
			dup 0 lineto
			dup 2 index lineto
			neg 1 index lineto closepath
			gsave clip newpath
			1 index 2 div 0 moveto
			exch currentlinewidth add setlinewidth
			0 exch rlineto
			2 setlinecap
			stroke
			grestore
		    }
		    {
			pop pop
			fill
		    }
		    ifelse
		}
		ifelse
		newpath
	    }
	    {
		1 setlinejoin
		0 0 4 2 roll 4 copy rectstroke rectfill
	    }
	    ifelse
	}
	ifelse
    }
    ifelse
    setmatrix
} bind def

/draw_polygon % fill? x(n) y(n) x(n-1) y(n-1) ... x(0) y(0) n blot
{
	setlinewidth %set to blot

	0 setlinecap
	1 setlinejoin

	3 1 roll
	/polygon_x
	currentpoint
	/polygon_y exch def
	def
	rmoveto % x(0) y(0)
	{ polygon_x polygon_y vector_add lineto } repeat % n times
	closepath
	stroke_and_fill?
} bind def

/draw_circle % filled? radius thickness draw_circle
{
	setlinewidth	% f? r
	currentpoint	% f? r x0 y0
	3 2 roll	% f? x0 y0 r
	dup 0 rmoveto
	0 360 arc closepath
	stroke_and_fill?
} bind def

/draw_ellipse % filled? x-radius y-radius thickness draw_ellipse
{
  setlinewidth % f? x-r y-r
  /savematrix matrix currentmatrix def
  scale % f?
  currentpoint
  1 0 rmoveto
  1 0 360  arc closepath
  savematrix setmatrix
  stroke_and_fill?
} bind def

/draw_partial_ellipse % filled connect x-radius y-radius startangle endangle thickness draw_partial_ellipse
% Note that filled is not boolean to permit for different graylevels (ie for trill keys)
{
  gsave
  currentpoint translate
  /thickness exch def
  /endangle exch def
  /startangle exch def
  /y_radius exch def
  /x_radius exch def
  /endrad x_radius y_radius mul
    x_radius x_radius mul
    endangle cos endangle cos mul mul
    y_radius y_radius mul
    endangle sin endangle sin mul mul add sqrt div def
  /endangle endangle sin endrad mul y_radius div
    endangle cos endrad mul x_radius div atan def
  /startrad x_radius y_radius mul
    x_radius x_radius mul
      startangle cos startangle cos mul mul
    y_radius y_radius mul
      startangle sin startangle sin mul mul add sqrt div def
  /startangle startangle sin startrad mul y_radius div
    startangle cos startrad mul x_radius div atan def
  /connect exch def
  /filled exch def
  /savematrix matrix currentmatrix def
  thickness setlinewidth
  x_radius y_radius scale
  startangle cos startangle sin moveto
  0 0 1 startangle
    startangle endangle eq { endangle 360 add } { endangle } ifelse
    arc
  connect {
    startangle cos startangle sin moveto endangle cos endangle sin lineto }
    if
  savematrix setmatrix filled stroke_and_fill?
  grestore
} bind def

/draw_line % dx dy x1 y1 thickness draw_line
{
	setlinewidth % dx dy x1 y1
	1 setlinecap
	rmoveto % dx dy
	rlineto
	stroke
} bind def

/draw_dashed_line % dx dy thickness dashpattern offset draw_dashed_line
{
	1 setlinecap
	setdash % dx dy thickness
	setlinewidth %dx dy
	rlineto
	stroke
	[] 0 setdash % reset dash pattern
} bind def

/print_glyphs % w dx dy glyph print_glyphs
{
	{
		currentpoint %w dx dy glyph x0 y0
		5 2 roll %w x0 y0 dx dy glyph
		3 1 roll %w x0 y0 glyph dx dy
		rmoveto %w x0 y0 glyph
		glyphshow %w x0 y0
		moveto %w
		0 rmoveto
	}repeat
}bind def
%end music-drawing-routines.ps

%%EndResource
%%BeginResource: procset (lilyponddefs.ps) 1 0
%!PS-Adobe-2.0: lilyponddefs.ps
%
% Functions for direct PostScript output

% /setgray { 1 add } bind def

/set-ps-scale-to-lily-scale {
	lily-output-units output-scale mul dup scale
} bind def


/init-paper {
	gsave
	clippath pathbbox newpath
	/paper-height exch def
	/paper-width exch def pop pop pop
	% FIXME
	/top-margin 2 def
	paper-width line-width sub 2 div /left-margin exch def
	grestore
} bind def

/init-lilypond-parameters {
	staff-line-thickness setlinewidth
	staff-height init-paper
} bind def


% end lilyponddefs.ps

%%EndResource
%%EndProlog
%%BeginSetup
init-lilypond-parameters
%%EndSetup

/mark_page_link { pop pop pop pop pop } bind def
gsave set-ps-scale-to-lily-scale
0.0000 -5.6667 moveto 67.2238 0.0000 0.0500 0.0000 0.1000 draw_line
0.0000 -4.6667 moveto 67.2238 0.0000 0.0500 0.0000 0.1000 draw_line
0.0000 -3.6667 moveto 67.2238 0.0000 0.0500 0.0000 0.1000 draw_line
0.0000 -2.6667 moveto 67.2238 0.0000 0.0500 0.0000 0.1000 draw_line
0.0000 -1.6667 moveto 67.2238 0.0000 0.0500 0.0000 0.1000 draw_line
0.0000 -15.5342 moveto 1.4551 0.0000 7.9550 0.0000 0.2000 draw_round_box
0.0000 -15.5342 moveto 1.5761 0.0000 32.6025 0.0000 0.2000 draw_round_box
0.0000 -15.5342 moveto 1.5761 0.0000 42.2175 0.0000 0.2000 draw_round_box
0.0000 -15.5342 moveto 1.5761 0.0000 47.5967 0.0000 0.2000 draw_round_box
0.0000 -15.5342 moveto 1.5761 0.0000 51.7638 0.0000 0.2000 draw_round_box
0.0000 -15.5342 moveto 1.5761 0.0000 56.7844 0.0000 0.2000 draw_round_box
0.0000 -14.5342 moveto 1.5761 0.0000 56.7844 0.0000 0.2000 draw_round_box
0.0000 -15.5342 moveto 1.5761 0.0000 63.8240 0.0000 0.2000 draw_round_box
0.0000 -20.5342 moveto 67.2238 0.0000 0.0500 0.0000 0.1000 draw_line
0.0000 -19.5342 moveto 67.2238 0.0000 0.0500 0.0000 0.1000 draw_line
0.0000 -18.5342 moveto 67.2238 0.0000 0.0500 0.0000 0.1000 draw_line
0.0000 -17.5342 moveto 67.2238 0.0000 0.0500 0.0000 0.1000 draw_line
0.0000 -16.5342 moveto 67.2238 0.0000 0.0500 0.0000 0.1000 draw_line
51.9598 -3.6667 moveto magfontemmentaler-18mDWo /noteheads.s2 glyphshow 
47.8577 -18.5342 moveto 0.0500 3.0670 -0.0250 -1.7700 0.0800 draw_round_box
48.9118 -18.5342 moveto 0.0500 2.0670 -0.0250 3.7030 0.0800 draw_round_box
47.8577 -3.6667 moveto 0.0500 2.2570 -0.0250 -3.4600 0.0800 draw_round_box
52.0248 -18.5342 moveto 0.0500 3.0670 -0.0250 -1.7700 0.0800 draw_round_box
53.0788 -18.5342 moveto 0.0500 2.0670 -0.0250 3.7030 0.0800 draw_round_box
51.9598 -4.6667 moveto magfontemmentaler-18mDWo /noteheads.s2 glyphshow 
52.0248 -3.6667 moveto 0.0500 2.2570 -0.0250 -3.4600 0.0800 draw_round_box
53.0788 -3.6667 moveto 0.0500 2.7570 -0.0250 0.2030 0.0800 draw_round_box
51.9598 -17.0342 moveto magfontemmentaler-18mDWo /noteheads.s2 glyphshow 
51.9598 -15.0342 moveto magfontemmentaler-18mDWo /noteheads.s2 glyphshow 
51.4080 -10.5000 moveto /TeXGyrePagella-Regular 3.90625000 output-scale div selectfont
1.0584 0.0000 0.0000 /e
1.2292 0.0000 0.0000 /b
2 print_glyphs
40.9635 -16.5342 moveto magfontemmentaler-18mDWo /scripts.rcomma glyphshow 
42.4785 -3.6667 moveto 0.0500 2.2570 -0.0250 -3.4600 0.0800 draw_round_box
43.5326 -3.6667 moveto 0.0500 2.7570 -0.0250 0.2030 0.0800 draw_round_box
42.4135 -17.0342 moveto magfontemmentaler-18mDWo /noteheads.s2 glyphshow 
42.4135 -15.0342 moveto magfontemmentaler-18mDWo /noteheads.s2 glyphshow 
40.9635 -16.5342 moveto magfontemmentaler-18mDWo /scripts.rcomma glyphshow 
40.6496 -10.5000 moveto /TeXGyrePagella-Regular 3.90625000 output-scale div selectfont
0.8877 0.0000 0.0000 /r
1.3316 0.0000 0.0000 /u
1.2292 0.0000 0.0000 /o
1.2633 0.0000 0.0000 /Y
4 print_glyphs
42.4135 -4.6667 moveto magfontemmentaler-18mDWo /noteheads.s2 glyphshow 
40.9635 -1.6667 moveto magfontemmentaler-18mDWo /scripts.rcomma glyphshow 
42.4135 -3.6667 moveto magfontemmentaler-18mDWo /noteheads.s2 glyphshow 
40.9635 -1.6667 moveto magfontemmentaler-18mDWo /scripts.rcomma glyphshow 
47.7927 -17.0342 moveto magfontemmentaler-18mDWo /noteheads.s2 glyphshow 
47.7927 -15.0342 moveto magfontemmentaler-18mDWo /noteheads.s2 glyphshow 
46.4898 -10.5000 moveto /TeXGyrePagella-Regular 3.90625000 output-scale div selectfont
0.6487 0.0000 0.0000 /l
0.6487 0.0000 0.0000 /l
0.6487 0.0000 0.0000 /i
1.8437 0.0000 0.0000 /w
4 print_glyphs
47.7927 -4.6667 moveto magfontemmentaler-18mDWo /noteheads.s2 glyphshow 
47.7927 -3.6667 moveto magfontemmentaler-18mDWo /noteheads.s2 glyphshow 
48.9118 -3.6667 moveto 0.0500 2.7570 -0.0250 0.2030 0.0800 draw_round_box
42.4785 -18.5342 moveto 0.0500 3.0670 -0.0250 -1.7700 0.0800 draw_round_box
43.5326 -18.5342 moveto 0.0500 2.0670 -0.0250 3.7030 0.0800 draw_round_box
64.1500 -21.8692 moveto magfontemmentaler-18mDWo /flags.d3 glyphshow 
64.0850 -18.5342 moveto 0.0500 3.1320 -0.0250 -3.3350 0.0800 draw_round_box
65.2041 -12.0742 moveto magfontemmentaler-18mDWo /flags.u3 glyphshow 
65.1391 -18.5342 moveto 0.0500 2.7570 -0.0250 3.7030 0.0800 draw_round_box
43.4676 -0.6667 moveto true 9.6363 0.2000 9.6363 -0.2000 0.0400 -0.2000 0.0400 0.2000 3 0.0800 draw_polygon
24.1277 -10.5000 moveto 0.5583 0.0500 0.0400 0.4600 0.0800 draw_round_box
22.3175 -1.6667 moveto true 5.3411 0.2000 5.3411 -0.2000 0.0400 -0.2000 0.0400 0.2000 3 0.0800 draw_polygon
21.2634 -8.1667 moveto true 5.3411 0.2000 5.3411 -0.2000 0.0400 -0.2000 0.0400 0.2000 3 0.0800 draw_polygon
22.3175 -13.7242 moveto true 5.3411 0.2000 5.3411 -0.2000 0.0400 -0.2000 0.0400 0.2000 3 0.0800 draw_polygon
21.2634 -21.3442 moveto true 5.3411 0.2000 5.3411 -0.2000 0.0400 -0.2000 0.0400 0.2000 3 0.0800 draw_polygon
42.4135 -7.1667 moveto true 9.6363 0.2000 9.6363 -0.2000 0.0400 -0.2000 0.0400 0.2000 3 0.0800 draw_polygon
43.4676 -12.7242 moveto true 9.6363 0.2000 9.6363 -0.2000 0.0400 -0.2000 0.0400 0.2000 3 0.0800 draw_polygon
42.4135 -20.3442 moveto true 9.6363 0.2000 9.6363 -0.2000 0.0400 -0.2000 0.0400 0.2000 3 0.0800 draw_polygon
58.5659 -5.1667 moveto magfontemmentaler-18mDWo /dots.dot glyphshow 
58.0995 -18.5342 moveto 0.0500 2.2570 -0.0250 4.2030 0.0800 draw_round_box
58.5659 -14.0342 moveto magfontemmentaler-18mDWo /dots.dot glyphshow 
57.0455 -3.6667 moveto 0.0500 2.7570 -0.0250 -3.9600 0.0800 draw_round_box
58.5659 -19.0342 moveto magfontemmentaler-18mDWo /dots.dot glyphshow 
58.0995 -3.6667 moveto 0.0500 2.9237 -0.0250 0.7030 0.0800 draw_round_box
58.5659 -3.1667 moveto magfontemmentaler-18mDWo /dots.dot glyphshow 
56.9805 -19.0342 moveto magfontemmentaler-18mDWo /noteheads.s2 glyphshow 
56.9805 -14.5342 moveto magfontemmentaler-18mDWo /noteheads.s2 glyphshow 
54.8240 -10.5000 moveto /TeXGyrePagella-Regular 3.90625000 output-scale div selectfont
0.5463 0.0000 0.0000 /comma
1.0584 0.0000 0.0000 /e
1.2974 0.0000 0.0000 /n
1.2292 0.0000 0.0000 /o
1.3657 0.0000 0.0000 /d
5 print_glyphs
56.9805 -4.6667 moveto magfontemmentaler-18mDWo /noteheads.s2 glyphshow 
56.9805 -3.1667 moveto magfontemmentaler-18mDWo /noteheads.s2 glyphshow 
62.5700 -16.5342 moveto magfontemmentaler-18mDWo /scripts.rcomma glyphshow 
64.1500 -8.1267 moveto magfontemmentaler-18mDWo /flags.d3 glyphshow 
64.0850 -3.6667 moveto 0.0500 2.7570 -0.0250 -4.4600 0.0800 draw_round_box
65.2041 -0.7067 moveto magfontemmentaler-18mDWo /flags.u3 glyphshow 
65.1391 -3.6667 moveto 0.0500 3.2570 -0.0250 -0.2970 0.0800 draw_round_box
64.0200 -18.5342 moveto magfontemmentaler-18mDWo /noteheads.s2 glyphshow 
62.5700 -16.5342 moveto magfontemmentaler-18mDWo /scripts.rcomma glyphshow 
64.0200 -15.0342 moveto magfontemmentaler-18mDWo /noteheads.s2 glyphshow 
63.3487 -10.5000 moveto /TeXGyrePagella-Regular 3.90625000 output-scale div selectfont
1.2974 0.0000 0.0000 /n
1.2292 0.0000 0.0000 /o
2 print_glyphs
64.0200 -5.1667 moveto magfontemmentaler-18mDWo /noteheads.s2 glyphshow 
62.5700 -1.6667 moveto magfontemmentaler-18mDWo /scripts.rcomma glyphshow 
64.0200 -4.1667 moveto magfontemmentaler-18mDWo /noteheads.s2 glyphshow 
62.5700 -1.6667 moveto magfontemmentaler-18mDWo /scripts.rcomma glyphshow 
57.0455 -18.5342 moveto 0.0500 2.9237 -0.0250 -3.6267 0.0800 draw_round_box
14.1269 -1.6667 moveto magfontemmentaler-18mDWo /scripts.rcomma glyphshow 
16.7610 -1.2067 moveto magfontemmentaler-18mDWo /flags.u3 glyphshow 
16.6960 -3.6667 moveto 0.0500 3.2570 -0.0250 -0.7970 0.0800 draw_round_box
15.5769 -18.0342 moveto magfontemmentaler-18mDWo /noteheads.s2 glyphshow 
14.1269 -16.5342 moveto magfontemmentaler-18mDWo /scripts.rcomma glyphshow 
15.5769 -16.0342 moveto magfontemmentaler-18mDWo /noteheads.s2 glyphshow 
14.1269 -16.5342 moveto magfontemmentaler-18mDWo /scripts.rcomma glyphshow 
13.8131 -10.5000 moveto /TeXGyrePagella-Regular 3.90625000 output-scale div selectfont
0.8877 0.0000 0.0000 /r
1.3316 0.0000 0.0000 /u
1.2292 0.0000 0.0000 /o
1.2633 0.0000 0.0000 /Y
4 print_glyphs
15.5769 -5.6667 moveto magfontemmentaler-18mDWo /noteheads.s2 glyphshow 
15.6419 -3.6667 moveto 0.0500 2.7570 -0.0250 -4.9600 0.0800 draw_round_box
15.5769 -4.6667 moveto magfontemmentaler-18mDWo /noteheads.s2 glyphshow 
14.1269 -1.6667 moveto magfontemmentaler-18mDWo /scripts.rcomma glyphshow 
6.6900 -15.5342 moveto magfontemmentaler-18mDWo /accidentals.sharp glyphshow 
9.6155 -17.0342 moveto magfontemmentaler-18mDWo /dots.dot glyphshow 
8.0950 -18.5342 moveto 0.0500 6.0903 -0.0250 -4.2933 0.0800 draw_round_box
15.6419 -18.5342 moveto 0.0500 3.2570 -0.0250 -2.9600 0.0800 draw_round_box
21.2634 -4.6667 moveto magfontemmentaler-18mDWo /noteheads.s2 glyphshow 
15.7069 -21.4942 moveto magfontemmentaler-18mDWo /flags.d3 glyphshow 
9.6155 -20.0342 moveto magfontemmentaler-18mDWo /dots.dot glyphshow 
16.7610 -13.0742 moveto magfontemmentaler-18mDWo /flags.u3 glyphshow 
16.6960 -18.5342 moveto 0.0500 2.7570 -0.0250 2.7030 0.0800 draw_round_box
15.7069 -8.6267 moveto magfontemmentaler-18mDWo /flags.d3 glyphshow 
4.3000 -17.5342 moveto magfontemmentaler-18mDWo /accidentals.sharp glyphshow 
0.8000 -17.5342 moveto magfontemmentaler-18mDWo /clefs.F glyphshow 
4.3000 -1.6667 moveto magfontemmentaler-18mDWo /accidentals.sharp glyphshow 
0.8000 -4.6667 moveto magfontemmentaler-18mDWo /clefs.G glyphshow 
-0.0600 -11.1004 moveto 0.0600 18.8675 0.0500 -9.4337 0.1000 draw_round_box
-1.3100 -1.4142 moveto magfontemmentaler-18mDWo /brackettips.up glyphshow 
-1.3100 -20.7867 moveto magfontemmentaler-18mDWo /brackettips.down glyphshow 
-1.3100 -11.1004 moveto 0.4500 19.0575 0.0000 -9.5287 0.0000 draw_round_box
9.6155 -6.1667 moveto magfontemmentaler-18mDWo /dots.dot glyphshow 
9.1491 -18.5342 moveto 0.0500 2.2570 -0.0250 3.2030 0.0800 draw_round_box
9.6155 -15.0342 moveto magfontemmentaler-18mDWo /dots.dot glyphshow 
8.0950 -3.6667 moveto 0.0500 2.4237 -0.0250 -4.6267 0.0800 draw_round_box
9.1491 -3.6667 moveto 0.0500 3.2570 -0.0250 -0.2970 0.0800 draw_round_box
9.6155 -4.1667 moveto magfontemmentaler-18mDWo /dots.dot glyphshow 
8.0300 -16.5342 moveto magfontemmentaler-18mDWo /noteheads.s2 glyphshow 
8.0300 -20.0342 moveto magfontemmentaler-18mDWo /noteheads.s2 glyphshow 
8.0300 -15.5342 moveto magfontemmentaler-18mDWo /noteheads.s2 glyphshow 
5.6345 -10.5000 moveto /TeXGyrePagella-Regular 3.90625000 output-scale div selectfont
0.5463 0.0000 0.0000 /period
1.0584 0.0000 0.0000 /e
1.9462 0.0000 0.0000 /m
1.1267 0.0000 0.0000 /a
1.2974 0.0000 0.0000 /n
5 print_glyphs
8.0300 -5.6667 moveto magfontemmentaler-18mDWo /noteheads.s2 glyphshow 
8.0300 -4.1667 moveto magfontemmentaler-18mDWo /noteheads.s2 glyphshow 
32.8635 -3.6667 moveto 0.0500 2.5903 -0.0250 -4.2933 0.0800 draw_round_box
34.3840 -5.1667 moveto magfontemmentaler-18mDWo /dots.dot glyphshow 
33.9176 -3.6667 moveto 0.0500 3.2570 -0.0250 -0.2970 0.0800 draw_round_box
34.3840 -4.1667 moveto magfontemmentaler-18mDWo /dots.dot glyphshow 
32.7985 -18.5342 moveto magfontemmentaler-18mDWo /noteheads.s2 glyphshow 
32.7985 -15.0342 moveto magfontemmentaler-18mDWo /noteheads.s2 glyphshow 
30.5054 -10.5000 moveto /TeXGyrePagella-Regular 3.90625000 output-scale div selectfont
0.5463 0.0000 0.0000 /period
1.0584 0.0000 0.0000 /e
1.9462 0.0000 0.0000 /m
1.2292 0.0000 0.0000 /o
0.9902 0.0000 0.0000 /c
5 print_glyphs
32.7985 -5.1667 moveto magfontemmentaler-18mDWo /noteheads.s2 glyphshow 
32.7985 -4.1667 moveto magfontemmentaler-18mDWo /noteheads.s2 glyphshow 
26.5795 -18.5342 moveto 0.0500 3.0670 -0.0250 -2.7700 0.0800 draw_round_box
21.2634 -5.6667 moveto magfontemmentaler-18mDWo /noteheads.s2 glyphshow 
27.6336 -18.5342 moveto 0.0500 2.0670 -0.0250 2.7030 0.0800 draw_round_box
32.8635 -18.5342 moveto 0.0500 3.0903 -0.0250 -3.2933 0.0800 draw_round_box
34.3840 -19.0342 moveto magfontemmentaler-18mDWo /dots.dot glyphshow 
33.9176 -18.5342 moveto 0.0500 2.2570 -0.0250 3.7030 0.0800 draw_round_box
34.3840 -15.0342 moveto magfontemmentaler-18mDWo /dots.dot glyphshow 
21.3284 -18.5342 moveto 0.0500 3.0670 -0.0250 -2.7700 0.0800 draw_round_box
22.3825 -18.5342 moveto 0.0500 2.0670 -0.0250 2.7030 0.0800 draw_round_box
21.3284 -3.6667 moveto 0.0500 2.2570 -0.0250 -4.4600 0.0800 draw_round_box
22.3825 -3.6667 moveto 0.0500 2.7570 -0.0250 -0.7970 0.0800 draw_round_box
21.2634 -18.0342 moveto magfontemmentaler-18mDWo /noteheads.s2 glyphshow 
21.2634 -16.0342 moveto magfontemmentaler-18mDWo /noteheads.s2 glyphshow 
19.6532 -10.5000 moveto /TeXGyrePagella-Regular 3.90625000 output-scale div selectfont
1.2292 0.0000 0.0000 /g
1.2974 0.0000 0.0000 /n
0.6487 0.0000 0.0000 /i
1.2292 0.0000 0.0000 /k
4 print_glyphs
26.5795 -3.6667 moveto 0.0500 2.2570 -0.0250 -4.4600 0.0800 draw_round_box
27.6336 -3.6667 moveto 0.0500 2.7570 -0.0250 -0.7970 0.0800 draw_round_box
26.5145 -18.0342 moveto magfontemmentaler-18mDWo /noteheads.s2 glyphshow 
26.5145 -16.0342 moveto magfontemmentaler-18mDWo /noteheads.s2 glyphshow 
24.8360 -10.5000 moveto /TeXGyrePagella-Regular 3.90625000 output-scale div selectfont
1.9462 0.0000 0.0000 /m
1.2292 0.0000 0.0000 /o
1.3657 0.0000 0.0000 /d
3 print_glyphs
26.5145 -5.6667 moveto magfontemmentaler-18mDWo /noteheads.s2 glyphshow 
26.5145 -4.6667 moveto magfontemmentaler-18mDWo /noteheads.s2 glyphshow 
stroke grestore
%%Trailer
%%EOF
