%% Generated by lilypond-book
%% Options: [indent=0\mm,line-width=348\pt]
\include "lilypond-book-preamble.ly"


% ****************************************************************
% Start cut-&-pastable-section
% ****************************************************************



\paper {
  indent = 0\mm
  line-width = 348\pt
  % offset the left padding, also add 1mm as lilypond creates cropped
  % images with a little space on the right
  line-width = #(- line-width (* mm  3.000000) (* mm 1))
}

\layout {
  
}





% ****************************************************************
% ly snippet:
% ****************************************************************
\sourcefilename "./our_father/our_father.ly"
\sourcefileline 0

%% LilyPond file generated by Denemo version 2.0.8

%%http://www.gnu.org/software/denemo/

\version "2.18.0"

titledPiece = {}
AutoBarline = \breathe
AutoEndMovementBarline = \bar "|."

				% The music follows

MvmntIVoiceI = {
  \voiceOne  g'4 a' a' b' c'' c''\AutoBarline
  a'8 a' g' g' a'4.\AutoBarline
  g'8 g' g' a'4.\AutoBarline
  b'8 b' b' c''4.\AutoBarline
				%5
  a'8 g'4 g'8 g' a'4 a'2\AutoBarline
  \tuplet 3/2 { g'8 g' g' } g' g' g' g' a'4.\AutoBarline
  b'8 \tuplet 3/2 { b' b' b' } c''4.\AutoBarline
  a'8 a' a' g'4 g'8 g' g' g' a'4 a'2\AutoBarline
  g'8 g' g' g' a'4 a'\AutoBarline
				%10
  b'8 b' b' b' b' b' c''4 c''\AutoBarline
  a'2( g') a'1 \AutoEndMovementBarline
}


MvmntIVoiceILyricsVerseI = \lyricmode {
  Our Fa -- ther in hea -- ven, hal -- lowed be your name. Your king
  -- dom come. Your will be done, on earth as in hea -- ven. Give us
  to -- day our dai -- ly bread. For -- give us our sins as we for --
  give those who sin a -- gainst us. Keep us from temp -- ta -- tion,
  and de -- li -- ver us from e -- vil. A -- men!  }


MvmntIVoiceII = {
  \voiceTwo e'4 fis' fis' g' g' g'\AutoBarline
  a'8 a' e' e' e'4.\AutoBarline
  e'8 e' e' fis'4.\AutoBarline
  g'8 g' g' g'4.\AutoBarline
				%5
  fis'8 e'4 e'8 e' e'4 e'2\AutoBarline
  \tuplet 3/2 { e'8 e' e' } e' e' e' e' fis'4.\AutoBarline
  g'8 \tuplet 3/2 { g' g' g' } g'4.\AutoBarline
  fis'8 fis' fis' e'4 e'8 e' e' e' e'4 e'2\AutoBarline
  e'8 e' e' e' fis'4 fis'\AutoBarline
				%10
  g'8 g' g' g' g' g' g'4 g'\AutoBarline
  fis'2( e') e'1 \AutoEndMovementBarline
}


MvmntIVoiceIII = {
  \voiceThree b4 d' d' d' e' e'\AutoBarline
  d'8 d' b b cis'4.\AutoBarline
  b8 b b d'4.\AutoBarline
  d'8 d' d' e'4.\AutoBarline
				%5
  d'8 b4 b8 b cis'4 cis'2\AutoBarline
  \tuplet 3/2 { b8 b b } b b b b d'4.\AutoBarline
  d'8 \tuplet 3/2 { d' d' d' } e'4.\AutoBarline
  d'8 d' d' b4 b8 b b b cis'4 cis'2\AutoBarline
  b8 b b b d'4 d'\AutoBarline
				%10
  d'8 d' d' d' d' d' e'4 e'\AutoBarline
  d'2( b) cis'1 \AutoEndMovementBarline
}


MvmntIVoiceIV = {
  \voiceFour e4 d d g c c\AutoBarline
  d8 d e e <a, a>4.\AutoBarline
  e8 e e d4.\AutoBarline
  g8 g g c4.\AutoBarline
				%5
  d8 e4 e8 e <a, a>4 <a, a>2\AutoBarline
  \tuplet 3/2 { e8 e e } e e e e d4.\AutoBarline
  g8 \tuplet 3/2 { g g g } a,4.\AutoBarline
  d8 d d e4 e8 e e e <a, a>4 <a, a>2\AutoBarline
  e8 e e e d4 d\AutoBarline
				%10
  g8 g g g g g c4 c\AutoBarline
  d2( e) <a, a>1 \AutoEndMovementBarline
}



MvmntIVoiceIVerseIContext = \context Lyrics = MvmntIVoiceIVerseI \lyricsto VoiceIMvmntI \MvmntIVoiceILyricsVerseI



\layout{
  \context {
    \Score
    \override BarLine #'transparent = ##t
    \remove "Bar_number_engraver"
    \remove "Time_signature_engraver"
  }
  \context {
    \Staff
    \remove "Time_signature_engraver"
  } 
}

#(set-global-staff-size 20)
\paper {
  myStaffSize = #18
    #(define fonts
    (make-pango-font-tree "TeX Gyre Pagella"
                          "TeX Gyre Pagella"
     "TeX Gyre Pagella"
     (/ myStaffSize 20)
                           ))
   indent = 0\cm} 

\score { %Start of Movement
  <<

    \new ChoirStaff <<
				%Start of Staff
      \new Staff = "Soprano"  << %\set Staff.instrumentName = "Soprano & Alto"\set Staff.shortInstrumentName = "Sop, Alt"
	\new Voice = "VoiceIMvmntI"  { 
	  \clef treble    \key g \major    \time 4/4   \MvmntIVoiceI
	} %End of voice
	\new Voice = "VoiceIIMvmntI"  { 
	  \MvmntIVoiceII
	} %End of voice

      >> %End of Staff

      \new Lyrics = MvmntIVoiceIVerseI

      \MvmntIVoiceIVerseIContext

				%Start of Staff
      \new Staff = "Tenor"  << %\set Staff.instrumentName = "Tenor & Bass"\set Staff.shortInstrumentName = "Ten, Bs"
	\new Voice = "VoiceIIIMvmntI"  { 
	  \clef bass    \key g \major    \time 4/4   \MvmntIVoiceIII
	} %End of voice
	\new Voice = "VoiceIVMvmntI"  { 
	  \MvmntIVoiceIV
	} %End of voice

      >> %End of Staff
    >>

  >>
  \midi { }
  \layout { }


} %End of Movement






% ****************************************************************
% end ly snippet
% ****************************************************************
