%!PS-Adobe-2.0 EPSF-2.0
%%Creator: LilyPond 2.18.2
%%BoundingBox: -9 -742 336 0
%%Orientation: Portrait
%%DocumentSuppliedResources: font Emmentaler-18
%%DocumentSuppliedResources: font TeXGyrePagella-Italic
%%DocumentSuppliedResources: font TeXGyrePagella-Regular
%%EndComments
%%BeginProlog
/lilypond-datadir where {pop} {userdict /lilypond-datadir (/usr/share/lilypond/2.18.2) put } ifelse
%%BeginFont: Emmentaler-18
lilypond-datadir (/fonts/otf/emmentaler-18.otf) concatstrings (r) file .loadfont
%%EndFont

%%BeginFont: TeXGyrePagella-Italic
(/usr/share/texmf/fonts/opentype/public/tex-gyre/texgyrepagella-italic.otf) (r) file .loadfont
%%EndFont

%%BeginFont: TeXGyrePagella-Regular
(/usr/share/texmf/fonts/opentype/public/tex-gyre/texgyrepagella-regular.otf) (r) file .loadfont
%%EndFont

/magfontemmentaler-18mDWo { /Emmentaler-18 6.3263 output-scale div selectfont } bind def
/lily-output-units 2.83464566929134 def %% millimeter
/staff-line-thickness 0.1 def
/line-width 67.3237795275591 def
/paper-size (a4) def
/staff-height 4.0 def
/output-scale 1.75729901757299 def
/page-height 169.00937007874 def
/page-width 119.50157480315 def
%%BeginResource: procset (music-drawing-routines.ps) 1 0
%!PS-Adobe-2.0
%
% Functions for direct and embedded PostScript

% Careful with double % as comment prefix.
% Any %%X comment is interpreted as DSC comments.

% TODO: use dicts or prefixes to prevent namespace pollution.

/pdfmark where
{pop} {userdict /pdfmark /cleartomark load put} ifelse


% llx lly urx ury URI
/mark_URI
{
    /uri exch def
    /ury exch def
    /urx exch def
    /lly exch def
    /llx exch def
    [
	/Rect [ llx lly urx ury ]
	
	/Border [ 0 0 0 ]

        /Action
	    <<
		/Subtype /URI
		/URI uri
	    >>
        /Subtype /Link
    /ANN
    pdfmark
}
bind def

% llx lly urx ury page
/mark_page_link
{
    /page exch def
    /ury exch def
    /urx exch def
    /lly exch def
    /llx exch def
    [
        /Rect [ llx lly urx ury ]
        /Border [ 0 0 0 ]
        /Page page
        /Subtype /Link
    /ANN
    pdfmark
}
bind def

% from adobe tech note 5002.
/BeginEPSF { %def
    /b4_Inc_state save def % Save state for cleanup
    /dict_count countdictstack def % Count objects on dict stack
    /op_count count 1 sub def % Count objects on operand stack
    userdict begin % Push userdict on dict stack
    /showpage { } def % Redefine showpage, { } = null proc
    0 setgray 0 setlinecap % Prepare graphics state
    1 setlinewidth 0 setlinejoin
    10 setmiterlimit [ ] 0 setdash newpath
    false setoverprint
} bind def

/EndEPSF { %def
  count op_count sub {pop} repeat % Clean up stacks
  countdictstack dict_count sub {end} repeat
  b4_Inc_state restore
} bind def

/stroke_and_fill? {
    {
	gsave
	    false setstrokeadjust
	    stroke
	grestore
	fill
    }
    {
	stroke
    }
    ifelse
} bind def

/vector_add { % x1 y1 x2 y2 vector_add x1+x2 y1+y2
	exch
	4 1 roll
	add
	3 1 roll
	add
	exch
} bind def

/draw_round_box % width height x y blot
{
    0 max setlinewidth
    matrix currentmatrix 5 1 roll
    currentpoint translate newpath translate
    2 copy 0 min exch 0 min exch translate
    abs exch abs exch
    currentlinewidth 0 eq
    { % straight corners
	2 copy 2 mul gt
	{ % horizontal
	    0 1 index 2 div moveto
	    setlinewidth
	    0 rlineto
	    0 setlinecap
	    stroke
	}
	{
	    2 copy exch 2 mul gt
	    { % vertical
		1 index 2 div 0 moveto
		exch setlinewidth
		0 exch rlineto
		0 setlinecap
		stroke
	    }
	    {
		0 0 4 2 roll rectfill
	    }
	    ifelse
	}
	ifelse
    }
    { % rounded corners
	2 copy 0 eq exch 0 eq or
	{ % line shape
	    0 0 moveto
	    rlineto
	    1 setlinecap
	    stroke
	    0 setlinecap
	}
	{ % full shape
	    currentstrokeadjust {
		currentlinewidth 2 div
		0 0 2 index 180 270 arc
		2 index 0 2 index 270 360 arc
		3 copy 0 90 arc
		0 2 index 3 -1 roll 90 180 arc
		closepath
		2 copy 2 mul gt
		{ % horizontal
		    2 copy add currentlinewidth add 10 add % large enough
		    0 1 index neg moveto
		    2 index 1 index neg lineto
		    2 index 1 index lineto
		    0 exch lineto closepath
		    gsave clip newpath
		    0 1 index 2 div moveto
		    currentlinewidth add setlinewidth
		    0 rlineto
		    2 setlinecap
		    stroke
		    grestore
		}
		{
		    2 copy exch 2 mul gt
		    { % vertical
			2 copy add currentlinewidth add 10 add % large enough
			dup neg 0 moveto
			dup 0 lineto
			dup 2 index lineto
			neg 1 index lineto closepath
			gsave clip newpath
			1 index 2 div 0 moveto
			exch currentlinewidth add setlinewidth
			0 exch rlineto
			2 setlinecap
			stroke
			grestore
		    }
		    {
			pop pop
			fill
		    }
		    ifelse
		}
		ifelse
		newpath
	    }
	    {
		1 setlinejoin
		0 0 4 2 roll 4 copy rectstroke rectfill
	    }
	    ifelse
	}
	ifelse
    }
    ifelse
    setmatrix
} bind def

/draw_polygon % fill? x(n) y(n) x(n-1) y(n-1) ... x(0) y(0) n blot
{
	setlinewidth %set to blot

	0 setlinecap
	1 setlinejoin

	3 1 roll
	/polygon_x
	currentpoint
	/polygon_y exch def
	def
	rmoveto % x(0) y(0)
	{ polygon_x polygon_y vector_add lineto } repeat % n times
	closepath
	stroke_and_fill?
} bind def

/draw_circle % filled? radius thickness draw_circle
{
	setlinewidth	% f? r
	currentpoint	% f? r x0 y0
	3 2 roll	% f? x0 y0 r
	dup 0 rmoveto
	0 360 arc closepath
	stroke_and_fill?
} bind def

/draw_ellipse % filled? x-radius y-radius thickness draw_ellipse
{
  setlinewidth % f? x-r y-r
  /savematrix matrix currentmatrix def
  scale % f?
  currentpoint
  1 0 rmoveto
  1 0 360  arc closepath
  savematrix setmatrix
  stroke_and_fill?
} bind def

/draw_partial_ellipse % filled connect x-radius y-radius startangle endangle thickness draw_partial_ellipse
% Note that filled is not boolean to permit for different graylevels (ie for trill keys)
{
  gsave
  currentpoint translate
  /thickness exch def
  /endangle exch def
  /startangle exch def
  /y_radius exch def
  /x_radius exch def
  /endrad x_radius y_radius mul
    x_radius x_radius mul
    endangle cos endangle cos mul mul
    y_radius y_radius mul
    endangle sin endangle sin mul mul add sqrt div def
  /endangle endangle sin endrad mul y_radius div
    endangle cos endrad mul x_radius div atan def
  /startrad x_radius y_radius mul
    x_radius x_radius mul
      startangle cos startangle cos mul mul
    y_radius y_radius mul
      startangle sin startangle sin mul mul add sqrt div def
  /startangle startangle sin startrad mul y_radius div
    startangle cos startrad mul x_radius div atan def
  /connect exch def
  /filled exch def
  /savematrix matrix currentmatrix def
  thickness setlinewidth
  x_radius y_radius scale
  startangle cos startangle sin moveto
  0 0 1 startangle
    startangle endangle eq { endangle 360 add } { endangle } ifelse
    arc
  connect {
    startangle cos startangle sin moveto endangle cos endangle sin lineto }
    if
  savematrix setmatrix filled stroke_and_fill?
  grestore
} bind def

/draw_line % dx dy x1 y1 thickness draw_line
{
	setlinewidth % dx dy x1 y1
	1 setlinecap
	rmoveto % dx dy
	rlineto
	stroke
} bind def

/draw_dashed_line % dx dy thickness dashpattern offset draw_dashed_line
{
	1 setlinecap
	setdash % dx dy thickness
	setlinewidth %dx dy
	rlineto
	stroke
	[] 0 setdash % reset dash pattern
} bind def

/print_glyphs % w dx dy glyph print_glyphs
{
	{
		currentpoint %w dx dy glyph x0 y0
		5 2 roll %w x0 y0 dx dy glyph
		3 1 roll %w x0 y0 glyph dx dy
		rmoveto %w x0 y0 glyph
		glyphshow %w x0 y0
		moveto %w
		0 rmoveto
	}repeat
}bind def
%end music-drawing-routines.ps

%%EndResource
%%BeginResource: procset (lilyponddefs.ps) 1 0
%!PS-Adobe-2.0: lilyponddefs.ps
%
% Functions for direct PostScript output

% /setgray { 1 add } bind def

/set-ps-scale-to-lily-scale {
	lily-output-units output-scale mul dup scale
} bind def


/init-paper {
	gsave
	clippath pathbbox newpath
	/paper-height exch def
	/paper-width exch def pop pop pop
	% FIXME
	/top-margin 2 def
	paper-width line-width sub 2 div /left-margin exch def
	grestore
} bind def

/init-lilypond-parameters {
	staff-line-thickness setlinewidth
	staff-height init-paper
} bind def


% end lilyponddefs.ps

%%EndResource
%%EndProlog
%%BeginSetup
init-lilypond-parameters
%%EndSetup

/mark_page_link { pop pop pop pop pop } bind def
gsave set-ps-scale-to-lily-scale
0.0000 -5.6667 moveto 67.2238 0.0000 0.0500 0.0000 0.1000 draw_line
0.0000 -4.6667 moveto 67.2238 0.0000 0.0500 0.0000 0.1000 draw_line
0.0000 -3.6667 moveto 67.2238 0.0000 0.0500 0.0000 0.1000 draw_line
0.0000 -2.6667 moveto 67.2238 0.0000 0.0500 0.0000 0.1000 draw_line
0.0000 -1.6667 moveto 67.2238 0.0000 0.0500 0.0000 0.1000 draw_line
0.0000 -15.5869 moveto 1.5761 0.0000 13.6211 0.0000 0.2000 draw_round_box
0.0000 -15.5869 moveto 1.5761 0.0000 19.5856 0.0000 0.2000 draw_round_box
0.0000 -15.5869 moveto 1.5761 0.0000 25.6127 0.0000 0.2000 draw_round_box
0.0000 -15.5869 moveto 1.5761 0.0000 33.1483 0.0000 0.2000 draw_round_box
0.0000 -14.5869 moveto 1.5761 0.0000 33.1483 0.0000 0.2000 draw_round_box
0.0000 -15.5869 moveto 1.5761 0.0000 39.4017 0.0000 0.2000 draw_round_box
0.0000 -14.5869 moveto 1.5761 0.0000 39.4017 0.0000 0.2000 draw_round_box
0.0000 -15.5869 moveto 1.5761 0.0000 46.3662 0.0000 0.2000 draw_round_box
0.0000 -15.5869 moveto 1.5761 0.0000 52.1805 0.0000 0.2000 draw_round_box
0.0000 -20.5869 moveto 67.2238 0.0000 0.0500 0.0000 0.1000 draw_line
0.0000 -19.5869 moveto 67.2238 0.0000 0.0500 0.0000 0.1000 draw_line
0.0000 -18.5869 moveto 67.2238 0.0000 0.0500 0.0000 0.1000 draw_line
0.0000 -17.5869 moveto 67.2238 0.0000 0.0500 0.0000 0.1000 draw_line
0.0000 -16.5869 moveto 67.2238 0.0000 0.0500 0.0000 0.1000 draw_line
52.3765 -15.0869 moveto magfontemmentaler-18mDWo /noteheads.s2 glyphshow 
49.9810 -10.5527 moveto /TeXGyrePagella-Regular 3.90625000 output-scale div selectfont
1.3657 0.0000 0.0000 /d
1.0584 0.0000 0.0000 /e
1.7413 0.0000 0.0000 /w
1.1609 0.0000 0.0000 /o
0.6487 0.0000 0.0000 /l
5 print_glyphs
52.3765 -4.1667 moveto magfontemmentaler-18mDWo /noteheads.s2 glyphshow 
52.3765 -4.1667 moveto magfontemmentaler-18mDWo /noteheads.s2 glyphshow 
46.6273 -18.5869 moveto 0.0500 2.9455 -0.0250 -3.1485 0.0800 draw_round_box
52.4415 -18.5869 moveto 0.0500 2.8140 -0.0250 -3.0171 0.0800 draw_round_box
53.4956 -18.5869 moveto 0.0500 2.2056 -0.0250 3.7030 0.0800 draw_round_box
52.3765 -18.5869 moveto magfontemmentaler-18mDWo /noteheads.s2 glyphshow 
52.4415 -3.6667 moveto 0.0500 3.4168 -0.0250 -4.1199 0.0800 draw_round_box
53.4956 -3.6667 moveto 0.0500 2.3140 -0.0250 -0.2970 0.0800 draw_round_box
45.1123 -1.6667 moveto magfontemmentaler-18mDWo /scripts.rcomma glyphshow 
46.5623 -4.1667 moveto magfontemmentaler-18mDWo /noteheads.s2 glyphshow 
45.1123 -1.6667 moveto magfontemmentaler-18mDWo /scripts.rcomma glyphshow 
39.6627 -18.5869 moveto 0.0500 2.9237 -0.0250 -3.6267 0.0800 draw_round_box
46.5623 -4.1667 moveto magfontemmentaler-18mDWo /noteheads.s2 glyphshow 
40.7167 -18.5869 moveto 0.0500 2.2570 -0.0250 4.2030 0.0800 draw_round_box
39.6627 -3.6667 moveto 0.0500 2.7570 -0.0250 -3.9600 0.0800 draw_round_box
47.6813 -18.5869 moveto 0.0500 2.4443 -0.0250 3.7030 0.0800 draw_round_box
46.6273 -3.6667 moveto 0.0500 3.0709 -0.0250 -3.7739 0.0800 draw_round_box
47.6813 -3.6667 moveto 0.0500 2.4455 -0.0250 -0.2970 0.0800 draw_round_box
46.5623 -18.5869 moveto magfontemmentaler-18mDWo /noteheads.s2 glyphshow 
45.1123 -16.5869 moveto magfontemmentaler-18mDWo /scripts.rcomma glyphshow 
46.5623 -15.0869 moveto magfontemmentaler-18mDWo /noteheads.s2 glyphshow 
45.1123 -16.5869 moveto magfontemmentaler-18mDWo /scripts.rcomma glyphshow 
45.6178 -10.5527 moveto /TeXGyrePagella-Regular 3.90625000 output-scale div selectfont
0.6487 0.0000 0.0000 /l
1.1267 0.0000 0.0000 /a
1.2974 0.0000 0.0000 /h
3 print_glyphs
63.3018 -18.5869 moveto 0.0500 3.0685 -0.0250 -2.7715 0.0800 draw_round_box
64.3559 -18.5869 moveto 0.0500 2.7597 -0.0250 2.7030 0.0800 draw_round_box
46.5623 -7.4767 moveto true 16.7646 -0.8000 16.7646 -1.2000 0.0400 -0.2000 0.0400 0.2000 3 0.0800 draw_polygon
16.6261 -10.5527 moveto 0.5800 0.0500 0.0400 0.4600 0.0800 draw_round_box
36.5879 -10.5527 moveto 0.5800 0.0500 0.0400 0.4600 0.0800 draw_round_box
49.0059 -10.5527 moveto 0.5800 0.0500 0.0400 0.4600 0.0800 draw_round_box
47.6163 -1.4767 moveto true 16.7646 -0.1800 16.7646 -0.5800 0.0400 -0.2000 0.0400 0.2000 3 0.0800 draw_polygon
47.6163 -12.3969 moveto true 16.7646 -0.4900 16.7646 -0.8900 0.0400 -0.2000 0.0400 0.2000 3 0.0800 draw_polygon
46.5623 -21.7769 moveto true 16.7646 0.5800 16.7646 0.1800 0.0400 -0.2000 0.0400 0.2000 3 0.0800 draw_polygon
59.2672 -18.5869 moveto 0.0500 2.9686 -0.0250 2.7030 0.0800 draw_round_box
58.2131 -3.6667 moveto 0.0500 2.2603 -0.0250 -4.4633 0.0800 draw_round_box
59.2672 -3.6667 moveto 0.0500 2.6835 -0.0250 -0.7970 0.0800 draw_round_box
58.1481 -18.0869 moveto magfontemmentaler-18mDWo /noteheads.s2 glyphshow 
58.1481 -16.0869 moveto magfontemmentaler-18mDWo /noteheads.s2 glyphshow 
57.5963 -10.5527 moveto /TeXGyrePagella-Regular 3.90625000 output-scale div selectfont
1.0584 0.0000 0.0000 /e
1.2292 0.0000 0.0000 /b
2 print_glyphs
58.1481 -5.6667 moveto magfontemmentaler-18mDWo /noteheads.s2 glyphshow 
58.1481 -4.6667 moveto magfontemmentaler-18mDWo /noteheads.s2 glyphshow 
63.2368 -5.6667 moveto magfontemmentaler-18mDWo /noteheads.s2 glyphshow 
63.3018 -3.6667 moveto 0.0500 2.5631 -0.0250 -4.7661 0.0800 draw_round_box
64.3559 -3.6667 moveto 0.0500 2.5685 -0.0250 -0.7970 0.0800 draw_round_box
63.2368 -18.0869 moveto magfontemmentaler-18mDWo /noteheads.s2 glyphshow 
63.2368 -16.0869 moveto magfontemmentaler-18mDWo /noteheads.s2 glyphshow 
61.5242 -10.5527 moveto /TeXGyrePagella-Regular 3.90625000 output-scale div selectfont
0.8877 0.0000 0.0000 /r
1.3316 0.0000 0.0000 /u
1.2292 0.0000 0.0000 /o
1.1609 0.0000 0.0000 /y
4 print_glyphs
63.2368 -4.6667 moveto magfontemmentaler-18mDWo /noteheads.s2 glyphshow 
58.2131 -18.5869 moveto 0.0500 3.1835 -0.0250 -2.8865 0.0800 draw_round_box
14.9362 -18.5869 moveto 0.0500 2.2570 -0.0250 3.7030 0.0800 draw_round_box
13.8821 -3.6667 moveto 0.0500 2.5903 -0.0250 -4.2933 0.0800 draw_round_box
14.9362 -3.6667 moveto 0.0500 3.2570 -0.0250 -0.2970 0.0800 draw_round_box
13.8171 -18.5869 moveto magfontemmentaler-18mDWo /noteheads.s2 glyphshow 
13.8171 -15.0869 moveto magfontemmentaler-18mDWo /noteheads.s2 glyphshow 
13.2824 -10.5527 moveto /TeXGyrePagella-Regular 3.90625000 output-scale div selectfont
1.1267 0.0000 0.0000 /a
1.1267 0.0000 0.0000 /F
2 print_glyphs
13.8171 -5.1667 moveto magfontemmentaler-18mDWo /noteheads.s2 glyphshow 
13.8171 -4.1667 moveto magfontemmentaler-18mDWo /noteheads.s2 glyphshow 
19.7817 -18.5869 moveto magfontemmentaler-18mDWo /noteheads.s2 glyphshow 
19.8467 -3.6667 moveto 0.0500 2.5903 -0.0250 -4.2933 0.0800 draw_round_box
20.9007 -3.6667 moveto 0.0500 3.2570 -0.0250 -0.2970 0.0800 draw_round_box
19.7817 -15.0869 moveto magfontemmentaler-18mDWo /noteheads.s2 glyphshow 
18.3763 -10.5527 moveto /TeXGyrePagella-Regular 3.90625000 output-scale div selectfont
0.8877 0.0000 0.0000 /r
1.0584 0.0000 0.0000 /e
1.2974 0.0000 0.0000 /h
0.7512 0.0000 0.0000 /t
4 print_glyphs
19.7817 -5.1667 moveto magfontemmentaler-18mDWo /noteheads.s2 glyphshow 
19.7817 -4.1667 moveto magfontemmentaler-18mDWo /noteheads.s2 glyphshow 
13.8821 -18.5869 moveto 0.0500 3.0903 -0.0250 -3.2933 0.0800 draw_round_box
7.7900 -4.6667 moveto magfontemmentaler-18mDWo /noteheads.s2 glyphshow 
8.9091 -3.6667 moveto 0.0500 3.2570 -0.0250 -0.7970 0.0800 draw_round_box
4.3000 -17.5869 moveto magfontemmentaler-18mDWo /accidentals.sharp glyphshow 
0.8000 -17.5869 moveto magfontemmentaler-18mDWo /clefs.F glyphshow 
7.7900 -18.0869 moveto magfontemmentaler-18mDWo /noteheads.s2 glyphshow 
7.7900 -16.0869 moveto magfontemmentaler-18mDWo /noteheads.s2 glyphshow 
6.4017 -10.5527 moveto /TeXGyrePagella-Regular 3.90625000 output-scale div selectfont
0.8877 0.0000 0.0000 /r
1.3316 0.0000 0.0000 /u
1.7413 0.0000 0.0000 /O
3 print_glyphs
4.3000 -1.6667 moveto magfontemmentaler-18mDWo /accidentals.sharp glyphshow 
0.8000 -4.6667 moveto magfontemmentaler-18mDWo /clefs.G glyphshow 
7.7900 -5.6667 moveto magfontemmentaler-18mDWo /noteheads.s2 glyphshow 
-0.0600 -11.1268 moveto 0.0600 18.9202 0.0500 -9.4601 0.1000 draw_round_box
-1.3100 -1.4142 moveto magfontemmentaler-18mDWo /brackettips.up glyphshow 
-1.3100 -20.8394 moveto magfontemmentaler-18mDWo /brackettips.down glyphshow 
-1.3100 -11.1268 moveto 0.4500 19.1102 0.0000 -9.5551 0.0000 draw_round_box
7.8550 -18.5869 moveto 0.0500 3.2570 -0.0250 -2.9600 0.0800 draw_round_box
40.7167 -3.6667 moveto 0.0500 2.9237 -0.0250 0.7030 0.0800 draw_round_box
8.9091 -18.5869 moveto 0.0500 2.2570 -0.0250 2.7030 0.0800 draw_round_box
7.8550 -3.6667 moveto 0.0500 2.4237 -0.0250 -4.6267 0.0800 draw_round_box
34.4634 -18.5869 moveto 0.0500 2.2570 -0.0250 4.2030 0.0800 draw_round_box
33.4093 -18.5869 moveto 0.0500 2.9237 -0.0250 -3.6267 0.0800 draw_round_box
33.4093 -3.6667 moveto 0.0500 2.7570 -0.0250 -3.9600 0.0800 draw_round_box
34.4634 -3.6667 moveto 0.0500 2.9237 -0.0250 0.7030 0.0800 draw_round_box
33.3443 -19.0869 moveto magfontemmentaler-18mDWo /noteheads.s2 glyphshow 
20.9007 -18.5869 moveto 0.0500 2.2570 -0.0250 3.7030 0.0800 draw_round_box
32.1951 -10.5527 moveto /TeXGyrePagella-Regular 3.90625000 output-scale div selectfont
1.1267 0.0000 0.0000 /a
1.0584 0.0000 0.0000 /e
1.2974 0.0000 0.0000 /h
3 print_glyphs
33.3443 -4.6667 moveto magfontemmentaler-18mDWo /noteheads.s2 glyphshow 
39.5977 -19.0869 moveto magfontemmentaler-18mDWo /noteheads.s2 glyphshow 
39.5977 -14.5869 moveto magfontemmentaler-18mDWo /noteheads.s2 glyphshow 
38.1582 -10.5527 moveto /TeXGyrePagella-Regular 3.90625000 output-scale div selectfont
0.5463 0.0000 0.0000 /comma
1.2974 0.0000 0.0000 /n
1.0584 0.0000 0.0000 /e
1.1609 0.0000 0.0000 /v
4 print_glyphs
39.5977 -4.6667 moveto magfontemmentaler-18mDWo /noteheads.s2 glyphshow 
39.5977 -3.1667 moveto magfontemmentaler-18mDWo /noteheads.s2 glyphshow 
33.3443 -14.5869 moveto magfontemmentaler-18mDWo /noteheads.s2 glyphshow 
25.8087 -3.6667 moveto magfontemmentaler-18mDWo /noteheads.s2 glyphshow 
25.8737 -3.6667 moveto 0.0500 2.7570 -0.0250 -3.9600 0.0800 draw_round_box
26.9278 -3.6667 moveto 0.0500 3.0903 -0.0250 0.2030 0.0800 draw_round_box
25.8087 -17.0869 moveto magfontemmentaler-18mDWo /noteheads.s2 glyphshow 
25.8087 -15.0869 moveto magfontemmentaler-18mDWo /noteheads.s2 glyphshow 
25.4277 -10.5527 moveto /TeXGyrePagella-Regular 3.90625000 output-scale div selectfont
1.2974 0.0000 0.0000 /n
0.6487 0.0000 0.0000 /i
2 print_glyphs
25.8087 -4.6667 moveto magfontemmentaler-18mDWo /noteheads.s2 glyphshow 
19.8467 -18.5869 moveto 0.0500 3.0903 -0.0250 -3.2933 0.0800 draw_round_box
33.3443 -3.1667 moveto magfontemmentaler-18mDWo /noteheads.s2 glyphshow 
25.8737 -18.5869 moveto 0.0500 3.2570 -0.0250 -1.9600 0.0800 draw_round_box
26.9278 -18.5869 moveto 0.0500 2.2570 -0.0250 3.7030 0.0800 draw_round_box
0.0000 -29.9202 moveto 67.2238 0.0000 0.0500 0.0000 0.1000 draw_line
0.0000 -28.9202 moveto 67.2238 0.0000 0.0500 0.0000 0.1000 draw_line
0.0000 -27.9202 moveto 67.2238 0.0000 0.0500 0.0000 0.1000 draw_line
0.0000 -26.9202 moveto 67.2238 0.0000 0.0500 0.0000 0.1000 draw_line
0.0000 -25.9202 moveto 67.2238 0.0000 0.0500 0.0000 0.1000 draw_line
0.0000 -39.7877 moveto 1.4551 0.0000 7.9550 0.0000 0.2000 draw_round_box
0.0000 -39.7877 moveto 1.5761 0.0000 32.6025 0.0000 0.2000 draw_round_box
0.0000 -39.7877 moveto 1.5761 0.0000 42.2175 0.0000 0.2000 draw_round_box
0.0000 -39.7877 moveto 1.5761 0.0000 47.5967 0.0000 0.2000 draw_round_box
0.0000 -39.7877 moveto 1.5761 0.0000 51.7638 0.0000 0.2000 draw_round_box
0.0000 -39.7877 moveto 1.5761 0.0000 56.7844 0.0000 0.2000 draw_round_box
0.0000 -38.7877 moveto 1.5761 0.0000 56.7844 0.0000 0.2000 draw_round_box
0.0000 -39.7877 moveto 1.5761 0.0000 63.8240 0.0000 0.2000 draw_round_box
0.0000 -44.7877 moveto 67.2238 0.0000 0.0500 0.0000 0.1000 draw_line
0.0000 -43.7877 moveto 67.2238 0.0000 0.0500 0.0000 0.1000 draw_line
0.0000 -42.7877 moveto 67.2238 0.0000 0.0500 0.0000 0.1000 draw_line
0.0000 -41.7877 moveto 67.2238 0.0000 0.0500 0.0000 0.1000 draw_line
0.0000 -40.7877 moveto 67.2238 0.0000 0.0500 0.0000 0.1000 draw_line
51.9598 -27.9202 moveto magfontemmentaler-18mDWo /noteheads.s2 glyphshow 
47.8577 -42.7877 moveto 0.0500 3.0670 -0.0250 -1.7700 0.0800 draw_round_box
48.9118 -42.7877 moveto 0.0500 2.0670 -0.0250 3.7030 0.0800 draw_round_box
47.8577 -27.9202 moveto 0.0500 2.2570 -0.0250 -3.4600 0.0800 draw_round_box
52.0248 -42.7877 moveto 0.0500 3.0670 -0.0250 -1.7700 0.0800 draw_round_box
53.0788 -42.7877 moveto 0.0500 2.0670 -0.0250 3.7030 0.0800 draw_round_box
51.9598 -28.9202 moveto magfontemmentaler-18mDWo /noteheads.s2 glyphshow 
52.0248 -27.9202 moveto 0.0500 2.2570 -0.0250 -3.4600 0.0800 draw_round_box
53.0788 -27.9202 moveto 0.0500 2.7570 -0.0250 0.2030 0.0800 draw_round_box
51.9598 -41.2877 moveto magfontemmentaler-18mDWo /noteheads.s2 glyphshow 
51.9598 -39.2877 moveto magfontemmentaler-18mDWo /noteheads.s2 glyphshow 
51.4080 -34.7535 moveto /TeXGyrePagella-Regular 3.90625000 output-scale div selectfont
1.0584 0.0000 0.0000 /e
1.2292 0.0000 0.0000 /b
2 print_glyphs
40.9635 -40.7877 moveto magfontemmentaler-18mDWo /scripts.rcomma glyphshow 
42.4785 -27.9202 moveto 0.0500 2.2570 -0.0250 -3.4600 0.0800 draw_round_box
43.5326 -27.9202 moveto 0.0500 2.7570 -0.0250 0.2030 0.0800 draw_round_box
42.4135 -41.2877 moveto magfontemmentaler-18mDWo /noteheads.s2 glyphshow 
42.4135 -39.2877 moveto magfontemmentaler-18mDWo /noteheads.s2 glyphshow 
40.9635 -40.7877 moveto magfontemmentaler-18mDWo /scripts.rcomma glyphshow 
40.6496 -34.7535 moveto /TeXGyrePagella-Regular 3.90625000 output-scale div selectfont
0.8877 0.0000 0.0000 /r
1.3316 0.0000 0.0000 /u
1.2292 0.0000 0.0000 /o
1.2633 0.0000 0.0000 /Y
4 print_glyphs
42.4135 -28.9202 moveto magfontemmentaler-18mDWo /noteheads.s2 glyphshow 
40.9635 -25.9202 moveto magfontemmentaler-18mDWo /scripts.rcomma glyphshow 
42.4135 -27.9202 moveto magfontemmentaler-18mDWo /noteheads.s2 glyphshow 
40.9635 -25.9202 moveto magfontemmentaler-18mDWo /scripts.rcomma glyphshow 
47.7927 -41.2877 moveto magfontemmentaler-18mDWo /noteheads.s2 glyphshow 
47.7927 -39.2877 moveto magfontemmentaler-18mDWo /noteheads.s2 glyphshow 
46.4898 -34.7535 moveto /TeXGyrePagella-Regular 3.90625000 output-scale div selectfont
0.6487 0.0000 0.0000 /l
0.6487 0.0000 0.0000 /l
0.6487 0.0000 0.0000 /i
1.8437 0.0000 0.0000 /w
4 print_glyphs
47.7927 -28.9202 moveto magfontemmentaler-18mDWo /noteheads.s2 glyphshow 
47.7927 -27.9202 moveto magfontemmentaler-18mDWo /noteheads.s2 glyphshow 
48.9118 -27.9202 moveto 0.0500 2.7570 -0.0250 0.2030 0.0800 draw_round_box
42.4785 -42.7877 moveto 0.0500 3.0670 -0.0250 -1.7700 0.0800 draw_round_box
43.5326 -42.7877 moveto 0.0500 2.0670 -0.0250 3.7030 0.0800 draw_round_box
64.1500 -46.1227 moveto magfontemmentaler-18mDWo /flags.d3 glyphshow 
64.0850 -42.7877 moveto 0.0500 3.1320 -0.0250 -3.3350 0.0800 draw_round_box
65.2041 -36.3277 moveto magfontemmentaler-18mDWo /flags.u3 glyphshow 
65.1391 -42.7877 moveto 0.0500 2.7570 -0.0250 3.7030 0.0800 draw_round_box
43.4676 -24.9202 moveto true 9.6363 0.2000 9.6363 -0.2000 0.0400 -0.2000 0.0400 0.2000 3 0.0800 draw_polygon
24.1277 -34.7535 moveto 0.5583 0.0500 0.0400 0.4600 0.0800 draw_round_box
22.3175 -25.9202 moveto true 5.3411 0.2000 5.3411 -0.2000 0.0400 -0.2000 0.0400 0.2000 3 0.0800 draw_polygon
21.2634 -32.4202 moveto true 5.3411 0.2000 5.3411 -0.2000 0.0400 -0.2000 0.0400 0.2000 3 0.0800 draw_polygon
22.3175 -37.9777 moveto true 5.3411 0.2000 5.3411 -0.2000 0.0400 -0.2000 0.0400 0.2000 3 0.0800 draw_polygon
21.2634 -45.5977 moveto true 5.3411 0.2000 5.3411 -0.2000 0.0400 -0.2000 0.0400 0.2000 3 0.0800 draw_polygon
42.4135 -31.4202 moveto true 9.6363 0.2000 9.6363 -0.2000 0.0400 -0.2000 0.0400 0.2000 3 0.0800 draw_polygon
43.4676 -36.9777 moveto true 9.6363 0.2000 9.6363 -0.2000 0.0400 -0.2000 0.0400 0.2000 3 0.0800 draw_polygon
42.4135 -44.5977 moveto true 9.6363 0.2000 9.6363 -0.2000 0.0400 -0.2000 0.0400 0.2000 3 0.0800 draw_polygon
58.5659 -29.4202 moveto magfontemmentaler-18mDWo /dots.dot glyphshow 
58.0995 -42.7877 moveto 0.0500 2.2570 -0.0250 4.2030 0.0800 draw_round_box
58.5659 -38.2877 moveto magfontemmentaler-18mDWo /dots.dot glyphshow 
57.0455 -27.9202 moveto 0.0500 2.7570 -0.0250 -3.9600 0.0800 draw_round_box
58.5659 -43.2877 moveto magfontemmentaler-18mDWo /dots.dot glyphshow 
58.0995 -27.9202 moveto 0.0500 2.9237 -0.0250 0.7030 0.0800 draw_round_box
58.5659 -27.4202 moveto magfontemmentaler-18mDWo /dots.dot glyphshow 
56.9805 -43.2877 moveto magfontemmentaler-18mDWo /noteheads.s2 glyphshow 
56.9805 -38.7877 moveto magfontemmentaler-18mDWo /noteheads.s2 glyphshow 
54.8240 -34.7535 moveto /TeXGyrePagella-Regular 3.90625000 output-scale div selectfont
0.5463 0.0000 0.0000 /comma
1.0584 0.0000 0.0000 /e
1.2974 0.0000 0.0000 /n
1.2292 0.0000 0.0000 /o
1.3657 0.0000 0.0000 /d
5 print_glyphs
56.9805 -28.9202 moveto magfontemmentaler-18mDWo /noteheads.s2 glyphshow 
56.9805 -27.4202 moveto magfontemmentaler-18mDWo /noteheads.s2 glyphshow 
62.5700 -40.7877 moveto magfontemmentaler-18mDWo /scripts.rcomma glyphshow 
64.1500 -32.3802 moveto magfontemmentaler-18mDWo /flags.d3 glyphshow 
64.0850 -27.9202 moveto 0.0500 2.7570 -0.0250 -4.4600 0.0800 draw_round_box
65.2041 -24.9602 moveto magfontemmentaler-18mDWo /flags.u3 glyphshow 
65.1391 -27.9202 moveto 0.0500 3.2570 -0.0250 -0.2970 0.0800 draw_round_box
64.0200 -42.7877 moveto magfontemmentaler-18mDWo /noteheads.s2 glyphshow 
62.5700 -40.7877 moveto magfontemmentaler-18mDWo /scripts.rcomma glyphshow 
64.0200 -39.2877 moveto magfontemmentaler-18mDWo /noteheads.s2 glyphshow 
63.3487 -34.7535 moveto /TeXGyrePagella-Regular 3.90625000 output-scale div selectfont
1.2974 0.0000 0.0000 /n
1.2292 0.0000 0.0000 /o
2 print_glyphs
64.0200 -29.4202 moveto magfontemmentaler-18mDWo /noteheads.s2 glyphshow 
62.5700 -25.9202 moveto magfontemmentaler-18mDWo /scripts.rcomma glyphshow 
64.0200 -28.4202 moveto magfontemmentaler-18mDWo /noteheads.s2 glyphshow 
62.5700 -25.9202 moveto magfontemmentaler-18mDWo /scripts.rcomma glyphshow 
57.0455 -42.7877 moveto 0.0500 2.9237 -0.0250 -3.6267 0.0800 draw_round_box
14.1269 -25.9202 moveto magfontemmentaler-18mDWo /scripts.rcomma glyphshow 
16.7610 -25.4602 moveto magfontemmentaler-18mDWo /flags.u3 glyphshow 
16.6960 -27.9202 moveto 0.0500 3.2570 -0.0250 -0.7970 0.0800 draw_round_box
15.5769 -42.2877 moveto magfontemmentaler-18mDWo /noteheads.s2 glyphshow 
14.1269 -40.7877 moveto magfontemmentaler-18mDWo /scripts.rcomma glyphshow 
15.5769 -40.2877 moveto magfontemmentaler-18mDWo /noteheads.s2 glyphshow 
14.1269 -40.7877 moveto magfontemmentaler-18mDWo /scripts.rcomma glyphshow 
13.8131 -34.7535 moveto /TeXGyrePagella-Regular 3.90625000 output-scale div selectfont
0.8877 0.0000 0.0000 /r
1.3316 0.0000 0.0000 /u
1.2292 0.0000 0.0000 /o
1.2633 0.0000 0.0000 /Y
4 print_glyphs
15.5769 -29.9202 moveto magfontemmentaler-18mDWo /noteheads.s2 glyphshow 
15.6419 -27.9202 moveto 0.0500 2.7570 -0.0250 -4.9600 0.0800 draw_round_box
15.5769 -28.9202 moveto magfontemmentaler-18mDWo /noteheads.s2 glyphshow 
14.1269 -25.9202 moveto magfontemmentaler-18mDWo /scripts.rcomma glyphshow 
6.6900 -39.7877 moveto magfontemmentaler-18mDWo /accidentals.sharp glyphshow 
9.6155 -41.2877 moveto magfontemmentaler-18mDWo /dots.dot glyphshow 
8.0950 -42.7877 moveto 0.0500 6.0903 -0.0250 -4.2933 0.0800 draw_round_box
15.6419 -42.7877 moveto 0.0500 3.2570 -0.0250 -2.9600 0.0800 draw_round_box
21.2634 -28.9202 moveto magfontemmentaler-18mDWo /noteheads.s2 glyphshow 
15.7069 -45.7477 moveto magfontemmentaler-18mDWo /flags.d3 glyphshow 
9.6155 -44.2877 moveto magfontemmentaler-18mDWo /dots.dot glyphshow 
16.7610 -37.3277 moveto magfontemmentaler-18mDWo /flags.u3 glyphshow 
16.6960 -42.7877 moveto 0.0500 2.7570 -0.0250 2.7030 0.0800 draw_round_box
15.7069 -32.8802 moveto magfontemmentaler-18mDWo /flags.d3 glyphshow 
4.3000 -41.7877 moveto magfontemmentaler-18mDWo /accidentals.sharp glyphshow 
0.8000 -41.7877 moveto magfontemmentaler-18mDWo /clefs.F glyphshow 
4.3000 -25.9202 moveto magfontemmentaler-18mDWo /accidentals.sharp glyphshow 
0.8000 -28.9202 moveto magfontemmentaler-18mDWo /clefs.G glyphshow 
-0.0600 -35.3539 moveto 0.0600 18.8675 0.0500 -9.4337 0.1000 draw_round_box
-1.3100 -25.6677 moveto magfontemmentaler-18mDWo /brackettips.up glyphshow 
-1.3100 -45.0402 moveto magfontemmentaler-18mDWo /brackettips.down glyphshow 
-1.3100 -35.3539 moveto 0.4500 19.0575 0.0000 -9.5287 0.0000 draw_round_box
9.6155 -30.4202 moveto magfontemmentaler-18mDWo /dots.dot glyphshow 
9.1491 -42.7877 moveto 0.0500 2.2570 -0.0250 3.2030 0.0800 draw_round_box
9.6155 -39.2877 moveto magfontemmentaler-18mDWo /dots.dot glyphshow 
8.0950 -27.9202 moveto 0.0500 2.4237 -0.0250 -4.6267 0.0800 draw_round_box
9.1491 -27.9202 moveto 0.0500 3.2570 -0.0250 -0.2970 0.0800 draw_round_box
9.6155 -28.4202 moveto magfontemmentaler-18mDWo /dots.dot glyphshow 
8.0300 -40.7877 moveto magfontemmentaler-18mDWo /noteheads.s2 glyphshow 
8.0300 -44.2877 moveto magfontemmentaler-18mDWo /noteheads.s2 glyphshow 
8.0300 -39.7877 moveto magfontemmentaler-18mDWo /noteheads.s2 glyphshow 
5.6345 -34.7535 moveto /TeXGyrePagella-Regular 3.90625000 output-scale div selectfont
0.5463 0.0000 0.0000 /period
1.0584 0.0000 0.0000 /e
1.9462 0.0000 0.0000 /m
1.1267 0.0000 0.0000 /a
1.2974 0.0000 0.0000 /n
5 print_glyphs
8.0300 -29.9202 moveto magfontemmentaler-18mDWo /noteheads.s2 glyphshow 
8.0300 -28.4202 moveto magfontemmentaler-18mDWo /noteheads.s2 glyphshow 
32.8635 -27.9202 moveto 0.0500 2.5903 -0.0250 -4.2933 0.0800 draw_round_box
34.3840 -29.4202 moveto magfontemmentaler-18mDWo /dots.dot glyphshow 
33.9176 -27.9202 moveto 0.0500 3.2570 -0.0250 -0.2970 0.0800 draw_round_box
34.3840 -28.4202 moveto magfontemmentaler-18mDWo /dots.dot glyphshow 
32.7985 -42.7877 moveto magfontemmentaler-18mDWo /noteheads.s2 glyphshow 
32.7985 -39.2877 moveto magfontemmentaler-18mDWo /noteheads.s2 glyphshow 
30.5054 -34.7535 moveto /TeXGyrePagella-Regular 3.90625000 output-scale div selectfont
0.5463 0.0000 0.0000 /period
1.0584 0.0000 0.0000 /e
1.9462 0.0000 0.0000 /m
1.2292 0.0000 0.0000 /o
0.9902 0.0000 0.0000 /c
5 print_glyphs
32.7985 -29.4202 moveto magfontemmentaler-18mDWo /noteheads.s2 glyphshow 
32.7985 -28.4202 moveto magfontemmentaler-18mDWo /noteheads.s2 glyphshow 
26.5795 -42.7877 moveto 0.0500 3.0670 -0.0250 -2.7700 0.0800 draw_round_box
21.2634 -29.9202 moveto magfontemmentaler-18mDWo /noteheads.s2 glyphshow 
27.6336 -42.7877 moveto 0.0500 2.0670 -0.0250 2.7030 0.0800 draw_round_box
32.8635 -42.7877 moveto 0.0500 3.0903 -0.0250 -3.2933 0.0800 draw_round_box
34.3840 -43.2877 moveto magfontemmentaler-18mDWo /dots.dot glyphshow 
33.9176 -42.7877 moveto 0.0500 2.2570 -0.0250 3.7030 0.0800 draw_round_box
34.3840 -39.2877 moveto magfontemmentaler-18mDWo /dots.dot glyphshow 
21.3284 -42.7877 moveto 0.0500 3.0670 -0.0250 -2.7700 0.0800 draw_round_box
22.3825 -42.7877 moveto 0.0500 2.0670 -0.0250 2.7030 0.0800 draw_round_box
21.3284 -27.9202 moveto 0.0500 2.2570 -0.0250 -4.4600 0.0800 draw_round_box
22.3825 -27.9202 moveto 0.0500 2.7570 -0.0250 -0.7970 0.0800 draw_round_box
21.2634 -42.2877 moveto magfontemmentaler-18mDWo /noteheads.s2 glyphshow 
21.2634 -40.2877 moveto magfontemmentaler-18mDWo /noteheads.s2 glyphshow 
19.6532 -34.7535 moveto /TeXGyrePagella-Regular 3.90625000 output-scale div selectfont
1.2292 0.0000 0.0000 /g
1.2974 0.0000 0.0000 /n
0.6487 0.0000 0.0000 /i
1.2292 0.0000 0.0000 /k
4 print_glyphs
26.5795 -27.9202 moveto 0.0500 2.2570 -0.0250 -4.4600 0.0800 draw_round_box
27.6336 -27.9202 moveto 0.0500 2.7570 -0.0250 -0.7970 0.0800 draw_round_box
26.5145 -42.2877 moveto magfontemmentaler-18mDWo /noteheads.s2 glyphshow 
26.5145 -40.2877 moveto magfontemmentaler-18mDWo /noteheads.s2 glyphshow 
24.8360 -34.7535 moveto /TeXGyrePagella-Regular 3.90625000 output-scale div selectfont
1.9462 0.0000 0.0000 /m
1.2292 0.0000 0.0000 /o
1.3657 0.0000 0.0000 /d
3 print_glyphs
26.5145 -29.9202 moveto magfontemmentaler-18mDWo /noteheads.s2 glyphshow 
26.5145 -28.9202 moveto magfontemmentaler-18mDWo /noteheads.s2 glyphshow 
0.0000 -55.0415 moveto 67.2238 0.0000 0.0500 0.0000 0.1000 draw_line
0.0000 -54.0415 moveto 67.2238 0.0000 0.0500 0.0000 0.1000 draw_line
0.0000 -53.0415 moveto 67.2238 0.0000 0.0500 0.0000 0.1000 draw_line
0.0000 -52.0415 moveto 67.2238 0.0000 0.0500 0.0000 0.1000 draw_line
0.0000 -51.0415 moveto 67.2238 0.0000 0.0500 0.0000 0.1000 draw_line
0.0000 -71.2849 moveto 67.2238 0.0000 0.0500 0.0000 0.1000 draw_line
0.0000 -70.2849 moveto 67.2238 0.0000 0.0500 0.0000 0.1000 draw_line
0.0000 -69.2849 moveto 67.2238 0.0000 0.0500 0.0000 0.1000 draw_line
0.0000 -68.2849 moveto 67.2238 0.0000 0.0500 0.0000 0.1000 draw_line
0.0000 -67.2849 moveto 67.2238 0.0000 0.0500 0.0000 0.1000 draw_line
0.0000 -66.2849 moveto 1.4551 0.0000 21.3186 0.0000 0.2000 draw_round_box
0.0000 -66.2849 moveto 1.6821 0.0000 26.9787 0.0000 0.2000 draw_round_box
51.6838 -69.2849 moveto 0.0500 2.0670 -0.0250 2.7030 0.0800 draw_round_box
50.6297 -53.0415 moveto 0.0500 2.2570 -0.0250 -4.4600 0.0800 draw_round_box
51.6838 -53.0415 moveto 0.0500 2.7570 -0.0250 -0.7970 0.0800 draw_round_box
50.5647 -68.7849 moveto magfontemmentaler-18mDWo /noteheads.s2 glyphshow 
50.5647 -66.7849 moveto magfontemmentaler-18mDWo /noteheads.s2 glyphshow 
49.3472 -61.0203 moveto /TeXGyrePagella-Regular 3.90625000 output-scale div selectfont
1.2292 0.0000 0.0000 /y
1.0243 0.0000 0.0000 /a
1.3657 0.0000 0.0000 /d
3 print_glyphs
50.5647 -55.0415 moveto magfontemmentaler-18mDWo /noteheads.s2 glyphshow 
50.5647 -54.0415 moveto magfontemmentaler-18mDWo /noteheads.s2 glyphshow 
56.6483 -53.0415 moveto 0.0500 2.7570 -0.0250 -0.7970 0.0800 draw_round_box
56.6483 -69.2849 moveto 0.0500 2.0670 -0.0250 2.7030 0.0800 draw_round_box
55.5942 -53.0415 moveto 0.0500 2.2570 -0.0250 -4.4600 0.0800 draw_round_box
55.5292 -68.7849 moveto magfontemmentaler-18mDWo /noteheads.s2 glyphshow 
55.5292 -66.7849 moveto magfontemmentaler-18mDWo /noteheads.s2 glyphshow 
54.3970 -61.0203 moveto /TeXGyrePagella-Regular 3.90625000 output-scale div selectfont
0.8877 0.0000 0.0000 /r
1.3316 0.0000 0.0000 /u
1.2292 0.0000 0.0000 /o
3 print_glyphs
55.5292 -55.0415 moveto magfontemmentaler-18mDWo /noteheads.s2 glyphshow 
55.5292 -54.0415 moveto magfontemmentaler-18mDWo /noteheads.s2 glyphshow 
50.6297 -69.2849 moveto 0.0500 3.0670 -0.0250 -2.7700 0.0800 draw_round_box
43.9068 -69.2849 moveto 0.0500 3.0670 -0.0250 -2.7700 0.0800 draw_round_box
44.9608 -69.2849 moveto 0.0500 2.0670 -0.0250 2.7030 0.0800 draw_round_box
43.9068 -53.0415 moveto 0.0500 2.2570 -0.0250 -4.4600 0.0800 draw_round_box
44.9608 -53.0415 moveto 0.0500 2.7570 -0.0250 -0.7970 0.0800 draw_round_box
43.8418 -68.7849 moveto magfontemmentaler-18mDWo /noteheads.s2 glyphshow 
43.8418 -66.7849 moveto magfontemmentaler-18mDWo /noteheads.s2 glyphshow 
43.2900 -61.0203 moveto /TeXGyrePagella-Regular 3.90625000 output-scale div selectfont
0.9560 0.0000 0.0000 /s
1.3316 0.0000 0.0000 /u
2 print_glyphs
43.8418 -55.0415 moveto magfontemmentaler-18mDWo /noteheads.s2 glyphshow 
43.8418 -54.0415 moveto magfontemmentaler-18mDWo /noteheads.s2 glyphshow 
47.1104 -69.2849 moveto 0.0500 3.0670 -0.0250 -2.7700 0.0800 draw_round_box
48.1644 -69.2849 moveto 0.0500 2.0670 -0.0250 2.7030 0.0800 draw_round_box
47.1104 -53.0415 moveto 0.0500 2.2570 -0.0250 -4.4600 0.0800 draw_round_box
48.1644 -53.0415 moveto 0.0500 2.7570 -0.0250 -0.7970 0.0800 draw_round_box
47.0454 -68.7849 moveto magfontemmentaler-18mDWo /noteheads.s2 glyphshow 
47.0454 -66.7849 moveto magfontemmentaler-18mDWo /noteheads.s2 glyphshow 
46.6814 -61.0203 moveto /TeXGyrePagella-Regular 3.90625000 output-scale div selectfont
1.2292 0.0000 0.0000 /o
0.6829 0.0000 0.0000 /t
2 print_glyphs
47.0454 -55.0415 moveto magfontemmentaler-18mDWo /noteheads.s2 glyphshow 
47.0454 -54.0415 moveto magfontemmentaler-18mDWo /noteheads.s2 glyphshow 
51.6188 -51.0415 moveto true 13.3360 0.2000 13.3360 -0.2000 0.0400 -0.2000 0.0400 0.2000 3 0.0800 draw_polygon
50.5647 -57.5415 moveto true 13.3360 0.2000 13.3360 -0.2000 0.0400 -0.2000 0.0400 0.2000 3 0.0800 draw_polygon
51.6188 -64.4749 moveto true 13.3360 0.2000 13.3360 -0.2000 0.0400 -0.2000 0.0400 0.2000 3 0.0800 draw_polygon
50.5647 -72.0949 moveto true 13.3360 0.2000 13.3360 -0.2000 0.0400 -0.2000 0.0400 0.2000 3 0.0800 draw_polygon
62.6277 -61.0203 moveto 0.5800 0.0500 0.0400 0.4600 0.0800 draw_round_box
63.8758 -69.2849 moveto 0.0500 3.0670 -0.0250 -2.7700 0.0800 draw_round_box
24.4276 -61.0203 moveto 0.5800 0.0500 0.0400 0.4600 0.0800 draw_round_box
14.8575 -51.0415 moveto true 3.5351 0.2000 3.5351 -0.2000 0.0400 -0.2000 0.0400 0.2000 3 0.0800 draw_polygon
13.8034 -57.5415 moveto true 3.5351 0.2000 3.5351 -0.2000 0.0400 -0.2000 0.0400 0.2000 3 0.0800 draw_polygon
14.8575 -64.4749 moveto true 3.5351 0.2000 3.5351 -0.2000 0.0400 -0.2000 0.0400 0.2000 3 0.0800 draw_polygon
13.8034 -72.0949 moveto true 3.5351 0.2000 3.5351 -0.2000 0.0400 -0.2000 0.0400 0.2000 3 0.0800 draw_polygon
43.9024 -50.2477 moveto /TeXGyrePagella-Italic 2.76074219 output-scale div selectfont
0.7853 0.0000 0.0000 /three
1 print_glyphs
42.8483 -59.4277 moveto /TeXGyrePagella-Italic 2.76074219 output-scale div selectfont
0.7853 0.0000 0.0000 /three
1 print_glyphs
43.9024 -63.6812 moveto /TeXGyrePagella-Italic 2.76074219 output-scale div selectfont
0.7853 0.0000 0.0000 /three
1 print_glyphs
42.8483 -73.9812 moveto /TeXGyrePagella-Italic 2.76074219 output-scale div selectfont
0.7853 0.0000 0.0000 /three
1 print_glyphs
48.6634 -61.0203 moveto 0.5338 0.0500 0.0400 0.4600 0.0800 draw_round_box
40.3607 -51.0415 moveto true 7.8288 0.2000 7.8288 -0.2000 0.0400 -0.2000 0.0400 0.2000 3 0.0800 draw_polygon
39.3066 -57.5415 moveto true 7.8288 0.2000 7.8288 -0.2000 0.0400 -0.2000 0.0400 0.2000 3 0.0800 draw_polygon
40.3607 -64.4749 moveto true 7.8288 0.2000 7.8288 -0.2000 0.0400 -0.2000 0.0400 0.2000 3 0.0800 draw_polygon
39.3066 -72.0949 moveto true 7.8288 0.2000 7.8288 -0.2000 0.0400 -0.2000 0.0400 0.2000 3 0.0800 draw_polygon
61.3738 -53.0415 moveto 0.0500 2.7570 -0.0250 -0.7970 0.0800 draw_round_box
61.3738 -69.2849 moveto 0.0500 2.0670 -0.0250 2.7030 0.0800 draw_round_box
60.3197 -53.0415 moveto 0.0500 2.2570 -0.0250 -4.4600 0.0800 draw_round_box
60.2547 -68.7849 moveto magfontemmentaler-18mDWo /noteheads.s2 glyphshow 
60.2547 -66.7849 moveto magfontemmentaler-18mDWo /noteheads.s2 glyphshow 
59.2762 -61.0203 moveto /TeXGyrePagella-Regular 3.90625000 output-scale div selectfont
0.6487 0.0000 0.0000 /i
1.1267 0.0000 0.0000 /a
1.3657 0.0000 0.0000 /d
3 print_glyphs
60.2547 -55.0415 moveto magfontemmentaler-18mDWo /noteheads.s2 glyphshow 
60.2547 -54.0415 moveto magfontemmentaler-18mDWo /noteheads.s2 glyphshow 
55.5942 -69.2849 moveto 0.0500 3.0670 -0.0250 -2.7700 0.0800 draw_round_box
63.8108 -68.7849 moveto magfontemmentaler-18mDWo /noteheads.s2 glyphshow 
64.9298 -69.2849 moveto 0.0500 2.0670 -0.0250 2.7030 0.0800 draw_round_box
63.8758 -53.0415 moveto 0.0500 2.2570 -0.0250 -4.4600 0.0800 draw_round_box
64.9298 -53.0415 moveto 0.0500 2.7570 -0.0250 -0.7970 0.0800 draw_round_box
63.8108 -66.7849 moveto magfontemmentaler-18mDWo /noteheads.s2 glyphshow 
63.4980 -61.0203 moveto /TeXGyrePagella-Regular 3.90625000 output-scale div selectfont
1.2292 0.0000 0.0000 /y
0.5804 0.0000 0.0000 /l
2 print_glyphs
63.8108 -55.0415 moveto magfontemmentaler-18mDWo /noteheads.s2 glyphshow 
63.8108 -54.0415 moveto magfontemmentaler-18mDWo /noteheads.s2 glyphshow 
60.3197 -69.2849 moveto 0.0500 3.0670 -0.0250 -2.7700 0.0800 draw_round_box
16.8675 -61.0203 moveto /TeXGyrePagella-Regular 3.90625000 output-scale div selectfont
1.2974 0.0000 0.0000 /n
0.6487 0.0000 0.0000 /i
2 print_glyphs
17.2486 -55.0415 moveto magfontemmentaler-18mDWo /noteheads.s2 glyphshow 
17.2486 -54.0415 moveto magfontemmentaler-18mDWo /noteheads.s2 glyphshow 
13.8684 -69.2849 moveto 0.0500 3.0670 -0.0250 -2.7700 0.0800 draw_round_box
17.2486 -66.7849 moveto magfontemmentaler-18mDWo /noteheads.s2 glyphshow 
14.9225 -69.2849 moveto 0.0500 2.0670 -0.0250 2.7030 0.0800 draw_round_box
13.8684 -53.0415 moveto 0.0500 2.2570 -0.0250 -4.4600 0.0800 draw_round_box
14.9225 -53.0415 moveto 0.0500 2.7570 -0.0250 -0.7970 0.0800 draw_round_box
18.3676 -69.2849 moveto 0.0500 2.0670 -0.0250 2.7030 0.0800 draw_round_box
21.3936 -55.0415 moveto magfontemmentaler-18mDWo /noteheads.s2 glyphshow 
21.3936 -53.5415 moveto magfontemmentaler-18mDWo /noteheads.s2 glyphshow 
17.3136 -69.2849 moveto 0.0500 3.0670 -0.0250 -2.7700 0.0800 draw_round_box
13.8034 -68.7849 moveto magfontemmentaler-18mDWo /noteheads.s2 glyphshow 
17.3136 -53.0415 moveto 0.0500 2.2570 -0.0250 -4.4600 0.0800 draw_round_box
18.3676 -53.0415 moveto 0.0500 2.7570 -0.0250 -0.7970 0.0800 draw_round_box
17.2486 -68.7849 moveto magfontemmentaler-18mDWo /noteheads.s2 glyphshow 
0.8000 -54.0415 moveto magfontemmentaler-18mDWo /clefs.G glyphshow 
7.7900 -54.0415 moveto magfontemmentaler-18mDWo /noteheads.s2 glyphshow 
4.3000 -68.2849 moveto magfontemmentaler-18mDWo /accidentals.sharp glyphshow 
0.8000 -68.2849 moveto magfontemmentaler-18mDWo /clefs.F glyphshow 
4.3000 -51.0415 moveto magfontemmentaler-18mDWo /accidentals.sharp glyphshow 
7.7900 -55.0415 moveto magfontemmentaler-18mDWo /noteheads.s2 glyphshow 
-0.0600 -61.1632 moveto 0.0600 20.2435 0.0500 -10.1217 0.1000 draw_round_box
-1.3100 -50.7890 moveto magfontemmentaler-18mDWo /brackettips.up glyphshow 
-1.3100 -71.5374 moveto magfontemmentaler-18mDWo /brackettips.down glyphshow 
-1.3100 -61.1632 moveto 0.4500 20.4335 0.0000 -10.2167 0.0000 draw_round_box
8.9091 -69.2849 moveto 0.0500 2.2570 -0.0250 2.7030 0.0800 draw_round_box
13.8034 -66.7849 moveto magfontemmentaler-18mDWo /noteheads.s2 glyphshow 
13.3541 -61.0203 moveto /TeXGyrePagella-Regular 3.90625000 output-scale div selectfont
0.9560 0.0000 0.0000 /s
1.1267 0.0000 0.0000 /a
2 print_glyphs
13.8034 -55.0415 moveto magfontemmentaler-18mDWo /noteheads.s2 glyphshow 
13.8034 -54.0415 moveto magfontemmentaler-18mDWo /noteheads.s2 glyphshow 
7.8550 -69.2849 moveto 0.0500 3.2570 -0.0250 -2.9600 0.0800 draw_round_box
7.8550 -53.0415 moveto 0.0500 2.4237 -0.0250 -4.6267 0.0800 draw_round_box
8.9091 -53.0415 moveto 0.0500 3.2570 -0.0250 -0.7970 0.0800 draw_round_box
7.7900 -68.7849 moveto magfontemmentaler-18mDWo /noteheads.s2 glyphshow 
7.7900 -66.7849 moveto magfontemmentaler-18mDWo /noteheads.s2 glyphshow 
5.8213 -61.0203 moveto /TeXGyrePagella-Regular 3.90625000 output-scale div selectfont
1.2974 0.0000 0.0000 /h
0.7512 0.0000 0.0000 /t
0.8877 0.0000 0.0000 /r
1.1267 0.0000 0.0000 /a
1.0584 0.0000 0.0000 /e
5 print_glyphs
37.8566 -51.0415 moveto magfontemmentaler-18mDWo /scripts.rcomma glyphshow 
39.3716 -69.2849 moveto 0.0500 3.0670 -0.0250 -2.7700 0.0800 draw_round_box
39.3066 -54.0415 moveto magfontemmentaler-18mDWo /noteheads.s2 glyphshow 
27.2574 -69.2849 moveto 0.0500 6.0234 -0.0250 -4.2933 0.0800 draw_round_box
40.4257 -69.2849 moveto 0.0500 2.0670 -0.0250 2.7030 0.0800 draw_round_box
39.3716 -53.0415 moveto 0.0500 2.2570 -0.0250 -4.4600 0.0800 draw_round_box
40.4257 -53.0415 moveto 0.0500 2.7570 -0.0250 -0.7970 0.0800 draw_round_box
39.3066 -68.7849 moveto magfontemmentaler-18mDWo /noteheads.s2 glyphshow 
37.8566 -67.2849 moveto magfontemmentaler-18mDWo /scripts.rcomma glyphshow 
39.3066 -66.7849 moveto magfontemmentaler-18mDWo /noteheads.s2 glyphshow 
37.8566 -67.2849 moveto magfontemmentaler-18mDWo /scripts.rcomma glyphshow 
37.6110 -61.0203 moveto /TeXGyrePagella-Regular 3.90625000 output-scale div selectfont
1.0584 0.0000 0.0000 /e
1.1609 0.0000 0.0000 /v
0.6487 0.0000 0.0000 /i
1.7072 0.0000 0.0000 /G
4 print_glyphs
39.3066 -55.0415 moveto magfontemmentaler-18mDWo /noteheads.s2 glyphshow 
37.8566 -51.0415 moveto magfontemmentaler-18mDWo /scripts.rcomma glyphshow 
21.4586 -69.2849 moveto 0.0500 6.0903 -0.0250 -4.2933 0.0800 draw_round_box
22.5127 -69.2849 moveto 0.0500 2.2570 -0.0250 3.2030 0.0800 draw_round_box
20.0536 -66.2849 moveto magfontemmentaler-18mDWo /accidentals.sharp glyphshow 
21.4586 -53.0415 moveto 0.0500 2.4237 -0.0250 -4.6267 0.0800 draw_round_box
22.5127 -53.0415 moveto 0.0500 3.2570 -0.0250 -0.2970 0.0800 draw_round_box
21.3936 -67.2849 moveto magfontemmentaler-18mDWo /noteheads.s2 glyphshow 
21.3936 -70.7849 moveto magfontemmentaler-18mDWo /noteheads.s2 glyphshow 
20.2443 -61.0203 moveto /TeXGyrePagella-Regular 3.90625000 output-scale div selectfont
1.1267 0.0000 0.0000 /a
1.0584 0.0000 0.0000 /e
1.2974 0.0000 0.0000 /h
3 print_glyphs
21.3936 -66.2849 moveto magfontemmentaler-18mDWo /noteheads.s2 glyphshow 
28.3822 -69.2849 moveto 0.0500 2.1901 -0.0250 3.2699 0.0800 draw_round_box
27.2574 -53.0415 moveto 0.0500 2.3568 -0.0250 -4.6267 0.0800 draw_round_box
28.3822 -53.0415 moveto 0.0500 3.1901 -0.0250 -0.2301 0.0800 draw_round_box
27.1924 -67.2849 moveto magfontemmentaler-18mDWo /noteheads.s1 glyphshow 
27.1924 -70.7849 moveto magfontemmentaler-18mDWo /noteheads.s1 glyphshow 
27.1924 -66.2849 moveto magfontemmentaler-18mDWo /noteheads.s1 glyphshow 
25.7883 -61.0203 moveto /TeXGyrePagella-Regular 3.90625000 output-scale div selectfont
0.5463 0.0000 0.0000 /period
1.2974 0.0000 0.0000 /n
1.0584 0.0000 0.0000 /e
1.1609 0.0000 0.0000 /v
4 print_glyphs
27.1924 -55.0415 moveto magfontemmentaler-18mDWo /noteheads.s1 glyphshow 
27.1924 -53.5415 moveto magfontemmentaler-18mDWo /noteheads.s1 glyphshow 
0.0000 -99.1792 moveto 67.2238 0.0000 0.0500 0.0000 0.1000 draw_line
0.0000 -98.1792 moveto 67.2238 0.0000 0.0500 0.0000 0.1000 draw_line
0.0000 -97.1792 moveto 67.2238 0.0000 0.0500 0.0000 0.1000 draw_line
0.0000 -96.1792 moveto 67.2238 0.0000 0.0500 0.0000 0.1000 draw_line
0.0000 -95.1792 moveto 67.2238 0.0000 0.0500 0.0000 0.1000 draw_line
0.0000 -94.1792 moveto 1.5761 0.0000 7.5940 0.0000 0.2000 draw_round_box
0.0000 -94.1792 moveto 1.5761 0.0000 14.3667 0.0000 0.2000 draw_round_box
0.0000 -94.1792 moveto 1.5761 0.0000 18.7293 0.0000 0.2000 draw_round_box
0.0000 -94.1792 moveto 1.5761 0.0000 22.7552 0.0000 0.2000 draw_round_box
0.0000 -94.1792 moveto 1.5761 0.0000 26.4566 0.0000 0.2000 draw_round_box
0.0000 -94.1792 moveto 1.5761 0.0000 30.9434 0.0000 0.2000 draw_round_box
0.0000 -93.1792 moveto 1.5761 0.0000 30.9434 0.0000 0.2000 draw_round_box
0.0000 -94.1792 moveto 1.5761 0.0000 40.1750 0.0000 0.2000 draw_round_box
0.0000 -94.1792 moveto 1.5761 0.0000 43.6414 0.0000 0.2000 draw_round_box
0.0000 -94.1792 moveto 1.5761 0.0000 47.4833 0.0000 0.2000 draw_round_box
0.0000 -82.9358 moveto 67.2238 0.0000 0.0500 0.0000 0.1000 draw_line
0.0000 -81.9358 moveto 67.2238 0.0000 0.0500 0.0000 0.1000 draw_line
0.0000 -80.9358 moveto 67.2238 0.0000 0.0500 0.0000 0.1000 draw_line
0.0000 -79.9358 moveto 67.2238 0.0000 0.0500 0.0000 0.1000 draw_line
0.0000 -78.9358 moveto 67.2238 0.0000 0.0500 0.0000 0.1000 draw_line
48.7984 -80.9358 moveto 0.0500 3.0670 -0.0250 -0.2970 0.0800 draw_round_box
47.6793 -97.1792 moveto magfontemmentaler-18mDWo /noteheads.s2 glyphshow 
47.6793 -93.6792 moveto magfontemmentaler-18mDWo /noteheads.s2 glyphshow 
46.8544 -87.9147 moveto /TeXGyrePagella-Regular 3.90625000 output-scale div selectfont
0.8877 0.0000 0.0000 /r
1.2292 0.0000 0.0000 /o
0.7170 0.0000 0.0000 /f
3 print_glyphs
47.6793 -82.4358 moveto magfontemmentaler-18mDWo /noteheads.s2 glyphshow 
47.6793 -81.4358 moveto magfontemmentaler-18mDWo /noteheads.s2 glyphshow 
43.9024 -97.1792 moveto 0.0500 2.7570 -0.0250 -2.9600 0.0800 draw_round_box
44.9565 -97.1792 moveto 0.0500 2.0670 -0.0250 3.7030 0.0800 draw_round_box
51.8850 -80.9358 moveto 0.0500 2.4237 -0.0250 -4.6267 0.0800 draw_round_box
52.9391 -80.9358 moveto 0.0500 3.2570 -0.0250 -0.7970 0.0800 draw_round_box
51.8200 -96.6792 moveto magfontemmentaler-18mDWo /noteheads.s2 glyphshow 
51.8200 -94.6792 moveto magfontemmentaler-18mDWo /noteheads.s2 glyphshow 
50.3635 -87.9147 moveto /TeXGyrePagella-Regular 3.90625000 output-scale div selectfont
1.0584 0.0000 0.0000 /e
1.1609 0.0000 0.0000 /v
0.6487 0.0000 0.0000 /i
1.2292 0.0000 0.0000 /g
4 print_glyphs
51.8200 -82.9358 moveto magfontemmentaler-18mDWo /noteheads.s2 glyphshow 
51.8200 -81.9358 moveto magfontemmentaler-18mDWo /noteheads.s2 glyphshow 
47.7443 -80.9358 moveto 0.0500 2.0670 -0.0250 -3.7700 0.0800 draw_round_box
47.7443 -97.1792 moveto 0.0500 2.7570 -0.0250 -2.9600 0.0800 draw_round_box
48.7984 -97.1792 moveto 0.0500 2.0670 -0.0250 3.7030 0.0800 draw_round_box
40.3710 -97.1792 moveto magfontemmentaler-18mDWo /noteheads.s2 glyphshow 
41.4901 -97.1792 moveto 0.0500 2.0670 -0.0250 3.7030 0.0800 draw_round_box
40.4360 -80.9358 moveto 0.0500 2.0670 -0.0250 -3.7700 0.0800 draw_round_box
41.4901 -80.9358 moveto 0.0500 3.0670 -0.0250 -0.2970 0.0800 draw_round_box
38.9210 -95.1792 moveto magfontemmentaler-18mDWo /scripts.rcomma glyphshow 
40.3710 -93.6792 moveto magfontemmentaler-18mDWo /noteheads.s2 glyphshow 
38.9210 -95.1792 moveto magfontemmentaler-18mDWo /scripts.rcomma glyphshow 
39.9217 -87.9147 moveto /TeXGyrePagella-Regular 3.90625000 output-scale div selectfont
0.9560 0.0000 0.0000 /s
1.1267 0.0000 0.0000 /a
2 print_glyphs
40.3710 -82.4358 moveto magfontemmentaler-18mDWo /noteheads.s2 glyphshow 
38.9210 -78.9358 moveto magfontemmentaler-18mDWo /scripts.rcomma glyphshow 
40.3710 -81.4358 moveto magfontemmentaler-18mDWo /noteheads.s2 glyphshow 
38.9210 -78.9358 moveto magfontemmentaler-18mDWo /scripts.rcomma glyphshow 
43.9024 -80.9358 moveto 0.0500 2.0670 -0.0250 -3.7700 0.0800 draw_round_box
44.9565 -80.9358 moveto 0.0500 3.0670 -0.0250 -0.2970 0.0800 draw_round_box
43.8374 -97.1792 moveto magfontemmentaler-18mDWo /noteheads.s2 glyphshow 
43.8374 -93.6792 moveto magfontemmentaler-18mDWo /noteheads.s2 glyphshow 
43.0295 -87.9147 moveto /TeXGyrePagella-Regular 3.90625000 output-scale div selectfont
1.0584 0.0000 0.0000 /e
1.7413 0.0000 0.0000 /w
2 print_glyphs
43.8374 -82.4358 moveto magfontemmentaler-18mDWo /noteheads.s2 glyphshow 
43.8374 -81.4358 moveto magfontemmentaler-18mDWo /noteheads.s2 glyphshow 
40.4360 -97.1792 moveto 0.0500 2.7570 -0.0250 -2.9600 0.0800 draw_round_box
58.1150 -85.4358 moveto true 5.9464 0.2000 5.9464 -0.2000 0.0400 -0.2000 0.0400 0.2000 3 0.0800 draw_polygon
59.1691 -92.3692 moveto true 5.9464 0.2000 5.9464 -0.2000 0.0400 -0.2000 0.0400 0.2000 3 0.0800 draw_polygon
58.1150 -99.9892 moveto true 5.9464 0.2000 5.9464 -0.2000 0.0400 -0.2000 0.0400 0.2000 3 0.0800 draw_polygon
59.1691 -78.9358 moveto true 5.9464 0.2000 5.9464 -0.2000 0.0400 -0.2000 0.0400 0.2000 3 0.0800 draw_polygon
64.0364 -97.1792 moveto 0.0500 3.0670 -0.0250 -2.7700 0.0800 draw_round_box
65.0905 -97.1792 moveto 0.0500 2.0670 -0.0250 2.7030 0.0800 draw_round_box
18.9254 -84.4358 moveto true 7.8173 0.2000 7.8173 -0.2000 0.0400 -0.2000 0.0400 0.2000 3 0.0800 draw_polygon
16.8637 -87.9147 moveto 0.4551 0.0500 0.0400 0.4600 0.0800 draw_round_box
23.5154 -77.1421 moveto /TeXGyrePagella-Italic 2.76074219 output-scale div selectfont
0.7853 0.0000 0.0000 /three
1 print_glyphs
22.4614 -86.3221 moveto /TeXGyrePagella-Italic 2.76074219 output-scale div selectfont
0.7853 0.0000 0.0000 /three
1 print_glyphs
23.5154 -90.5755 moveto /TeXGyrePagella-Italic 2.76074219 output-scale div selectfont
0.7853 0.0000 0.0000 /three
1 print_glyphs
22.4614 -100.8755 moveto /TeXGyrePagella-Italic 2.76074219 output-scale div selectfont
0.7853 0.0000 0.0000 /three
1 print_glyphs
19.9794 -77.9358 moveto true 7.8173 0.2000 7.8173 -0.2000 0.0400 -0.2000 0.0400 0.2000 3 0.0800 draw_polygon
19.9794 -91.3692 moveto true 7.8173 0.2000 7.8173 -0.2000 0.0400 -0.2000 0.0400 0.2000 3 0.0800 draw_polygon
18.9254 -98.9892 moveto true 7.8173 0.2000 7.8173 -0.2000 0.0400 -0.2000 0.0400 0.2000 3 0.0800 draw_polygon
49.7583 -87.9147 moveto 0.4551 0.0500 0.0400 0.4600 0.0800 draw_round_box
41.4251 -78.1258 moveto true 7.3983 0.2000 7.3983 -0.2000 0.0400 -0.2000 0.0400 0.2000 3 0.0800 draw_polygon
40.3710 -84.7458 moveto true 7.3983 0.2000 7.3983 -0.2000 0.0400 -0.2000 0.0400 0.2000 3 0.0800 draw_polygon
41.4251 -91.3692 moveto true 7.3983 0.2000 7.3983 -0.2000 0.0400 -0.2000 0.0400 0.2000 3 0.0800 draw_polygon
40.3710 -100.1792 moveto true 7.3983 0.2000 7.3983 -0.2000 0.0400 -0.2000 0.0400 0.2000 3 0.0800 draw_polygon
58.1150 -82.9358 moveto magfontemmentaler-18mDWo /noteheads.s2 glyphshow 
58.1800 -80.9358 moveto 0.0500 2.2570 -0.0250 -4.4600 0.0800 draw_round_box
59.2341 -80.9358 moveto 0.0500 2.7570 -0.0250 -0.7970 0.0800 draw_round_box
58.1150 -96.6792 moveto magfontemmentaler-18mDWo /noteheads.s2 glyphshow 
58.1150 -94.6792 moveto magfontemmentaler-18mDWo /noteheads.s2 glyphshow 
56.0609 -87.9147 moveto /TeXGyrePagella-Regular 3.90625000 output-scale div selectfont
1.0584 0.0000 0.0000 /e
0.9560 0.0000 0.0000 /s
1.2292 0.0000 0.0000 /o
1.2974 0.0000 0.0000 /h
0.7512 0.0000 0.0000 /t
5 print_glyphs
58.1150 -81.9358 moveto magfontemmentaler-18mDWo /noteheads.s2 glyphshow 
51.8850 -97.1792 moveto 0.0500 3.2570 -0.0250 -2.9600 0.0800 draw_round_box
52.9391 -97.1792 moveto 0.0500 2.2570 -0.0250 2.7030 0.0800 draw_round_box
63.9714 -82.9358 moveto magfontemmentaler-18mDWo /noteheads.s2 glyphshow 
64.0364 -80.9358 moveto 0.0500 2.2570 -0.0250 -4.4600 0.0800 draw_round_box
65.0905 -80.9358 moveto 0.0500 2.7570 -0.0250 -0.7970 0.0800 draw_round_box
63.9714 -96.6792 moveto magfontemmentaler-18mDWo /noteheads.s2 glyphshow 
63.9714 -94.6792 moveto magfontemmentaler-18mDWo /noteheads.s2 glyphshow 
62.3783 -87.9147 moveto /TeXGyrePagella-Regular 3.90625000 output-scale div selectfont
1.2292 0.0000 0.0000 /o
1.2974 0.0000 0.0000 /h
1.8437 0.0000 0.0000 /w
3 print_glyphs
63.9714 -81.9358 moveto magfontemmentaler-18mDWo /noteheads.s2 glyphshow 
58.1800 -97.1792 moveto 0.0500 3.0670 -0.0250 -2.7700 0.0800 draw_round_box
59.2341 -97.1792 moveto 0.0500 2.0670 -0.0250 2.7030 0.0800 draw_round_box
14.6277 -80.9358 moveto 0.0500 2.8820 -0.0250 -4.0850 0.0800 draw_round_box
14.6277 -97.1792 moveto 0.0500 3.2570 -0.0250 -1.9600 0.0800 draw_round_box
15.7468 -90.7192 moveto magfontemmentaler-18mDWo /flags.u3 glyphshow 
15.6818 -97.1792 moveto 0.0500 2.7570 -0.0250 3.7030 0.0800 draw_round_box
14.6927 -85.0208 moveto magfontemmentaler-18mDWo /flags.d3 glyphshow 
14.6927 -99.1392 moveto magfontemmentaler-18mDWo /flags.d3 glyphshow 
15.7468 -77.6008 moveto magfontemmentaler-18mDWo /flags.u3 glyphshow 
15.6818 -80.9358 moveto 0.0500 3.1320 -0.0250 0.2030 0.0800 draw_round_box
14.5627 -95.6792 moveto magfontemmentaler-18mDWo /noteheads.s2 glyphshow 
13.1127 -95.1792 moveto magfontemmentaler-18mDWo /scripts.rcomma glyphshow 
14.5627 -93.6792 moveto magfontemmentaler-18mDWo /noteheads.s2 glyphshow 
13.1127 -95.1792 moveto magfontemmentaler-18mDWo /scripts.rcomma glyphshow 
13.5159 -87.9147 moveto /TeXGyrePagella-Regular 3.90625000 output-scale div selectfont
0.8877 0.0000 0.0000 /r
1.2292 0.0000 0.0000 /o
1.1609 0.0000 0.0000 /F
3 print_glyphs
14.5627 -81.9358 moveto magfontemmentaler-18mDWo /noteheads.s2 glyphshow 
13.1127 -78.9358 moveto magfontemmentaler-18mDWo /scripts.rcomma glyphshow 
14.5627 -80.9358 moveto magfontemmentaler-18mDWo /noteheads.s2 glyphshow 
18.9254 -95.6792 moveto magfontemmentaler-18mDWo /noteheads.s2 glyphshow 
20.0444 -97.1792 moveto 0.0500 2.0670 -0.0250 3.7030 0.0800 draw_round_box
18.9904 -80.9358 moveto 0.0500 2.2570 -0.0250 -3.4600 0.0800 draw_round_box
20.0444 -80.9358 moveto 0.0500 2.7570 -0.0250 0.2030 0.0800 draw_round_box
13.1127 -78.9358 moveto magfontemmentaler-18mDWo /scripts.rcomma glyphshow 
18.9254 -93.6792 moveto magfontemmentaler-18mDWo /noteheads.s2 glyphshow 
17.4688 -87.9147 moveto /TeXGyrePagella-Regular 3.90625000 output-scale div selectfont
1.0584 0.0000 0.0000 /e
1.1609 0.0000 0.0000 /v
0.6487 0.0000 0.0000 /i
1.2292 0.0000 0.0000 /g
4 print_glyphs
18.9254 -81.9358 moveto magfontemmentaler-18mDWo /noteheads.s2 glyphshow 
18.9254 -80.9358 moveto magfontemmentaler-18mDWo /noteheads.s2 glyphshow 
0.8000 -81.9358 moveto magfontemmentaler-18mDWo /clefs.G glyphshow 
7.7900 -82.4358 moveto magfontemmentaler-18mDWo /noteheads.s2 glyphshow 
7.7900 -81.4358 moveto magfontemmentaler-18mDWo /noteheads.s2 glyphshow 
4.3000 -96.1792 moveto magfontemmentaler-18mDWo /accidentals.sharp glyphshow 
0.8000 -96.1792 moveto magfontemmentaler-18mDWo /clefs.F glyphshow 
4.3000 -78.9358 moveto magfontemmentaler-18mDWo /accidentals.sharp glyphshow 
5.2750 -87.9147 moveto /TeXGyrePagella-Regular 3.90625000 output-scale div selectfont
0.5463 0.0000 0.0000 /period
1.3657 0.0000 0.0000 /d
1.1267 0.0000 0.0000 /a
1.0584 0.0000 0.0000 /e
0.8877 0.0000 0.0000 /r
1.2292 0.0000 0.0000 /b
6 print_glyphs
-0.0600 -89.0575 moveto 0.0600 20.2435 0.0500 -10.1217 0.1000 draw_round_box
-1.3100 -78.6833 moveto magfontemmentaler-18mDWo /brackettips.up glyphshow 
-1.3100 -99.4317 moveto magfontemmentaler-18mDWo /brackettips.down glyphshow 
-1.3100 -89.0575 moveto 0.4500 20.4335 0.0000 -10.2167 0.0000 draw_round_box
7.8550 -97.1792 moveto 0.0500 3.0903 -0.0250 -3.2933 0.0800 draw_round_box
9.3755 -97.6792 moveto magfontemmentaler-18mDWo /dots.dot glyphshow 
8.9091 -97.1792 moveto 0.0500 2.2570 -0.0250 3.7030 0.0800 draw_round_box
9.3755 -93.6792 moveto magfontemmentaler-18mDWo /dots.dot glyphshow 
7.8550 -80.9358 moveto 0.0500 2.5903 -0.0250 -4.2933 0.0800 draw_round_box
9.3755 -82.4358 moveto magfontemmentaler-18mDWo /dots.dot glyphshow 
8.9091 -80.9358 moveto 0.0500 3.2570 -0.0250 -0.2970 0.0800 draw_round_box
9.3755 -81.4358 moveto magfontemmentaler-18mDWo /dots.dot glyphshow 
7.7900 -97.1792 moveto magfontemmentaler-18mDWo /noteheads.s2 glyphshow 
7.7900 -93.6792 moveto magfontemmentaler-18mDWo /noteheads.s2 glyphshow 
32.2585 -80.9358 moveto 0.0500 2.9237 -0.0250 0.7030 0.0800 draw_round_box
32.7249 -80.4358 moveto magfontemmentaler-18mDWo /dots.dot glyphshow 
31.1394 -98.6792 moveto magfontemmentaler-18mDWo /noteheads.s2 glyphshow 
31.1394 -93.1792 moveto magfontemmentaler-18mDWo /noteheads.s2 glyphshow 
29.8024 -87.9147 moveto /TeXGyrePagella-Regular 3.90625000 output-scale div selectfont
0.9560 0.0000 0.0000 /s
1.2974 0.0000 0.0000 /n
0.6487 0.0000 0.0000 /i
0.9560 0.0000 0.0000 /s
4 print_glyphs
31.1394 -81.9358 moveto magfontemmentaler-18mDWo /noteheads.s2 glyphshow 
31.1394 -80.4358 moveto magfontemmentaler-18mDWo /noteheads.s2 glyphshow 
32.7249 -82.4358 moveto magfontemmentaler-18mDWo /dots.dot glyphshow 
26.7177 -97.1792 moveto 0.0500 3.0670 -0.0250 -1.7700 0.0800 draw_round_box
27.7717 -97.1792 moveto 0.0500 2.0670 -0.0250 3.7030 0.0800 draw_round_box
31.2044 -97.1792 moveto 0.0500 2.5903 -0.0250 -4.2933 0.0800 draw_round_box
32.7249 -98.6792 moveto magfontemmentaler-18mDWo /dots.dot glyphshow 
32.2585 -97.1792 moveto 0.0500 2.2570 -0.0250 4.2030 0.0800 draw_round_box
32.7249 -92.6792 moveto magfontemmentaler-18mDWo /dots.dot glyphshow 
31.2044 -80.9358 moveto 0.0500 2.7570 -0.0250 -3.9600 0.0800 draw_round_box
22.9512 -95.6792 moveto magfontemmentaler-18mDWo /noteheads.s2 glyphshow 
24.0703 -97.1792 moveto 0.0500 2.0670 -0.0250 3.7030 0.0800 draw_round_box
26.7177 -80.9358 moveto 0.0500 2.2570 -0.0250 -3.4600 0.0800 draw_round_box
23.0162 -80.9358 moveto 0.0500 2.2570 -0.0250 -3.4600 0.0800 draw_round_box
24.0703 -80.9358 moveto 0.0500 2.7570 -0.0250 0.2030 0.0800 draw_round_box
22.9512 -93.6792 moveto magfontemmentaler-18mDWo /noteheads.s2 glyphshow 
22.3994 -87.9147 moveto /TeXGyrePagella-Regular 3.90625000 output-scale div selectfont
0.9560 0.0000 0.0000 /s
1.3316 0.0000 0.0000 /u
2 print_glyphs
22.9512 -81.9358 moveto magfontemmentaler-18mDWo /noteheads.s2 glyphshow 
22.9512 -80.9358 moveto magfontemmentaler-18mDWo /noteheads.s2 glyphshow 
18.9904 -97.1792 moveto 0.0500 3.0670 -0.0250 -1.7700 0.0800 draw_round_box
27.7717 -80.9358 moveto 0.0500 2.7570 -0.0250 0.2030 0.0800 draw_round_box
26.6527 -95.6792 moveto magfontemmentaler-18mDWo /noteheads.s2 glyphshow 
26.6527 -93.6792 moveto magfontemmentaler-18mDWo /noteheads.s2 glyphshow 
25.5205 -87.9147 moveto /TeXGyrePagella-Regular 3.90625000 output-scale div selectfont
0.8877 0.0000 0.0000 /r
1.3316 0.0000 0.0000 /u
1.2292 0.0000 0.0000 /o
3 print_glyphs
26.6527 -81.9358 moveto magfontemmentaler-18mDWo /noteheads.s2 glyphshow 
26.6527 -80.9358 moveto magfontemmentaler-18mDWo /noteheads.s2 glyphshow 
23.0162 -97.1792 moveto 0.0500 3.0670 -0.0250 -1.7700 0.0800 draw_round_box
0.0000 -108.8626 moveto 67.2238 0.0000 0.0500 0.0000 0.1000 draw_line
0.0000 -107.8626 moveto 67.2238 0.0000 0.0500 0.0000 0.1000 draw_line
0.0000 -106.8626 moveto 67.2238 0.0000 0.0500 0.0000 0.1000 draw_line
0.0000 -105.8626 moveto 67.2238 0.0000 0.0500 0.0000 0.1000 draw_line
0.0000 -104.8626 moveto 67.2238 0.0000 0.0500 0.0000 0.1000 draw_line
0.0000 -123.2893 moveto 67.2238 0.0000 0.0500 0.0000 0.1000 draw_line
0.0000 -122.2893 moveto 67.2238 0.0000 0.0500 0.0000 0.1000 draw_line
0.0000 -121.2893 moveto 67.2238 0.0000 0.0500 0.0000 0.1000 draw_line
0.0000 -120.2893 moveto 67.2238 0.0000 0.0500 0.0000 0.1000 draw_line
0.0000 -119.2893 moveto 67.2238 0.0000 0.0500 0.0000 0.1000 draw_line
0.0000 -118.2893 moveto 1.4551 0.0000 16.1675 0.0000 0.2000 draw_round_box
0.0000 -118.2893 moveto 1.6821 0.0000 23.1850 0.0000 0.2000 draw_round_box
0.0000 -118.2893 moveto 1.5761 0.0000 55.0272 0.0000 0.2000 draw_round_box
0.0000 -118.2893 moveto 1.5761 0.0000 60.9825 0.0000 0.2000 draw_round_box
44.0189 -121.2893 moveto 0.0500 3.0670 -0.0250 -2.7700 0.0800 draw_round_box
45.0730 -121.2893 moveto 0.0500 2.0670 -0.0250 2.7030 0.0800 draw_round_box
44.0189 -106.8626 moveto 0.0500 2.2570 -0.0250 -4.4600 0.0800 draw_round_box
50.5712 -106.8626 moveto 0.0500 2.2570 -0.0250 -4.4600 0.0800 draw_round_box
51.6252 -121.2893 moveto 0.0500 2.0670 -0.0250 2.7030 0.0800 draw_round_box
51.6252 -106.8626 moveto 0.0500 2.7570 -0.0250 -0.7970 0.0800 draw_round_box
50.5062 -120.7893 moveto magfontemmentaler-18mDWo /noteheads.s2 glyphshow 
50.5062 -118.7893 moveto magfontemmentaler-18mDWo /noteheads.s2 glyphshow 
48.5887 -113.7551 moveto /TeXGyrePagella-Regular 3.90625000 output-scale div selectfont
1.3316 0.0000 0.0000 /p
1.9120 0.0000 0.0000 /m
1.0584 0.0000 0.0000 /e
0.7170 0.0000 0.0000 /t
4 print_glyphs
50.5062 -108.8626 moveto magfontemmentaler-18mDWo /noteheads.s2 glyphshow 
50.5062 -107.8626 moveto magfontemmentaler-18mDWo /noteheads.s2 glyphshow 
38.7674 -108.8626 moveto magfontemmentaler-18mDWo /noteheads.s2 glyphshow 
38.8324 -106.8626 moveto 0.0500 2.2570 -0.0250 -4.4600 0.0800 draw_round_box
39.8865 -106.8626 moveto 0.0500 2.7570 -0.0250 -0.7970 0.0800 draw_round_box
38.7674 -120.7893 moveto magfontemmentaler-18mDWo /noteheads.s2 glyphshow 
38.7674 -118.7893 moveto magfontemmentaler-18mDWo /noteheads.s2 glyphshow 
38.2156 -113.7551 moveto /TeXGyrePagella-Regular 3.90625000 output-scale div selectfont
0.9560 0.0000 0.0000 /s
1.3316 0.0000 0.0000 /u
2 print_glyphs
38.7674 -107.8626 moveto magfontemmentaler-18mDWo /noteheads.s2 glyphshow 
45.0730 -106.8626 moveto 0.0500 2.7570 -0.0250 -0.7970 0.0800 draw_round_box
43.9539 -120.7893 moveto magfontemmentaler-18mDWo /noteheads.s2 glyphshow 
43.9539 -118.7893 moveto magfontemmentaler-18mDWo /noteheads.s2 glyphshow 
42.1388 -113.7551 moveto /TeXGyrePagella-Regular 3.90625000 output-scale div selectfont
1.9462 0.0000 0.0000 /m
1.2292 0.0000 0.0000 /o
0.8877 0.0000 0.0000 /r
0.7512 0.0000 0.0000 /f
4 print_glyphs
43.9539 -108.8626 moveto magfontemmentaler-18mDWo /noteheads.s2 glyphshow 
43.9539 -107.8626 moveto magfontemmentaler-18mDWo /noteheads.s2 glyphshow 
38.8324 -121.2893 moveto 0.0500 3.0670 -0.0250 -2.7700 0.0800 draw_round_box
39.8865 -121.2893 moveto 0.0500 2.0670 -0.0250 2.7030 0.0800 draw_round_box
65.6338 -104.8626 moveto magfontemmentaler-18mDWo /scripts.rcomma glyphshow 
65.6338 -119.2893 moveto magfontemmentaler-18mDWo /scripts.rcomma glyphshow 
65.6338 -119.2893 moveto magfontemmentaler-18mDWo /scripts.rcomma glyphshow 
65.6338 -104.8626 moveto magfontemmentaler-18mDWo /scripts.rcomma glyphshow 
61.2435 -121.2893 moveto 0.0500 3.0903 -0.0250 -3.2933 0.0800 draw_round_box
62.2975 -121.2893 moveto 0.0500 2.2570 -0.0250 3.7030 0.0800 draw_round_box
53.9205 -113.7551 moveto 0.5800 0.0500 0.0400 0.4600 0.0800 draw_round_box
12.9083 -113.7551 moveto 0.5800 0.0500 0.0400 0.4600 0.0800 draw_round_box
8.8441 -104.8626 moveto true 3.7401 0.2000 3.7401 -0.2000 0.0400 -0.2000 0.0400 0.2000 3 0.0800 draw_polygon
7.7900 -111.3626 moveto true 3.7401 0.2000 3.7401 -0.2000 0.0400 -0.2000 0.0400 0.2000 3 0.0800 draw_polygon
8.8441 -116.4793 moveto true 3.7401 0.2000 3.7401 -0.2000 0.0400 -0.2000 0.0400 0.2000 3 0.0800 draw_polygon
7.7900 -124.0993 moveto true 3.7401 0.2000 3.7401 -0.2000 0.0400 -0.2000 0.0400 0.2000 3 0.0800 draw_polygon
57.8141 -113.7551 moveto 0.5800 0.0500 0.0400 0.4600 0.0800 draw_round_box
34.5325 -104.8626 moveto true 17.1177 0.2000 17.1177 -0.2000 0.0400 -0.2000 0.0400 0.2000 3 0.0800 draw_polygon
33.4784 -111.3626 moveto true 17.1177 0.2000 17.1177 -0.2000 0.0400 -0.2000 0.0400 0.2000 3 0.0800 draw_polygon
34.5325 -116.4793 moveto true 17.1177 0.2000 17.1177 -0.2000 0.0400 -0.2000 0.0400 0.2000 3 0.0800 draw_polygon
33.4784 -124.0993 moveto true 17.1177 0.2000 17.1177 -0.2000 0.0400 -0.2000 0.0400 0.2000 3 0.0800 draw_polygon
55.2232 -121.2893 moveto magfontemmentaler-18mDWo /noteheads.s2 glyphshow 
56.3422 -121.2893 moveto 0.0500 2.2570 -0.0250 3.7030 0.0800 draw_round_box
55.2882 -106.8626 moveto 0.0500 2.5903 -0.0250 -4.2933 0.0800 draw_round_box
56.3422 -106.8626 moveto 0.0500 3.2570 -0.0250 -0.2970 0.0800 draw_round_box
55.2232 -117.7893 moveto magfontemmentaler-18mDWo /noteheads.s2 glyphshow 
54.8933 -113.7551 moveto /TeXGyrePagella-Regular 3.90625000 output-scale div selectfont
1.1267 0.0000 0.0000 /a
0.7170 0.0000 0.0000 /t
2 print_glyphs
55.2232 -108.3626 moveto magfontemmentaler-18mDWo /noteheads.s2 glyphshow 
55.2232 -107.3626 moveto magfontemmentaler-18mDWo /noteheads.s2 glyphshow 
59.5512 -113.7551 moveto /TeXGyrePagella-Regular 3.90625000 output-scale div selectfont
0.5463 0.0000 0.0000 /comma
1.2974 0.0000 0.0000 /n
1.2292 0.0000 0.0000 /o
0.6487 0.0000 0.0000 /i
0.7170 0.0000 0.0000 /t
5 print_glyphs
61.2435 -106.8626 moveto 0.0500 2.5903 -0.0250 -4.2933 0.0800 draw_round_box
62.2975 -106.8626 moveto 0.0500 3.2570 -0.0250 -0.2970 0.0800 draw_round_box
61.1785 -121.2893 moveto magfontemmentaler-18mDWo /noteheads.s2 glyphshow 
61.1785 -117.7893 moveto magfontemmentaler-18mDWo /noteheads.s2 glyphshow 
50.5712 -121.2893 moveto 0.0500 3.0670 -0.0250 -2.7700 0.0800 draw_round_box
61.1785 -108.3626 moveto magfontemmentaler-18mDWo /noteheads.s2 glyphshow 
61.1785 -107.3626 moveto magfontemmentaler-18mDWo /noteheads.s2 glyphshow 
55.2882 -121.2893 moveto 0.0500 3.0903 -0.0250 -3.2933 0.0800 draw_round_box
11.4401 -108.8626 moveto magfontemmentaler-18mDWo /noteheads.s2 glyphshow 
11.5051 -106.8626 moveto 0.0500 2.2570 -0.0250 -4.4600 0.0800 draw_round_box
12.5591 -106.8626 moveto 0.0500 2.7570 -0.0250 -0.7970 0.0800 draw_round_box
11.4401 -120.7893 moveto magfontemmentaler-18mDWo /noteheads.s2 glyphshow 
11.4401 -118.7893 moveto magfontemmentaler-18mDWo /noteheads.s2 glyphshow 
11.4687 -113.7551 moveto /TeXGyrePagella-Regular 3.90625000 output-scale div selectfont
1.1267 0.0000 0.0000 /a
1 print_glyphs
11.4401 -107.8626 moveto magfontemmentaler-18mDWo /noteheads.s2 glyphshow 
7.8550 -121.2893 moveto 0.0500 3.0670 -0.0250 -2.7700 0.0800 draw_round_box
16.2425 -119.2893 moveto magfontemmentaler-18mDWo /noteheads.s2 glyphshow 
16.2425 -122.7893 moveto magfontemmentaler-18mDWo /noteheads.s2 glyphshow 
13.8811 -113.7551 moveto /TeXGyrePagella-Regular 3.90625000 output-scale div selectfont
0.7170 0.0000 0.0000 /t
0.9219 0.0000 0.0000 /s
1.2974 0.0000 0.0000 /n
0.6487 0.0000 0.0000 /i
1.1267 0.0000 0.0000 /a
1.1950 0.0000 0.0000 /g
6 print_glyphs
16.2425 -108.8626 moveto magfontemmentaler-18mDWo /noteheads.s2 glyphshow 
16.2425 -107.3626 moveto magfontemmentaler-18mDWo /noteheads.s2 glyphshow 
11.5051 -121.2893 moveto 0.0500 3.0670 -0.0250 -2.7700 0.0800 draw_round_box
12.5591 -121.2893 moveto 0.0500 2.0670 -0.0250 2.7030 0.0800 draw_round_box
4.3000 -120.2893 moveto magfontemmentaler-18mDWo /accidentals.sharp glyphshow 
0.8000 -120.2893 moveto magfontemmentaler-18mDWo /clefs.F glyphshow 
4.3000 -104.8626 moveto magfontemmentaler-18mDWo /accidentals.sharp glyphshow 
0.8000 -107.8626 moveto magfontemmentaler-18mDWo /clefs.G glyphshow 
-0.0600 -114.0759 moveto 0.0600 18.4267 0.0500 -9.2134 0.1000 draw_round_box
-1.3100 -104.6101 moveto magfontemmentaler-18mDWo /brackettips.up glyphshow 
-1.3100 -123.5418 moveto magfontemmentaler-18mDWo /brackettips.down glyphshow 
-1.3100 -114.0759 moveto 0.4500 18.6167 0.0000 -9.3084 0.0000 draw_round_box
8.9091 -121.2893 moveto 0.0500 2.0670 -0.0250 2.7030 0.0800 draw_round_box
7.8550 -106.8626 moveto 0.0500 2.2570 -0.0250 -4.4600 0.0800 draw_round_box
16.2425 -118.2893 moveto magfontemmentaler-18mDWo /noteheads.s2 glyphshow 
8.9091 -106.8626 moveto 0.0500 2.7570 -0.0250 -0.7970 0.0800 draw_round_box
7.7900 -120.7893 moveto magfontemmentaler-18mDWo /noteheads.s2 glyphshow 
7.7900 -118.7893 moveto magfontemmentaler-18mDWo /noteheads.s2 glyphshow 
6.9310 -113.7551 moveto /TeXGyrePagella-Regular 3.90625000 output-scale div selectfont
1.2974 0.0000 0.0000 /n
0.6487 0.0000 0.0000 /i
0.9560 0.0000 0.0000 /s
3 print_glyphs
7.7900 -108.8626 moveto magfontemmentaler-18mDWo /noteheads.s2 glyphshow 
7.7900 -107.8626 moveto magfontemmentaler-18mDWo /noteheads.s2 glyphshow 
33.4784 -108.8626 moveto magfontemmentaler-18mDWo /noteheads.s2 glyphshow 
34.5975 -106.8626 moveto 0.0500 2.7570 -0.0250 -0.7970 0.0800 draw_round_box
33.4784 -120.7893 moveto magfontemmentaler-18mDWo /noteheads.s2 glyphshow 
30.3103 -119.2893 moveto magfontemmentaler-18mDWo /scripts.rcomma glyphshow 
33.4784 -118.7893 moveto magfontemmentaler-18mDWo /noteheads.s2 glyphshow 
30.3103 -119.2893 moveto magfontemmentaler-18mDWo /scripts.rcomma glyphshow 
31.5609 -113.7551 moveto /TeXGyrePagella-Regular 3.90625000 output-scale div selectfont
1.3316 0.0000 0.0000 /p
1.0584 0.0000 0.0000 /e
1.0584 0.0000 0.0000 /e
1.5706 0.0000 0.0000 /K
4 print_glyphs
33.5434 -106.8626 moveto 0.0500 2.2570 -0.0250 -4.4600 0.0800 draw_round_box
30.3103 -104.8626 moveto magfontemmentaler-18mDWo /scripts.rcomma glyphshow 
33.4784 -107.8626 moveto magfontemmentaler-18mDWo /noteheads.s2 glyphshow 
30.3103 -104.8626 moveto magfontemmentaler-18mDWo /scripts.rcomma glyphshow 
17.3615 -106.8626 moveto 0.0500 3.2570 -0.0250 -0.2970 0.0800 draw_round_box
23.4637 -121.2893 moveto 0.0500 6.0234 -0.0250 -4.2933 0.0800 draw_round_box
33.5434 -121.2893 moveto 0.0500 3.0670 -0.0250 -2.7700 0.0800 draw_round_box
34.5975 -121.2893 moveto 0.0500 2.0670 -0.0250 2.7030 0.0800 draw_round_box
23.3987 -107.3626 moveto magfontemmentaler-18mDWo /noteheads.s1 glyphshow 
14.9025 -118.2893 moveto magfontemmentaler-18mDWo /accidentals.sharp glyphshow 
16.3075 -121.2893 moveto 0.0500 6.0903 -0.0250 -4.2933 0.0800 draw_round_box
24.5884 -121.2893 moveto 0.0500 2.1901 -0.0250 3.2699 0.0800 draw_round_box
17.3615 -121.2893 moveto 0.0500 2.2570 -0.0250 3.2030 0.0800 draw_round_box
16.3075 -106.8626 moveto 0.0500 2.4237 -0.0250 -4.6267 0.0800 draw_round_box
22.6091 -113.7551 moveto /TeXGyrePagella-Regular 3.90625000 output-scale div selectfont
0.5463 0.0000 0.0000 /period
0.9560 0.0000 0.0000 /s
1.3316 0.0000 0.0000 /u
3 print_glyphs
23.4637 -106.8626 moveto 0.0500 2.3568 -0.0250 -4.6267 0.0800 draw_round_box
24.5884 -106.8626 moveto 0.0500 3.1901 -0.0250 -0.2301 0.0800 draw_round_box
23.3987 -108.8626 moveto magfontemmentaler-18mDWo /noteheads.s1 glyphshow 
23.3987 -118.2893 moveto magfontemmentaler-18mDWo /noteheads.s1 glyphshow 
23.3987 -122.7893 moveto magfontemmentaler-18mDWo /noteheads.s1 glyphshow 
23.3987 -119.2893 moveto magfontemmentaler-18mDWo /noteheads.s1 glyphshow 
0.0000 -133.2893 moveto 67.2238 0.0000 0.0500 0.0000 0.1000 draw_line
0.0000 -132.2893 moveto 67.2238 0.0000 0.0500 0.0000 0.1000 draw_line
0.0000 -131.2893 moveto 67.2238 0.0000 0.0500 0.0000 0.1000 draw_line
0.0000 -130.2893 moveto 67.2238 0.0000 0.0500 0.0000 0.1000 draw_line
0.0000 -129.2893 moveto 67.2238 0.0000 0.0500 0.0000 0.1000 draw_line
0.0000 -147.2218 moveto 67.2238 0.0000 0.0500 0.0000 0.1000 draw_line
0.0000 -146.2218 moveto 67.2238 0.0000 0.0500 0.0000 0.1000 draw_line
0.0000 -145.2218 moveto 67.2238 0.0000 0.0500 0.0000 0.1000 draw_line
0.0000 -144.2218 moveto 67.2238 0.0000 0.0500 0.0000 0.1000 draw_line
0.0000 -143.2218 moveto 67.2238 0.0000 0.0500 0.0000 0.1000 draw_line
0.0000 -142.2218 moveto 1.5761 0.0000 7.5940 0.0000 0.2000 draw_round_box
0.0000 -142.2218 moveto 1.5761 0.0000 11.4851 0.0000 0.2000 draw_round_box
0.0000 -142.2218 moveto 1.5761 0.0000 14.2033 0.0000 0.2000 draw_round_box
0.0000 -142.2218 moveto 1.5761 0.0000 16.9215 0.0000 0.2000 draw_round_box
0.0000 -142.2218 moveto 1.5761 0.0000 20.4030 0.0000 0.2000 draw_round_box
0.0000 -142.2218 moveto 1.5761 0.0000 24.7380 0.0000 0.2000 draw_round_box
0.0000 -142.2218 moveto 1.5761 0.0000 28.4584 0.0000 0.2000 draw_round_box
0.0000 -141.2218 moveto 1.5761 0.0000 28.4584 0.0000 0.2000 draw_round_box
0.0000 -142.2218 moveto 1.5761 0.0000 33.9875 0.0000 0.2000 draw_round_box
0.0000 -141.2218 moveto 1.5761 0.0000 33.9875 0.0000 0.2000 draw_round_box
0.0000 -142.2218 moveto 1.6821 0.0000 39.2221 0.0000 0.2000 draw_round_box
0.0000 -142.2218 moveto 2.1854 0.0000 54.7672 0.0000 0.2000 draw_round_box
40.6255 -131.2893 moveto 0.0500 3.1901 -0.0250 -0.2301 0.0800 draw_round_box
39.4358 -145.2218 moveto magfontemmentaler-18mDWo /noteheads.s1 glyphshow 
37.9858 -143.2218 moveto magfontemmentaler-18mDWo /scripts.rcomma glyphshow 
39.4358 -141.7218 moveto magfontemmentaler-18mDWo /noteheads.s1 glyphshow 
39.5008 -131.2893 moveto 0.0500 2.5234 -0.0250 -4.2933 0.0800 draw_round_box
37.9858 -143.2218 moveto magfontemmentaler-18mDWo /scripts.rcomma glyphshow 
39.4358 -137.1877 moveto /TeXGyrePagella-Regular 3.90625000 output-scale div selectfont
1.7413 0.0000 0.0000 /A
1 print_glyphs
39.4358 -132.7893 moveto magfontemmentaler-18mDWo /noteheads.s1 glyphshow 
37.9858 -129.2893 moveto magfontemmentaler-18mDWo /scripts.rcomma glyphshow 
39.4358 -131.7893 moveto magfontemmentaler-18mDWo /noteheads.s1 glyphshow 
37.9858 -129.2893 moveto magfontemmentaler-18mDWo /scripts.rcomma glyphshow 
28.6544 -141.2218 moveto magfontemmentaler-18mDWo /noteheads.s2 glyphshow 
46.4201 -131.2893 moveto 0.0500 3.1901 -0.0250 -0.7301 0.0800 draw_round_box
45.2304 -144.7218 moveto magfontemmentaler-18mDWo /noteheads.s1 glyphshow 
45.2304 -142.7218 moveto magfontemmentaler-18mDWo /noteheads.s1 glyphshow 
45.2304 -133.2893 moveto magfontemmentaler-18mDWo /noteheads.s1 glyphshow 
45.2304 -132.2893 moveto magfontemmentaler-18mDWo /noteheads.s1 glyphshow 
39.5008 -145.2218 moveto 0.0500 3.0234 -0.0250 -3.2933 0.0800 draw_round_box
40.6255 -145.2218 moveto 0.0500 2.1901 -0.0250 3.7699 0.0800 draw_round_box
29.7735 -145.2218 moveto 0.0500 2.2570 -0.0250 4.2030 0.0800 draw_round_box
34.1835 -141.2218 moveto magfontemmentaler-18mDWo /noteheads.s2 glyphshow 
33.2220 -137.1877 moveto /TeXGyrePagella-Regular 3.90625000 output-scale div selectfont
0.5463 0.0000 0.0000 /period
0.6487 0.0000 0.0000 /l
0.6487 0.0000 0.0000 /i
1.2633 0.0000 0.0000 /v
4 print_glyphs
34.1835 -132.2893 moveto magfontemmentaler-18mDWo /noteheads.s2 glyphshow 
34.1835 -130.7893 moveto magfontemmentaler-18mDWo /noteheads.s2 glyphshow 
28.7194 -145.2218 moveto 0.0500 2.9237 -0.0250 -3.6267 0.0800 draw_round_box
34.1835 -145.7218 moveto magfontemmentaler-18mDWo /noteheads.s2 glyphshow 
28.7194 -131.2893 moveto 0.0500 2.7570 -0.0250 -3.9600 0.0800 draw_round_box
29.7735 -131.2893 moveto 0.0500 2.9237 -0.0250 0.7030 0.0800 draw_round_box
28.6544 -145.7218 moveto magfontemmentaler-18mDWo /noteheads.s2 glyphshow 
34.2485 -145.2218 moveto 0.0500 2.9237 -0.0250 -3.6267 0.0800 draw_round_box
35.3026 -145.2218 moveto 0.0500 2.2570 -0.0250 4.2030 0.0800 draw_round_box
34.2485 -131.2893 moveto 0.0500 2.7570 -0.0250 -3.9600 0.0800 draw_round_box
35.3026 -131.2893 moveto 0.0500 2.9237 -0.0250 0.7030 0.0800 draw_round_box
53.5022 -142.2218 moveto magfontemmentaler-18mDWo /accidentals.sharp glyphshow 
20.5990 -134.7893 moveto true 4.4250 0.2000 4.4250 -0.2000 0.0400 -0.2000 0.0400 0.2000 3 0.0800 draw_polygon
13.5840 -137.1877 moveto 0.5800 0.0500 0.0400 0.4600 0.0800 draw_round_box
15.7101 -137.1877 moveto 0.2959 0.0500 0.0400 0.4600 0.0800 draw_round_box
8.8441 -128.2893 moveto true 9.4175 0.2000 9.4175 -0.2000 0.0400 -0.2000 0.0400 0.2000 3 0.0800 draw_polygon
7.7900 -134.7893 moveto true 9.4175 0.2000 9.4175 -0.2000 0.0400 -0.2000 0.0400 0.2000 3 0.0800 draw_polygon
8.8441 -139.4118 moveto true 9.4175 0.2000 9.4175 -0.2000 0.0400 -0.2000 0.0400 0.2000 3 0.0800 draw_polygon
7.7900 -147.0318 moveto true 9.4175 0.2000 9.4175 -0.2000 0.0400 -0.2000 0.0400 0.2000 3 0.0800 draw_polygon
31.1688 -137.1877 moveto 0.5800 0.0500 0.0400 0.4600 0.0800 draw_round_box
21.6530 -128.2893 moveto true 4.4250 0.2000 4.4250 -0.2000 0.0400 -0.2000 0.0400 0.2000 3 0.0800 draw_polygon
21.6530 -139.4118 moveto true 4.4250 0.2000 4.4250 -0.2000 0.0400 -0.2000 0.0400 0.2000 3 0.0800 draw_polygon
20.5990 -147.0318 moveto true 4.4250 0.2000 4.4250 -0.2000 0.0400 -0.2000 0.0400 0.2000 3 0.0800 draw_polygon
39.4358 -131.2893 moveto gsave currentpoint translate
1 setlinecap 1 setlinejoin 0.08000000 setlinewidth
1.55475556 0.49862020 moveto  2.78686228 1.68999647 5.53312886 1.50020995 6.61935811 0.14862020 curveto  5.52485574 1.38049548 2.77858916 1.57028200 1.55475556 0.49862020 curveto   closepath  gsave stroke grestore fill grestore
39.4358 -131.2893 moveto gsave currentpoint translate
1 setlinecap 1 setlinejoin 0.08000000 setlinewidth
0.43000000 -2.49862020 moveto  1.48424098 -3.66738343 4.23217009 -3.93867117 5.49460255 -2.99862020 curveto  4.24395970 -3.81925172 1.49603060 -3.54796398 0.43000000 -2.49862020 curveto   closepath  gsave stroke grestore fill grestore
46.8926 -137.1877 moveto 0.5800 0.0500 0.0400 0.4600 0.0800 draw_round_box
39.4358 -145.2218 moveto gsave currentpoint translate
1 setlinecap 1 setlinejoin 0.08000000 setlinewidth
1.55475556 4.49862020 moveto  2.91526817 5.31923923 5.67284779 4.77475828 6.61935811 3.49862020 curveto  5.64960271 4.65703119 2.89202309 5.20151215 1.55475556 4.49862020 curveto   closepath  gsave stroke grestore fill grestore
39.4358 -145.2218 moveto gsave currentpoint translate
1 setlinecap 1 setlinejoin 0.08000000 setlinewidth
0.43000000 -1.14862020 moveto  1.72236224 -2.05310996 4.47253038 -1.70014854 5.49460255 -0.49862020 curveto  4.45725466 -1.58112480 1.70708652 -1.93408621 0.43000000 -1.14862020 curveto   closepath  gsave stroke grestore fill grestore
45.2954 -145.2218 moveto 0.0500 3.1901 -0.0250 -2.9600 0.0800 draw_round_box
46.4201 -145.2218 moveto 0.0500 2.1901 -0.0250 2.7699 0.0800 draw_round_box
45.2954 -131.2893 moveto 0.0500 2.3568 -0.0250 -4.6267 0.0800 draw_round_box
54.8422 -143.2218 moveto magfontemmentaler-18mDWo /noteheads.s0 glyphshow 
54.8422 -146.7218 moveto magfontemmentaler-18mDWo /noteheads.s0 glyphshow 
54.8422 -142.2218 moveto magfontemmentaler-18mDWo /noteheads.s0 glyphshow 
53.2681 -137.1877 moveto /TeXGyrePagella-Regular 3.90625000 output-scale div selectfont
0.6146 0.0000 0.0000 /exclam
1.2974 0.0000 0.0000 /n
1.0584 0.0000 0.0000 /e
1.9462 0.0000 0.0000 /m
4 print_glyphs
54.8422 -133.2893 moveto magfontemmentaler-18mDWo /noteheads.s0 glyphshow 
54.8422 -131.7893 moveto magfontemmentaler-18mDWo /noteheads.s0 glyphshow 
12.8002 -145.2218 moveto 0.0500 2.0670 -0.0250 3.7030 0.0800 draw_round_box
11.7462 -131.2893 moveto 0.0500 2.2570 -0.0250 -3.4600 0.0800 draw_round_box
12.8002 -131.2893 moveto 0.0500 2.7570 -0.0250 0.2030 0.0800 draw_round_box
11.6812 -143.7218 moveto magfontemmentaler-18mDWo /noteheads.s2 glyphshow 
11.6812 -141.7218 moveto magfontemmentaler-18mDWo /noteheads.s2 glyphshow 
11.0611 -137.1877 moveto /TeXGyrePagella-Regular 3.90625000 output-scale div selectfont
1.0584 0.0000 0.0000 /e
1.3657 0.0000 0.0000 /d
2 print_glyphs
11.6812 -132.2893 moveto magfontemmentaler-18mDWo /noteheads.s2 glyphshow 
11.6812 -131.2893 moveto magfontemmentaler-18mDWo /noteheads.s2 glyphshow 
15.5184 -131.2893 moveto 0.0500 2.7570 -0.0250 0.2030 0.0800 draw_round_box
15.5184 -145.2218 moveto 0.0500 2.0670 -0.0250 3.7030 0.0800 draw_round_box
28.7173 -137.1877 moveto /TeXGyrePagella-Regular 3.90625000 output-scale div selectfont
1.0584 0.0000 0.0000 /e
1 print_glyphs
14.4644 -131.2893 moveto 0.0500 2.2570 -0.0250 -3.4600 0.0800 draw_round_box
7.8550 -145.2218 moveto 0.0500 3.0670 -0.0250 -1.7700 0.0800 draw_round_box
14.3994 -143.7218 moveto magfontemmentaler-18mDWo /noteheads.s2 glyphshow 
14.3994 -141.7218 moveto magfontemmentaler-18mDWo /noteheads.s2 glyphshow 
14.3427 -137.1877 moveto /TeXGyrePagella-Regular 3.90625000 output-scale div selectfont
0.6487 0.0000 0.0000 /i
0.6487 0.0000 0.0000 /l
2 print_glyphs
14.3994 -132.2893 moveto magfontemmentaler-18mDWo /noteheads.s2 glyphshow 
14.3994 -131.2893 moveto magfontemmentaler-18mDWo /noteheads.s2 glyphshow 
11.7462 -145.2218 moveto 0.0500 3.0670 -0.0250 -1.7700 0.0800 draw_round_box
4.3000 -144.2218 moveto magfontemmentaler-18mDWo /accidentals.sharp glyphshow 
0.8000 -144.2218 moveto magfontemmentaler-18mDWo /clefs.F glyphshow 
4.3000 -129.2893 moveto magfontemmentaler-18mDWo /accidentals.sharp glyphshow 
0.8000 -132.2893 moveto magfontemmentaler-18mDWo /clefs.G glyphshow 
-0.0600 -138.2556 moveto 0.0600 17.9326 0.0500 -8.9663 0.1000 draw_round_box
-1.3100 -129.0368 moveto magfontemmentaler-18mDWo /brackettips.up glyphshow 
-1.3100 -147.4743 moveto magfontemmentaler-18mDWo /brackettips.down glyphshow 
-1.3100 -138.2556 moveto 0.4500 18.1226 0.0000 -9.0613 0.0000 draw_round_box
8.9091 -145.2218 moveto 0.0500 2.0670 -0.0250 3.7030 0.0800 draw_round_box
7.8550 -131.2893 moveto 0.0500 2.2570 -0.0250 -3.4600 0.0800 draw_round_box
8.9091 -131.2893 moveto 0.0500 2.7570 -0.0250 0.2030 0.0800 draw_round_box
7.7900 -143.7218 moveto magfontemmentaler-18mDWo /noteheads.s2 glyphshow 
7.7900 -141.7218 moveto magfontemmentaler-18mDWo /noteheads.s2 glyphshow 
6.4871 -137.1877 moveto /TeXGyrePagella-Regular 3.90625000 output-scale div selectfont
1.3657 0.0000 0.0000 /d
1.2974 0.0000 0.0000 /n
1.1267 0.0000 0.0000 /a
3 print_glyphs
7.7900 -132.2893 moveto magfontemmentaler-18mDWo /noteheads.s2 glyphshow 
7.7900 -131.2893 moveto magfontemmentaler-18mDWo /noteheads.s2 glyphshow 
24.9340 -141.7218 moveto magfontemmentaler-18mDWo /noteheads.s2 glyphshow 
23.1189 -137.1877 moveto /TeXGyrePagella-Regular 3.90625000 output-scale div selectfont
1.9462 0.0000 0.0000 /m
1.2292 0.0000 0.0000 /o
0.8877 0.0000 0.0000 /r
0.7512 0.0000 0.0000 /f
4 print_glyphs
24.9340 -132.2893 moveto magfontemmentaler-18mDWo /noteheads.s2 glyphshow 
24.9340 -131.2893 moveto magfontemmentaler-18mDWo /noteheads.s2 glyphshow 
20.6640 -145.2218 moveto 0.0500 3.0670 -0.0250 -1.7700 0.0800 draw_round_box
24.9340 -143.7218 moveto magfontemmentaler-18mDWo /noteheads.s2 glyphshow 
21.7180 -145.2218 moveto 0.0500 2.0670 -0.0250 3.7030 0.0800 draw_round_box
20.6640 -131.2893 moveto 0.0500 2.2570 -0.0250 -3.4600 0.0800 draw_round_box
26.0531 -145.2218 moveto 0.0500 2.0670 -0.0250 3.7030 0.0800 draw_round_box
28.6544 -132.2893 moveto magfontemmentaler-18mDWo /noteheads.s2 glyphshow 
28.6544 -130.7893 moveto magfontemmentaler-18mDWo /noteheads.s2 glyphshow 
24.9990 -145.2218 moveto 0.0500 3.0670 -0.0250 -1.7700 0.0800 draw_round_box
24.9990 -131.2893 moveto 0.0500 2.2570 -0.0250 -3.4600 0.0800 draw_round_box
26.0531 -131.2893 moveto 0.0500 2.7570 -0.0250 0.2030 0.0800 draw_round_box
17.1175 -141.7218 moveto magfontemmentaler-18mDWo /noteheads.s2 glyphshow 
21.7180 -131.2893 moveto 0.0500 2.7570 -0.0250 0.2030 0.0800 draw_round_box
17.1825 -131.2893 moveto 0.0500 2.2570 -0.0250 -3.4600 0.0800 draw_round_box
18.2366 -131.2893 moveto 0.0500 2.7570 -0.0250 0.2030 0.0800 draw_round_box
17.1175 -143.7218 moveto magfontemmentaler-18mDWo /noteheads.s2 glyphshow 
16.1561 -137.1877 moveto /TeXGyrePagella-Regular 3.90625000 output-scale div selectfont
0.8877 0.0000 0.0000 /r
1.0584 0.0000 0.0000 /e
1.1609 0.0000 0.0000 /v
3 print_glyphs
17.1175 -132.2893 moveto magfontemmentaler-18mDWo /noteheads.s2 glyphshow 
17.1175 -131.2893 moveto magfontemmentaler-18mDWo /noteheads.s2 glyphshow 
14.4644 -145.2218 moveto 0.0500 3.0670 -0.0250 -1.7700 0.0800 draw_round_box
18.2366 -145.2218 moveto 0.0500 2.0670 -0.0250 3.7030 0.0800 draw_round_box
20.5990 -132.2893 moveto magfontemmentaler-18mDWo /noteheads.s2 glyphshow 
20.5990 -131.2893 moveto magfontemmentaler-18mDWo /noteheads.s2 glyphshow 
17.1825 -145.2218 moveto 0.0500 3.0670 -0.0250 -1.7700 0.0800 draw_round_box
20.0472 -137.1877 moveto /TeXGyrePagella-Regular 3.90625000 output-scale div selectfont
0.9560 0.0000 0.0000 /s
1.3316 0.0000 0.0000 /u
2 print_glyphs
20.5990 -141.7218 moveto magfontemmentaler-18mDWo /noteheads.s2 glyphshow 
20.5990 -143.7218 moveto magfontemmentaler-18mDWo /noteheads.s2 glyphshow 
stroke grestore
%%Trailer
%%EOF
