%!PS-Adobe-2.0 EPSF-2.0
%%Creator: LilyPond 2.18.2
%%BoundingBox: -9 -121 336 0
%%Orientation: Portrait
%%DocumentSuppliedResources: font Emmentaler-18
%%DocumentSuppliedResources: font TeXGyrePagella-Regular
%%EndComments
%%BeginProlog
/lilypond-datadir where {pop} {userdict /lilypond-datadir (/usr/share/lilypond/2.18.2) put } ifelse
%%BeginFont: Emmentaler-18
lilypond-datadir (/fonts/otf/emmentaler-18.otf) concatstrings (r) file .loadfont
%%EndFont

%%BeginFont: TeXGyrePagella-Regular
(/usr/share/texmf/fonts/opentype/public/tex-gyre/texgyrepagella-regular.otf) (r) file .loadfont
%%EndFont

/magfontemmentaler-18mDWo { /Emmentaler-18 6.3263 output-scale div selectfont } bind def
/lily-output-units 2.83464566929134 def %% millimeter
/staff-line-thickness 0.1 def
/line-width 67.3237795275591 def
/paper-size (a4) def
/staff-height 4.0 def
/output-scale 1.75729901757299 def
/page-height 169.00937007874 def
/page-width 119.50157480315 def
%%BeginResource: procset (music-drawing-routines.ps) 1 0
%!PS-Adobe-2.0
%
% Functions for direct and embedded PostScript

% Careful with double % as comment prefix.
% Any %%X comment is interpreted as DSC comments.

% TODO: use dicts or prefixes to prevent namespace pollution.

/pdfmark where
{pop} {userdict /pdfmark /cleartomark load put} ifelse


% llx lly urx ury URI
/mark_URI
{
    /uri exch def
    /ury exch def
    /urx exch def
    /lly exch def
    /llx exch def
    [
	/Rect [ llx lly urx ury ]
	
	/Border [ 0 0 0 ]

        /Action
	    <<
		/Subtype /URI
		/URI uri
	    >>
        /Subtype /Link
    /ANN
    pdfmark
}
bind def

% llx lly urx ury page
/mark_page_link
{
    /page exch def
    /ury exch def
    /urx exch def
    /lly exch def
    /llx exch def
    [
        /Rect [ llx lly urx ury ]
        /Border [ 0 0 0 ]
        /Page page
        /Subtype /Link
    /ANN
    pdfmark
}
bind def

% from adobe tech note 5002.
/BeginEPSF { %def
    /b4_Inc_state save def % Save state for cleanup
    /dict_count countdictstack def % Count objects on dict stack
    /op_count count 1 sub def % Count objects on operand stack
    userdict begin % Push userdict on dict stack
    /showpage { } def % Redefine showpage, { } = null proc
    0 setgray 0 setlinecap % Prepare graphics state
    1 setlinewidth 0 setlinejoin
    10 setmiterlimit [ ] 0 setdash newpath
    false setoverprint
} bind def

/EndEPSF { %def
  count op_count sub {pop} repeat % Clean up stacks
  countdictstack dict_count sub {end} repeat
  b4_Inc_state restore
} bind def

/stroke_and_fill? {
    {
	gsave
	    false setstrokeadjust
	    stroke
	grestore
	fill
    }
    {
	stroke
    }
    ifelse
} bind def

/vector_add { % x1 y1 x2 y2 vector_add x1+x2 y1+y2
	exch
	4 1 roll
	add
	3 1 roll
	add
	exch
} bind def

/draw_round_box % width height x y blot
{
    0 max setlinewidth
    matrix currentmatrix 5 1 roll
    currentpoint translate newpath translate
    2 copy 0 min exch 0 min exch translate
    abs exch abs exch
    currentlinewidth 0 eq
    { % straight corners
	2 copy 2 mul gt
	{ % horizontal
	    0 1 index 2 div moveto
	    setlinewidth
	    0 rlineto
	    0 setlinecap
	    stroke
	}
	{
	    2 copy exch 2 mul gt
	    { % vertical
		1 index 2 div 0 moveto
		exch setlinewidth
		0 exch rlineto
		0 setlinecap
		stroke
	    }
	    {
		0 0 4 2 roll rectfill
	    }
	    ifelse
	}
	ifelse
    }
    { % rounded corners
	2 copy 0 eq exch 0 eq or
	{ % line shape
	    0 0 moveto
	    rlineto
	    1 setlinecap
	    stroke
	    0 setlinecap
	}
	{ % full shape
	    currentstrokeadjust {
		currentlinewidth 2 div
		0 0 2 index 180 270 arc
		2 index 0 2 index 270 360 arc
		3 copy 0 90 arc
		0 2 index 3 -1 roll 90 180 arc
		closepath
		2 copy 2 mul gt
		{ % horizontal
		    2 copy add currentlinewidth add 10 add % large enough
		    0 1 index neg moveto
		    2 index 1 index neg lineto
		    2 index 1 index lineto
		    0 exch lineto closepath
		    gsave clip newpath
		    0 1 index 2 div moveto
		    currentlinewidth add setlinewidth
		    0 rlineto
		    2 setlinecap
		    stroke
		    grestore
		}
		{
		    2 copy exch 2 mul gt
		    { % vertical
			2 copy add currentlinewidth add 10 add % large enough
			dup neg 0 moveto
			dup 0 lineto
			dup 2 index lineto
			neg 1 index lineto closepath
			gsave clip newpath
			1 index 2 div 0 moveto
			exch currentlinewidth add setlinewidth
			0 exch rlineto
			2 setlinecap
			stroke
			grestore
		    }
		    {
			pop pop
			fill
		    }
		    ifelse
		}
		ifelse
		newpath
	    }
	    {
		1 setlinejoin
		0 0 4 2 roll 4 copy rectstroke rectfill
	    }
	    ifelse
	}
	ifelse
    }
    ifelse
    setmatrix
} bind def

/draw_polygon % fill? x(n) y(n) x(n-1) y(n-1) ... x(0) y(0) n blot
{
	setlinewidth %set to blot

	0 setlinecap
	1 setlinejoin

	3 1 roll
	/polygon_x
	currentpoint
	/polygon_y exch def
	def
	rmoveto % x(0) y(0)
	{ polygon_x polygon_y vector_add lineto } repeat % n times
	closepath
	stroke_and_fill?
} bind def

/draw_circle % filled? radius thickness draw_circle
{
	setlinewidth	% f? r
	currentpoint	% f? r x0 y0
	3 2 roll	% f? x0 y0 r
	dup 0 rmoveto
	0 360 arc closepath
	stroke_and_fill?
} bind def

/draw_ellipse % filled? x-radius y-radius thickness draw_ellipse
{
  setlinewidth % f? x-r y-r
  /savematrix matrix currentmatrix def
  scale % f?
  currentpoint
  1 0 rmoveto
  1 0 360  arc closepath
  savematrix setmatrix
  stroke_and_fill?
} bind def

/draw_partial_ellipse % filled connect x-radius y-radius startangle endangle thickness draw_partial_ellipse
% Note that filled is not boolean to permit for different graylevels (ie for trill keys)
{
  gsave
  currentpoint translate
  /thickness exch def
  /endangle exch def
  /startangle exch def
  /y_radius exch def
  /x_radius exch def
  /endrad x_radius y_radius mul
    x_radius x_radius mul
    endangle cos endangle cos mul mul
    y_radius y_radius mul
    endangle sin endangle sin mul mul add sqrt div def
  /endangle endangle sin endrad mul y_radius div
    endangle cos endrad mul x_radius div atan def
  /startrad x_radius y_radius mul
    x_radius x_radius mul
      startangle cos startangle cos mul mul
    y_radius y_radius mul
      startangle sin startangle sin mul mul add sqrt div def
  /startangle startangle sin startrad mul y_radius div
    startangle cos startrad mul x_radius div atan def
  /connect exch def
  /filled exch def
  /savematrix matrix currentmatrix def
  thickness setlinewidth
  x_radius y_radius scale
  startangle cos startangle sin moveto
  0 0 1 startangle
    startangle endangle eq { endangle 360 add } { endangle } ifelse
    arc
  connect {
    startangle cos startangle sin moveto endangle cos endangle sin lineto }
    if
  savematrix setmatrix filled stroke_and_fill?
  grestore
} bind def

/draw_line % dx dy x1 y1 thickness draw_line
{
	setlinewidth % dx dy x1 y1
	1 setlinecap
	rmoveto % dx dy
	rlineto
	stroke
} bind def

/draw_dashed_line % dx dy thickness dashpattern offset draw_dashed_line
{
	1 setlinecap
	setdash % dx dy thickness
	setlinewidth %dx dy
	rlineto
	stroke
	[] 0 setdash % reset dash pattern
} bind def

/print_glyphs % w dx dy glyph print_glyphs
{
	{
		currentpoint %w dx dy glyph x0 y0
		5 2 roll %w x0 y0 dx dy glyph
		3 1 roll %w x0 y0 glyph dx dy
		rmoveto %w x0 y0 glyph
		glyphshow %w x0 y0
		moveto %w
		0 rmoveto
	}repeat
}bind def
%end music-drawing-routines.ps

%%EndResource
%%BeginResource: procset (lilyponddefs.ps) 1 0
%!PS-Adobe-2.0: lilyponddefs.ps
%
% Functions for direct PostScript output

% /setgray { 1 add } bind def

/set-ps-scale-to-lily-scale {
	lily-output-units output-scale mul dup scale
} bind def


/init-paper {
	gsave
	clippath pathbbox newpath
	/paper-height exch def
	/paper-width exch def pop pop pop
	% FIXME
	/top-margin 2 def
	paper-width line-width sub 2 div /left-margin exch def
	grestore
} bind def

/init-lilypond-parameters {
	staff-line-thickness setlinewidth
	staff-height init-paper
} bind def


% end lilyponddefs.ps

%%EndResource
%%EndProlog
%%BeginSetup
init-lilypond-parameters
%%EndSetup

/mark_page_link { pop pop pop pop pop } bind def
gsave set-ps-scale-to-lily-scale
0.0000 -6.1767 moveto 67.2238 0.0000 0.0500 0.0000 0.1000 draw_line
0.0000 -5.1767 moveto 67.2238 0.0000 0.0500 0.0000 0.1000 draw_line
0.0000 -4.1767 moveto 67.2238 0.0000 0.0500 0.0000 0.1000 draw_line
0.0000 -3.1767 moveto 67.2238 0.0000 0.0500 0.0000 0.1000 draw_line
0.0000 -2.1767 moveto 67.2238 0.0000 0.0500 0.0000 0.1000 draw_line
56.1618 -20.1790 moveto 0.1900 4.0000 0.0000 -2.0000 0.0000 draw_round_box
25.9941 -4.1767 moveto 0.1900 4.0000 0.0000 -2.0000 0.0000 draw_round_box
39.6939 -20.1790 moveto 0.1900 4.0000 0.0000 -2.0000 0.0000 draw_round_box
25.9941 -20.1790 moveto 0.1900 4.0000 0.0000 -2.0000 0.0000 draw_round_box
56.1618 -4.1767 moveto 0.1900 4.0000 0.0000 -2.0000 0.0000 draw_round_box
39.6939 -4.1767 moveto 0.1900 4.0000 0.0000 -2.0000 0.0000 draw_round_box
66.7238 -4.1767 moveto 0.6000 4.0000 0.0000 -2.0000 0.0000 draw_round_box
66.2338 -4.1767 moveto 0.1900 4.0000 0.0000 -2.0000 0.0000 draw_round_box
66.7238 -20.1790 moveto 0.6000 4.0000 0.0000 -2.0000 0.0000 draw_round_box
66.2338 -20.1790 moveto 0.1900 4.0000 0.0000 -2.0000 0.0000 draw_round_box
0.0000 -7.1767 moveto 1.5761 0.0000 49.3224 0.0000 0.2000 draw_round_box
0.0000 -7.1767 moveto 1.5761 0.0000 52.6396 0.0000 0.2000 draw_round_box
0.0000 -7.1767 moveto 1.5761 0.0000 52.6396 0.0000 0.2000 draw_round_box
0.0000 -7.1767 moveto 1.6821 0.0000 57.2546 0.0000 0.2000 draw_round_box
0.0000 -8.1767 moveto 1.6821 0.0000 57.2546 0.0000 0.2000 draw_round_box
0.0000 -22.1790 moveto 67.2238 0.0000 0.0500 0.0000 0.1000 draw_line
0.0000 -21.1790 moveto 67.2238 0.0000 0.0500 0.0000 0.1000 draw_line
0.0000 -20.1790 moveto 67.2238 0.0000 0.0500 0.0000 0.1000 draw_line
0.0000 -19.1790 moveto 67.2238 0.0000 0.0500 0.0000 0.1000 draw_line
0.0000 -18.1790 moveto 67.2238 0.0000 0.0500 0.0000 0.1000 draw_line
0.0000 -17.1790 moveto 1.5761 0.0000 7.4407 0.0000 0.2000 draw_round_box
52.4717 -12.6449 moveto /TeXGyrePagella-Regular 3.90625000 output-scale div selectfont
1.2292 0.0000 0.0000 /o
0.6829 0.0000 0.0000 /t
2 print_glyphs
46.2229 -20.1790 moveto 0.0500 2.7570 -0.0250 -3.9600 0.0800 draw_round_box
47.2769 -20.1790 moveto 0.0500 2.4237 -0.0250 2.2030 0.0800 draw_round_box
46.2229 -4.1767 moveto 0.0500 2.2570 -0.0250 -4.9600 0.0800 draw_round_box
47.2769 -4.1767 moveto 0.0500 3.2570 -0.0250 -1.2970 0.0800 draw_round_box
46.1579 -21.1790 moveto magfontemmentaler-18mDWo /noteheads.s2 glyphshow 
46.1579 -18.1790 moveto magfontemmentaler-18mDWo /noteheads.s2 glyphshow 
45.2476 -12.6449 moveto /TeXGyrePagella-Regular 3.90625000 output-scale div selectfont
1.0584 0.0000 0.0000 /e
1.9462 0.0000 0.0000 /m
2 print_glyphs
46.1579 -6.6767 moveto magfontemmentaler-18mDWo /noteheads.s2 glyphshow 
52.8357 -18.6790 moveto magfontemmentaler-18mDWo /noteheads.s2 glyphshow 
49.5834 -4.1767 moveto 0.0500 2.2570 -0.0250 -5.4600 0.0800 draw_round_box
49.5834 -20.1790 moveto 0.0500 2.9237 -0.0250 -3.6267 0.0800 draw_round_box
50.6375 -20.1790 moveto 0.0500 2.5903 -0.0250 1.7030 0.0800 draw_round_box
52.8357 -7.1767 moveto magfontemmentaler-18mDWo /noteheads.s2 glyphshow 
52.8357 -7.1767 moveto magfontemmentaler-18mDWo /noteheads.s2 glyphshow 
50.6375 -4.1767 moveto 0.0500 3.2570 -0.0250 -1.7970 0.0800 draw_round_box
49.5184 -20.6790 moveto magfontemmentaler-18mDWo /noteheads.s2 glyphshow 
49.5184 -18.6790 moveto magfontemmentaler-18mDWo /noteheads.s2 glyphshow 
49.1373 -12.6449 moveto /TeXGyrePagella-Regular 3.90625000 output-scale div selectfont
1.2974 0.0000 0.0000 /n
0.6487 0.0000 0.0000 /i
2 print_glyphs
49.5184 -7.1767 moveto magfontemmentaler-18mDWo /noteheads.s2 glyphshow 
49.5184 -6.1767 moveto magfontemmentaler-18mDWo /noteheads.s2 glyphshow 
42.3117 -4.1767 moveto 0.0500 3.2570 -0.0250 -1.2970 0.0800 draw_round_box
41.1926 -21.1790 moveto magfontemmentaler-18mDWo /noteheads.s2 glyphshow 
41.1926 -17.6790 moveto magfontemmentaler-18mDWo /noteheads.s2 glyphshow 
39.2068 -12.6449 moveto /TeXGyrePagella-Regular 3.90625000 output-scale div selectfont
0.9560 0.0000 0.0000 /s
1.3657 0.0000 0.0000 /d
1.1267 0.0000 0.0000 /a
1.0584 0.0000 0.0000 /e
0.6487 0.0000 0.0000 /l
5 print_glyphs
41.1926 -6.6767 moveto magfontemmentaler-18mDWo /noteheads.s2 glyphshow 
41.1926 -5.6767 moveto magfontemmentaler-18mDWo /noteheads.s2 glyphshow 
41.2576 -4.1767 moveto 0.0500 2.2570 -0.0250 -4.9600 0.0800 draw_round_box
35.4942 -20.1790 moveto 0.0500 3.0903 -0.0250 -3.2933 0.0800 draw_round_box
36.5482 -20.1790 moveto 0.0500 2.4237 -0.0250 2.2030 0.0800 draw_round_box
35.4942 -4.1767 moveto 0.0500 2.2570 -0.0250 -4.9600 0.0800 draw_round_box
46.1579 -5.6767 moveto magfontemmentaler-18mDWo /noteheads.s2 glyphshow 
41.2576 -20.1790 moveto 0.0500 2.7570 -0.0250 -3.9600 0.0800 draw_round_box
42.3117 -20.1790 moveto 0.0500 2.2570 -0.0250 2.7030 0.0800 draw_round_box
63.2456 -22.1790 moveto magfontemmentaler-18mDWo /rests.2 glyphshow 
63.2456 -18.1790 moveto magfontemmentaler-18mDWo /rests.2 glyphshow 
63.2456 -6.1767 moveto magfontemmentaler-18mDWo /rests.2 glyphshow 
63.2456 -2.1767 moveto magfontemmentaler-18mDWo /rests.2 glyphshow 
51.4476 -12.6449 moveto 0.5800 0.0500 0.0400 0.4600 0.0800 draw_round_box
59.1244 -6.6767 moveto magfontemmentaler-18mDWo /dots.dot glyphshow 
57.4683 -20.1790 moveto magfontemmentaler-18mDWo /noteheads.s1 glyphshow 
57.4683 -19.1790 moveto magfontemmentaler-18mDWo /noteheads.s1 glyphshow 
56.2861 -12.6449 moveto /TeXGyrePagella-Regular 3.90625000 output-scale div selectfont
0.5463 0.0000 0.0000 /period
1.0584 0.0000 0.0000 /e
0.7170 0.0000 0.0000 /f
0.6487 0.0000 0.0000 /i
0.6487 0.0000 0.0000 /l
5 print_glyphs
57.4683 -8.1767 moveto magfontemmentaler-18mDWo /noteheads.s1 glyphshow 
57.4683 -6.6767 moveto magfontemmentaler-18mDWo /noteheads.s1 glyphshow 
52.9007 -20.1790 moveto 0.0500 3.2570 -0.0250 -2.9600 0.0800 draw_round_box
58.6581 -4.1767 moveto 0.0500 3.1901 -0.0250 -2.2301 0.0800 draw_round_box
53.9547 -20.1790 moveto 0.0500 2.5903 -0.0250 1.7030 0.0800 draw_round_box
52.9007 -4.1767 moveto 0.0500 2.2570 -0.0250 -5.4600 0.0800 draw_round_box
53.9547 -4.1767 moveto 0.0500 3.2570 -0.0250 -2.7970 0.0800 draw_round_box
57.5333 -20.1790 moveto 0.0500 3.0234 -0.0250 -3.2933 0.0800 draw_round_box
59.1244 -20.6790 moveto magfontemmentaler-18mDWo /dots.dot glyphshow 
58.6581 -20.1790 moveto 0.0500 2.6901 -0.0250 1.2699 0.0800 draw_round_box
59.1244 -18.6790 moveto magfontemmentaler-18mDWo /dots.dot glyphshow 
52.8357 -19.6790 moveto magfontemmentaler-18mDWo /noteheads.s2 glyphshow 
57.5333 -4.1767 moveto 0.0500 2.1901 -0.0250 -6.4600 0.0800 draw_round_box
59.1244 -8.6767 moveto magfontemmentaler-18mDWo /dots.dot glyphshow 
12.8777 -8.6367 moveto magfontemmentaler-18mDWo /flags.d3 glyphshow 
12.8777 -23.5140 moveto magfontemmentaler-18mDWo /flags.d3 glyphshow 
12.8127 -20.1790 moveto 0.0500 3.1320 -0.0250 -3.3350 0.0800 draw_round_box
13.9318 -15.2190 moveto magfontemmentaler-18mDWo /flags.u3 glyphshow 
13.8668 -20.1790 moveto 0.0500 2.7570 -0.0250 2.2030 0.0800 draw_round_box
12.8127 -4.1767 moveto 0.0500 2.7570 -0.0250 -4.4600 0.0800 draw_round_box
13.9318 -2.2167 moveto magfontemmentaler-18mDWo /flags.u3 glyphshow 
13.8668 -4.1767 moveto 0.0500 3.2570 -0.0250 -1.2970 0.0800 draw_round_box
12.7477 -20.1790 moveto magfontemmentaler-18mDWo /noteheads.s2 glyphshow 
12.7477 -18.1790 moveto magfontemmentaler-18mDWo /noteheads.s2 glyphshow 
11.7862 -12.6449 moveto /TeXGyrePagella-Regular 3.90625000 output-scale div selectfont
1.0584 0.0000 0.0000 /e
1.2974 0.0000 0.0000 /h
0.7512 0.0000 0.0000 /t
3 print_glyphs
12.7477 -5.6767 moveto magfontemmentaler-18mDWo /noteheads.s2 glyphshow 
12.7477 -5.6767 moveto magfontemmentaler-18mDWo /noteheads.s2 glyphshow 
17.7015 -20.1790 moveto 0.0500 3.2570 -0.0250 -1.9600 0.0800 draw_round_box
18.7555 -20.1790 moveto 0.0500 2.2570 -0.0250 2.7030 0.0800 draw_round_box
19.2219 -17.6790 moveto magfontemmentaler-18mDWo /dots.dot glyphshow 
17.7015 -4.1767 moveto 0.0500 2.2570 -0.0250 -4.9600 0.0800 draw_round_box
19.2219 -6.6767 moveto magfontemmentaler-18mDWo /dots.dot glyphshow 
18.7555 -4.1767 moveto 0.0500 3.2570 -0.0250 -0.7970 0.0800 draw_round_box
19.2219 -4.6767 moveto magfontemmentaler-18mDWo /dots.dot glyphshow 
17.6365 -18.6790 moveto magfontemmentaler-18mDWo /noteheads.s2 glyphshow 
17.6365 -17.6790 moveto magfontemmentaler-18mDWo /noteheads.s2 glyphshow 
15.5483 -12.6449 moveto /TeXGyrePagella-Regular 3.90625000 output-scale div selectfont
0.5463 0.0000 0.0000 /comma
1.3657 0.0000 0.0000 /d
0.8536 0.0000 0.0000 /r
1.2292 0.0000 0.0000 /o
1.3657 0.0000 0.0000 /L
5 print_glyphs
17.6365 -6.6767 moveto magfontemmentaler-18mDWo /noteheads.s2 glyphshow 
17.6365 -5.1767 moveto magfontemmentaler-18mDWo /noteheads.s2 glyphshow 
0.8000 -5.1767 moveto magfontemmentaler-18mDWo /clefs.G glyphshow 
7.6367 -5.6767 moveto magfontemmentaler-18mDWo /noteheads.s2 glyphshow 
7.6367 -4.6767 moveto magfontemmentaler-18mDWo /noteheads.s2 glyphshow 
4.4167 -21.1790 moveto magfontemmentaler-18mDWo /accidentals.flat glyphshow 
0.8000 -19.1790 moveto magfontemmentaler-18mDWo /clefs.F glyphshow 
4.4167 -4.1767 moveto magfontemmentaler-18mDWo /accidentals.flat glyphshow 
5.7363 -12.6449 moveto /TeXGyrePagella-Regular 3.90625000 output-scale div selectfont
0.9560 0.0000 0.0000 /s
0.9560 0.0000 0.0000 /s
1.0584 0.0000 0.0000 /e
0.6487 0.0000 0.0000 /l
1.3657 0.0000 0.0000 /B
5 print_glyphs
-0.7853 -1.0926 moveto /TeXGyrePagella-Regular 2.76074219 output-scale div selectfont
0.7853 0.0000 0.0000 /five
1 print_glyphs
-0.0600 -12.1779 moveto 0.0600 20.0023 0.0500 -10.0012 0.1000 draw_round_box
-1.3100 -1.9242 moveto magfontemmentaler-18mDWo /brackettips.up glyphshow 
-1.3100 -22.4315 moveto magfontemmentaler-18mDWo /brackettips.down glyphshow 
-1.3100 -12.1779 moveto 0.4500 20.1923 0.0000 -10.0962 0.0000 draw_round_box
7.7017 -20.1790 moveto 0.0500 3.0903 -0.0250 -3.2933 0.0800 draw_round_box
9.2221 -20.6790 moveto magfontemmentaler-18mDWo /dots.dot glyphshow 
8.7558 -20.1790 moveto 0.0500 2.2570 -0.0250 3.7030 0.0800 draw_round_box
9.2221 -16.6790 moveto magfontemmentaler-18mDWo /dots.dot glyphshow 
19.2219 -18.6790 moveto magfontemmentaler-18mDWo /dots.dot glyphshow 
7.7017 -4.1767 moveto 0.0500 2.5903 -0.0250 -4.2933 0.0800 draw_round_box
9.2221 -5.6767 moveto magfontemmentaler-18mDWo /dots.dot glyphshow 
8.7558 -4.1767 moveto 0.0500 3.2570 -0.0250 -0.2970 0.0800 draw_round_box
9.2221 -4.6767 moveto magfontemmentaler-18mDWo /dots.dot glyphshow 
7.6367 -20.1790 moveto magfontemmentaler-18mDWo /noteheads.s2 glyphshow 
7.6367 -16.6790 moveto magfontemmentaler-18mDWo /noteheads.s2 glyphshow 
32.4410 -18.1790 moveto magfontemmentaler-18mDWo /rests.2 glyphshow 
32.4410 -6.1767 moveto magfontemmentaler-18mDWo /rests.2 glyphshow 
32.4410 -2.1767 moveto magfontemmentaler-18mDWo /rests.2 glyphshow 
32.4410 -22.1790 moveto magfontemmentaler-18mDWo /rests.2 glyphshow 
27.6105 -20.1790 moveto 0.0500 3.0234 -0.0250 -3.2933 0.0800 draw_round_box
28.7353 -20.1790 moveto 0.0500 2.3568 -0.0250 2.2699 0.0800 draw_round_box
36.5482 -4.1767 moveto 0.0500 3.2570 -0.0250 -2.2970 0.0800 draw_round_box
35.4292 -20.1790 moveto magfontemmentaler-18mDWo /noteheads.s2 glyphshow 
35.4292 -18.1790 moveto magfontemmentaler-18mDWo /noteheads.s2 glyphshow 
33.8360 -12.6449 moveto /TeXGyrePagella-Regular 3.90625000 output-scale div selectfont
1.2292 0.0000 0.0000 /o
1.2974 0.0000 0.0000 /h
1.8437 0.0000 0.0000 /w
3 print_glyphs
35.4292 -6.6767 moveto magfontemmentaler-18mDWo /noteheads.s2 glyphshow 
35.4292 -6.6767 moveto magfontemmentaler-18mDWo /noteheads.s2 glyphshow 
24.1023 -3.2167 moveto magfontemmentaler-18mDWo /flags.u3 glyphshow 
24.1023 -15.7190 moveto magfontemmentaler-18mDWo /flags.u3 glyphshow 
23.0482 -9.6367 moveto magfontemmentaler-18mDWo /flags.d3 glyphshow 
22.9832 -4.1767 moveto 0.0500 2.7570 -0.0250 -5.4600 0.0800 draw_round_box
24.0373 -20.1790 moveto 0.0500 2.7570 -0.0250 1.7030 0.0800 draw_round_box
24.0373 -4.1767 moveto 0.0500 3.2570 -0.0250 -2.2970 0.0800 draw_round_box
22.9182 -18.6790 moveto magfontemmentaler-18mDWo /noteheads.s2 glyphshow 
22.9182 -18.6790 moveto magfontemmentaler-18mDWo /noteheads.s2 glyphshow 
21.9738 -12.6449 moveto /TeXGyrePagella-Regular 3.90625000 output-scale div selectfont
1.2292 0.0000 0.0000 /y
1.8437 0.0000 0.0000 /m
2 print_glyphs
22.9182 -6.6767 moveto magfontemmentaler-18mDWo /noteheads.s2 glyphshow 
22.9182 -6.6767 moveto magfontemmentaler-18mDWo /noteheads.s2 glyphshow 
16.6565 -17.6790 moveto magfontemmentaler-18mDWo /accidentals.natural glyphshow 
28.7353 -4.1767 moveto 0.0500 3.1901 -0.0250 -2.2301 0.0800 draw_round_box
27.5455 -20.1790 moveto magfontemmentaler-18mDWo /noteheads.s1 glyphshow 
27.5455 -18.1790 moveto magfontemmentaler-18mDWo /noteheads.s1 glyphshow 
25.8170 -12.6449 moveto /TeXGyrePagella-Regular 3.90625000 output-scale div selectfont
0.5463 0.0000 0.0000 /comma
0.6487 0.0000 0.0000 /l
1.3316 0.0000 0.0000 /u
1.2292 0.0000 0.0000 /o
0.9560 0.0000 0.0000 /s
5 print_glyphs
27.5455 -6.6767 moveto magfontemmentaler-18mDWo /noteheads.s1 glyphshow 
27.5455 -6.6767 moveto magfontemmentaler-18mDWo /noteheads.s1 glyphshow 
23.0482 -22.1390 moveto magfontemmentaler-18mDWo /flags.d3 glyphshow 
22.9832 -20.1790 moveto 0.0500 3.2570 -0.0250 -1.9600 0.0800 draw_round_box
27.6105 -4.1767 moveto 0.0500 2.1901 -0.0250 -4.9600 0.0800 draw_round_box
stroke grestore
%%Trailer
%%EOF
