%!PS-Adobe-2.0 EPSF-2.0
%%Creator: LilyPond 2.18.2
%%BoundingBox: -9 -112 336 0
%%Orientation: Portrait
%%DocumentSuppliedResources: font Emmentaler-18
%%DocumentSuppliedResources: font TeXGyrePagella-Regular
%%EndComments
%%BeginProlog
/lilypond-datadir where {pop} {userdict /lilypond-datadir (/usr/share/lilypond/2.18.2) put } ifelse
%%BeginFont: Emmentaler-18
lilypond-datadir (/fonts/otf/emmentaler-18.otf) concatstrings (r) file .loadfont
%%EndFont

%%BeginFont: TeXGyrePagella-Regular
(/usr/share/texmf/fonts/opentype/public/tex-gyre/texgyrepagella-regular.otf) (r) file .loadfont
%%EndFont

/magfontemmentaler-18mDWo { /Emmentaler-18 6.3263 output-scale div selectfont } bind def
/lily-output-units 2.83464566929134 def %% millimeter
/staff-line-thickness 0.1 def
/line-width 67.3237795275591 def
/paper-size (a4) def
/staff-height 4.0 def
/output-scale 1.75729901757299 def
/page-height 169.00937007874 def
/page-width 119.50157480315 def
%%BeginResource: procset (music-drawing-routines.ps) 1 0
%!PS-Adobe-2.0
%
% Functions for direct and embedded PostScript

% Careful with double % as comment prefix.
% Any %%X comment is interpreted as DSC comments.

% TODO: use dicts or prefixes to prevent namespace pollution.

/pdfmark where
{pop} {userdict /pdfmark /cleartomark load put} ifelse


% llx lly urx ury URI
/mark_URI
{
    /uri exch def
    /ury exch def
    /urx exch def
    /lly exch def
    /llx exch def
    [
	/Rect [ llx lly urx ury ]
	
	/Border [ 0 0 0 ]

        /Action
	    <<
		/Subtype /URI
		/URI uri
	    >>
        /Subtype /Link
    /ANN
    pdfmark
}
bind def

% llx lly urx ury page
/mark_page_link
{
    /page exch def
    /ury exch def
    /urx exch def
    /lly exch def
    /llx exch def
    [
        /Rect [ llx lly urx ury ]
        /Border [ 0 0 0 ]
        /Page page
        /Subtype /Link
    /ANN
    pdfmark
}
bind def

% from adobe tech note 5002.
/BeginEPSF { %def
    /b4_Inc_state save def % Save state for cleanup
    /dict_count countdictstack def % Count objects on dict stack
    /op_count count 1 sub def % Count objects on operand stack
    userdict begin % Push userdict on dict stack
    /showpage { } def % Redefine showpage, { } = null proc
    0 setgray 0 setlinecap % Prepare graphics state
    1 setlinewidth 0 setlinejoin
    10 setmiterlimit [ ] 0 setdash newpath
    false setoverprint
} bind def

/EndEPSF { %def
  count op_count sub {pop} repeat % Clean up stacks
  countdictstack dict_count sub {end} repeat
  b4_Inc_state restore
} bind def

/stroke_and_fill? {
    {
	gsave
	    false setstrokeadjust
	    stroke
	grestore
	fill
    }
    {
	stroke
    }
    ifelse
} bind def

/vector_add { % x1 y1 x2 y2 vector_add x1+x2 y1+y2
	exch
	4 1 roll
	add
	3 1 roll
	add
	exch
} bind def

/draw_round_box % width height x y blot
{
    0 max setlinewidth
    matrix currentmatrix 5 1 roll
    currentpoint translate newpath translate
    2 copy 0 min exch 0 min exch translate
    abs exch abs exch
    currentlinewidth 0 eq
    { % straight corners
	2 copy 2 mul gt
	{ % horizontal
	    0 1 index 2 div moveto
	    setlinewidth
	    0 rlineto
	    0 setlinecap
	    stroke
	}
	{
	    2 copy exch 2 mul gt
	    { % vertical
		1 index 2 div 0 moveto
		exch setlinewidth
		0 exch rlineto
		0 setlinecap
		stroke
	    }
	    {
		0 0 4 2 roll rectfill
	    }
	    ifelse
	}
	ifelse
    }
    { % rounded corners
	2 copy 0 eq exch 0 eq or
	{ % line shape
	    0 0 moveto
	    rlineto
	    1 setlinecap
	    stroke
	    0 setlinecap
	}
	{ % full shape
	    currentstrokeadjust {
		currentlinewidth 2 div
		0 0 2 index 180 270 arc
		2 index 0 2 index 270 360 arc
		3 copy 0 90 arc
		0 2 index 3 -1 roll 90 180 arc
		closepath
		2 copy 2 mul gt
		{ % horizontal
		    2 copy add currentlinewidth add 10 add % large enough
		    0 1 index neg moveto
		    2 index 1 index neg lineto
		    2 index 1 index lineto
		    0 exch lineto closepath
		    gsave clip newpath
		    0 1 index 2 div moveto
		    currentlinewidth add setlinewidth
		    0 rlineto
		    2 setlinecap
		    stroke
		    grestore
		}
		{
		    2 copy exch 2 mul gt
		    { % vertical
			2 copy add currentlinewidth add 10 add % large enough
			dup neg 0 moveto
			dup 0 lineto
			dup 2 index lineto
			neg 1 index lineto closepath
			gsave clip newpath
			1 index 2 div 0 moveto
			exch currentlinewidth add setlinewidth
			0 exch rlineto
			2 setlinecap
			stroke
			grestore
		    }
		    {
			pop pop
			fill
		    }
		    ifelse
		}
		ifelse
		newpath
	    }
	    {
		1 setlinejoin
		0 0 4 2 roll 4 copy rectstroke rectfill
	    }
	    ifelse
	}
	ifelse
    }
    ifelse
    setmatrix
} bind def

/draw_polygon % fill? x(n) y(n) x(n-1) y(n-1) ... x(0) y(0) n blot
{
	setlinewidth %set to blot

	0 setlinecap
	1 setlinejoin

	3 1 roll
	/polygon_x
	currentpoint
	/polygon_y exch def
	def
	rmoveto % x(0) y(0)
	{ polygon_x polygon_y vector_add lineto } repeat % n times
	closepath
	stroke_and_fill?
} bind def

/draw_circle % filled? radius thickness draw_circle
{
	setlinewidth	% f? r
	currentpoint	% f? r x0 y0
	3 2 roll	% f? x0 y0 r
	dup 0 rmoveto
	0 360 arc closepath
	stroke_and_fill?
} bind def

/draw_ellipse % filled? x-radius y-radius thickness draw_ellipse
{
  setlinewidth % f? x-r y-r
  /savematrix matrix currentmatrix def
  scale % f?
  currentpoint
  1 0 rmoveto
  1 0 360  arc closepath
  savematrix setmatrix
  stroke_and_fill?
} bind def

/draw_partial_ellipse % filled connect x-radius y-radius startangle endangle thickness draw_partial_ellipse
% Note that filled is not boolean to permit for different graylevels (ie for trill keys)
{
  gsave
  currentpoint translate
  /thickness exch def
  /endangle exch def
  /startangle exch def
  /y_radius exch def
  /x_radius exch def
  /endrad x_radius y_radius mul
    x_radius x_radius mul
    endangle cos endangle cos mul mul
    y_radius y_radius mul
    endangle sin endangle sin mul mul add sqrt div def
  /endangle endangle sin endrad mul y_radius div
    endangle cos endrad mul x_radius div atan def
  /startrad x_radius y_radius mul
    x_radius x_radius mul
      startangle cos startangle cos mul mul
    y_radius y_radius mul
      startangle sin startangle sin mul mul add sqrt div def
  /startangle startangle sin startrad mul y_radius div
    startangle cos startrad mul x_radius div atan def
  /connect exch def
  /filled exch def
  /savematrix matrix currentmatrix def
  thickness setlinewidth
  x_radius y_radius scale
  startangle cos startangle sin moveto
  0 0 1 startangle
    startangle endangle eq { endangle 360 add } { endangle } ifelse
    arc
  connect {
    startangle cos startangle sin moveto endangle cos endangle sin lineto }
    if
  savematrix setmatrix filled stroke_and_fill?
  grestore
} bind def

/draw_line % dx dy x1 y1 thickness draw_line
{
	setlinewidth % dx dy x1 y1
	1 setlinecap
	rmoveto % dx dy
	rlineto
	stroke
} bind def

/draw_dashed_line % dx dy thickness dashpattern offset draw_dashed_line
{
	1 setlinecap
	setdash % dx dy thickness
	setlinewidth %dx dy
	rlineto
	stroke
	[] 0 setdash % reset dash pattern
} bind def

/print_glyphs % w dx dy glyph print_glyphs
{
	{
		currentpoint %w dx dy glyph x0 y0
		5 2 roll %w x0 y0 dx dy glyph
		3 1 roll %w x0 y0 glyph dx dy
		rmoveto %w x0 y0 glyph
		glyphshow %w x0 y0
		moveto %w
		0 rmoveto
	}repeat
}bind def
%end music-drawing-routines.ps

%%EndResource
%%BeginResource: procset (lilyponddefs.ps) 1 0
%!PS-Adobe-2.0: lilyponddefs.ps
%
% Functions for direct PostScript output

% /setgray { 1 add } bind def

/set-ps-scale-to-lily-scale {
	lily-output-units output-scale mul dup scale
} bind def


/init-paper {
	gsave
	clippath pathbbox newpath
	/paper-height exch def
	/paper-width exch def pop pop pop
	% FIXME
	/top-margin 2 def
	paper-width line-width sub 2 div /left-margin exch def
	grestore
} bind def

/init-lilypond-parameters {
	staff-line-thickness setlinewidth
	staff-height init-paper
} bind def


% end lilyponddefs.ps

%%EndResource
%%EndProlog
%%BeginSetup
init-lilypond-parameters
%%EndSetup

/mark_page_link { pop pop pop pop pop } bind def
gsave set-ps-scale-to-lily-scale
0.0000 -6.0000 moveto 67.2238 0.0000 0.0500 0.0000 0.1000 draw_line
0.0000 -5.0000 moveto 67.2238 0.0000 0.0500 0.0000 0.1000 draw_line
0.0000 -4.0000 moveto 67.2238 0.0000 0.0500 0.0000 0.1000 draw_line
0.0000 -3.0000 moveto 67.2238 0.0000 0.0500 0.0000 0.1000 draw_line
0.0000 -2.0000 moveto 67.2238 0.0000 0.0500 0.0000 0.1000 draw_line
26.6089 -4.0000 moveto 0.1900 4.0000 0.0000 -2.0000 0.0000 draw_round_box
55.8140 -18.3601 moveto 0.1900 4.0000 0.0000 -2.0000 0.0000 draw_round_box
38.3123 -18.3601 moveto 0.1900 4.0000 0.0000 -2.0000 0.0000 draw_round_box
26.6089 -18.3601 moveto 0.1900 4.0000 0.0000 -2.0000 0.0000 draw_round_box
55.8140 -4.0000 moveto 0.1900 4.0000 0.0000 -2.0000 0.0000 draw_round_box
38.3123 -4.0000 moveto 0.1900 4.0000 0.0000 -2.0000 0.0000 draw_round_box
67.1338 -4.0000 moveto 0.1900 4.0000 0.0000 -2.0000 0.0000 draw_round_box
67.1338 -18.3601 moveto 0.1900 4.0000 0.0000 -2.0000 0.0000 draw_round_box
0.0000 -20.3601 moveto 67.2238 0.0000 0.0500 0.0000 0.1000 draw_line
0.0000 -19.3601 moveto 67.2238 0.0000 0.0500 0.0000 0.1000 draw_line
0.0000 -18.3601 moveto 67.2238 0.0000 0.0500 0.0000 0.1000 draw_line
0.0000 -17.3601 moveto 67.2238 0.0000 0.0500 0.0000 0.1000 draw_line
0.0000 -16.3601 moveto 67.2238 0.0000 0.0500 0.0000 0.1000 draw_line
0.0000 -15.3601 moveto 1.5761 0.0000 52.6873 0.0000 0.2000 draw_round_box
0.0000 -15.3601 moveto 1.6821 0.0000 56.8582 0.0000 0.2000 draw_round_box
0.0000 -15.3601 moveto 1.5434 0.0000 62.9467 0.0000 0.2000 draw_round_box
45.4413 -18.3601 moveto 0.0500 2.7570 -0.0250 -3.9600 0.0800 draw_round_box
46.4954 -18.3601 moveto 0.0500 2.4237 -0.0250 2.2030 0.0800 draw_round_box
45.4413 -4.0000 moveto 0.0500 2.5903 -0.0250 -4.2933 0.0800 draw_round_box
52.8833 -5.0000 moveto magfontemmentaler-18mDWo /noteheads.s2 glyphshow 
46.4954 -4.0000 moveto 0.0500 2.7570 -0.0250 1.2030 0.0800 draw_round_box
45.3763 -19.3601 moveto magfontemmentaler-18mDWo /noteheads.s2 glyphshow 
45.3763 -16.3601 moveto magfontemmentaler-18mDWo /noteheads.s2 glyphshow 
43.1003 -11.0584 moveto /TeXGyrePagella-Regular 3.90625000 output-scale div selectfont
0.9560 0.0000 0.0000 /s
0.4780 0.0000 0.0000 /quotesingle
1.3657 0.0000 0.0000 /d
1.2292 0.0000 0.0000 /o
1.7072 0.0000 0.0000 /G
5 print_glyphs
45.3763 -5.5000 moveto magfontemmentaler-18mDWo /noteheads.s2 glyphshow 
45.3763 -3.0000 moveto magfontemmentaler-18mDWo /noteheads.s2 glyphshow 
52.8833 -6.0000 moveto magfontemmentaler-18mDWo /noteheads.s2 glyphshow 
50.0444 -18.3601 moveto 0.0500 2.9237 -0.0250 -3.6267 0.0800 draw_round_box
51.0985 -18.3601 moveto 0.0500 2.5903 -0.0250 1.7030 0.0800 draw_round_box
50.0444 -4.0000 moveto 0.0500 2.4237 -0.0250 -4.6267 0.0800 draw_round_box
51.0985 -4.0000 moveto 0.0500 2.9237 -0.0250 0.7030 0.0800 draw_round_box
49.9794 -18.8601 moveto magfontemmentaler-18mDWo /noteheads.s2 glyphshow 
49.9794 -16.8601 moveto magfontemmentaler-18mDWo /noteheads.s2 glyphshow 
49.3081 -11.0584 moveto /TeXGyrePagella-Regular 3.90625000 output-scale div selectfont
1.2292 0.0000 0.0000 /o
1.2974 0.0000 0.0000 /h
2 print_glyphs
49.9794 -6.0000 moveto magfontemmentaler-18mDWo /noteheads.s2 glyphshow 
49.9794 -3.5000 moveto magfontemmentaler-18mDWo /noteheads.s2 glyphshow 
40.7314 -4.0000 moveto 0.0500 2.7570 -0.0250 1.2030 0.0800 draw_round_box
39.6123 -19.3601 moveto magfontemmentaler-18mDWo /noteheads.s2 glyphshow 
39.6123 -15.8601 moveto magfontemmentaler-18mDWo /noteheads.s2 glyphshow 
37.7801 -11.0584 moveto /TeXGyrePagella-Regular 3.90625000 output-scale div selectfont
0.9560 0.0000 0.0000 /s
0.9560 0.0000 0.0000 /s
1.0584 0.0000 0.0000 /e
0.6487 0.0000 0.0000 /l
1.2292 0.0000 0.0000 /b
5 print_glyphs
39.6123 -5.5000 moveto magfontemmentaler-18mDWo /noteheads.s2 glyphshow 
39.6123 -3.0000 moveto magfontemmentaler-18mDWo /noteheads.s2 glyphshow 
34.8806 -18.3601 moveto 0.0500 3.0903 -0.0250 -3.2933 0.0800 draw_round_box
35.9347 -18.3601 moveto 0.0500 2.4237 -0.0250 2.2030 0.0800 draw_round_box
34.8806 -4.0000 moveto 0.0500 2.5903 -0.0250 -4.2933 0.0800 draw_round_box
39.6773 -18.3601 moveto 0.0500 2.7570 -0.0250 -3.9600 0.0800 draw_round_box
40.7314 -18.3601 moveto 0.0500 2.2570 -0.0250 2.7030 0.0800 draw_round_box
39.6773 -4.0000 moveto 0.0500 2.5903 -0.0250 -4.2933 0.0800 draw_round_box
63.0867 -4.0000 moveto 0.0500 2.3568 -0.0250 -4.6267 0.0800 draw_round_box
61.6817 -15.3601 moveto magfontemmentaler-18mDWo /accidentals.sharp glyphshow 
63.0867 -18.3601 moveto 0.0500 3.1901 -0.0250 -1.4600 0.0800 draw_round_box
64.2114 -18.3601 moveto 0.0500 2.1901 -0.0250 3.2699 0.0800 draw_round_box
63.0217 -16.3601 moveto magfontemmentaler-18mDWo /noteheads.s1 glyphshow 
63.0217 -15.3601 moveto magfontemmentaler-18mDWo /noteheads.s1 glyphshow 
63.0217 -6.0000 moveto magfontemmentaler-18mDWo /noteheads.s1 glyphshow 
60.0408 -18.3601 moveto 0.0500 3.2570 -0.0250 -1.9600 0.0800 draw_round_box
59.9758 -16.8601 moveto magfontemmentaler-18mDWo /noteheads.s2 glyphshow 
51.9047 -11.0584 moveto 0.5158 0.0500 0.0400 0.4600 0.0800 draw_round_box
57.0719 -4.0000 moveto gsave currentpoint translate
1 setlinecap 1 setlinejoin 0.08000000 setlinewidth
0.43000000 -2.49862020 moveto  1.51053014 -3.68562222 4.36354441 -3.95891184 5.64976335 -2.99862020 curveto  4.37498681 -3.83945862 1.52197254 -3.56616900 0.43000000 -2.49862020 curveto   closepath  gsave stroke grestore fill grestore
57.0719 -18.3601 moveto gsave currentpoint translate
1 setlinecap 1 setlinejoin 0.08000000 setlinewidth
1.55475556 3.99862020 moveto  2.73973477 5.07427516 5.58953969 5.07427516 6.77451890 3.99862020 curveto  5.58953969 4.95427516 2.73973477 4.95427516 1.55475556 3.99862020 curveto   closepath  gsave stroke grestore fill grestore
57.0719 -18.3601 moveto gsave currentpoint translate
1 setlinecap 1 setlinejoin 0.08000000 setlinewidth
0.43000000 -1.64862020 moveto  1.61497922 -2.72427516 4.46478413 -2.72427516 5.64976335 -1.64862020 curveto  4.46478413 -2.60427516 1.61497922 -2.60427516 0.43000000 -1.64862020 curveto   closepath  gsave stroke grestore fill grestore
57.0719 -17.3601 moveto magfontemmentaler-18mDWo /noteheads.s2 glyphshow 
57.0719 -15.3601 moveto magfontemmentaler-18mDWo /noteheads.s1 glyphshow 
54.9685 -11.0584 moveto /TeXGyrePagella-Regular 3.90625000 output-scale div selectfont
0.5463 0.0000 0.0000 /period
1.0584 0.0000 0.0000 /e
1.9462 0.0000 0.0000 /m
1.1267 0.0000 0.0000 /a
1.2974 0.0000 0.0000 /n
5 print_glyphs
57.0719 -5.5000 moveto magfontemmentaler-18mDWo /noteheads.s1 glyphshow 
57.0719 -4.5000 moveto magfontemmentaler-18mDWo /noteheads.s0 glyphshow 
52.9483 -18.3601 moveto 0.0500 2.9237 -0.0250 -3.6267 0.0800 draw_round_box
54.0024 -18.3601 moveto 0.0500 2.2570 -0.0250 3.2030 0.0800 draw_round_box
52.9483 -4.0000 moveto 0.0500 2.4237 -0.0250 -4.6267 0.0800 draw_round_box
54.0024 -4.0000 moveto 0.0500 3.2570 -0.0250 -0.7970 0.0800 draw_round_box
52.8833 -18.8601 moveto magfontemmentaler-18mDWo /noteheads.s2 glyphshow 
52.8833 -15.3601 moveto magfontemmentaler-18mDWo /noteheads.s2 glyphshow 
58.2616 -18.3601 moveto 0.0500 2.1901 -0.0250 3.2699 0.0800 draw_round_box
57.1369 -18.3601 moveto 0.0500 3.2570 -0.0250 -2.4600 0.0800 draw_round_box
52.5706 -11.0584 moveto /TeXGyrePagella-Regular 3.90625000 output-scale div selectfont
1.2292 0.0000 0.0000 /y
0.5804 0.0000 0.0000 /l
2 print_glyphs
57.1369 -4.0000 moveto 0.0500 2.5234 -0.0250 -4.2933 0.0800 draw_round_box
14.4662 -8.4600 moveto magfontemmentaler-18mDWo /flags.d3 glyphshow 
14.4662 -21.6951 moveto magfontemmentaler-18mDWo /flags.d3 glyphshow 
14.4012 -18.3601 moveto 0.0500 3.1320 -0.0250 -3.3350 0.0800 draw_round_box
15.5203 -13.4001 moveto magfontemmentaler-18mDWo /flags.u3 glyphshow 
15.4553 -18.3601 moveto 0.0500 2.7570 -0.0250 2.2030 0.0800 draw_round_box
14.4012 -4.0000 moveto 0.0500 2.7570 -0.0250 -4.4600 0.0800 draw_round_box
15.5203 -2.0400 moveto magfontemmentaler-18mDWo /flags.u3 glyphshow 
15.4553 -4.0000 moveto 0.0500 3.2570 -0.0250 -1.2970 0.0800 draw_round_box
14.3362 -18.3601 moveto magfontemmentaler-18mDWo /noteheads.s2 glyphshow 
14.3362 -16.3601 moveto magfontemmentaler-18mDWo /noteheads.s2 glyphshow 
13.3747 -11.0584 moveto /TeXGyrePagella-Regular 3.90625000 output-scale div selectfont
1.0584 0.0000 0.0000 /e
1.2974 0.0000 0.0000 /h
0.7512 0.0000 0.0000 /t
3 print_glyphs
14.3362 -5.5000 moveto magfontemmentaler-18mDWo /noteheads.s2 glyphshow 
14.3362 -5.5000 moveto magfontemmentaler-18mDWo /noteheads.s2 glyphshow 
19.0953 -18.3601 moveto 0.0500 3.2570 -0.0250 -1.9600 0.0800 draw_round_box
20.6157 -16.8601 moveto magfontemmentaler-18mDWo /dots.dot glyphshow 
20.1493 -18.3601 moveto 0.0500 2.2570 -0.0250 2.7030 0.0800 draw_round_box
20.6157 -15.8601 moveto magfontemmentaler-18mDWo /dots.dot glyphshow 
19.0953 -4.0000 moveto 0.0500 2.2570 -0.0250 -4.9600 0.0800 draw_round_box
20.6157 -6.5000 moveto magfontemmentaler-18mDWo /dots.dot glyphshow 
20.1493 -4.0000 moveto 0.0500 3.2570 -0.0250 -0.7970 0.0800 draw_round_box
20.6157 -4.5000 moveto magfontemmentaler-18mDWo /dots.dot glyphshow 
19.0303 -16.8601 moveto magfontemmentaler-18mDWo /noteheads.s2 glyphshow 
19.0303 -15.8601 moveto magfontemmentaler-18mDWo /noteheads.s2 glyphshow 
16.9420 -11.0584 moveto /TeXGyrePagella-Regular 3.90625000 output-scale div selectfont
0.5463 0.0000 0.0000 /comma
1.3657 0.0000 0.0000 /d
0.8536 0.0000 0.0000 /r
1.2292 0.0000 0.0000 /o
1.3657 0.0000 0.0000 /L
5 print_glyphs
19.0303 -6.5000 moveto magfontemmentaler-18mDWo /noteheads.s2 glyphshow 
19.0303 -5.0000 moveto magfontemmentaler-18mDWo /noteheads.s2 glyphshow 
0.8000 -5.0000 moveto magfontemmentaler-18mDWo /clefs.G glyphshow 
10.9285 -4.0000 moveto 0.0500 3.2570 -0.0250 -0.2970 0.0800 draw_round_box
11.3949 -4.5000 moveto magfontemmentaler-18mDWo /dots.dot glyphshow 
6.2867 -18.3601 moveto magfontemmentaler-18mDWo /timesig.C44 glyphshow 
4.4167 -19.3601 moveto magfontemmentaler-18mDWo /accidentals.flat glyphshow 
0.8000 -17.3601 moveto magfontemmentaler-18mDWo /clefs.F glyphshow 
9.8095 -18.3601 moveto magfontemmentaler-18mDWo /noteheads.s2 glyphshow 
9.8095 -16.3601 moveto magfontemmentaler-18mDWo /noteheads.s2 glyphshow 
7.9090 -11.0584 moveto /TeXGyrePagella-Regular 3.90625000 output-scale div selectfont
0.9560 0.0000 0.0000 /s
0.9560 0.0000 0.0000 /s
1.0584 0.0000 0.0000 /e
0.6487 0.0000 0.0000 /l
1.3657 0.0000 0.0000 /B
5 print_glyphs
6.2867 -4.0000 moveto magfontemmentaler-18mDWo /timesig.C44 glyphshow 
4.4167 -4.0000 moveto magfontemmentaler-18mDWo /accidentals.flat glyphshow 
11.3949 -5.5000 moveto magfontemmentaler-18mDWo /dots.dot glyphshow 
9.8095 -5.5000 moveto magfontemmentaler-18mDWo /noteheads.s2 glyphshow 
9.8095 -4.5000 moveto magfontemmentaler-18mDWo /noteheads.s2 glyphshow 
-0.0600 -11.1801 moveto 0.0600 18.3601 0.0500 -9.1801 0.1000 draw_round_box
-1.3100 -1.7475 moveto magfontemmentaler-18mDWo /brackettips.up glyphshow 
-1.3100 -20.6126 moveto magfontemmentaler-18mDWo /brackettips.down glyphshow 
-1.3100 -11.1801 moveto 0.4500 18.5501 0.0000 -9.2751 0.0000 draw_round_box
11.3949 -18.8601 moveto magfontemmentaler-18mDWo /dots.dot glyphshow 
9.8745 -18.3601 moveto 0.0500 3.0903 -0.0250 -3.2933 0.0800 draw_round_box
10.9285 -18.3601 moveto 0.0500 2.4237 -0.0250 2.2030 0.0800 draw_round_box
11.3949 -15.8601 moveto magfontemmentaler-18mDWo /dots.dot glyphshow 
9.8745 -4.0000 moveto 0.0500 2.5903 -0.0250 -4.2933 0.0800 draw_round_box
32.2408 -6.0000 moveto magfontemmentaler-18mDWo /rests.2 glyphshow 
32.2408 -2.0000 moveto magfontemmentaler-18mDWo /rests.2 glyphshow 
32.2408 -16.3601 moveto magfontemmentaler-18mDWo /rests.2 glyphshow 
28.1158 -18.3601 moveto 0.0500 3.0234 -0.0250 -3.2933 0.0800 draw_round_box
29.2405 -18.3601 moveto 0.0500 2.3568 -0.0250 2.2699 0.0800 draw_round_box
35.9347 -4.0000 moveto 0.0500 3.2570 -0.0250 -0.2970 0.0800 draw_round_box
34.8156 -18.3601 moveto magfontemmentaler-18mDWo /noteheads.s2 glyphshow 
34.8156 -16.3601 moveto magfontemmentaler-18mDWo /noteheads.s2 glyphshow 
33.5127 -11.0584 moveto /TeXGyrePagella-Regular 3.90625000 output-scale div selectfont
1.3657 0.0000 0.0000 /d
1.2974 0.0000 0.0000 /n
1.1267 0.0000 0.0000 /a
3 print_glyphs
34.8156 -5.5000 moveto magfontemmentaler-18mDWo /noteheads.s2 glyphshow 
34.8156 -4.5000 moveto magfontemmentaler-18mDWo /noteheads.s2 glyphshow 
32.2408 -20.3601 moveto magfontemmentaler-18mDWo /rests.2 glyphshow 
24.9118 -3.0400 moveto magfontemmentaler-18mDWo /flags.u3 glyphshow 
24.9118 -13.9001 moveto magfontemmentaler-18mDWo /flags.u3 glyphshow 
24.8468 -18.3601 moveto 0.0500 2.7570 -0.0250 1.7030 0.0800 draw_round_box
23.8578 -9.4600 moveto magfontemmentaler-18mDWo /flags.d3 glyphshow 
23.7928 -4.0000 moveto 0.0500 2.7570 -0.0250 -5.4600 0.0800 draw_round_box
24.8468 -4.0000 moveto 0.0500 3.2570 -0.0250 -2.2970 0.0800 draw_round_box
23.7278 -16.8601 moveto magfontemmentaler-18mDWo /noteheads.s2 glyphshow 
23.7278 -16.8601 moveto magfontemmentaler-18mDWo /noteheads.s2 glyphshow 
22.7833 -11.0584 moveto /TeXGyrePagella-Regular 3.90625000 output-scale div selectfont
1.2292 0.0000 0.0000 /y
1.8437 0.0000 0.0000 /m
2 print_glyphs
23.7278 -6.5000 moveto magfontemmentaler-18mDWo /noteheads.s2 glyphshow 
23.7278 -6.5000 moveto magfontemmentaler-18mDWo /noteheads.s2 glyphshow 
18.0503 -15.8601 moveto magfontemmentaler-18mDWo /accidentals.natural glyphshow 
23.7928 -18.3601 moveto 0.0500 3.2570 -0.0250 -1.9600 0.0800 draw_round_box
29.2405 -4.0000 moveto 0.0500 3.1901 -0.0250 -2.2301 0.0800 draw_round_box
28.0508 -18.3601 moveto magfontemmentaler-18mDWo /noteheads.s1 glyphshow 
28.0508 -16.3601 moveto magfontemmentaler-18mDWo /noteheads.s1 glyphshow 
26.3223 -11.0584 moveto /TeXGyrePagella-Regular 3.90625000 output-scale div selectfont
0.5463 0.0000 0.0000 /comma
0.6487 0.0000 0.0000 /l
1.3316 0.0000 0.0000 /u
1.2292 0.0000 0.0000 /o
0.9560 0.0000 0.0000 /s
5 print_glyphs
28.0508 -6.5000 moveto magfontemmentaler-18mDWo /noteheads.s1 glyphshow 
28.0508 -6.5000 moveto magfontemmentaler-18mDWo /noteheads.s1 glyphshow 
28.1158 -4.0000 moveto 0.0500 2.1901 -0.0250 -4.9600 0.0800 draw_round_box
23.8578 -20.3201 moveto magfontemmentaler-18mDWo /flags.d3 glyphshow 
stroke grestore
%%Trailer
%%EOF
