%!PS-Adobe-2.0 EPSF-2.0
%%Creator: LilyPond 2.18.2
%%BoundingBox: -9 -138 364 0
%%Orientation: Portrait
%%DocumentSuppliedResources: font Emmentaler-11
%%DocumentSuppliedResources: font Emmentaler-18
%%DocumentSuppliedResources: font TeXGyrePagella-Italic
%%DocumentSuppliedResources: font TeXGyrePagella-Regular
%%EndComments
%%BeginProlog
/lilypond-datadir where {pop} {userdict /lilypond-datadir (/usr/share/lilypond/2.18.2) put } ifelse
%%BeginFont: Emmentaler-11
lilypond-datadir (/fonts/otf/emmentaler-11.otf) concatstrings (r) file .loadfont
%%EndFont

%%BeginFont: Emmentaler-18
lilypond-datadir (/fonts/otf/emmentaler-18.otf) concatstrings (r) file .loadfont
%%EndFont

%%BeginFont: TeXGyrePagella-Italic
(/usr/share/texmf/fonts/opentype/public/tex-gyre/texgyrepagella-italic.otf) (r) file .loadfont
%%EndFont

%%BeginFont: TeXGyrePagella-Regular
(/usr/share/texmf/fonts/opentype/public/tex-gyre/texgyrepagella-regular.otf) (r) file .loadfont
%%EndFont

/magfontemmentaler-11mORo { /Emmentaler-11 3.1631 output-scale div selectfont } bind def
/magfontemmentaler-18mDWo { /Emmentaler-18 6.3263 output-scale div selectfont } bind def
/lily-output-units 2.83464566929134 def %% millimeter
/staff-line-thickness 0.1 def
/line-width 67.3237795275591 def
/paper-size (a4) def
/staff-height 4.0 def
/output-scale 1.75729901757299 def
/page-height 169.00937007874 def
/page-width 119.50157480315 def
%%BeginResource: procset (music-drawing-routines.ps) 1 0
%!PS-Adobe-2.0
%
% Functions for direct and embedded PostScript

% Careful with double % as comment prefix.
% Any %%X comment is interpreted as DSC comments.

% TODO: use dicts or prefixes to prevent namespace pollution.

/pdfmark where
{pop} {userdict /pdfmark /cleartomark load put} ifelse


% llx lly urx ury URI
/mark_URI
{
    /uri exch def
    /ury exch def
    /urx exch def
    /lly exch def
    /llx exch def
    [
	/Rect [ llx lly urx ury ]
	
	/Border [ 0 0 0 ]

        /Action
	    <<
		/Subtype /URI
		/URI uri
	    >>
        /Subtype /Link
    /ANN
    pdfmark
}
bind def

% llx lly urx ury page
/mark_page_link
{
    /page exch def
    /ury exch def
    /urx exch def
    /lly exch def
    /llx exch def
    [
        /Rect [ llx lly urx ury ]
        /Border [ 0 0 0 ]
        /Page page
        /Subtype /Link
    /ANN
    pdfmark
}
bind def

% from adobe tech note 5002.
/BeginEPSF { %def
    /b4_Inc_state save def % Save state for cleanup
    /dict_count countdictstack def % Count objects on dict stack
    /op_count count 1 sub def % Count objects on operand stack
    userdict begin % Push userdict on dict stack
    /showpage { } def % Redefine showpage, { } = null proc
    0 setgray 0 setlinecap % Prepare graphics state
    1 setlinewidth 0 setlinejoin
    10 setmiterlimit [ ] 0 setdash newpath
    false setoverprint
} bind def

/EndEPSF { %def
  count op_count sub {pop} repeat % Clean up stacks
  countdictstack dict_count sub {end} repeat
  b4_Inc_state restore
} bind def

/stroke_and_fill? {
    {
	gsave
	    false setstrokeadjust
	    stroke
	grestore
	fill
    }
    {
	stroke
    }
    ifelse
} bind def

/vector_add { % x1 y1 x2 y2 vector_add x1+x2 y1+y2
	exch
	4 1 roll
	add
	3 1 roll
	add
	exch
} bind def

/draw_round_box % width height x y blot
{
    0 max setlinewidth
    matrix currentmatrix 5 1 roll
    currentpoint translate newpath translate
    2 copy 0 min exch 0 min exch translate
    abs exch abs exch
    currentlinewidth 0 eq
    { % straight corners
	2 copy 2 mul gt
	{ % horizontal
	    0 1 index 2 div moveto
	    setlinewidth
	    0 rlineto
	    0 setlinecap
	    stroke
	}
	{
	    2 copy exch 2 mul gt
	    { % vertical
		1 index 2 div 0 moveto
		exch setlinewidth
		0 exch rlineto
		0 setlinecap
		stroke
	    }
	    {
		0 0 4 2 roll rectfill
	    }
	    ifelse
	}
	ifelse
    }
    { % rounded corners
	2 copy 0 eq exch 0 eq or
	{ % line shape
	    0 0 moveto
	    rlineto
	    1 setlinecap
	    stroke
	    0 setlinecap
	}
	{ % full shape
	    currentstrokeadjust {
		currentlinewidth 2 div
		0 0 2 index 180 270 arc
		2 index 0 2 index 270 360 arc
		3 copy 0 90 arc
		0 2 index 3 -1 roll 90 180 arc
		closepath
		2 copy 2 mul gt
		{ % horizontal
		    2 copy add currentlinewidth add 10 add % large enough
		    0 1 index neg moveto
		    2 index 1 index neg lineto
		    2 index 1 index lineto
		    0 exch lineto closepath
		    gsave clip newpath
		    0 1 index 2 div moveto
		    currentlinewidth add setlinewidth
		    0 rlineto
		    2 setlinecap
		    stroke
		    grestore
		}
		{
		    2 copy exch 2 mul gt
		    { % vertical
			2 copy add currentlinewidth add 10 add % large enough
			dup neg 0 moveto
			dup 0 lineto
			dup 2 index lineto
			neg 1 index lineto closepath
			gsave clip newpath
			1 index 2 div 0 moveto
			exch currentlinewidth add setlinewidth
			0 exch rlineto
			2 setlinecap
			stroke
			grestore
		    }
		    {
			pop pop
			fill
		    }
		    ifelse
		}
		ifelse
		newpath
	    }
	    {
		1 setlinejoin
		0 0 4 2 roll 4 copy rectstroke rectfill
	    }
	    ifelse
	}
	ifelse
    }
    ifelse
    setmatrix
} bind def

/draw_polygon % fill? x(n) y(n) x(n-1) y(n-1) ... x(0) y(0) n blot
{
	setlinewidth %set to blot

	0 setlinecap
	1 setlinejoin

	3 1 roll
	/polygon_x
	currentpoint
	/polygon_y exch def
	def
	rmoveto % x(0) y(0)
	{ polygon_x polygon_y vector_add lineto } repeat % n times
	closepath
	stroke_and_fill?
} bind def

/draw_circle % filled? radius thickness draw_circle
{
	setlinewidth	% f? r
	currentpoint	% f? r x0 y0
	3 2 roll	% f? x0 y0 r
	dup 0 rmoveto
	0 360 arc closepath
	stroke_and_fill?
} bind def

/draw_ellipse % filled? x-radius y-radius thickness draw_ellipse
{
  setlinewidth % f? x-r y-r
  /savematrix matrix currentmatrix def
  scale % f?
  currentpoint
  1 0 rmoveto
  1 0 360  arc closepath
  savematrix setmatrix
  stroke_and_fill?
} bind def

/draw_partial_ellipse % filled connect x-radius y-radius startangle endangle thickness draw_partial_ellipse
% Note that filled is not boolean to permit for different graylevels (ie for trill keys)
{
  gsave
  currentpoint translate
  /thickness exch def
  /endangle exch def
  /startangle exch def
  /y_radius exch def
  /x_radius exch def
  /endrad x_radius y_radius mul
    x_radius x_radius mul
    endangle cos endangle cos mul mul
    y_radius y_radius mul
    endangle sin endangle sin mul mul add sqrt div def
  /endangle endangle sin endrad mul y_radius div
    endangle cos endrad mul x_radius div atan def
  /startrad x_radius y_radius mul
    x_radius x_radius mul
      startangle cos startangle cos mul mul
    y_radius y_radius mul
      startangle sin startangle sin mul mul add sqrt div def
  /startangle startangle sin startrad mul y_radius div
    startangle cos startrad mul x_radius div atan def
  /connect exch def
  /filled exch def
  /savematrix matrix currentmatrix def
  thickness setlinewidth
  x_radius y_radius scale
  startangle cos startangle sin moveto
  0 0 1 startangle
    startangle endangle eq { endangle 360 add } { endangle } ifelse
    arc
  connect {
    startangle cos startangle sin moveto endangle cos endangle sin lineto }
    if
  savematrix setmatrix filled stroke_and_fill?
  grestore
} bind def

/draw_line % dx dy x1 y1 thickness draw_line
{
	setlinewidth % dx dy x1 y1
	1 setlinecap
	rmoveto % dx dy
	rlineto
	stroke
} bind def

/draw_dashed_line % dx dy thickness dashpattern offset draw_dashed_line
{
	1 setlinecap
	setdash % dx dy thickness
	setlinewidth %dx dy
	rlineto
	stroke
	[] 0 setdash % reset dash pattern
} bind def

/print_glyphs % w dx dy glyph print_glyphs
{
	{
		currentpoint %w dx dy glyph x0 y0
		5 2 roll %w x0 y0 dx dy glyph
		3 1 roll %w x0 y0 glyph dx dy
		rmoveto %w x0 y0 glyph
		glyphshow %w x0 y0
		moveto %w
		0 rmoveto
	}repeat
}bind def
%end music-drawing-routines.ps

%%EndResource
%%BeginResource: procset (lilyponddefs.ps) 1 0
%!PS-Adobe-2.0: lilyponddefs.ps
%
% Functions for direct PostScript output

% /setgray { 1 add } bind def

/set-ps-scale-to-lily-scale {
	lily-output-units output-scale mul dup scale
} bind def


/init-paper {
	gsave
	clippath pathbbox newpath
	/paper-height exch def
	/paper-width exch def pop pop pop
	% FIXME
	/top-margin 2 def
	paper-width line-width sub 2 div /left-margin exch def
	grestore
} bind def

/init-lilypond-parameters {
	staff-line-thickness setlinewidth
	staff-height init-paper
} bind def


% end lilyponddefs.ps

%%EndResource
%%EndProlog
%%BeginSetup
init-lilypond-parameters
%%EndSetup

/mark_page_link { pop pop pop pop pop } bind def
gsave set-ps-scale-to-lily-scale
0.0000 -7.4632 moveto 67.2238 0.0000 0.0500 0.0000 0.1000 draw_line
0.0000 -6.4632 moveto 67.2238 0.0000 0.0500 0.0000 0.1000 draw_line
0.0000 -5.4632 moveto 67.2238 0.0000 0.0500 0.0000 0.1000 draw_line
0.0000 -4.4632 moveto 67.2238 0.0000 0.0500 0.0000 0.1000 draw_line
0.0000 -3.4632 moveto 67.2238 0.0000 0.0500 0.0000 0.1000 draw_line
67.1338 -22.8679 moveto 0.1900 4.0000 0.0000 -2.0000 0.0000 draw_round_box
66.6438 -22.8679 moveto 0.1900 4.0000 0.0000 -2.0000 0.0000 draw_round_box
47.8410 -5.4632 moveto 0.1900 4.0000 0.0000 -2.0000 0.0000 draw_round_box
67.1338 -5.4632 moveto 0.1900 4.0000 0.0000 -2.0000 0.0000 draw_round_box
66.6438 -5.4632 moveto 0.1900 4.0000 0.0000 -2.0000 0.0000 draw_round_box
26.1108 -22.8679 moveto 0.1900 4.0000 0.0000 -2.0000 0.0000 draw_round_box
26.1108 -5.4632 moveto 0.1900 4.0000 0.0000 -2.0000 0.0000 draw_round_box
0.0000 -24.8679 moveto 67.2238 0.0000 0.0500 0.0000 0.1000 draw_line
0.0000 -23.8679 moveto 67.2238 0.0000 0.0500 0.0000 0.1000 draw_line
0.0000 -22.8679 moveto 67.2238 0.0000 0.0500 0.0000 0.1000 draw_line
0.0000 -21.8679 moveto 67.2238 0.0000 0.0500 0.0000 0.1000 draw_line
0.0000 -20.8679 moveto 67.2238 0.0000 0.0500 0.0000 0.1000 draw_line
47.8410 -22.8679 moveto 0.1900 4.0000 0.0000 -2.0000 0.0000 draw_round_box
0.0000 -19.8679 moveto 1.6821 0.0000 59.3456 0.0000 0.2000 draw_round_box
49.2570 -23.8679 moveto magfontemmentaler-18mDWo /noteheads.s2 glyphshow 
49.2570 -21.3679 moveto magfontemmentaler-18mDWo /noteheads.s2 glyphshow 
47.2041 -15.3338 moveto /TeXGyrePagella-Regular 3.90625000 output-scale div selectfont
0.5463 0.0000 0.0000 /space
0.5463 0.0000 0.0000 /space
0.5463 0.0000 0.0000 /comma
1.3316 0.0000 0.0000 /u
1.2292 0.0000 0.0000 /o
1.1609 0.0000 0.0000 /y
6 print_glyphs
48.5869 -12.5338 moveto /TeXGyrePagella-Regular 3.90625000 output-scale div selectfont
1.2292 0.0000 0.0000 /o
1.3657 0.0000 0.0000 /B
2 print_glyphs
49.2570 -7.9632 moveto magfontemmentaler-18mDWo /noteheads.s2 glyphshow 
43.8833 -22.8679 moveto 0.0500 2.2570 -0.0250 2.7030 0.0800 draw_round_box
49.2570 -5.4632 moveto magfontemmentaler-18mDWo /noteheads.s1 glyphshow 
42.8292 -22.8679 moveto 0.0500 3.2570 -0.0250 -2.9600 0.0800 draw_round_box
49.3220 -22.8679 moveto 0.0500 2.7570 -0.0250 -3.9600 0.0800 draw_round_box
50.3761 -22.8679 moveto 0.0500 2.5903 -0.0250 1.7030 0.0800 draw_round_box
50.4468 -5.4632 moveto 0.0500 3.0234 -0.0250 0.2699 0.0800 draw_round_box
49.3220 -5.4632 moveto 0.0500 2.2570 -0.0250 -4.9600 0.0800 draw_round_box
38.7530 -22.8679 moveto 0.0500 2.4237 -0.0250 2.2030 0.0800 draw_round_box
37.6989 -5.4632 moveto 0.0500 2.4237 -0.0250 -4.6267 0.0800 draw_round_box
38.7530 -5.4632 moveto 0.0500 3.2570 -0.0250 -0.2970 0.0800 draw_round_box
37.6339 -23.3679 moveto magfontemmentaler-18mDWo /noteheads.s2 glyphshow 
37.6339 -20.8679 moveto magfontemmentaler-18mDWo /noteheads.s2 glyphshow 
37.0822 -15.3338 moveto /TeXGyrePagella-Regular 3.90625000 output-scale div selectfont
1.0584 0.0000 0.0000 /e
1.2292 0.0000 0.0000 /b
2 print_glyphs
37.0139 -12.5338 moveto /TeXGyrePagella-Regular 3.90625000 output-scale div selectfont
1.0584 0.0000 0.0000 /e
0.6487 0.0000 0.0000 /i
0.7170 0.0000 0.0000 /t
3 print_glyphs
37.6339 -7.4632 moveto magfontemmentaler-18mDWo /noteheads.s2 glyphshow 
37.6339 -5.9632 moveto magfontemmentaler-18mDWo /noteheads.s2 glyphshow 
7.7900 -5.4632 moveto gsave currentpoint translate
1 setlinecap 1 setlinejoin 0.08000000 setlinewidth
1.48407273 3.64862020 moveto  3.03866834 4.94951309 7.71202659 4.89233288 9.23432779 3.55379306 curveto  7.71055845 4.77234187 3.03720020 4.82952207 1.48407273 3.64862020 curveto   closepath  gsave stroke grestore fill grestore
42.7642 -20.3679 moveto magfontemmentaler-18mDWo /noteheads.s2 glyphshow 
42.8292 -5.4632 moveto 0.0500 2.4237 -0.0250 -4.6267 0.0800 draw_round_box
43.8833 -5.4632 moveto 0.0500 3.2570 -0.0250 -0.7970 0.0800 draw_round_box
42.7642 -22.3679 moveto magfontemmentaler-18mDWo /noteheads.s2 glyphshow 
42.4003 -15.3338 moveto /TeXGyrePagella-Regular 3.90625000 output-scale div selectfont
1.2292 0.0000 0.0000 /o
0.6829 0.0000 0.0000 /t
2 print_glyphs
41.8881 -12.5338 moveto /TeXGyrePagella-Regular 3.90625000 output-scale div selectfont
1.0584 0.0000 0.0000 /e
0.6487 0.0000 0.0000 /i
1.2292 0.0000 0.0000 /b
3 print_glyphs
42.7642 -7.4632 moveto magfontemmentaler-18mDWo /noteheads.s2 glyphshow 
42.7642 -6.4632 moveto magfontemmentaler-18mDWo /noteheads.s2 glyphshow 
37.6989 -22.8679 moveto 0.0500 2.9237 -0.0250 -3.6267 0.0800 draw_round_box
60.9038 -1.9690 moveto /TeXGyrePagella-Italic 4.38378906 output-scale div selectfont
0.6146 0.0000 0.0000 /period
1.6730 0.0000 0.0000 /C
0.6146 0.0000 0.0000 /period
1.9462 0.0000 0.0000 /D
4 print_glyphs
66.3521 -1.9690 moveto /TeXGyrePagella-Italic 4.38378906 output-scale div selectfont
0.6829 0.0000 0.0000 /l
1.0926 0.0000 0.0000 /a
2 print_glyphs
68.7276 -1.9690 moveto /TeXGyrePagella-Italic 4.38378906 output-scale div selectfont
0.9560 0.0000 0.0000 /e
1.3999 0.0000 0.0000 /n
0.6829 0.0000 0.0000 /i
1.2974 0.0000 0.0000 /F
4 print_glyphs
59.6243 -22.8679 moveto 0.0500 3.0234 -0.0250 -3.2933 0.0800 draw_round_box
7.7900 -5.4632 moveto gsave currentpoint translate
1 setlinecap 1 setlinejoin 0.08000000 setlinewidth
0.43000000 -2.14862020 moveto  1.25892740 -3.29154490 3.48002823 -3.73529728 4.68448013 -2.99862020 curveto  3.50353834 -3.61762284 1.28243751 -3.17387045 0.43000000 -2.14862020 curveto   closepath  gsave stroke grestore fill grestore
13.9894 -12.5338 moveto 0.5800 0.0500 0.0400 0.4600 0.0800 draw_round_box
7.7900 -22.8679 moveto gsave currentpoint translate
1 setlinecap 1 setlinejoin 0.08000000 setlinewidth
1.48407273 2.99862020 moveto  2.61503154 3.82263982 4.82945351 3.56239393 5.73855286 2.49862020 curveto  4.81544713 3.44321414 2.60102515 3.70346003 1.48407273 2.99862020 curveto   closepath  gsave stroke grestore fill grestore
13.8286 -2.4632 moveto true 3.2159 0.0100 3.2159 -0.3900 0.0400 -0.2000 0.0400 0.2000 3 0.0800 draw_polygon
30.4479 -12.5338 moveto 0.5800 0.0500 0.0400 0.4600 0.0800 draw_round_box
30.6528 -15.3338 moveto 0.5800 0.0500 0.0400 0.4600 0.0800 draw_round_box
40.3331 -12.5338 moveto 0.5800 0.0500 0.0400 0.4600 0.0800 draw_round_box
49.2570 -5.4632 moveto gsave currentpoint translate
1 setlinecap 1 setlinejoin 0.08000000 setlinewidth
0.43000000 -3.49862020 moveto  1.57507776 -4.33542015 3.84314287 -4.07399062 4.76781347 -2.99862020 curveto  3.82940200 -3.95477993 1.56133689 -4.21620946 0.43000000 -3.49862020 curveto   closepath  gsave stroke grestore fill grestore
54.6543 -12.5338 moveto 0.5800 0.0500 0.0400 0.4600 0.0800 draw_round_box
49.2570 -22.8679 moveto gsave currentpoint translate
1 setlinecap 1 setlinejoin 0.08000000 setlinewidth
1.48407273 2.49862020 moveto  2.29479741 3.68564826 4.57330880 4.21091552 5.82188619 3.49862020 curveto  4.60026548 4.09398248 2.32175409 3.56871521 1.48407273 2.49862020 curveto   closepath  gsave stroke grestore fill grestore
49.2570 -22.8679 moveto gsave currentpoint translate
1 setlinecap 1 setlinejoin 0.08000000 setlinewidth
0.43000000 -2.14862020 moveto  1.27501659 -3.30277495 3.54969857 -3.74850174 4.76781347 -2.99862020 curveto  3.57277388 -3.63074126 1.29809191 -3.18501447 0.43000000 -2.14862020 curveto   closepath  gsave stroke grestore fill grestore
54.3248 -20.3679 moveto magfontemmentaler-18mDWo /noteheads.s2 glyphshow 
54.3898 -22.8679 moveto 0.0500 2.4237 -0.0250 -4.6267 0.0800 draw_round_box
55.4439 -22.8679 moveto 0.0500 2.2570 -0.0250 2.7030 0.0800 draw_round_box
54.3898 -5.4632 moveto 0.0500 2.4237 -0.0250 -4.6267 0.0800 draw_round_box
54.3248 -24.8679 moveto magfontemmentaler-18mDWo /noteheads.s2 glyphshow 
54.3248 -7.4632 moveto magfontemmentaler-18mDWo /noteheads.s2 glyphshow 
60.7491 -5.4632 moveto 0.0500 3.1901 -0.0250 -0.2301 0.0800 draw_round_box
60.7491 -22.8679 moveto 0.0500 2.1901 -0.0250 3.7699 0.0800 draw_round_box
59.6243 -5.4632 moveto 0.0500 2.5234 -0.0250 -4.2933 0.0800 draw_round_box
59.5593 -22.8679 moveto magfontemmentaler-18mDWo /noteheads.s1 glyphshow 
59.5593 -19.3679 moveto magfontemmentaler-18mDWo /noteheads.s1 glyphshow 
57.0967 -15.3338 moveto /TeXGyrePagella-Regular 3.90625000 output-scale div selectfont
0.7512 0.0000 0.0000 /parenright
0.6146 0.0000 0.0000 /exclam
1.3657 0.0000 0.0000 /d
0.8536 0.0000 0.0000 /r
1.2292 0.0000 0.0000 /o
1.3657 0.0000 0.0000 /L
6 print_glyphs
58.7868 -12.5338 moveto /TeXGyrePagella-Regular 3.90625000 output-scale div selectfont
0.6146 0.0000 0.0000 /exclam
1.0584 0.0000 0.0000 /e
1.1267 0.0000 0.0000 /zcaron
3 print_glyphs
59.5593 -6.9632 moveto magfontemmentaler-18mDWo /noteheads.s1 glyphshow 
59.5593 -5.9632 moveto magfontemmentaler-18mDWo /noteheads.s1 glyphshow 
12.8395 -5.4632 moveto 0.0500 2.4237 -0.0250 -4.6267 0.0800 draw_round_box
13.8936 -5.4632 moveto 0.0500 2.2532 -0.0250 0.7030 0.0800 draw_round_box
12.7745 -21.3679 moveto magfontemmentaler-18mDWo /noteheads.s2 glyphshow 
12.7745 -7.4632 moveto magfontemmentaler-18mDWo /noteheads.s2 glyphshow 
12.7745 -4.9632 moveto magfontemmentaler-18mDWo /noteheads.s2 glyphshow 
7.8550 -22.8679 moveto 0.0500 3.0234 -0.0250 -3.2933 0.0800 draw_round_box
8.9091 -22.8679 moveto 0.0500 2.4237 -0.0250 2.2030 0.0800 draw_round_box
20.2161 -5.4632 moveto 0.0500 3.1901 -0.0250 -0.2301 0.0800 draw_round_box
19.0264 -22.8679 moveto magfontemmentaler-18mDWo /noteheads.s1 glyphshow 
19.0264 -20.8679 moveto magfontemmentaler-18mDWo /noteheads.s1 glyphshow 
18.2539 -12.5338 moveto /TeXGyrePagella-Regular 3.90625000 output-scale div selectfont
0.6146 0.0000 0.0000 /exclam
1.0584 0.0000 0.0000 /e
1.1267 0.0000 0.0000 /zcaron
3 print_glyphs
19.0264 -6.9632 moveto magfontemmentaler-18mDWo /noteheads.s1 glyphshow 
19.0264 -5.9632 moveto magfontemmentaler-18mDWo /noteheads.s1 glyphshow 
17.0195 -5.4632 moveto 0.0500 2.5708 -0.0250 0.2030 0.0800 draw_round_box
15.9004 -5.4632 moveto magfontemmentaler-18mDWo /noteheads.s2 glyphshow 
13.8936 -22.8679 moveto 0.0500 2.5903 -0.0250 1.7030 0.0800 draw_round_box
4.3000 -3.4632 moveto magfontemmentaler-18mDWo /accidentals.sharp glyphshow 
0.8000 -6.4632 moveto magfontemmentaler-18mDWo /clefs.G glyphshow 
-1.5706 -2.3790 moveto /TeXGyrePagella-Regular 2.76074219 output-scale div selectfont
0.7853 0.0000 0.0000 /two
0.7853 0.0000 0.0000 /one
2 print_glyphs
0.8000 -21.8679 moveto magfontemmentaler-18mDWo /clefs.F glyphshow 
-0.0600 -14.1655 moveto 0.0600 21.4047 0.0500 -10.7024 0.1000 draw_round_box
-1.3100 -3.2107 moveto magfontemmentaler-18mDWo /brackettips.up glyphshow 
-1.3100 -25.1204 moveto magfontemmentaler-18mDWo /brackettips.down glyphshow 
-1.3100 -14.1655 moveto 0.4500 21.5947 0.0000 -10.7974 0.0000 draw_round_box
7.7900 -12.5338 moveto /TeXGyrePagella-Regular 3.90625000 output-scale div selectfont
1.2292 0.0000 0.0000 /o
1.3657 0.0000 0.0000 /B
2 print_glyphs
7.8550 -5.4632 moveto 0.0500 2.7570 -0.0250 -3.9600 0.0800 draw_round_box
8.9091 -5.4632 moveto 0.0500 2.7570 -0.0250 1.2030 0.0800 draw_round_box
7.7900 -22.8679 moveto magfontemmentaler-18mDWo /noteheads.s1 glyphshow 
7.7900 -20.8679 moveto magfontemmentaler-18mDWo /noteheads.s2 glyphshow 
7.7900 -15.3338 moveto /TeXGyrePagella-Regular 3.90625000 output-scale div selectfont
0.5463 0.0000 0.0000 /space
0.5463 0.0000 0.0000 /space
0.5463 0.0000 0.0000 /comma
1.3316 0.0000 0.0000 /u
1.2292 0.0000 0.0000 /o
1.1609 0.0000 0.0000 /y
6 print_glyphs
16.9394 -15.3338 moveto /TeXGyrePagella-Regular 3.90625000 output-scale div selectfont
0.6146 0.0000 0.0000 /exclam
1.3657 0.0000 0.0000 /d
0.8536 0.0000 0.0000 /r
1.2292 0.0000 0.0000 /o
1.3657 0.0000 0.0000 /L
5 print_glyphs
7.7900 -6.4632 moveto magfontemmentaler-18mDWo /noteheads.s2 glyphshow 
7.7900 -4.4632 moveto magfontemmentaler-18mDWo /noteheads.s2 glyphshow 
4.3000 -21.8679 moveto magfontemmentaler-18mDWo /accidentals.sharp glyphshow 
32.5661 -5.4632 moveto magfontemmentaler-18mDWo /noteheads.s2 glyphshow 
27.5633 -22.8679 moveto 0.0500 2.5903 -0.0250 -4.2933 0.0800 draw_round_box
32.6311 -5.4632 moveto 0.0500 2.4237 -0.0250 -4.6267 0.0800 draw_round_box
32.6311 -22.8679 moveto 0.0500 2.7570 -0.0250 -3.9600 0.0800 draw_round_box
33.6852 -22.8679 moveto 0.0500 2.5903 -0.0250 1.7030 0.0800 draw_round_box
28.6174 -22.8679 moveto 0.0500 2.4237 -0.0250 2.2030 0.0800 draw_round_box
33.6852 -5.4632 moveto 0.0500 3.0903 -0.0250 0.2030 0.0800 draw_round_box
32.5661 -23.8679 moveto magfontemmentaler-18mDWo /noteheads.s2 glyphshow 
32.5661 -21.3679 moveto magfontemmentaler-18mDWo /noteheads.s2 glyphshow 
32.0826 -15.3338 moveto /TeXGyrePagella-Regular 3.90625000 output-scale div selectfont
1.2292 0.0000 0.0000 /y
0.9219 0.0000 0.0000 /r
2 print_glyphs
31.9973 -12.5338 moveto /TeXGyrePagella-Regular 3.90625000 output-scale div selectfont
1.1267 0.0000 0.0000 /a
1.1950 0.0000 0.0000 /v
2 print_glyphs
32.5661 -7.4632 moveto magfontemmentaler-18mDWo /noteheads.s2 glyphshow 
26.6222 -12.5338 moveto /TeXGyrePagella-Regular 3.90625000 output-scale div selectfont
1.1267 0.0000 0.0000 /a
0.6487 0.0000 0.0000 /l
1.1609 0.0000 0.0000 /S
3 print_glyphs
27.4983 -7.4632 moveto magfontemmentaler-18mDWo /noteheads.s2 glyphshow 
27.4983 -4.9632 moveto magfontemmentaler-18mDWo /noteheads.s2 glyphshow 
19.0914 -22.8679 moveto 0.0500 3.0234 -0.0250 -3.2933 0.0800 draw_round_box
20.2161 -22.8679 moveto 0.0500 2.3568 -0.0250 2.2699 0.0800 draw_round_box
19.0914 -5.4632 moveto 0.0500 2.5234 -0.0250 -4.2933 0.0800 draw_round_box
26.2978 -15.3338 moveto /TeXGyrePagella-Regular 3.90625000 output-scale div selectfont
1.2292 0.0000 0.0000 /o
0.6487 0.0000 0.0000 /l
1.7072 0.0000 0.0000 /G
3 print_glyphs
27.5633 -5.4632 moveto 0.0500 2.4237 -0.0250 -4.6267 0.0800 draw_round_box
28.6174 -5.4632 moveto 0.0500 2.9237 -0.0250 0.7030 0.0800 draw_round_box
27.4983 -24.3679 moveto magfontemmentaler-18mDWo /noteheads.s2 glyphshow 
27.4983 -20.8679 moveto magfontemmentaler-18mDWo /noteheads.s2 glyphshow 
stroke grestore
%%Trailer
%%EOF
