%!PS-Adobe-2.0 EPSF-2.0
%%Creator: LilyPond 2.18.2
%%BoundingBox: -9 -567 364 1
%%Orientation: Portrait
%%DocumentSuppliedResources: font Emmentaler-11
%%DocumentSuppliedResources: font Emmentaler-18
%%DocumentSuppliedResources: font TeXGyrePagella-Italic
%%DocumentSuppliedResources: font TeXGyrePagella-Regular
%%EndComments
%%BeginProlog
/lilypond-datadir where {pop} {userdict /lilypond-datadir (/usr/share/lilypond/2.18.2) put } ifelse
%%BeginFont: Emmentaler-11
lilypond-datadir (/fonts/otf/emmentaler-11.otf) concatstrings (r) file .loadfont
%%EndFont

%%BeginFont: Emmentaler-18
lilypond-datadir (/fonts/otf/emmentaler-18.otf) concatstrings (r) file .loadfont
%%EndFont

%%BeginFont: TeXGyrePagella-Italic
(/usr/share/texmf/fonts/opentype/public/tex-gyre/texgyrepagella-italic.otf) (r) file .loadfont
%%EndFont

%%BeginFont: TeXGyrePagella-Regular
(/usr/share/texmf/fonts/opentype/public/tex-gyre/texgyrepagella-regular.otf) (r) file .loadfont
%%EndFont

/magfontemmentaler-11mORo { /Emmentaler-11 3.1631 output-scale div selectfont } bind def
/magfontemmentaler-18mDWo { /Emmentaler-18 6.3263 output-scale div selectfont } bind def
/lily-output-units 2.83464566929134 def %% millimeter
/staff-line-thickness 0.1 def
/line-width 67.3237795275591 def
/paper-size (a4) def
/staff-height 4.0 def
/output-scale 1.75729901757299 def
/page-height 169.00937007874 def
/page-width 119.50157480315 def
%%BeginResource: procset (music-drawing-routines.ps) 1 0
%!PS-Adobe-2.0
%
% Functions for direct and embedded PostScript

% Careful with double % as comment prefix.
% Any %%X comment is interpreted as DSC comments.

% TODO: use dicts or prefixes to prevent namespace pollution.

/pdfmark where
{pop} {userdict /pdfmark /cleartomark load put} ifelse


% llx lly urx ury URI
/mark_URI
{
    /uri exch def
    /ury exch def
    /urx exch def
    /lly exch def
    /llx exch def
    [
	/Rect [ llx lly urx ury ]
	
	/Border [ 0 0 0 ]

        /Action
	    <<
		/Subtype /URI
		/URI uri
	    >>
        /Subtype /Link
    /ANN
    pdfmark
}
bind def

% llx lly urx ury page
/mark_page_link
{
    /page exch def
    /ury exch def
    /urx exch def
    /lly exch def
    /llx exch def
    [
        /Rect [ llx lly urx ury ]
        /Border [ 0 0 0 ]
        /Page page
        /Subtype /Link
    /ANN
    pdfmark
}
bind def

% from adobe tech note 5002.
/BeginEPSF { %def
    /b4_Inc_state save def % Save state for cleanup
    /dict_count countdictstack def % Count objects on dict stack
    /op_count count 1 sub def % Count objects on operand stack
    userdict begin % Push userdict on dict stack
    /showpage { } def % Redefine showpage, { } = null proc
    0 setgray 0 setlinecap % Prepare graphics state
    1 setlinewidth 0 setlinejoin
    10 setmiterlimit [ ] 0 setdash newpath
    false setoverprint
} bind def

/EndEPSF { %def
  count op_count sub {pop} repeat % Clean up stacks
  countdictstack dict_count sub {end} repeat
  b4_Inc_state restore
} bind def

/stroke_and_fill? {
    {
	gsave
	    false setstrokeadjust
	    stroke
	grestore
	fill
    }
    {
	stroke
    }
    ifelse
} bind def

/vector_add { % x1 y1 x2 y2 vector_add x1+x2 y1+y2
	exch
	4 1 roll
	add
	3 1 roll
	add
	exch
} bind def

/draw_round_box % width height x y blot
{
    0 max setlinewidth
    matrix currentmatrix 5 1 roll
    currentpoint translate newpath translate
    2 copy 0 min exch 0 min exch translate
    abs exch abs exch
    currentlinewidth 0 eq
    { % straight corners
	2 copy 2 mul gt
	{ % horizontal
	    0 1 index 2 div moveto
	    setlinewidth
	    0 rlineto
	    0 setlinecap
	    stroke
	}
	{
	    2 copy exch 2 mul gt
	    { % vertical
		1 index 2 div 0 moveto
		exch setlinewidth
		0 exch rlineto
		0 setlinecap
		stroke
	    }
	    {
		0 0 4 2 roll rectfill
	    }
	    ifelse
	}
	ifelse
    }
    { % rounded corners
	2 copy 0 eq exch 0 eq or
	{ % line shape
	    0 0 moveto
	    rlineto
	    1 setlinecap
	    stroke
	    0 setlinecap
	}
	{ % full shape
	    currentstrokeadjust {
		currentlinewidth 2 div
		0 0 2 index 180 270 arc
		2 index 0 2 index 270 360 arc
		3 copy 0 90 arc
		0 2 index 3 -1 roll 90 180 arc
		closepath
		2 copy 2 mul gt
		{ % horizontal
		    2 copy add currentlinewidth add 10 add % large enough
		    0 1 index neg moveto
		    2 index 1 index neg lineto
		    2 index 1 index lineto
		    0 exch lineto closepath
		    gsave clip newpath
		    0 1 index 2 div moveto
		    currentlinewidth add setlinewidth
		    0 rlineto
		    2 setlinecap
		    stroke
		    grestore
		}
		{
		    2 copy exch 2 mul gt
		    { % vertical
			2 copy add currentlinewidth add 10 add % large enough
			dup neg 0 moveto
			dup 0 lineto
			dup 2 index lineto
			neg 1 index lineto closepath
			gsave clip newpath
			1 index 2 div 0 moveto
			exch currentlinewidth add setlinewidth
			0 exch rlineto
			2 setlinecap
			stroke
			grestore
		    }
		    {
			pop pop
			fill
		    }
		    ifelse
		}
		ifelse
		newpath
	    }
	    {
		1 setlinejoin
		0 0 4 2 roll 4 copy rectstroke rectfill
	    }
	    ifelse
	}
	ifelse
    }
    ifelse
    setmatrix
} bind def

/draw_polygon % fill? x(n) y(n) x(n-1) y(n-1) ... x(0) y(0) n blot
{
	setlinewidth %set to blot

	0 setlinecap
	1 setlinejoin

	3 1 roll
	/polygon_x
	currentpoint
	/polygon_y exch def
	def
	rmoveto % x(0) y(0)
	{ polygon_x polygon_y vector_add lineto } repeat % n times
	closepath
	stroke_and_fill?
} bind def

/draw_circle % filled? radius thickness draw_circle
{
	setlinewidth	% f? r
	currentpoint	% f? r x0 y0
	3 2 roll	% f? x0 y0 r
	dup 0 rmoveto
	0 360 arc closepath
	stroke_and_fill?
} bind def

/draw_ellipse % filled? x-radius y-radius thickness draw_ellipse
{
  setlinewidth % f? x-r y-r
  /savematrix matrix currentmatrix def
  scale % f?
  currentpoint
  1 0 rmoveto
  1 0 360  arc closepath
  savematrix setmatrix
  stroke_and_fill?
} bind def

/draw_partial_ellipse % filled connect x-radius y-radius startangle endangle thickness draw_partial_ellipse
% Note that filled is not boolean to permit for different graylevels (ie for trill keys)
{
  gsave
  currentpoint translate
  /thickness exch def
  /endangle exch def
  /startangle exch def
  /y_radius exch def
  /x_radius exch def
  /endrad x_radius y_radius mul
    x_radius x_radius mul
    endangle cos endangle cos mul mul
    y_radius y_radius mul
    endangle sin endangle sin mul mul add sqrt div def
  /endangle endangle sin endrad mul y_radius div
    endangle cos endrad mul x_radius div atan def
  /startrad x_radius y_radius mul
    x_radius x_radius mul
      startangle cos startangle cos mul mul
    y_radius y_radius mul
      startangle sin startangle sin mul mul add sqrt div def
  /startangle startangle sin startrad mul y_radius div
    startangle cos startrad mul x_radius div atan def
  /connect exch def
  /filled exch def
  /savematrix matrix currentmatrix def
  thickness setlinewidth
  x_radius y_radius scale
  startangle cos startangle sin moveto
  0 0 1 startangle
    startangle endangle eq { endangle 360 add } { endangle } ifelse
    arc
  connect {
    startangle cos startangle sin moveto endangle cos endangle sin lineto }
    if
  savematrix setmatrix filled stroke_and_fill?
  grestore
} bind def

/draw_line % dx dy x1 y1 thickness draw_line
{
	setlinewidth % dx dy x1 y1
	1 setlinecap
	rmoveto % dx dy
	rlineto
	stroke
} bind def

/draw_dashed_line % dx dy thickness dashpattern offset draw_dashed_line
{
	1 setlinecap
	setdash % dx dy thickness
	setlinewidth %dx dy
	rlineto
	stroke
	[] 0 setdash % reset dash pattern
} bind def

/print_glyphs % w dx dy glyph print_glyphs
{
	{
		currentpoint %w dx dy glyph x0 y0
		5 2 roll %w x0 y0 dx dy glyph
		3 1 roll %w x0 y0 glyph dx dy
		rmoveto %w x0 y0 glyph
		glyphshow %w x0 y0
		moveto %w
		0 rmoveto
	}repeat
}bind def
%end music-drawing-routines.ps

%%EndResource
%%BeginResource: procset (lilyponddefs.ps) 1 0
%!PS-Adobe-2.0: lilyponddefs.ps
%
% Functions for direct PostScript output

% /setgray { 1 add } bind def

/set-ps-scale-to-lily-scale {
	lily-output-units output-scale mul dup scale
} bind def


/init-paper {
	gsave
	clippath pathbbox newpath
	/paper-height exch def
	/paper-width exch def pop pop pop
	% FIXME
	/top-margin 2 def
	paper-width line-width sub 2 div /left-margin exch def
	grestore
} bind def

/init-lilypond-parameters {
	staff-line-thickness setlinewidth
	staff-height init-paper
} bind def


% end lilyponddefs.ps

%%EndResource
%%EndProlog
%%BeginSetup
init-lilypond-parameters
%%EndSetup

/mark_page_link { pop pop pop pop pop } bind def
gsave set-ps-scale-to-lily-scale
0.0000 -6.0677 moveto 67.2238 0.0000 0.0500 0.0000 0.1000 draw_line
0.0000 -5.0677 moveto 67.2238 0.0000 0.0500 0.0000 0.1000 draw_line
0.0000 -4.0677 moveto 67.2238 0.0000 0.0500 0.0000 0.1000 draw_line
0.0000 -3.0677 moveto 67.2238 0.0000 0.0500 0.0000 0.1000 draw_line
0.0000 -2.0677 moveto 67.2238 0.0000 0.0500 0.0000 0.1000 draw_line
41.6248 -21.7439 moveto 0.1900 4.0000 0.0000 -2.0000 0.0000 draw_round_box
25.6828 -21.7439 moveto 0.1900 4.0000 0.0000 -2.0000 0.0000 draw_round_box
67.1338 -21.7439 moveto 0.1900 4.0000 0.0000 -2.0000 0.0000 draw_round_box
67.1338 -4.0677 moveto 0.1900 4.0000 0.0000 -2.0000 0.0000 draw_round_box
41.6248 -4.0677 moveto 0.1900 4.0000 0.0000 -2.0000 0.0000 draw_round_box
58.4217 -4.0677 moveto 0.1900 4.0000 0.0000 -2.0000 0.0000 draw_round_box
25.6828 -4.0677 moveto 0.1900 4.0000 0.0000 -2.0000 0.0000 draw_round_box
58.4217 -21.7439 moveto 0.1900 4.0000 0.0000 -2.0000 0.0000 draw_round_box
0.0000 -23.7439 moveto 67.2238 0.0000 0.0500 0.0000 0.1000 draw_line
0.0000 -22.7439 moveto 67.2238 0.0000 0.0500 0.0000 0.1000 draw_line
0.0000 -21.7439 moveto 67.2238 0.0000 0.0500 0.0000 0.1000 draw_line
0.0000 -20.7439 moveto 67.2238 0.0000 0.0500 0.0000 0.1000 draw_line
0.0000 -19.7439 moveto 67.2238 0.0000 0.0500 0.0000 0.1000 draw_line
0.0000 -18.7439 moveto 1.5761 0.0000 42.5712 0.0000 0.2000 draw_round_box
0.0000 -18.7439 moveto 1.5761 0.0000 46.1799 0.0000 0.2000 draw_round_box
0.0000 -18.7439 moveto 1.5761 0.0000 49.7886 0.0000 0.2000 draw_round_box
0.0000 -18.7439 moveto 1.5761 0.0000 53.3972 0.0000 0.2000 draw_round_box
0.0000 -18.7439 moveto 2.4525 0.0000 60.1742 0.0000 0.2000 draw_round_box
49.9846 -4.0677 moveto magfontemmentaler-18mDWo /noteheads.s2 glyphshow 
51.1037 -4.0677 moveto 0.0500 2.7570 -0.0250 1.2030 0.0800 draw_round_box
49.9846 -23.7439 moveto magfontemmentaler-18mDWo /noteheads.s2 glyphshow 
49.9846 -18.2439 moveto magfontemmentaler-18mDWo /noteheads.s2 glyphshow 
49.5865 -14.2098 moveto /TeXGyrePagella-Regular 3.90625000 output-scale div selectfont
1.3316 0.0000 0.0000 /u
0.6487 0.0000 0.0000 /l
2 print_glyphs
49.5865 -11.4098 moveto /TeXGyrePagella-Regular 3.90625000 output-scale div selectfont
1.3316 0.0000 0.0000 /u
0.6487 0.0000 0.0000 /l
2 print_glyphs
47.4950 -21.7439 moveto 0.0500 2.2570 -0.0250 3.7030 0.0800 draw_round_box
49.9846 -3.0677 moveto magfontemmentaler-18mDWo /noteheads.s2 glyphshow 
46.4409 -21.7439 moveto 0.0500 2.4237 -0.0250 -4.6267 0.0800 draw_round_box
42.7673 -4.0677 moveto magfontemmentaler-18mDWo /noteheads.s2 glyphshow 
53.6582 -4.0677 moveto 0.0500 2.4550 -0.0250 -3.1580 0.0800 draw_round_box
54.7123 -4.0677 moveto 0.0500 2.2521 -0.0250 0.7030 0.0800 draw_round_box
53.5932 -23.7439 moveto magfontemmentaler-18mDWo /noteheads.s2 glyphshow 
53.5932 -18.2439 moveto magfontemmentaler-18mDWo /noteheads.s2 glyphshow 
53.5932 -14.2098 moveto /TeXGyrePagella-Regular 3.90625000 output-scale div selectfont
0.6487 0.0000 0.0000 /i
1 print_glyphs
53.5932 -11.4098 moveto /TeXGyrePagella-Regular 3.90625000 output-scale div selectfont
0.6487 0.0000 0.0000 /i
1 print_glyphs
53.5932 -4.5677 moveto magfontemmentaler-18mDWo /noteheads.s2 glyphshow 
53.5932 -3.5677 moveto magfontemmentaler-18mDWo /noteheads.s2 glyphshow 
50.0496 -4.0677 moveto 0.0500 3.0903 -0.0250 -3.2933 0.0800 draw_round_box
50.0496 -21.7439 moveto 0.0500 2.4237 -0.0250 -4.6267 0.0800 draw_round_box
51.1037 -21.7439 moveto 0.0500 2.2570 -0.0250 3.7030 0.0800 draw_round_box
42.8323 -4.0677 moveto 0.0500 2.7570 -0.0250 -3.9600 0.0800 draw_round_box
42.8323 -21.7439 moveto 0.0500 2.4237 -0.0250 -4.6267 0.0800 draw_round_box
43.8863 -21.7439 moveto 0.0500 2.2570 -0.0250 3.7030 0.0800 draw_round_box
43.8863 -4.0677 moveto 0.0500 3.0903 -0.0250 0.2030 0.0800 draw_round_box
42.7673 -23.7439 moveto magfontemmentaler-18mDWo /noteheads.s2 glyphshow 
42.7673 -18.2439 moveto magfontemmentaler-18mDWo /noteheads.s2 glyphshow 
42.4716 -14.2098 moveto /TeXGyrePagella-Regular 3.90625000 output-scale div selectfont
0.6487 0.0000 0.0000 /l
1.1267 0.0000 0.0000 /a
2 print_glyphs
42.1643 -11.4098 moveto /TeXGyrePagella-Regular 3.90625000 output-scale div selectfont
0.6487 0.0000 0.0000 /l
1.7413 0.0000 0.0000 /A
2 print_glyphs
42.7673 -5.0677 moveto magfontemmentaler-18mDWo /noteheads.s2 glyphshow 
12.1998 -11.4098 moveto 0.5800 0.0500 0.0400 0.4600 0.0800 draw_round_box
46.4409 -4.0677 moveto 0.0500 2.9237 -0.0250 -3.6267 0.0800 draw_round_box
47.4950 -4.0677 moveto 0.0500 2.9237 -0.0250 0.7030 0.0800 draw_round_box
46.3759 -23.7439 moveto magfontemmentaler-18mDWo /noteheads.s2 glyphshow 
46.3759 -18.2439 moveto magfontemmentaler-18mDWo /noteheads.s2 glyphshow 
46.1144 -14.2098 moveto /TeXGyrePagella-Regular 3.90625000 output-scale div selectfont
1.0584 0.0000 0.0000 /e
0.6487 0.0000 0.0000 /l
2 print_glyphs
46.1144 -11.4098 moveto /TeXGyrePagella-Regular 3.90625000 output-scale div selectfont
1.0584 0.0000 0.0000 /e
0.6487 0.0000 0.0000 /l
2 print_glyphs
46.3759 -4.5677 moveto magfontemmentaler-18mDWo /noteheads.s2 glyphshow 
46.3759 -3.5677 moveto magfontemmentaler-18mDWo /noteheads.s2 glyphshow 
53.5932 -7.2577 moveto true 2.4864 -0.1100 2.4864 -0.5100 0.0400 -0.2000 0.0400 0.2000 3 0.0800 draw_polygon
54.6473 -1.0677 moveto true 2.4864 0.0100 2.4864 -0.3900 0.0400 -0.2000 0.0400 0.2000 3 0.0800 draw_polygon
12.3876 -14.2098 moveto 0.5800 0.0500 0.0400 0.4600 0.0800 draw_round_box
15.5695 -11.4098 moveto 0.5800 0.0500 0.0400 0.4600 0.0800 draw_round_box
15.5695 -14.2098 moveto 0.5800 0.0500 0.0400 0.4600 0.0800 draw_round_box
19.4455 -11.4098 moveto 0.5800 0.0500 0.0400 0.4600 0.0800 draw_round_box
19.4455 -14.2098 moveto 0.5800 0.0500 0.0400 0.4600 0.0800 draw_round_box
20.7887 -4.0677 moveto gsave currentpoint translate
1 setlinecap 1 setlinejoin 0.08000000 setlinewidth
1.14867259 2.92511155 moveto  1.84279964 3.49600700 2.94410669 3.41318117 3.54503830 2.74488845 curveto  2.93510729 3.29351910 1.83380023 3.37634494 1.14867259 2.92511155 curveto   closepath  gsave stroke grestore fill grestore
20.7887 -4.0677 moveto gsave currentpoint translate
1 setlinecap 1 setlinejoin 0.08000000 setlinewidth
0.01692963 -4.93797588 moveto  0.58801534 -5.63636210 1.69030201 -5.77161918 2.41329534 -5.23202412 curveto  1.70491710 -5.65251251 0.60263044 -5.51725543 0.01692963 -4.93797588 curveto   closepath  gsave stroke grestore fill grestore
24.2713 -11.4098 moveto 0.5800 0.0500 0.0400 0.4600 0.0800 draw_round_box
24.2713 -14.2098 moveto 0.5800 0.0500 0.0400 0.4600 0.0800 draw_round_box
21.8428 -1.8777 moveto true 2.4864 0.0100 2.4864 -0.3900 0.0400 -0.2000 0.0400 0.2000 3 0.0800 draw_polygon
20.7887 -8.2577 moveto true 2.4864 -0.1100 2.4864 -0.5100 0.0400 -0.2000 0.0400 0.2000 3 0.0800 draw_polygon
27.7174 -21.7439 moveto gsave currentpoint translate
1 setlinecap 1 setlinejoin 0.08000000 setlinewidth
0.43000000 -3.64862020 moveto  2.12174831 -5.15022129 8.22615089 -5.37294400 10.02282901 -3.99862020 curveto  8.23052625 -5.25302379 2.12612367 -5.03030108 0.43000000 -3.64862020 curveto   closepath  gsave stroke grestore fill grestore
45.0043 -11.4098 moveto 0.5800 0.0500 0.0400 0.4600 0.0800 draw_round_box
44.8507 -14.2098 moveto 0.5800 0.0500 0.0400 0.4600 0.0800 draw_round_box
48.3740 -11.4098 moveto 0.5800 0.0500 0.0400 0.4600 0.0800 draw_round_box
48.3740 -14.2098 moveto 0.5800 0.0500 0.0400 0.4600 0.0800 draw_round_box
52.2500 -11.4098 moveto 0.5800 0.0500 0.0400 0.4600 0.0800 draw_round_box
52.2500 -14.2098 moveto 0.5800 0.0500 0.0400 0.4600 0.0800 draw_round_box
53.5932 -4.0677 moveto gsave currentpoint translate
1 setlinecap 1 setlinejoin 0.08000000 setlinewidth
1.14867259 3.73511155 moveto  1.84279964 4.30600700 2.94410669 4.22318117 3.54503830 3.55488845 curveto  2.93510729 4.10351910 1.83380023 4.18634494 1.14867259 3.73511155 curveto   closepath  gsave stroke grestore fill grestore
53.5932 -4.0677 moveto gsave currentpoint translate
1 setlinecap 1 setlinejoin 0.08000000 setlinewidth
0.01692963 -3.93797588 moveto  0.58801534 -4.63636210 1.69030201 -4.77161918 2.41329534 -4.23202412 curveto  1.70491710 -4.65251251 0.60263044 -4.51725543 0.01692963 -3.93797588 curveto   closepath  gsave stroke grestore fill grestore
57.0729 -11.4098 moveto 0.5800 0.0500 0.0400 0.4600 0.0800 draw_round_box
57.0729 -14.2098 moveto 0.5800 0.0500 0.0400 0.4600 0.0800 draw_round_box
55.9896 -4.0677 moveto magfontemmentaler-18mDWo /noteheads.s2 glyphshow 
56.0546 -4.0677 moveto 0.0500 2.2490 -0.0250 -3.4520 0.0800 draw_round_box
57.1087 -4.0677 moveto 0.0500 2.5719 -0.0250 0.2030 0.0800 draw_round_box
55.9896 -5.0677 moveto magfontemmentaler-18mDWo /noteheads.s2 glyphshow 
60.5163 -4.5677 moveto magfontemmentaler-18mDWo /noteheads.s0 glyphshow 
53.6582 -21.7439 moveto 0.0500 2.4237 -0.0250 -4.6267 0.0800 draw_round_box
54.7123 -21.7439 moveto 0.0500 2.2570 -0.0250 3.7030 0.0800 draw_round_box
60.5163 -21.7439 moveto magfontemmentaler-18mDWo /noteheads.s0 glyphshow 
60.5163 -18.2439 moveto magfontemmentaler-18mDWo /noteheads.s0 glyphshow 
60.5639 -14.2098 moveto /TeXGyrePagella-Regular 3.90625000 output-scale div selectfont
0.5463 0.0000 0.0000 /comma
1.1267 0.0000 0.0000 /a
2 print_glyphs
60.5639 -11.4098 moveto /TeXGyrePagella-Regular 3.90625000 output-scale div selectfont
0.5463 0.0000 0.0000 /comma
1.1267 0.0000 0.0000 /a
2 print_glyphs
60.5163 -5.5677 moveto magfontemmentaler-18mDWo /noteheads.s0 glyphshow 
18.2992 -4.0677 moveto 0.0500 3.0903 -0.0250 0.2030 0.0800 draw_round_box
17.1801 -21.2439 moveto magfontemmentaler-18mDWo /noteheads.s2 glyphshow 
17.1801 -19.2439 moveto magfontemmentaler-18mDWo /noteheads.s2 glyphshow 
16.7820 -14.2098 moveto /TeXGyrePagella-Regular 3.90625000 output-scale div selectfont
1.3316 0.0000 0.0000 /u
0.6487 0.0000 0.0000 /l
2 print_glyphs
16.7820 -11.4098 moveto /TeXGyrePagella-Regular 3.90625000 output-scale div selectfont
1.3316 0.0000 0.0000 /u
0.6487 0.0000 0.0000 /l
2 print_glyphs
17.1801 -5.0677 moveto magfontemmentaler-18mDWo /noteheads.s2 glyphshow 
17.1801 -4.0677 moveto magfontemmentaler-18mDWo /noteheads.s2 glyphshow 
17.2451 -4.0677 moveto 0.0500 2.7570 -0.0250 -3.9600 0.0800 draw_round_box
13.6364 -21.7439 moveto 0.0500 3.2570 -0.0250 -2.9600 0.0800 draw_round_box
14.6905 -21.7439 moveto 0.0500 2.2570 -0.0250 2.7030 0.0800 draw_round_box
21.9078 -4.0677 moveto 0.0500 2.4421 -0.0250 -0.2970 0.0800 draw_round_box
20.7887 -21.2439 moveto magfontemmentaler-18mDWo /noteheads.s2 glyphshow 
20.7887 -19.2439 moveto magfontemmentaler-18mDWo /noteheads.s2 glyphshow 
20.7887 -14.2098 moveto /TeXGyrePagella-Regular 3.90625000 output-scale div selectfont
0.6487 0.0000 0.0000 /i
1 print_glyphs
20.7887 -11.4098 moveto /TeXGyrePagella-Regular 3.90625000 output-scale div selectfont
0.6487 0.0000 0.0000 /i
1 print_glyphs
20.7887 -5.5677 moveto magfontemmentaler-18mDWo /noteheads.s2 glyphshow 
20.7887 -4.5677 moveto magfontemmentaler-18mDWo /noteheads.s2 glyphshow 
13.6364 -4.0677 moveto 0.0500 2.5903 -0.0250 -4.2933 0.0800 draw_round_box
17.2451 -21.7439 moveto 0.0500 3.2570 -0.0250 -2.9600 0.0800 draw_round_box
18.2992 -21.7439 moveto 0.0500 2.2570 -0.0250 2.7030 0.0800 draw_round_box
11.0818 -21.7439 moveto 0.0500 2.2570 -0.0250 2.7030 0.0800 draw_round_box
10.0278 -4.0677 moveto 0.0500 2.4237 -0.0250 -4.6267 0.0800 draw_round_box
10.0278 -21.7439 moveto 0.0500 3.2570 -0.0250 -2.9600 0.0800 draw_round_box
11.0818 -4.0677 moveto 0.0500 3.2570 -0.0250 -0.7970 0.0800 draw_round_box
6.4400 -21.7439 moveto magfontemmentaler-18mDWo /timesig.C22 glyphshow 
4.3000 -20.7439 moveto magfontemmentaler-18mDWo /accidentals.sharp glyphshow 
0.8000 -20.7439 moveto magfontemmentaler-18mDWo /clefs.F glyphshow 
9.9628 -21.2439 moveto magfontemmentaler-18mDWo /noteheads.s2 glyphshow 
9.9628 -19.2439 moveto magfontemmentaler-18mDWo /noteheads.s2 glyphshow 
8.9842 -14.2098 moveto /TeXGyrePagella-Regular 3.90625000 output-scale div selectfont
0.6487 0.0000 0.0000 /l
1.7413 0.0000 0.0000 /A
0.7512 0.0000 0.0000 /parenleft
3 print_glyphs
9.3598 -11.4098 moveto /TeXGyrePagella-Regular 3.90625000 output-scale div selectfont
0.6487 0.0000 0.0000 /l
1.7413 0.0000 0.0000 /A
2 print_glyphs
6.4400 -4.0677 moveto magfontemmentaler-18mDWo /timesig.C22 glyphshow 
4.3000 -2.0677 moveto magfontemmentaler-18mDWo /accidentals.sharp glyphshow 
0.8000 -5.0677 moveto magfontemmentaler-18mDWo /clefs.G glyphshow 
14.6905 -4.0677 moveto 0.0500 3.2570 -0.0250 -0.2970 0.0800 draw_round_box
13.5714 -21.2439 moveto magfontemmentaler-18mDWo /noteheads.s2 glyphshow 
13.5714 -19.2439 moveto magfontemmentaler-18mDWo /noteheads.s2 glyphshow 
13.3099 -14.2098 moveto /TeXGyrePagella-Regular 3.90625000 output-scale div selectfont
1.0584 0.0000 0.0000 /e
0.6487 0.0000 0.0000 /l
2 print_glyphs
13.3099 -11.4098 moveto /TeXGyrePagella-Regular 3.90625000 output-scale div selectfont
1.0584 0.0000 0.0000 /e
0.6487 0.0000 0.0000 /l
2 print_glyphs
13.5714 -5.5677 moveto magfontemmentaler-18mDWo /noteheads.s2 glyphshow 
13.5714 -4.5677 moveto magfontemmentaler-18mDWo /noteheads.s2 glyphshow 
9.9628 -5.0677 moveto magfontemmentaler-18mDWo /noteheads.s2 glyphshow 
9.9628 -6.0677 moveto magfontemmentaler-18mDWo /noteheads.s2 glyphshow 
27.7824 -21.7439 moveto 0.0500 2.7570 -0.0250 -3.9600 0.0800 draw_round_box
29.3029 -23.2439 moveto magfontemmentaler-18mDWo /dots.dot glyphshow 
26.3774 -6.5677 moveto magfontemmentaler-18mDWo /accidentals.sharp glyphshow 
38.1052 -21.7439 moveto 0.0500 2.5903 -0.0250 -4.2933 0.0800 draw_round_box
38.0402 -23.2439 moveto magfontemmentaler-18mDWo /noteheads.s2 glyphshow 
34.4966 -21.7439 moveto 0.0500 2.7570 -0.0250 -3.9600 0.0800 draw_round_box
34.4316 -22.7439 moveto magfontemmentaler-18mDWo /noteheads.s2 glyphshow 
32.1652 -25.4539 moveto magfontemmentaler-18mDWo /flags.d3 glyphshow 
32.1002 -21.7439 moveto 0.0500 3.0070 -0.0250 -3.7100 0.0800 draw_round_box
32.0352 -22.2439 moveto magfontemmentaler-18mDWo /noteheads.s2 glyphshow 
24.3042 -4.0677 moveto 0.0500 2.7619 -0.0250 -0.7970 0.0800 draw_round_box
23.1851 -6.0677 moveto magfontemmentaler-18mDWo /noteheads.s2 glyphshow 
23.1851 -5.0677 moveto magfontemmentaler-18mDWo /noteheads.s2 glyphshow 
-0.0600 -12.9058 moveto 0.0600 21.6762 0.0500 -10.8381 0.1000 draw_round_box
20.8537 -21.7439 moveto 0.0500 3.2570 -0.0250 -2.9600 0.0800 draw_round_box
21.9078 -21.7439 moveto 0.0500 2.2570 -0.0250 2.7030 0.0800 draw_round_box
20.8537 -4.0677 moveto 0.0500 2.4550 -0.0250 -4.1580 0.0800 draw_round_box
23.2501 -4.0677 moveto 0.0500 2.2490 -0.0250 -4.4520 0.0800 draw_round_box
27.7174 -22.7439 moveto magfontemmentaler-18mDWo /noteheads.s2 glyphshow 
27.7174 -19.2439 moveto magfontemmentaler-18mDWo /noteheads.s0 glyphshow 
27.7651 -14.2098 moveto /TeXGyrePagella-Regular 3.90625000 output-scale div selectfont
0.5463 0.0000 0.0000 /comma
1.1267 0.0000 0.0000 /a
2 print_glyphs
27.7651 -11.4098 moveto /TeXGyrePagella-Regular 3.90625000 output-scale div selectfont
0.5463 0.0000 0.0000 /comma
1.1267 0.0000 0.0000 /a
2 print_glyphs
27.7174 -6.5677 moveto magfontemmentaler-18mDWo /noteheads.s0 glyphshow 
27.7174 -5.5677 moveto magfontemmentaler-18mDWo /noteheads.s0 glyphshow 
-1.3100 -1.8152 moveto magfontemmentaler-18mDWo /brackettips.up glyphshow 
-1.3100 -23.9964 moveto magfontemmentaler-18mDWo /brackettips.down glyphshow 
-1.3100 -12.9058 moveto 0.4500 21.8662 0.0000 -10.9331 0.0000 draw_round_box
0.0000 -34.8734 moveto 67.2238 0.0000 0.0500 0.0000 0.1000 draw_line
0.0000 -33.8734 moveto 67.2238 0.0000 0.0500 0.0000 0.1000 draw_line
0.0000 -32.8734 moveto 67.2238 0.0000 0.0500 0.0000 0.1000 draw_line
0.0000 -31.8734 moveto 67.2238 0.0000 0.0500 0.0000 0.1000 draw_line
0.0000 -30.8734 moveto 67.2238 0.0000 0.0500 0.0000 0.1000 draw_line
19.5594 -32.8734 moveto 0.1900 4.0000 0.0000 -2.0000 0.0000 draw_round_box
19.5594 -50.3886 moveto 0.1900 4.0000 0.0000 -2.0000 0.0000 draw_round_box
39.2924 -50.3886 moveto 0.1900 4.0000 0.0000 -2.0000 0.0000 draw_round_box
55.3153 -32.8734 moveto 0.1900 4.0000 0.0000 -2.0000 0.0000 draw_round_box
55.3153 -50.3886 moveto 0.1900 4.0000 0.0000 -2.0000 0.0000 draw_round_box
39.2924 -32.8734 moveto 0.1900 4.0000 0.0000 -2.0000 0.0000 draw_round_box
65.5324 -32.3734 moveto magfontemmentaler-18mDWo /dots.dot glyphshow 
65.5324 -33.3734 moveto magfontemmentaler-18mDWo /dots.dot glyphshow 
66.7238 -32.8734 moveto 0.6000 4.0000 0.0000 -2.0000 0.0000 draw_round_box
66.2338 -32.8734 moveto 0.1900 4.0000 0.0000 -2.0000 0.0000 draw_round_box
65.5324 -49.8886 moveto magfontemmentaler-18mDWo /dots.dot glyphshow 
65.5324 -50.8886 moveto magfontemmentaler-18mDWo /dots.dot glyphshow 
66.7238 -50.3886 moveto 0.6000 4.0000 0.0000 -2.0000 0.0000 draw_round_box
66.2338 -50.3886 moveto 0.1900 4.0000 0.0000 -2.0000 0.0000 draw_round_box
0.0000 -52.3886 moveto 67.2238 0.0000 0.0500 0.0000 0.1000 draw_line
0.0000 -51.3886 moveto 67.2238 0.0000 0.0500 0.0000 0.1000 draw_line
0.0000 -50.3886 moveto 67.2238 0.0000 0.0500 0.0000 0.1000 draw_line
0.0000 -49.3886 moveto 67.2238 0.0000 0.0500 0.0000 0.1000 draw_line
0.0000 -48.3886 moveto 67.2238 0.0000 0.0500 0.0000 0.1000 draw_line
0.0000 -35.8734 moveto 2.4525 0.0000 57.1968 0.0000 0.2000 draw_round_box
0.0000 -47.3886 moveto 2.4525 0.0000 7.4479 0.0000 0.2000 draw_round_box
0.0000 -47.3886 moveto 1.6821 0.0000 40.3178 0.0000 0.2000 draw_round_box
34.9868 -47.8886 moveto magfontemmentaler-18mDWo /noteheads.s2 glyphshow 
7.7900 -32.8734 moveto gsave currentpoint translate
1 setlinecap 1 setlinejoin 0.08000000 setlinewidth
1.55475556 2.14862020 moveto  4.13018107 4.07109770 21.10512699 3.95588034 23.65421881 1.99862020 curveto  21.10431251 3.83588310 4.12936659 3.95110046 1.55475556 2.14862020 curveto   closepath  gsave stroke grestore fill grestore
40.5964 -50.3886 moveto 0.0500 2.5234 -0.0250 -4.2933 0.0800 draw_round_box
41.7212 -50.3886 moveto 0.0500 2.1901 -0.0250 3.2699 0.0800 draw_round_box
45.2628 -35.3734 moveto magfontemmentaler-18mDWo /accidentals.sharp glyphshow 
34.7253 -43.3544 moveto /TeXGyrePagella-Regular 3.90625000 output-scale div selectfont
1.0584 0.0000 0.0000 /e
0.6487 0.0000 0.0000 /l
2 print_glyphs
46.6678 -50.3886 moveto 0.0500 2.6901 -0.0250 -3.9600 0.0800 draw_round_box
47.7219 -50.3886 moveto 0.0500 2.2570 -0.0250 2.7030 0.0800 draw_round_box
46.6678 -32.8734 moveto 0.0500 2.1901 -0.0250 -4.9600 0.0800 draw_round_box
46.6028 -51.3886 moveto magfontemmentaler-18mDWo /noteheads.s1 glyphshow 
46.6028 -47.8886 moveto magfontemmentaler-18mDWo /noteheads.s2 glyphshow 
46.6028 -35.3734 moveto magfontemmentaler-18mDWo /noteheads.s1 glyphshow 
36.1059 -32.8734 moveto 0.0500 3.2570 -0.0250 -0.7970 0.0800 draw_round_box
40.5314 -34.8734 moveto magfontemmentaler-18mDWo /noteheads.s1 glyphshow 
41.8364 -34.3734 moveto magfontemmentaler-18mDWo /noteheads.s1 glyphshow 
35.0518 -50.3886 moveto 0.0500 3.2570 -0.0250 -2.9600 0.0800 draw_round_box
41.4736 -40.5544 moveto /TeXGyrePagella-Regular 3.90625000 output-scale div selectfont
1.3316 0.0000 0.0000 /u
0.6487 0.0000 0.0000 /l
2 print_glyphs
36.1059 -50.3886 moveto 0.0500 2.2570 -0.0250 2.7030 0.0800 draw_round_box
35.0518 -32.8734 moveto 0.0500 2.4237 -0.0250 -4.6267 0.0800 draw_round_box
34.9868 -49.8886 moveto magfontemmentaler-18mDWo /noteheads.s2 glyphshow 
40.5964 -32.8734 moveto 0.0500 2.3568 -0.0250 -4.6267 0.0800 draw_round_box
43.0262 -32.8734 moveto 0.0500 3.1901 -0.0250 -1.2301 0.0800 draw_round_box
43.4925 -34.3734 moveto magfontemmentaler-18mDWo /dots.dot glyphshow 
40.5314 -51.8886 moveto magfontemmentaler-18mDWo /noteheads.s1 glyphshow 
40.5314 -47.3886 moveto magfontemmentaler-18mDWo /noteheads.s1 glyphshow 
41.4736 -43.3544 moveto /TeXGyrePagella-Regular 3.90625000 output-scale div selectfont
1.3316 0.0000 0.0000 /u
0.6487 0.0000 0.0000 /l
2 print_glyphs
57.0251 -29.9327 moveto magfontemmentaler-11mORo /accidentals.leftparen glyphshow 
59.8210 -29.9327 moveto magfontemmentaler-11mORo /accidentals.rightparen glyphshow 
46.9805 -40.5544 moveto 0.5800 0.0500 0.0400 0.4600 0.0800 draw_round_box
7.7900 -32.8734 moveto gsave currentpoint translate
1 setlinecap 1 setlinejoin 0.08000000 setlinewidth
0.05860829 -4.64862020 moveto  2.62610979 -6.46947259 20.33716710 -6.74015962 22.95911443 -4.99862020 curveto  20.33900091 -6.62017364 2.62794359 -6.34948660 0.05860829 -4.64862020 curveto   closepath  gsave stroke grestore fill grestore
31.8154 -40.5544 moveto 0.5800 0.0500 0.0400 0.4600 0.0800 draw_round_box
21.8154 -40.5544 moveto 0.5800 0.0500 0.0400 0.4600 0.0800 draw_round_box
11.8154 -40.5544 moveto 0.5800 0.0500 0.0400 0.4600 0.0800 draw_round_box
31.8154 -43.3544 moveto 0.5800 0.0500 0.0400 0.4600 0.0800 draw_round_box
21.8154 -43.3544 moveto 0.5800 0.0500 0.0400 0.4600 0.0800 draw_round_box
11.8154 -43.3544 moveto 0.5800 0.0500 0.0400 0.4600 0.0800 draw_round_box
7.7900 -50.3886 moveto gsave currentpoint translate
1 setlinecap 1 setlinejoin 0.08000000 setlinewidth
0.92914749 4.49862020 moveto  3.09622146 5.92329773 12.02344285 5.23755674 13.94750505 3.49862020 curveto  12.01425217 5.11790921 3.08703078 5.80365020 0.92914749 4.49862020 curveto   closepath  gsave stroke grestore fill grestore
7.7900 -50.3886 moveto gsave currentpoint translate
1 setlinecap 1 setlinejoin 0.08000000 setlinewidth
0.04402265 -2.99862020 moveto  2.54749962 -4.90829999 20.26315882 -5.79789942 22.94535043 -4.14862020 curveto  20.26917709 -5.67805043 2.55351788 -4.78845100 0.04402265 -2.99862020 curveto   closepath  gsave stroke grestore fill grestore
26.2635 -31.0634 moveto true 2.8304 0.3900 2.8304 -0.0100 0.0400 -0.2000 0.0400 0.2000 3 0.0800 draw_polygon
25.2094 -37.6834 moveto true 2.8304 0.5100 2.8304 0.1100 0.0400 -0.2000 0.0400 0.2000 3 0.0800 draw_polygon
38.6230 -40.5544 moveto 0.5800 0.0500 0.0400 0.4600 0.0800 draw_round_box
38.6230 -43.3544 moveto 0.5800 0.0500 0.0400 0.4600 0.0800 draw_round_box
46.9805 -43.3544 moveto 0.5800 0.0500 0.0400 0.4600 0.0800 draw_round_box
40.5314 -50.3886 moveto gsave currentpoint translate
1 setlinecap 1 setlinejoin 0.08000000 setlinewidth
1.55475556 3.99862020 moveto  2.84868558 4.96542142 5.73636337 4.69148260 6.82541746 3.49862020 curveto  5.72503048 4.57201894 2.83735269 4.84595776 1.55475556 3.99862020 curveto   closepath  gsave stroke grestore fill grestore
54.3541 -40.5544 moveto 0.5800 0.0500 0.0400 0.4600 0.0800 draw_round_box
54.3541 -43.3544 moveto 0.5800 0.0500 0.0400 0.4600 0.0800 draw_round_box
52.0185 -50.3886 moveto 0.0500 2.4237 -0.0250 2.2030 0.0800 draw_round_box
57.5389 -48.8886 moveto magfontemmentaler-18mDWo /noteheads.s0 glyphshow 
57.5524 -43.3544 moveto /TeXGyrePagella-Regular 3.90625000 output-scale div selectfont
0.6146 0.0000 0.0000 /exclam
1.1267 0.0000 0.0000 /a
2 print_glyphs
57.5524 -40.5544 moveto /TeXGyrePagella-Regular 3.90625000 output-scale div selectfont
0.6146 0.0000 0.0000 /exclam
1.1267 0.0000 0.0000 /a
2 print_glyphs
57.5389 -36.3734 moveto magfontemmentaler-18mDWo /noteheads.s0 glyphshow 
58.4231 -30.5514 moveto magfontemmentaler-18mDWo /scripts.ufermata glyphshow 
57.5389 -34.8734 moveto magfontemmentaler-18mDWo /noteheads.s0 glyphshow 
57.5389 -49.8886 moveto magfontemmentaler-18mDWo /noteheads.s0 glyphshow 
52.0185 -32.8734 moveto 0.0500 3.2570 -0.0250 -1.2970 0.0800 draw_round_box
50.8995 -48.3886 moveto magfontemmentaler-18mDWo /noteheads.s2 glyphshow 
51.1671 -43.3544 moveto /TeXGyrePagella-Regular 3.90625000 output-scale div selectfont
0.6487 0.0000 0.0000 /i
1 print_glyphs
51.1671 -40.5544 moveto /TeXGyrePagella-Regular 3.90625000 output-scale div selectfont
0.6487 0.0000 0.0000 /i
1 print_glyphs
50.8995 -34.3734 moveto magfontemmentaler-18mDWo /noteheads.s2 glyphshow 
14.8201 -32.8734 moveto 0.0500 3.1901 -0.0250 -0.2301 0.0800 draw_round_box
13.6303 -50.3886 moveto magfontemmentaler-18mDWo /noteheads.s1 glyphshow 
13.6303 -34.3734 moveto magfontemmentaler-18mDWo /noteheads.s1 glyphshow 
13.6303 -33.3734 moveto magfontemmentaler-18mDWo /noteheads.s1 glyphshow 
13.6953 -32.8734 moveto 0.0500 2.5234 -0.0250 -4.2933 0.0800 draw_round_box
7.8550 -50.3886 moveto 0.0500 3.1901 -0.0250 -1.9600 0.0800 draw_round_box
20.9128 -34.8734 moveto magfontemmentaler-18mDWo /noteheads.s2 glyphshow 
20.9778 -32.8734 moveto 0.0500 2.4237 -0.0250 -4.6267 0.0800 draw_round_box
34.7253 -40.5544 moveto /TeXGyrePagella-Regular 3.90625000 output-scale div selectfont
1.0584 0.0000 0.0000 /e
0.6487 0.0000 0.0000 /l
2 print_glyphs
22.0318 -32.8734 moveto 0.0500 3.2570 -0.0250 -0.7970 0.0800 draw_round_box
20.9128 -49.8886 moveto magfontemmentaler-18mDWo /noteheads.s1 glyphshow 
20.9128 -47.8886 moveto magfontemmentaler-18mDWo /noteheads.s1 glyphshow 
7.8550 -32.8734 moveto 0.0500 2.6901 -0.0250 -3.9600 0.0800 draw_round_box
20.9128 -33.8734 moveto magfontemmentaler-18mDWo /noteheads.s2 glyphshow 
13.6953 -50.3886 moveto 0.0500 3.0234 -0.0250 -3.2933 0.0800 draw_round_box
4.3000 -30.8734 moveto magfontemmentaler-18mDWo /accidentals.sharp glyphshow 
0.8000 -33.8734 moveto magfontemmentaler-18mDWo /clefs.G glyphshow 
-0.7853 -29.7893 moveto /TeXGyrePagella-Regular 2.76074219 output-scale div selectfont
0.7853 0.0000 0.0000 /five
1 print_glyphs
-0.0600 -41.6310 moveto 0.0600 21.5152 0.0500 -10.7576 0.1000 draw_round_box
-1.3100 -30.6209 moveto magfontemmentaler-18mDWo /brackettips.up glyphshow 
-1.3100 -52.6411 moveto magfontemmentaler-18mDWo /brackettips.down glyphshow 
-1.3100 -41.6310 moveto 0.4500 21.7052 0.0000 -10.8526 0.0000 draw_round_box
7.7900 -32.8734 moveto magfontemmentaler-18mDWo /noteheads.s1 glyphshow 
8.9798 -32.8734 moveto 0.0500 3.0234 -0.0250 0.2699 0.0800 draw_round_box
7.7900 -48.8886 moveto magfontemmentaler-18mDWo /noteheads.s1 glyphshow 
7.7900 -46.8886 moveto magfontemmentaler-18mDWo /noteheads.s0 glyphshow 
7.7900 -43.3544 moveto /TeXGyrePagella-Regular 3.90625000 output-scale div selectfont
0.6487 0.0000 0.0000 /l
1.1267 0.0000 0.0000 /a
2 print_glyphs
7.7900 -40.5544 moveto /TeXGyrePagella-Regular 3.90625000 output-scale div selectfont
0.6487 0.0000 0.0000 /l
1.1267 0.0000 0.0000 /a
2 print_glyphs
7.7900 -33.8734 moveto magfontemmentaler-18mDWo /noteheads.s1 glyphshow 
4.3000 -49.3886 moveto magfontemmentaler-18mDWo /accidentals.sharp glyphshow 
0.8000 -49.3886 moveto magfontemmentaler-18mDWo /clefs.F glyphshow 
29.0689 -32.8734 moveto 0.0500 2.7527 -0.0250 -0.7970 0.0800 draw_round_box
28.0148 -32.8734 moveto 0.0500 2.2640 -0.0250 -4.4670 0.0800 draw_round_box
30.6902 -33.3734 moveto magfontemmentaler-18mDWo /noteheads.s2 glyphshow 
27.9498 -34.8734 moveto magfontemmentaler-18mDWo /noteheads.s2 glyphshow 
27.9498 -33.8734 moveto magfontemmentaler-18mDWo /noteheads.s2 glyphshow 
23.8694 -35.3734 moveto magfontemmentaler-18mDWo /accidentals.sharp glyphshow 
34.9868 -34.8734 moveto magfontemmentaler-18mDWo /noteheads.s2 glyphshow 
34.9868 -33.8734 moveto magfontemmentaler-18mDWo /noteheads.s2 glyphshow 
29.3502 -50.3886 moveto magfontemmentaler-18mDWo /accidentals.sharp glyphshow 
30.7552 -50.3886 moveto 0.0500 3.0903 -0.0250 -3.2933 0.0800 draw_round_box
30.7552 -32.8734 moveto 0.0500 2.5903 -0.0250 -4.2933 0.0800 draw_round_box
31.8092 -32.8734 moveto 0.0500 3.2570 -0.0250 -0.2970 0.0800 draw_round_box
30.6902 -50.3886 moveto magfontemmentaler-18mDWo /noteheads.s2 glyphshow 
30.6902 -34.3734 moveto magfontemmentaler-18mDWo /noteheads.s2 glyphshow 
20.9778 -50.3886 moveto 0.0500 3.1901 -0.0250 -2.9600 0.0800 draw_round_box
22.1025 -50.3886 moveto 0.0500 2.1901 -0.0250 2.7699 0.0800 draw_round_box
22.5689 -47.8886 moveto magfontemmentaler-18mDWo /dots.dot glyphshow 
25.2744 -32.8734 moveto 0.0500 2.0600 -0.0250 -4.7630 0.0800 draw_round_box
26.3285 -32.8734 moveto 0.0500 3.0713 -0.0250 -1.2970 0.0800 draw_round_box
25.2094 -35.3734 moveto magfontemmentaler-18mDWo /noteheads.s2 glyphshow 
25.2094 -34.3734 moveto magfontemmentaler-18mDWo /noteheads.s2 glyphshow 
0.0000 -65.0510 moveto 67.2238 0.0000 0.0500 0.0000 0.1000 draw_line
0.0000 -64.0510 moveto 67.2238 0.0000 0.0500 0.0000 0.1000 draw_line
0.0000 -63.0510 moveto 67.2238 0.0000 0.0500 0.0000 0.1000 draw_line
0.0000 -62.0510 moveto 67.2238 0.0000 0.0500 0.0000 0.1000 draw_line
0.0000 -61.0510 moveto 67.2238 0.0000 0.0500 0.0000 0.1000 draw_line
26.6741 -80.1805 moveto 0.1900 4.0000 0.0000 -2.0000 0.0000 draw_round_box
46.8181 -80.1805 moveto 0.1900 4.0000 0.0000 -2.0000 0.0000 draw_round_box
67.1338 -80.1805 moveto 0.1900 4.0000 0.0000 -2.0000 0.0000 draw_round_box
67.1338 -63.0510 moveto 0.1900 4.0000 0.0000 -2.0000 0.0000 draw_round_box
46.8181 -63.0510 moveto 0.1900 4.0000 0.0000 -2.0000 0.0000 draw_round_box
26.6741 -63.0510 moveto 0.1900 4.0000 0.0000 -2.0000 0.0000 draw_round_box
0.0000 -77.1805 moveto 1.5761 0.0000 21.8311 0.0000 0.2000 draw_round_box
0.0000 -77.1805 moveto 1.5761 0.0000 52.7960 0.0000 0.2000 draw_round_box
0.0000 -77.1805 moveto 1.5761 0.0000 57.7390 0.0000 0.2000 draw_round_box
0.0000 -77.1805 moveto 1.5761 0.0000 62.3235 0.0000 0.2000 draw_round_box
0.0000 -82.1805 moveto 67.2238 0.0000 0.0500 0.0000 0.1000 draw_line
0.0000 -81.1805 moveto 67.2238 0.0000 0.0500 0.0000 0.1000 draw_line
0.0000 -80.1805 moveto 67.2238 0.0000 0.0500 0.0000 0.1000 draw_line
0.0000 -79.1805 moveto 67.2238 0.0000 0.0500 0.0000 0.1000 draw_line
0.0000 -78.1805 moveto 67.2238 0.0000 0.0500 0.0000 0.1000 draw_line
48.3450 -78.6805 moveto magfontemmentaler-18mDWo /noteheads.s2 glyphshow 
48.4100 -80.1805 moveto 0.0500 3.2570 -0.0250 -1.9600 0.0800 draw_round_box
54.2411 -63.0510 moveto 0.0500 2.7570 -0.0250 -3.9600 0.0800 draw_round_box
49.4641 -80.1805 moveto 0.0500 2.2570 -0.0250 2.7030 0.0800 draw_round_box
49.4641 -63.0510 moveto 0.0500 3.2570 -0.0250 -0.7970 0.0800 draw_round_box
48.4100 -63.0510 moveto 0.0500 2.7570 -0.0250 -3.9600 0.0800 draw_round_box
54.1111 -63.0510 moveto 0.0500 3.2570 -0.0250 -0.2970 0.0800 draw_round_box
52.9920 -78.6805 moveto magfontemmentaler-18mDWo /noteheads.s2 glyphshow 
52.9920 -77.1805 moveto magfontemmentaler-18mDWo /noteheads.s2 glyphshow 
52.5085 -72.6464 moveto /TeXGyrePagella-Regular 3.90625000 output-scale div selectfont
1.2292 0.0000 0.0000 /y
0.9219 0.0000 0.0000 /r
2 print_glyphs
52.4232 -69.8464 moveto /TeXGyrePagella-Regular 3.90625000 output-scale div selectfont
1.1267 0.0000 0.0000 /a
1.1950 0.0000 0.0000 /v
2 print_glyphs
54.1761 -64.0510 moveto magfontemmentaler-18mDWo /noteheads.s2 glyphshow 
52.9920 -63.5510 moveto magfontemmentaler-18mDWo /noteheads.s2 glyphshow 
42.1258 -78.1805 moveto magfontemmentaler-18mDWo /rests.2 glyphshow 
40.0035 -72.6464 moveto /TeXGyrePagella-Regular 3.90625000 output-scale div selectfont
0.6146 0.0000 0.0000 /exclam
1.3657 0.0000 0.0000 /d
0.8536 0.0000 0.0000 /r
1.2292 0.0000 0.0000 /o
1.3657 0.0000 0.0000 /L
5 print_glyphs
41.3180 -69.8464 moveto /TeXGyrePagella-Regular 3.90625000 output-scale div selectfont
0.6146 0.0000 0.0000 /exclam
1.0584 0.0000 0.0000 /e
1.1267 0.0000 0.0000 /zcaron
3 print_glyphs
42.1258 -66.5510 moveto magfontemmentaler-18mDWo /rests.2 glyphshow 
42.1258 -63.5510 moveto magfontemmentaler-18mDWo /noteheads.s2 glyphshow 
37.5438 -80.1805 moveto 0.0500 2.7570 -0.0250 -3.9600 0.0800 draw_round_box
42.1258 -82.1805 moveto magfontemmentaler-18mDWo /rests.2 glyphshow 
38.5979 -80.1805 moveto 0.0500 2.2570 -0.0250 2.7030 0.0800 draw_round_box
37.5438 -63.0510 moveto 0.0500 2.5903 -0.0250 -4.2933 0.0800 draw_round_box
10.5292 -69.8464 moveto 0.5800 0.0500 0.0400 0.4600 0.0800 draw_round_box
47.1445 -72.6464 moveto /TeXGyrePagella-Regular 3.90625000 output-scale div selectfont
1.2292 0.0000 0.0000 /o
0.6487 0.0000 0.0000 /l
1.7072 0.0000 0.0000 /G
3 print_glyphs
47.4689 -69.8464 moveto /TeXGyrePagella-Regular 3.90625000 output-scale div selectfont
1.1267 0.0000 0.0000 /a
0.6487 0.0000 0.0000 /l
1.1609 0.0000 0.0000 /S
3 print_glyphs
48.3450 -64.0510 moveto magfontemmentaler-18mDWo /noteheads.s2 glyphshow 
48.3450 -64.0510 moveto magfontemmentaler-18mDWo /noteheads.s2 glyphshow 
48.3450 -77.6805 moveto magfontemmentaler-18mDWo /noteheads.s2 glyphshow 
43.2449 -63.0510 moveto 0.0500 3.2570 -0.0250 -0.2970 0.0800 draw_round_box
62.5846 -80.1805 moveto 0.0500 3.2570 -0.0250 -2.9600 0.0800 draw_round_box
63.6386 -80.1805 moveto 0.0500 2.2570 -0.0250 3.2030 0.0800 draw_round_box
62.5846 -63.0510 moveto 0.0500 2.7570 -0.0250 -3.9600 0.0800 draw_round_box
10.7341 -72.6464 moveto 0.5800 0.0500 0.0400 0.4600 0.0800 draw_round_box
19.8376 -69.8464 moveto 0.5800 0.0500 0.0400 0.4600 0.0800 draw_round_box
28.9034 -63.0510 moveto gsave currentpoint translate
1 setlinecap 1 setlinejoin 0.08000000 setlinewidth
1.11907273 3.64862020 moveto  2.75439907 5.02626053 8.05915663 5.02626053 9.69448298 3.64862020 curveto  8.05915663 4.90626053 2.75439907 4.90626053 1.11907273 3.64862020 curveto   closepath  gsave stroke grestore fill grestore
36.0781 -69.8464 moveto 0.5800 0.0500 0.0400 0.4600 0.0800 draw_round_box
33.2513 -72.6464 moveto 5.3476 0.0160 0.0320 0.0320 0.0640 draw_round_box
51.0842 -69.8464 moveto 0.5800 0.0500 0.0400 0.4600 0.0800 draw_round_box
51.2890 -72.6464 moveto 0.5800 0.0500 0.0400 0.4600 0.0800 draw_round_box
60.3613 -69.8464 moveto 0.5800 0.0500 0.0400 0.4600 0.0800 draw_round_box
59.0541 -63.0510 moveto 0.0500 3.0903 -0.0250 0.2030 0.0800 draw_round_box
57.9350 -78.6805 moveto magfontemmentaler-18mDWo /noteheads.s2 glyphshow 
57.9350 -76.6805 moveto magfontemmentaler-18mDWo /noteheads.s2 glyphshow 
57.3833 -72.6464 moveto /TeXGyrePagella-Regular 3.90625000 output-scale div selectfont
1.0584 0.0000 0.0000 /e
1.2292 0.0000 0.0000 /b
2 print_glyphs
57.3150 -69.8464 moveto /TeXGyrePagella-Regular 3.90625000 output-scale div selectfont
1.0584 0.0000 0.0000 /e
0.6487 0.0000 0.0000 /i
0.7170 0.0000 0.0000 /t
3 print_glyphs
57.9350 -64.0510 moveto magfontemmentaler-18mDWo /noteheads.s2 glyphshow 
57.9350 -63.0510 moveto magfontemmentaler-18mDWo /noteheads.s2 glyphshow 
58.0000 -63.0510 moveto 0.0500 2.7570 -0.0250 -3.9600 0.0800 draw_round_box
53.0570 -80.1805 moveto 0.0500 3.2570 -0.0250 -1.9600 0.0800 draw_round_box
54.1111 -80.1805 moveto 0.0500 2.2570 -0.0250 3.2030 0.0800 draw_round_box
63.6386 -63.0510 moveto 0.0500 2.9237 -0.0250 0.7030 0.0800 draw_round_box
62.5196 -79.6805 moveto magfontemmentaler-18mDWo /noteheads.s2 glyphshow 
62.5196 -77.1805 moveto magfontemmentaler-18mDWo /noteheads.s2 glyphshow 
62.1556 -72.6464 moveto /TeXGyrePagella-Regular 3.90625000 output-scale div selectfont
1.2292 0.0000 0.0000 /o
0.6829 0.0000 0.0000 /t
2 print_glyphs
61.6434 -69.8464 moveto /TeXGyrePagella-Regular 3.90625000 output-scale div selectfont
1.0584 0.0000 0.0000 /e
0.6487 0.0000 0.0000 /i
1.2292 0.0000 0.0000 /b
3 print_glyphs
62.5196 -64.0510 moveto magfontemmentaler-18mDWo /noteheads.s2 glyphshow 
62.5196 -62.5510 moveto magfontemmentaler-18mDWo /noteheads.s2 glyphshow 
58.0000 -80.1805 moveto 0.0500 3.2570 -0.0250 -1.9600 0.0800 draw_round_box
59.0541 -80.1805 moveto 0.0500 2.2570 -0.0250 3.7030 0.0800 draw_round_box
11.9535 -72.6464 moveto /TeXGyrePagella-Regular 3.90625000 output-scale div selectfont
1.2292 0.0000 0.0000 /y
0.9219 0.0000 0.0000 /r
2 print_glyphs
13.6861 -63.0510 moveto 0.0500 2.4237 -0.0250 -4.6267 0.0800 draw_round_box
13.5561 -63.0510 moveto 0.0500 3.2570 -0.0250 -1.2970 0.0800 draw_round_box
12.4370 -79.6805 moveto magfontemmentaler-18mDWo /noteheads.s2 glyphshow 
12.4370 -78.1805 moveto magfontemmentaler-18mDWo /noteheads.s2 glyphshow 
13.5561 -80.1805 moveto 0.0500 2.4237 -0.0250 2.2030 0.0800 draw_round_box
11.8682 -69.8464 moveto /TeXGyrePagella-Regular 3.90625000 output-scale div selectfont
1.1267 0.0000 0.0000 /a
1.1950 0.0000 0.0000 /v
2 print_glyphs
13.6211 -65.0510 moveto magfontemmentaler-18mDWo /noteheads.s2 glyphshow 
12.4370 -64.5510 moveto magfontemmentaler-18mDWo /noteheads.s2 glyphshow 
7.8550 -80.1805 moveto 0.0500 3.2570 -0.0250 -2.9600 0.0800 draw_round_box
16.7600 -69.8464 moveto /TeXGyrePagella-Regular 3.90625000 output-scale div selectfont
1.0584 0.0000 0.0000 /e
0.6487 0.0000 0.0000 /i
0.7170 0.0000 0.0000 /t
3 print_glyphs
38.5979 -63.0510 moveto 0.0500 3.0903 -0.0250 0.2030 0.0800 draw_round_box
17.4451 -63.0510 moveto 0.0500 2.4237 -0.0250 -4.6267 0.0800 draw_round_box
18.4991 -63.0510 moveto 0.0500 3.2570 -0.0250 -0.7970 0.0800 draw_round_box
17.3801 -79.6805 moveto magfontemmentaler-18mDWo /noteheads.s2 glyphshow 
17.3801 -77.6805 moveto magfontemmentaler-18mDWo /noteheads.s2 glyphshow 
16.8283 -72.6464 moveto /TeXGyrePagella-Regular 3.90625000 output-scale div selectfont
1.0584 0.0000 0.0000 /e
1.2292 0.0000 0.0000 /b
2 print_glyphs
8.9091 -80.1805 moveto 0.0500 2.5903 -0.0250 1.7030 0.0800 draw_round_box
17.3801 -65.0510 moveto magfontemmentaler-18mDWo /noteheads.s2 glyphshow 
17.3801 -64.0510 moveto magfontemmentaler-18mDWo /noteheads.s2 glyphshow 
12.5020 -80.1805 moveto 0.0500 3.2570 -0.0250 -2.9600 0.0800 draw_round_box
4.3000 -61.0510 moveto magfontemmentaler-18mDWo /accidentals.sharp glyphshow 
0.8000 -64.0510 moveto magfontemmentaler-18mDWo /clefs.G glyphshow 
-0.7853 -59.9669 moveto /TeXGyrePagella-Regular 2.76074219 output-scale div selectfont
0.7853 0.0000 0.0000 /nine
1 print_glyphs
3.1219 -59.2069 moveto /TeXGyrePagella-Italic 4.38378906 output-scale div selectfont
0.9560 0.0000 0.0000 /e
1.3999 0.0000 0.0000 /n
0.6829 0.0000 0.0000 /i
1.2974 0.0000 0.0000 /F
4 print_glyphs
0.8000 -79.1805 moveto magfontemmentaler-18mDWo /clefs.F glyphshow 
-0.0600 -71.6157 moveto 0.0600 21.1295 0.0500 -10.5647 0.1000 draw_round_box
-1.3100 -60.7985 moveto magfontemmentaler-18mDWo /brackettips.up glyphshow 
-1.3100 -82.4330 moveto magfontemmentaler-18mDWo /brackettips.down glyphshow 
-1.3100 -71.6157 moveto 0.4500 21.3195 0.0000 -10.6597 0.0000 draw_round_box
6.5895 -72.6464 moveto /TeXGyrePagella-Regular 3.90625000 output-scale div selectfont
1.2292 0.0000 0.0000 /o
0.6487 0.0000 0.0000 /l
1.7072 0.0000 0.0000 /G
3 print_glyphs
7.8550 -63.0510 moveto 0.0500 2.4237 -0.0250 -4.6267 0.0800 draw_round_box
8.9091 -63.0510 moveto 0.0500 3.2570 -0.0250 -1.7970 0.0800 draw_round_box
7.7900 -79.6805 moveto magfontemmentaler-18mDWo /noteheads.s2 glyphshow 
7.7900 -78.6805 moveto magfontemmentaler-18mDWo /noteheads.s2 glyphshow 
6.9139 -69.8464 moveto /TeXGyrePagella-Regular 3.90625000 output-scale div selectfont
1.1267 0.0000 0.0000 /a
0.6487 0.0000 0.0000 /l
1.1609 0.0000 0.0000 /S
3 print_glyphs
7.7900 -65.0510 moveto magfontemmentaler-18mDWo /noteheads.s2 glyphshow 
7.7900 -65.0510 moveto magfontemmentaler-18mDWo /noteheads.s2 glyphshow 
4.3000 -79.1805 moveto magfontemmentaler-18mDWo /accidentals.sharp glyphshow 
28.9684 -80.1805 moveto 0.0500 3.0234 -0.0250 -3.2933 0.0800 draw_round_box
30.0932 -80.1805 moveto 0.0500 2.1901 -0.0250 2.7699 0.0800 draw_round_box
28.9684 -63.0510 moveto 0.0500 2.5234 -0.0250 -4.2933 0.0800 draw_round_box
30.4889 -62.5510 moveto magfontemmentaler-18mDWo /dots.dot glyphshow 
28.9034 -80.1805 moveto magfontemmentaler-18mDWo /noteheads.s1 glyphshow 
37.4788 -81.1805 moveto magfontemmentaler-18mDWo /noteheads.s2 glyphshow 
37.4788 -77.6805 moveto magfontemmentaler-18mDWo /noteheads.s2 glyphshow 
37.4788 -64.5510 moveto magfontemmentaler-18mDWo /noteheads.s2 glyphshow 
37.4788 -63.0510 moveto magfontemmentaler-18mDWo /noteheads.s2 glyphshow 
35.7473 -59.3410 moveto magfontemmentaler-18mDWo /flags.u3 glyphshow 
35.6823 -63.0510 moveto 0.0500 3.0070 -0.0250 0.7030 0.0800 draw_round_box
34.5633 -62.5510 moveto magfontemmentaler-18mDWo /noteheads.s2 glyphshow 
30.0225 -63.0510 moveto 0.0500 3.0903 -0.0250 0.2030 0.0800 draw_round_box
27.5634 -80.1805 moveto magfontemmentaler-18mDWo /accidentals.sharp glyphshow 
22.0271 -65.0510 moveto magfontemmentaler-18mDWo /noteheads.s2 glyphshow 
22.0921 -63.0510 moveto 0.0500 2.4237 -0.0250 -4.6267 0.0800 draw_round_box
28.9034 -77.6805 moveto magfontemmentaler-18mDWo /noteheads.s1 glyphshow 
23.1462 -63.0510 moveto 0.0500 3.2570 -0.0250 -0.2970 0.0800 draw_round_box
22.0271 -79.6805 moveto magfontemmentaler-18mDWo /noteheads.s2 glyphshow 
22.0271 -77.1805 moveto magfontemmentaler-18mDWo /noteheads.s2 glyphshow 
21.6631 -72.6464 moveto /TeXGyrePagella-Regular 3.90625000 output-scale div selectfont
1.2292 0.0000 0.0000 /o
0.6829 0.0000 0.0000 /t
2 print_glyphs
21.1510 -69.8464 moveto /TeXGyrePagella-Regular 3.90625000 output-scale div selectfont
1.0584 0.0000 0.0000 /e
0.6487 0.0000 0.0000 /i
1.2292 0.0000 0.0000 /b
3 print_glyphs
22.0271 -63.5510 moveto magfontemmentaler-18mDWo /noteheads.s2 glyphshow 
17.4451 -80.1805 moveto 0.0500 3.2570 -0.0250 -2.9600 0.0800 draw_round_box
18.4991 -80.1805 moveto 0.0500 2.2570 -0.0250 2.7030 0.0800 draw_round_box
28.9034 -72.6464 moveto /TeXGyrePagella-Regular 3.90625000 output-scale div selectfont
0.5463 0.0000 0.0000 /comma
1.3316 0.0000 0.0000 /u
1.2292 0.0000 0.0000 /o
1.1609 0.0000 0.0000 /y
4 print_glyphs
28.9034 -69.8464 moveto /TeXGyrePagella-Regular 3.90625000 output-scale div selectfont
1.2292 0.0000 0.0000 /o
1.3657 0.0000 0.0000 /B
2 print_glyphs
28.9034 -64.5510 moveto magfontemmentaler-18mDWo /noteheads.s1 glyphshow 
28.9034 -63.0510 moveto magfontemmentaler-18mDWo /noteheads.s2 glyphshow 
23.1462 -80.1805 moveto 0.0500 2.2570 -0.0250 3.2030 0.0800 draw_round_box
22.0921 -80.1805 moveto 0.0500 3.2570 -0.0250 -2.9600 0.0800 draw_round_box
0.0000 -93.6437 moveto 67.2238 0.0000 0.0500 0.0000 0.1000 draw_line
0.0000 -92.6437 moveto 67.2238 0.0000 0.0500 0.0000 0.1000 draw_line
0.0000 -91.6437 moveto 67.2238 0.0000 0.0500 0.0000 0.1000 draw_line
0.0000 -90.6437 moveto 67.2238 0.0000 0.0500 0.0000 0.1000 draw_line
0.0000 -89.6437 moveto 67.2238 0.0000 0.0500 0.0000 0.1000 draw_line
67.1338 -109.0484 moveto 0.1900 4.0000 0.0000 -2.0000 0.0000 draw_round_box
66.6438 -109.0484 moveto 0.1900 4.0000 0.0000 -2.0000 0.0000 draw_round_box
47.8410 -91.6437 moveto 0.1900 4.0000 0.0000 -2.0000 0.0000 draw_round_box
67.1338 -91.6437 moveto 0.1900 4.0000 0.0000 -2.0000 0.0000 draw_round_box
66.6438 -91.6437 moveto 0.1900 4.0000 0.0000 -2.0000 0.0000 draw_round_box
26.1108 -109.0484 moveto 0.1900 4.0000 0.0000 -2.0000 0.0000 draw_round_box
26.1108 -91.6437 moveto 0.1900 4.0000 0.0000 -2.0000 0.0000 draw_round_box
0.0000 -111.0484 moveto 67.2238 0.0000 0.0500 0.0000 0.1000 draw_line
0.0000 -110.0484 moveto 67.2238 0.0000 0.0500 0.0000 0.1000 draw_line
0.0000 -109.0484 moveto 67.2238 0.0000 0.0500 0.0000 0.1000 draw_line
0.0000 -108.0484 moveto 67.2238 0.0000 0.0500 0.0000 0.1000 draw_line
0.0000 -107.0484 moveto 67.2238 0.0000 0.0500 0.0000 0.1000 draw_line
47.8410 -109.0484 moveto 0.1900 4.0000 0.0000 -2.0000 0.0000 draw_round_box
0.0000 -106.0484 moveto 1.6821 0.0000 59.3456 0.0000 0.2000 draw_round_box
49.2570 -110.0484 moveto magfontemmentaler-18mDWo /noteheads.s2 glyphshow 
49.2570 -107.5484 moveto magfontemmentaler-18mDWo /noteheads.s2 glyphshow 
47.2041 -101.5143 moveto /TeXGyrePagella-Regular 3.90625000 output-scale div selectfont
0.5463 0.0000 0.0000 /space
0.5463 0.0000 0.0000 /space
0.5463 0.0000 0.0000 /comma
1.3316 0.0000 0.0000 /u
1.2292 0.0000 0.0000 /o
1.1609 0.0000 0.0000 /y
6 print_glyphs
48.5869 -98.7143 moveto /TeXGyrePagella-Regular 3.90625000 output-scale div selectfont
1.2292 0.0000 0.0000 /o
1.3657 0.0000 0.0000 /B
2 print_glyphs
49.2570 -94.1437 moveto magfontemmentaler-18mDWo /noteheads.s2 glyphshow 
43.8833 -109.0484 moveto 0.0500 2.2570 -0.0250 2.7030 0.0800 draw_round_box
49.2570 -91.6437 moveto magfontemmentaler-18mDWo /noteheads.s1 glyphshow 
42.8292 -109.0484 moveto 0.0500 3.2570 -0.0250 -2.9600 0.0800 draw_round_box
49.3220 -109.0484 moveto 0.0500 2.7570 -0.0250 -3.9600 0.0800 draw_round_box
50.3761 -109.0484 moveto 0.0500 2.5903 -0.0250 1.7030 0.0800 draw_round_box
50.4468 -91.6437 moveto 0.0500 3.0234 -0.0250 0.2699 0.0800 draw_round_box
49.3220 -91.6437 moveto 0.0500 2.2570 -0.0250 -4.9600 0.0800 draw_round_box
38.7530 -109.0484 moveto 0.0500 2.4237 -0.0250 2.2030 0.0800 draw_round_box
37.6989 -91.6437 moveto 0.0500 2.4237 -0.0250 -4.6267 0.0800 draw_round_box
38.7530 -91.6437 moveto 0.0500 3.2570 -0.0250 -0.2970 0.0800 draw_round_box
37.6339 -109.5484 moveto magfontemmentaler-18mDWo /noteheads.s2 glyphshow 
37.6339 -107.0484 moveto magfontemmentaler-18mDWo /noteheads.s2 glyphshow 
37.0822 -101.5143 moveto /TeXGyrePagella-Regular 3.90625000 output-scale div selectfont
1.0584 0.0000 0.0000 /e
1.2292 0.0000 0.0000 /b
2 print_glyphs
37.0139 -98.7143 moveto /TeXGyrePagella-Regular 3.90625000 output-scale div selectfont
1.0584 0.0000 0.0000 /e
0.6487 0.0000 0.0000 /i
0.7170 0.0000 0.0000 /t
3 print_glyphs
37.6339 -93.6437 moveto magfontemmentaler-18mDWo /noteheads.s2 glyphshow 
37.6339 -92.1437 moveto magfontemmentaler-18mDWo /noteheads.s2 glyphshow 
7.7900 -91.6437 moveto gsave currentpoint translate
1 setlinecap 1 setlinejoin 0.08000000 setlinewidth
1.48407273 3.64862020 moveto  3.03866834 4.94951309 7.71202659 4.89233288 9.23432779 3.55379306 curveto  7.71055845 4.77234187 3.03720020 4.82952207 1.48407273 3.64862020 curveto   closepath  gsave stroke grestore fill grestore
42.7642 -106.5484 moveto magfontemmentaler-18mDWo /noteheads.s2 glyphshow 
42.8292 -91.6437 moveto 0.0500 2.4237 -0.0250 -4.6267 0.0800 draw_round_box
43.8833 -91.6437 moveto 0.0500 3.2570 -0.0250 -0.7970 0.0800 draw_round_box
42.7642 -108.5484 moveto magfontemmentaler-18mDWo /noteheads.s2 glyphshow 
42.4003 -101.5143 moveto /TeXGyrePagella-Regular 3.90625000 output-scale div selectfont
1.2292 0.0000 0.0000 /o
0.6829 0.0000 0.0000 /t
2 print_glyphs
41.8881 -98.7143 moveto /TeXGyrePagella-Regular 3.90625000 output-scale div selectfont
1.0584 0.0000 0.0000 /e
0.6487 0.0000 0.0000 /i
1.2292 0.0000 0.0000 /b
3 print_glyphs
42.7642 -93.6437 moveto magfontemmentaler-18mDWo /noteheads.s2 glyphshow 
42.7642 -92.6437 moveto magfontemmentaler-18mDWo /noteheads.s2 glyphshow 
37.6989 -109.0484 moveto 0.0500 2.9237 -0.0250 -3.6267 0.0800 draw_round_box
60.9038 -88.1495 moveto /TeXGyrePagella-Italic 4.38378906 output-scale div selectfont
0.6146 0.0000 0.0000 /period
1.6730 0.0000 0.0000 /C
0.6146 0.0000 0.0000 /period
1.9462 0.0000 0.0000 /D
4 print_glyphs
66.3521 -88.1495 moveto /TeXGyrePagella-Italic 4.38378906 output-scale div selectfont
0.6829 0.0000 0.0000 /l
1.0926 0.0000 0.0000 /a
2 print_glyphs
68.7276 -88.1495 moveto /TeXGyrePagella-Italic 4.38378906 output-scale div selectfont
0.9560 0.0000 0.0000 /e
1.3999 0.0000 0.0000 /n
0.6829 0.0000 0.0000 /i
1.2974 0.0000 0.0000 /F
4 print_glyphs
59.6243 -109.0484 moveto 0.0500 3.0234 -0.0250 -3.2933 0.0800 draw_round_box
7.7900 -91.6437 moveto gsave currentpoint translate
1 setlinecap 1 setlinejoin 0.08000000 setlinewidth
0.43000000 -2.14862020 moveto  1.25892740 -3.29154490 3.48002823 -3.73529728 4.68448013 -2.99862020 curveto  3.50353834 -3.61762284 1.28243751 -3.17387045 0.43000000 -2.14862020 curveto   closepath  gsave stroke grestore fill grestore
13.9894 -98.7143 moveto 0.5800 0.0500 0.0400 0.4600 0.0800 draw_round_box
7.7900 -109.0484 moveto gsave currentpoint translate
1 setlinecap 1 setlinejoin 0.08000000 setlinewidth
1.48407273 2.99862020 moveto  2.61503154 3.82263982 4.82945351 3.56239393 5.73855286 2.49862020 curveto  4.81544713 3.44321414 2.60102515 3.70346003 1.48407273 2.99862020 curveto   closepath  gsave stroke grestore fill grestore
13.8286 -88.6437 moveto true 3.2159 0.0100 3.2159 -0.3900 0.0400 -0.2000 0.0400 0.2000 3 0.0800 draw_polygon
30.4479 -98.7143 moveto 0.5800 0.0500 0.0400 0.4600 0.0800 draw_round_box
30.6528 -101.5143 moveto 0.5800 0.0500 0.0400 0.4600 0.0800 draw_round_box
40.3331 -98.7143 moveto 0.5800 0.0500 0.0400 0.4600 0.0800 draw_round_box
49.2570 -91.6437 moveto gsave currentpoint translate
1 setlinecap 1 setlinejoin 0.08000000 setlinewidth
0.43000000 -3.49862020 moveto  1.57507776 -4.33542015 3.84314287 -4.07399062 4.76781347 -2.99862020 curveto  3.82940200 -3.95477993 1.56133689 -4.21620946 0.43000000 -3.49862020 curveto   closepath  gsave stroke grestore fill grestore
54.6543 -98.7143 moveto 0.5800 0.0500 0.0400 0.4600 0.0800 draw_round_box
49.2570 -109.0484 moveto gsave currentpoint translate
1 setlinecap 1 setlinejoin 0.08000000 setlinewidth
1.48407273 2.49862020 moveto  2.29479741 3.68564826 4.57330880 4.21091552 5.82188619 3.49862020 curveto  4.60026548 4.09398248 2.32175409 3.56871521 1.48407273 2.49862020 curveto   closepath  gsave stroke grestore fill grestore
49.2570 -109.0484 moveto gsave currentpoint translate
1 setlinecap 1 setlinejoin 0.08000000 setlinewidth
0.43000000 -2.14862020 moveto  1.27501659 -3.30277495 3.54969857 -3.74850174 4.76781347 -2.99862020 curveto  3.57277388 -3.63074126 1.29809191 -3.18501447 0.43000000 -2.14862020 curveto   closepath  gsave stroke grestore fill grestore
54.3248 -106.5484 moveto magfontemmentaler-18mDWo /noteheads.s2 glyphshow 
54.3898 -109.0484 moveto 0.0500 2.4237 -0.0250 -4.6267 0.0800 draw_round_box
55.4439 -109.0484 moveto 0.0500 2.2570 -0.0250 2.7030 0.0800 draw_round_box
54.3898 -91.6437 moveto 0.0500 2.4237 -0.0250 -4.6267 0.0800 draw_round_box
54.3248 -111.0484 moveto magfontemmentaler-18mDWo /noteheads.s2 glyphshow 
54.3248 -93.6437 moveto magfontemmentaler-18mDWo /noteheads.s2 glyphshow 
60.7491 -91.6437 moveto 0.0500 3.1901 -0.0250 -0.2301 0.0800 draw_round_box
60.7491 -109.0484 moveto 0.0500 2.1901 -0.0250 3.7699 0.0800 draw_round_box
59.6243 -91.6437 moveto 0.0500 2.5234 -0.0250 -4.2933 0.0800 draw_round_box
59.5593 -109.0484 moveto magfontemmentaler-18mDWo /noteheads.s1 glyphshow 
59.5593 -105.5484 moveto magfontemmentaler-18mDWo /noteheads.s1 glyphshow 
57.0967 -101.5143 moveto /TeXGyrePagella-Regular 3.90625000 output-scale div selectfont
0.7512 0.0000 0.0000 /parenright
0.6146 0.0000 0.0000 /exclam
1.3657 0.0000 0.0000 /d
0.8536 0.0000 0.0000 /r
1.2292 0.0000 0.0000 /o
1.3657 0.0000 0.0000 /L
6 print_glyphs
58.7868 -98.7143 moveto /TeXGyrePagella-Regular 3.90625000 output-scale div selectfont
0.6146 0.0000 0.0000 /exclam
1.0584 0.0000 0.0000 /e
1.1267 0.0000 0.0000 /zcaron
3 print_glyphs
59.5593 -93.1437 moveto magfontemmentaler-18mDWo /noteheads.s1 glyphshow 
59.5593 -92.1437 moveto magfontemmentaler-18mDWo /noteheads.s1 glyphshow 
12.8395 -91.6437 moveto 0.0500 2.4237 -0.0250 -4.6267 0.0800 draw_round_box
13.8936 -91.6437 moveto 0.0500 2.2532 -0.0250 0.7030 0.0800 draw_round_box
12.7745 -107.5484 moveto magfontemmentaler-18mDWo /noteheads.s2 glyphshow 
12.7745 -93.6437 moveto magfontemmentaler-18mDWo /noteheads.s2 glyphshow 
12.7745 -91.1437 moveto magfontemmentaler-18mDWo /noteheads.s2 glyphshow 
7.8550 -109.0484 moveto 0.0500 3.0234 -0.0250 -3.2933 0.0800 draw_round_box
8.9091 -109.0484 moveto 0.0500 2.4237 -0.0250 2.2030 0.0800 draw_round_box
20.2161 -91.6437 moveto 0.0500 3.1901 -0.0250 -0.2301 0.0800 draw_round_box
19.0264 -109.0484 moveto magfontemmentaler-18mDWo /noteheads.s1 glyphshow 
19.0264 -107.0484 moveto magfontemmentaler-18mDWo /noteheads.s1 glyphshow 
18.2539 -98.7143 moveto /TeXGyrePagella-Regular 3.90625000 output-scale div selectfont
0.6146 0.0000 0.0000 /exclam
1.0584 0.0000 0.0000 /e
1.1267 0.0000 0.0000 /zcaron
3 print_glyphs
19.0264 -93.1437 moveto magfontemmentaler-18mDWo /noteheads.s1 glyphshow 
19.0264 -92.1437 moveto magfontemmentaler-18mDWo /noteheads.s1 glyphshow 
17.0195 -91.6437 moveto 0.0500 2.5708 -0.0250 0.2030 0.0800 draw_round_box
15.9004 -91.6437 moveto magfontemmentaler-18mDWo /noteheads.s2 glyphshow 
13.8936 -109.0484 moveto 0.0500 2.5903 -0.0250 1.7030 0.0800 draw_round_box
4.3000 -89.6437 moveto magfontemmentaler-18mDWo /accidentals.sharp glyphshow 
0.8000 -92.6437 moveto magfontemmentaler-18mDWo /clefs.G glyphshow 
-1.5706 -88.5595 moveto /TeXGyrePagella-Regular 2.76074219 output-scale div selectfont
0.7853 0.0000 0.0000 /two
0.7853 0.0000 0.0000 /one
2 print_glyphs
0.8000 -108.0484 moveto magfontemmentaler-18mDWo /clefs.F glyphshow 
-0.0600 -100.3460 moveto 0.0600 21.4047 0.0500 -10.7024 0.1000 draw_round_box
-1.3100 -89.3912 moveto magfontemmentaler-18mDWo /brackettips.up glyphshow 
-1.3100 -111.3009 moveto magfontemmentaler-18mDWo /brackettips.down glyphshow 
-1.3100 -100.3460 moveto 0.4500 21.5947 0.0000 -10.7974 0.0000 draw_round_box
7.7900 -98.7143 moveto /TeXGyrePagella-Regular 3.90625000 output-scale div selectfont
1.2292 0.0000 0.0000 /o
1.3657 0.0000 0.0000 /B
2 print_glyphs
7.8550 -91.6437 moveto 0.0500 2.7570 -0.0250 -3.9600 0.0800 draw_round_box
8.9091 -91.6437 moveto 0.0500 2.7570 -0.0250 1.2030 0.0800 draw_round_box
7.7900 -109.0484 moveto magfontemmentaler-18mDWo /noteheads.s1 glyphshow 
7.7900 -107.0484 moveto magfontemmentaler-18mDWo /noteheads.s2 glyphshow 
7.7900 -101.5143 moveto /TeXGyrePagella-Regular 3.90625000 output-scale div selectfont
0.5463 0.0000 0.0000 /space
0.5463 0.0000 0.0000 /space
0.5463 0.0000 0.0000 /comma
1.3316 0.0000 0.0000 /u
1.2292 0.0000 0.0000 /o
1.1609 0.0000 0.0000 /y
6 print_glyphs
16.9394 -101.5143 moveto /TeXGyrePagella-Regular 3.90625000 output-scale div selectfont
0.6146 0.0000 0.0000 /exclam
1.3657 0.0000 0.0000 /d
0.8536 0.0000 0.0000 /r
1.2292 0.0000 0.0000 /o
1.3657 0.0000 0.0000 /L
5 print_glyphs
7.7900 -92.6437 moveto magfontemmentaler-18mDWo /noteheads.s2 glyphshow 
7.7900 -90.6437 moveto magfontemmentaler-18mDWo /noteheads.s2 glyphshow 
4.3000 -108.0484 moveto magfontemmentaler-18mDWo /accidentals.sharp glyphshow 
32.5661 -91.6437 moveto magfontemmentaler-18mDWo /noteheads.s2 glyphshow 
27.5633 -109.0484 moveto 0.0500 2.5903 -0.0250 -4.2933 0.0800 draw_round_box
32.6311 -91.6437 moveto 0.0500 2.4237 -0.0250 -4.6267 0.0800 draw_round_box
32.6311 -109.0484 moveto 0.0500 2.7570 -0.0250 -3.9600 0.0800 draw_round_box
33.6852 -109.0484 moveto 0.0500 2.5903 -0.0250 1.7030 0.0800 draw_round_box
28.6174 -109.0484 moveto 0.0500 2.4237 -0.0250 2.2030 0.0800 draw_round_box
33.6852 -91.6437 moveto 0.0500 3.0903 -0.0250 0.2030 0.0800 draw_round_box
32.5661 -110.0484 moveto magfontemmentaler-18mDWo /noteheads.s2 glyphshow 
32.5661 -107.5484 moveto magfontemmentaler-18mDWo /noteheads.s2 glyphshow 
32.0826 -101.5143 moveto /TeXGyrePagella-Regular 3.90625000 output-scale div selectfont
1.2292 0.0000 0.0000 /y
0.9219 0.0000 0.0000 /r
2 print_glyphs
31.9973 -98.7143 moveto /TeXGyrePagella-Regular 3.90625000 output-scale div selectfont
1.1267 0.0000 0.0000 /a
1.1950 0.0000 0.0000 /v
2 print_glyphs
32.5661 -93.6437 moveto magfontemmentaler-18mDWo /noteheads.s2 glyphshow 
26.6222 -98.7143 moveto /TeXGyrePagella-Regular 3.90625000 output-scale div selectfont
1.1267 0.0000 0.0000 /a
0.6487 0.0000 0.0000 /l
1.1609 0.0000 0.0000 /S
3 print_glyphs
27.4983 -93.6437 moveto magfontemmentaler-18mDWo /noteheads.s2 glyphshow 
27.4983 -91.1437 moveto magfontemmentaler-18mDWo /noteheads.s2 glyphshow 
19.0914 -109.0484 moveto 0.0500 3.0234 -0.0250 -3.2933 0.0800 draw_round_box
20.2161 -109.0484 moveto 0.0500 2.3568 -0.0250 2.2699 0.0800 draw_round_box
19.0914 -91.6437 moveto 0.0500 2.5234 -0.0250 -4.2933 0.0800 draw_round_box
26.2978 -101.5143 moveto /TeXGyrePagella-Regular 3.90625000 output-scale div selectfont
1.2292 0.0000 0.0000 /o
0.6487 0.0000 0.0000 /l
1.7072 0.0000 0.0000 /G
3 print_glyphs
27.5633 -91.6437 moveto 0.0500 2.4237 -0.0250 -4.6267 0.0800 draw_round_box
28.6174 -91.6437 moveto 0.0500 2.9237 -0.0250 0.7030 0.0800 draw_round_box
27.4983 -110.5484 moveto magfontemmentaler-18mDWo /noteheads.s2 glyphshow 
27.4983 -107.0484 moveto magfontemmentaler-18mDWo /noteheads.s2 glyphshow 
stroke grestore
%%Trailer
%%EOF
