%!PS-Adobe-2.0 EPSF-2.0
%%Creator: LilyPond 2.18.2
%%BoundingBox: -9 -134 336 0
%%Orientation: Portrait
%%DocumentSuppliedResources: font Emmentaler-11
%%DocumentSuppliedResources: font Emmentaler-18
%%DocumentSuppliedResources: font TeXGyrePagella-Italic
%%DocumentSuppliedResources: font TeXGyrePagella-Regular
%%EndComments
%%BeginProlog
/lilypond-datadir where {pop} {userdict /lilypond-datadir (/usr/share/lilypond/2.18.2) put } ifelse
%%BeginFont: Emmentaler-11
lilypond-datadir (/fonts/otf/emmentaler-11.otf) concatstrings (r) file .loadfont
%%EndFont

%%BeginFont: Emmentaler-18
lilypond-datadir (/fonts/otf/emmentaler-18.otf) concatstrings (r) file .loadfont
%%EndFont

%%BeginFont: TeXGyrePagella-Italic
(/usr/share/texmf/fonts/opentype/public/tex-gyre/texgyrepagella-italic.otf) (r) file .loadfont
%%EndFont

%%BeginFont: TeXGyrePagella-Regular
(/usr/share/texmf/fonts/opentype/public/tex-gyre/texgyrepagella-regular.otf) (r) file .loadfont
%%EndFont

/magfontemmentaler-11mORo { /Emmentaler-11 3.1631 output-scale div selectfont } bind def
/magfontemmentaler-18mDWo { /Emmentaler-18 6.3263 output-scale div selectfont } bind def
/lily-output-units 2.83464566929134 def %% millimeter
/staff-line-thickness 0.1 def
/line-width 67.3237795275591 def
/paper-size (a4) def
/staff-height 4.0 def
/output-scale 1.75729901757299 def
/page-height 169.00937007874 def
/page-width 119.50157480315 def
%%BeginResource: procset (music-drawing-routines.ps) 1 0
%!PS-Adobe-2.0
%
% Functions for direct and embedded PostScript

% Careful with double % as comment prefix.
% Any %%X comment is interpreted as DSC comments.

% TODO: use dicts or prefixes to prevent namespace pollution.

/pdfmark where
{pop} {userdict /pdfmark /cleartomark load put} ifelse


% llx lly urx ury URI
/mark_URI
{
    /uri exch def
    /ury exch def
    /urx exch def
    /lly exch def
    /llx exch def
    [
	/Rect [ llx lly urx ury ]
	
	/Border [ 0 0 0 ]

        /Action
	    <<
		/Subtype /URI
		/URI uri
	    >>
        /Subtype /Link
    /ANN
    pdfmark
}
bind def

% llx lly urx ury page
/mark_page_link
{
    /page exch def
    /ury exch def
    /urx exch def
    /lly exch def
    /llx exch def
    [
        /Rect [ llx lly urx ury ]
        /Border [ 0 0 0 ]
        /Page page
        /Subtype /Link
    /ANN
    pdfmark
}
bind def

% from adobe tech note 5002.
/BeginEPSF { %def
    /b4_Inc_state save def % Save state for cleanup
    /dict_count countdictstack def % Count objects on dict stack
    /op_count count 1 sub def % Count objects on operand stack
    userdict begin % Push userdict on dict stack
    /showpage { } def % Redefine showpage, { } = null proc
    0 setgray 0 setlinecap % Prepare graphics state
    1 setlinewidth 0 setlinejoin
    10 setmiterlimit [ ] 0 setdash newpath
    false setoverprint
} bind def

/EndEPSF { %def
  count op_count sub {pop} repeat % Clean up stacks
  countdictstack dict_count sub {end} repeat
  b4_Inc_state restore
} bind def

/stroke_and_fill? {
    {
	gsave
	    false setstrokeadjust
	    stroke
	grestore
	fill
    }
    {
	stroke
    }
    ifelse
} bind def

/vector_add { % x1 y1 x2 y2 vector_add x1+x2 y1+y2
	exch
	4 1 roll
	add
	3 1 roll
	add
	exch
} bind def

/draw_round_box % width height x y blot
{
    0 max setlinewidth
    matrix currentmatrix 5 1 roll
    currentpoint translate newpath translate
    2 copy 0 min exch 0 min exch translate
    abs exch abs exch
    currentlinewidth 0 eq
    { % straight corners
	2 copy 2 mul gt
	{ % horizontal
	    0 1 index 2 div moveto
	    setlinewidth
	    0 rlineto
	    0 setlinecap
	    stroke
	}
	{
	    2 copy exch 2 mul gt
	    { % vertical
		1 index 2 div 0 moveto
		exch setlinewidth
		0 exch rlineto
		0 setlinecap
		stroke
	    }
	    {
		0 0 4 2 roll rectfill
	    }
	    ifelse
	}
	ifelse
    }
    { % rounded corners
	2 copy 0 eq exch 0 eq or
	{ % line shape
	    0 0 moveto
	    rlineto
	    1 setlinecap
	    stroke
	    0 setlinecap
	}
	{ % full shape
	    currentstrokeadjust {
		currentlinewidth 2 div
		0 0 2 index 180 270 arc
		2 index 0 2 index 270 360 arc
		3 copy 0 90 arc
		0 2 index 3 -1 roll 90 180 arc
		closepath
		2 copy 2 mul gt
		{ % horizontal
		    2 copy add currentlinewidth add 10 add % large enough
		    0 1 index neg moveto
		    2 index 1 index neg lineto
		    2 index 1 index lineto
		    0 exch lineto closepath
		    gsave clip newpath
		    0 1 index 2 div moveto
		    currentlinewidth add setlinewidth
		    0 rlineto
		    2 setlinecap
		    stroke
		    grestore
		}
		{
		    2 copy exch 2 mul gt
		    { % vertical
			2 copy add currentlinewidth add 10 add % large enough
			dup neg 0 moveto
			dup 0 lineto
			dup 2 index lineto
			neg 1 index lineto closepath
			gsave clip newpath
			1 index 2 div 0 moveto
			exch currentlinewidth add setlinewidth
			0 exch rlineto
			2 setlinecap
			stroke
			grestore
		    }
		    {
			pop pop
			fill
		    }
		    ifelse
		}
		ifelse
		newpath
	    }
	    {
		1 setlinejoin
		0 0 4 2 roll 4 copy rectstroke rectfill
	    }
	    ifelse
	}
	ifelse
    }
    ifelse
    setmatrix
} bind def

/draw_polygon % fill? x(n) y(n) x(n-1) y(n-1) ... x(0) y(0) n blot
{
	setlinewidth %set to blot

	0 setlinecap
	1 setlinejoin

	3 1 roll
	/polygon_x
	currentpoint
	/polygon_y exch def
	def
	rmoveto % x(0) y(0)
	{ polygon_x polygon_y vector_add lineto } repeat % n times
	closepath
	stroke_and_fill?
} bind def

/draw_circle % filled? radius thickness draw_circle
{
	setlinewidth	% f? r
	currentpoint	% f? r x0 y0
	3 2 roll	% f? x0 y0 r
	dup 0 rmoveto
	0 360 arc closepath
	stroke_and_fill?
} bind def

/draw_ellipse % filled? x-radius y-radius thickness draw_ellipse
{
  setlinewidth % f? x-r y-r
  /savematrix matrix currentmatrix def
  scale % f?
  currentpoint
  1 0 rmoveto
  1 0 360  arc closepath
  savematrix setmatrix
  stroke_and_fill?
} bind def

/draw_partial_ellipse % filled connect x-radius y-radius startangle endangle thickness draw_partial_ellipse
% Note that filled is not boolean to permit for different graylevels (ie for trill keys)
{
  gsave
  currentpoint translate
  /thickness exch def
  /endangle exch def
  /startangle exch def
  /y_radius exch def
  /x_radius exch def
  /endrad x_radius y_radius mul
    x_radius x_radius mul
    endangle cos endangle cos mul mul
    y_radius y_radius mul
    endangle sin endangle sin mul mul add sqrt div def
  /endangle endangle sin endrad mul y_radius div
    endangle cos endrad mul x_radius div atan def
  /startrad x_radius y_radius mul
    x_radius x_radius mul
      startangle cos startangle cos mul mul
    y_radius y_radius mul
      startangle sin startangle sin mul mul add sqrt div def
  /startangle startangle sin startrad mul y_radius div
    startangle cos startrad mul x_radius div atan def
  /connect exch def
  /filled exch def
  /savematrix matrix currentmatrix def
  thickness setlinewidth
  x_radius y_radius scale
  startangle cos startangle sin moveto
  0 0 1 startangle
    startangle endangle eq { endangle 360 add } { endangle } ifelse
    arc
  connect {
    startangle cos startangle sin moveto endangle cos endangle sin lineto }
    if
  savematrix setmatrix filled stroke_and_fill?
  grestore
} bind def

/draw_line % dx dy x1 y1 thickness draw_line
{
	setlinewidth % dx dy x1 y1
	1 setlinecap
	rmoveto % dx dy
	rlineto
	stroke
} bind def

/draw_dashed_line % dx dy thickness dashpattern offset draw_dashed_line
{
	1 setlinecap
	setdash % dx dy thickness
	setlinewidth %dx dy
	rlineto
	stroke
	[] 0 setdash % reset dash pattern
} bind def

/print_glyphs % w dx dy glyph print_glyphs
{
	{
		currentpoint %w dx dy glyph x0 y0
		5 2 roll %w x0 y0 dx dy glyph
		3 1 roll %w x0 y0 glyph dx dy
		rmoveto %w x0 y0 glyph
		glyphshow %w x0 y0
		moveto %w
		0 rmoveto
	}repeat
}bind def
%end music-drawing-routines.ps

%%EndResource
%%BeginResource: procset (lilyponddefs.ps) 1 0
%!PS-Adobe-2.0: lilyponddefs.ps
%
% Functions for direct PostScript output

% /setgray { 1 add } bind def

/set-ps-scale-to-lily-scale {
	lily-output-units output-scale mul dup scale
} bind def


/init-paper {
	gsave
	clippath pathbbox newpath
	/paper-height exch def
	/paper-width exch def pop pop pop
	% FIXME
	/top-margin 2 def
	paper-width line-width sub 2 div /left-margin exch def
	grestore
} bind def

/init-lilypond-parameters {
	staff-line-thickness setlinewidth
	staff-height init-paper
} bind def


% end lilyponddefs.ps

%%EndResource
%%EndProlog
%%BeginSetup
init-lilypond-parameters
%%EndSetup

/mark_page_link { pop pop pop pop pop } bind def
gsave set-ps-scale-to-lily-scale
0.0000 -7.6087 moveto 67.2238 0.0000 0.0500 0.0000 0.1000 draw_line
0.0000 -6.6087 moveto 67.2238 0.0000 0.0500 0.0000 0.1000 draw_line
0.0000 -5.6087 moveto 67.2238 0.0000 0.0500 0.0000 0.1000 draw_line
0.0000 -4.6087 moveto 67.2238 0.0000 0.0500 0.0000 0.1000 draw_line
0.0000 -3.6087 moveto 67.2238 0.0000 0.0500 0.0000 0.1000 draw_line
26.6741 -22.7382 moveto 0.1900 4.0000 0.0000 -2.0000 0.0000 draw_round_box
46.8181 -22.7382 moveto 0.1900 4.0000 0.0000 -2.0000 0.0000 draw_round_box
67.1338 -22.7382 moveto 0.1900 4.0000 0.0000 -2.0000 0.0000 draw_round_box
67.1338 -5.6087 moveto 0.1900 4.0000 0.0000 -2.0000 0.0000 draw_round_box
46.8181 -5.6087 moveto 0.1900 4.0000 0.0000 -2.0000 0.0000 draw_round_box
26.6741 -5.6087 moveto 0.1900 4.0000 0.0000 -2.0000 0.0000 draw_round_box
0.0000 -19.7382 moveto 1.5761 0.0000 21.8311 0.0000 0.2000 draw_round_box
0.0000 -19.7382 moveto 1.5761 0.0000 52.7960 0.0000 0.2000 draw_round_box
0.0000 -19.7382 moveto 1.5761 0.0000 57.7390 0.0000 0.2000 draw_round_box
0.0000 -19.7382 moveto 1.5761 0.0000 62.3235 0.0000 0.2000 draw_round_box
0.0000 -24.7382 moveto 67.2238 0.0000 0.0500 0.0000 0.1000 draw_line
0.0000 -23.7382 moveto 67.2238 0.0000 0.0500 0.0000 0.1000 draw_line
0.0000 -22.7382 moveto 67.2238 0.0000 0.0500 0.0000 0.1000 draw_line
0.0000 -21.7382 moveto 67.2238 0.0000 0.0500 0.0000 0.1000 draw_line
0.0000 -20.7382 moveto 67.2238 0.0000 0.0500 0.0000 0.1000 draw_line
48.3450 -21.2382 moveto magfontemmentaler-18mDWo /noteheads.s2 glyphshow 
48.4100 -22.7382 moveto 0.0500 3.2570 -0.0250 -1.9600 0.0800 draw_round_box
54.2411 -5.6087 moveto 0.0500 2.7570 -0.0250 -3.9600 0.0800 draw_round_box
49.4641 -22.7382 moveto 0.0500 2.2570 -0.0250 2.7030 0.0800 draw_round_box
49.4641 -5.6087 moveto 0.0500 3.2570 -0.0250 -0.7970 0.0800 draw_round_box
48.4100 -5.6087 moveto 0.0500 2.7570 -0.0250 -3.9600 0.0800 draw_round_box
54.1111 -5.6087 moveto 0.0500 3.2570 -0.0250 -0.2970 0.0800 draw_round_box
52.9920 -21.2382 moveto magfontemmentaler-18mDWo /noteheads.s2 glyphshow 
52.9920 -19.7382 moveto magfontemmentaler-18mDWo /noteheads.s2 glyphshow 
52.5085 -15.2041 moveto /TeXGyrePagella-Regular 3.90625000 output-scale div selectfont
1.2292 0.0000 0.0000 /y
0.9219 0.0000 0.0000 /r
2 print_glyphs
52.4232 -12.4041 moveto /TeXGyrePagella-Regular 3.90625000 output-scale div selectfont
1.1267 0.0000 0.0000 /a
1.1950 0.0000 0.0000 /v
2 print_glyphs
54.1761 -6.6087 moveto magfontemmentaler-18mDWo /noteheads.s2 glyphshow 
52.9920 -6.1087 moveto magfontemmentaler-18mDWo /noteheads.s2 glyphshow 
42.1258 -20.7382 moveto magfontemmentaler-18mDWo /rests.2 glyphshow 
40.0035 -15.2041 moveto /TeXGyrePagella-Regular 3.90625000 output-scale div selectfont
0.6146 0.0000 0.0000 /exclam
1.3657 0.0000 0.0000 /d
0.8536 0.0000 0.0000 /r
1.2292 0.0000 0.0000 /o
1.3657 0.0000 0.0000 /L
5 print_glyphs
41.3180 -12.4041 moveto /TeXGyrePagella-Regular 3.90625000 output-scale div selectfont
0.6146 0.0000 0.0000 /exclam
1.0584 0.0000 0.0000 /e
1.1267 0.0000 0.0000 /zcaron
3 print_glyphs
42.1258 -9.1087 moveto magfontemmentaler-18mDWo /rests.2 glyphshow 
42.1258 -6.1087 moveto magfontemmentaler-18mDWo /noteheads.s2 glyphshow 
37.5438 -22.7382 moveto 0.0500 2.7570 -0.0250 -3.9600 0.0800 draw_round_box
42.1258 -24.7382 moveto magfontemmentaler-18mDWo /rests.2 glyphshow 
38.5979 -22.7382 moveto 0.0500 2.2570 -0.0250 2.7030 0.0800 draw_round_box
37.5438 -5.6087 moveto 0.0500 2.5903 -0.0250 -4.2933 0.0800 draw_round_box
10.5292 -12.4041 moveto 0.5800 0.0500 0.0400 0.4600 0.0800 draw_round_box
47.1445 -15.2041 moveto /TeXGyrePagella-Regular 3.90625000 output-scale div selectfont
1.2292 0.0000 0.0000 /o
0.6487 0.0000 0.0000 /l
1.7072 0.0000 0.0000 /G
3 print_glyphs
47.4689 -12.4041 moveto /TeXGyrePagella-Regular 3.90625000 output-scale div selectfont
1.1267 0.0000 0.0000 /a
0.6487 0.0000 0.0000 /l
1.1609 0.0000 0.0000 /S
3 print_glyphs
48.3450 -6.6087 moveto magfontemmentaler-18mDWo /noteheads.s2 glyphshow 
48.3450 -6.6087 moveto magfontemmentaler-18mDWo /noteheads.s2 glyphshow 
48.3450 -20.2382 moveto magfontemmentaler-18mDWo /noteheads.s2 glyphshow 
43.2449 -5.6087 moveto 0.0500 3.2570 -0.0250 -0.2970 0.0800 draw_round_box
62.5846 -22.7382 moveto 0.0500 3.2570 -0.0250 -2.9600 0.0800 draw_round_box
63.6386 -22.7382 moveto 0.0500 2.2570 -0.0250 3.2030 0.0800 draw_round_box
62.5846 -5.6087 moveto 0.0500 2.7570 -0.0250 -3.9600 0.0800 draw_round_box
10.7341 -15.2041 moveto 0.5800 0.0500 0.0400 0.4600 0.0800 draw_round_box
19.8376 -12.4041 moveto 0.5800 0.0500 0.0400 0.4600 0.0800 draw_round_box
28.9034 -5.6087 moveto gsave currentpoint translate
1 setlinecap 1 setlinejoin 0.08000000 setlinewidth
1.11907273 3.64862020 moveto  2.75439907 5.02626053 8.05915663 5.02626053 9.69448298 3.64862020 curveto  8.05915663 4.90626053 2.75439907 4.90626053 1.11907273 3.64862020 curveto   closepath  gsave stroke grestore fill grestore
36.0781 -12.4041 moveto 0.5800 0.0500 0.0400 0.4600 0.0800 draw_round_box
33.2513 -15.2041 moveto 5.3476 0.0160 0.0320 0.0320 0.0640 draw_round_box
51.0842 -12.4041 moveto 0.5800 0.0500 0.0400 0.4600 0.0800 draw_round_box
51.2890 -15.2041 moveto 0.5800 0.0500 0.0400 0.4600 0.0800 draw_round_box
60.3613 -12.4041 moveto 0.5800 0.0500 0.0400 0.4600 0.0800 draw_round_box
59.0541 -5.6087 moveto 0.0500 3.0903 -0.0250 0.2030 0.0800 draw_round_box
57.9350 -21.2382 moveto magfontemmentaler-18mDWo /noteheads.s2 glyphshow 
57.9350 -19.2382 moveto magfontemmentaler-18mDWo /noteheads.s2 glyphshow 
57.3833 -15.2041 moveto /TeXGyrePagella-Regular 3.90625000 output-scale div selectfont
1.0584 0.0000 0.0000 /e
1.2292 0.0000 0.0000 /b
2 print_glyphs
57.3150 -12.4041 moveto /TeXGyrePagella-Regular 3.90625000 output-scale div selectfont
1.0584 0.0000 0.0000 /e
0.6487 0.0000 0.0000 /i
0.7170 0.0000 0.0000 /t
3 print_glyphs
57.9350 -6.6087 moveto magfontemmentaler-18mDWo /noteheads.s2 glyphshow 
57.9350 -5.6087 moveto magfontemmentaler-18mDWo /noteheads.s2 glyphshow 
58.0000 -5.6087 moveto 0.0500 2.7570 -0.0250 -3.9600 0.0800 draw_round_box
53.0570 -22.7382 moveto 0.0500 3.2570 -0.0250 -1.9600 0.0800 draw_round_box
54.1111 -22.7382 moveto 0.0500 2.2570 -0.0250 3.2030 0.0800 draw_round_box
63.6386 -5.6087 moveto 0.0500 2.9237 -0.0250 0.7030 0.0800 draw_round_box
62.5196 -22.2382 moveto magfontemmentaler-18mDWo /noteheads.s2 glyphshow 
62.5196 -19.7382 moveto magfontemmentaler-18mDWo /noteheads.s2 glyphshow 
62.1556 -15.2041 moveto /TeXGyrePagella-Regular 3.90625000 output-scale div selectfont
1.2292 0.0000 0.0000 /o
0.6829 0.0000 0.0000 /t
2 print_glyphs
61.6434 -12.4041 moveto /TeXGyrePagella-Regular 3.90625000 output-scale div selectfont
1.0584 0.0000 0.0000 /e
0.6487 0.0000 0.0000 /i
1.2292 0.0000 0.0000 /b
3 print_glyphs
62.5196 -6.6087 moveto magfontemmentaler-18mDWo /noteheads.s2 glyphshow 
62.5196 -5.1087 moveto magfontemmentaler-18mDWo /noteheads.s2 glyphshow 
58.0000 -22.7382 moveto 0.0500 3.2570 -0.0250 -1.9600 0.0800 draw_round_box
59.0541 -22.7382 moveto 0.0500 2.2570 -0.0250 3.7030 0.0800 draw_round_box
11.9535 -15.2041 moveto /TeXGyrePagella-Regular 3.90625000 output-scale div selectfont
1.2292 0.0000 0.0000 /y
0.9219 0.0000 0.0000 /r
2 print_glyphs
13.6861 -5.6087 moveto 0.0500 2.4237 -0.0250 -4.6267 0.0800 draw_round_box
13.5561 -5.6087 moveto 0.0500 3.2570 -0.0250 -1.2970 0.0800 draw_round_box
12.4370 -22.2382 moveto magfontemmentaler-18mDWo /noteheads.s2 glyphshow 
12.4370 -20.7382 moveto magfontemmentaler-18mDWo /noteheads.s2 glyphshow 
13.5561 -22.7382 moveto 0.0500 2.4237 -0.0250 2.2030 0.0800 draw_round_box
11.8682 -12.4041 moveto /TeXGyrePagella-Regular 3.90625000 output-scale div selectfont
1.1267 0.0000 0.0000 /a
1.1950 0.0000 0.0000 /v
2 print_glyphs
13.6211 -7.6087 moveto magfontemmentaler-18mDWo /noteheads.s2 glyphshow 
12.4370 -7.1087 moveto magfontemmentaler-18mDWo /noteheads.s2 glyphshow 
7.8550 -22.7382 moveto 0.0500 3.2570 -0.0250 -2.9600 0.0800 draw_round_box
16.7600 -12.4041 moveto /TeXGyrePagella-Regular 3.90625000 output-scale div selectfont
1.0584 0.0000 0.0000 /e
0.6487 0.0000 0.0000 /i
0.7170 0.0000 0.0000 /t
3 print_glyphs
38.5979 -5.6087 moveto 0.0500 3.0903 -0.0250 0.2030 0.0800 draw_round_box
17.4451 -5.6087 moveto 0.0500 2.4237 -0.0250 -4.6267 0.0800 draw_round_box
18.4991 -5.6087 moveto 0.0500 3.2570 -0.0250 -0.7970 0.0800 draw_round_box
17.3801 -22.2382 moveto magfontemmentaler-18mDWo /noteheads.s2 glyphshow 
17.3801 -20.2382 moveto magfontemmentaler-18mDWo /noteheads.s2 glyphshow 
16.8283 -15.2041 moveto /TeXGyrePagella-Regular 3.90625000 output-scale div selectfont
1.0584 0.0000 0.0000 /e
1.2292 0.0000 0.0000 /b
2 print_glyphs
8.9091 -22.7382 moveto 0.0500 2.5903 -0.0250 1.7030 0.0800 draw_round_box
17.3801 -7.6087 moveto magfontemmentaler-18mDWo /noteheads.s2 glyphshow 
17.3801 -6.6087 moveto magfontemmentaler-18mDWo /noteheads.s2 glyphshow 
12.5020 -22.7382 moveto 0.0500 3.2570 -0.0250 -2.9600 0.0800 draw_round_box
4.3000 -3.6087 moveto magfontemmentaler-18mDWo /accidentals.sharp glyphshow 
0.8000 -6.6087 moveto magfontemmentaler-18mDWo /clefs.G glyphshow 
-0.7853 -2.5246 moveto /TeXGyrePagella-Regular 2.76074219 output-scale div selectfont
0.7853 0.0000 0.0000 /nine
1 print_glyphs
3.1219 -1.7646 moveto /TeXGyrePagella-Italic 4.38378906 output-scale div selectfont
0.9560 0.0000 0.0000 /e
1.3999 0.0000 0.0000 /n
0.6829 0.0000 0.0000 /i
1.2974 0.0000 0.0000 /F
4 print_glyphs
0.8000 -21.7382 moveto magfontemmentaler-18mDWo /clefs.F glyphshow 
-0.0600 -14.1735 moveto 0.0600 21.1295 0.0500 -10.5647 0.1000 draw_round_box
-1.3100 -3.3562 moveto magfontemmentaler-18mDWo /brackettips.up glyphshow 
-1.3100 -24.9907 moveto magfontemmentaler-18mDWo /brackettips.down glyphshow 
-1.3100 -14.1735 moveto 0.4500 21.3195 0.0000 -10.6597 0.0000 draw_round_box
6.5895 -15.2041 moveto /TeXGyrePagella-Regular 3.90625000 output-scale div selectfont
1.2292 0.0000 0.0000 /o
0.6487 0.0000 0.0000 /l
1.7072 0.0000 0.0000 /G
3 print_glyphs
7.8550 -5.6087 moveto 0.0500 2.4237 -0.0250 -4.6267 0.0800 draw_round_box
8.9091 -5.6087 moveto 0.0500 3.2570 -0.0250 -1.7970 0.0800 draw_round_box
7.7900 -22.2382 moveto magfontemmentaler-18mDWo /noteheads.s2 glyphshow 
7.7900 -21.2382 moveto magfontemmentaler-18mDWo /noteheads.s2 glyphshow 
6.9139 -12.4041 moveto /TeXGyrePagella-Regular 3.90625000 output-scale div selectfont
1.1267 0.0000 0.0000 /a
0.6487 0.0000 0.0000 /l
1.1609 0.0000 0.0000 /S
3 print_glyphs
7.7900 -7.6087 moveto magfontemmentaler-18mDWo /noteheads.s2 glyphshow 
7.7900 -7.6087 moveto magfontemmentaler-18mDWo /noteheads.s2 glyphshow 
4.3000 -21.7382 moveto magfontemmentaler-18mDWo /accidentals.sharp glyphshow 
28.9684 -22.7382 moveto 0.0500 3.0234 -0.0250 -3.2933 0.0800 draw_round_box
30.0932 -22.7382 moveto 0.0500 2.1901 -0.0250 2.7699 0.0800 draw_round_box
28.9684 -5.6087 moveto 0.0500 2.5234 -0.0250 -4.2933 0.0800 draw_round_box
30.4889 -5.1087 moveto magfontemmentaler-18mDWo /dots.dot glyphshow 
28.9034 -22.7382 moveto magfontemmentaler-18mDWo /noteheads.s1 glyphshow 
37.4788 -23.7382 moveto magfontemmentaler-18mDWo /noteheads.s2 glyphshow 
37.4788 -20.2382 moveto magfontemmentaler-18mDWo /noteheads.s2 glyphshow 
37.4788 -7.1087 moveto magfontemmentaler-18mDWo /noteheads.s2 glyphshow 
37.4788 -5.6087 moveto magfontemmentaler-18mDWo /noteheads.s2 glyphshow 
35.7473 -1.8987 moveto magfontemmentaler-18mDWo /flags.u3 glyphshow 
35.6823 -5.6087 moveto 0.0500 3.0070 -0.0250 0.7030 0.0800 draw_round_box
34.5633 -5.1087 moveto magfontemmentaler-18mDWo /noteheads.s2 glyphshow 
30.0225 -5.6087 moveto 0.0500 3.0903 -0.0250 0.2030 0.0800 draw_round_box
27.5634 -22.7382 moveto magfontemmentaler-18mDWo /accidentals.sharp glyphshow 
22.0271 -7.6087 moveto magfontemmentaler-18mDWo /noteheads.s2 glyphshow 
22.0921 -5.6087 moveto 0.0500 2.4237 -0.0250 -4.6267 0.0800 draw_round_box
28.9034 -20.2382 moveto magfontemmentaler-18mDWo /noteheads.s1 glyphshow 
23.1462 -5.6087 moveto 0.0500 3.2570 -0.0250 -0.2970 0.0800 draw_round_box
22.0271 -22.2382 moveto magfontemmentaler-18mDWo /noteheads.s2 glyphshow 
22.0271 -19.7382 moveto magfontemmentaler-18mDWo /noteheads.s2 glyphshow 
21.6631 -15.2041 moveto /TeXGyrePagella-Regular 3.90625000 output-scale div selectfont
1.2292 0.0000 0.0000 /o
0.6829 0.0000 0.0000 /t
2 print_glyphs
21.1510 -12.4041 moveto /TeXGyrePagella-Regular 3.90625000 output-scale div selectfont
1.0584 0.0000 0.0000 /e
0.6487 0.0000 0.0000 /i
1.2292 0.0000 0.0000 /b
3 print_glyphs
22.0271 -6.1087 moveto magfontemmentaler-18mDWo /noteheads.s2 glyphshow 
17.4451 -22.7382 moveto 0.0500 3.2570 -0.0250 -2.9600 0.0800 draw_round_box
18.4991 -22.7382 moveto 0.0500 2.2570 -0.0250 2.7030 0.0800 draw_round_box
28.9034 -15.2041 moveto /TeXGyrePagella-Regular 3.90625000 output-scale div selectfont
0.5463 0.0000 0.0000 /comma
1.3316 0.0000 0.0000 /u
1.2292 0.0000 0.0000 /o
1.1609 0.0000 0.0000 /y
4 print_glyphs
28.9034 -12.4041 moveto /TeXGyrePagella-Regular 3.90625000 output-scale div selectfont
1.2292 0.0000 0.0000 /o
1.3657 0.0000 0.0000 /B
2 print_glyphs
28.9034 -7.1087 moveto magfontemmentaler-18mDWo /noteheads.s1 glyphshow 
28.9034 -5.6087 moveto magfontemmentaler-18mDWo /noteheads.s2 glyphshow 
23.1462 -22.7382 moveto 0.0500 2.2570 -0.0250 3.2030 0.0800 draw_round_box
22.0921 -22.7382 moveto 0.0500 3.2570 -0.0250 -2.9600 0.0800 draw_round_box
stroke grestore
%%Trailer
%%EOF
