%!PS-Adobe-2.0 EPSF-2.0
%%Creator: LilyPond 2.18.2
%%BoundingBox: -9 -134 336 0
%%Orientation: Portrait
%%DocumentSuppliedResources: font Emmentaler-11
%%DocumentSuppliedResources: font Emmentaler-18
%%DocumentSuppliedResources: font TeXGyrePagella-Italic
%%DocumentSuppliedResources: font TeXGyrePagella-Regular
%%EndComments
%%BeginProlog
/lilypond-datadir where {pop} {userdict /lilypond-datadir (/usr/share/lilypond/2.18.2) put } ifelse
%%BeginFont: Emmentaler-11
lilypond-datadir (/fonts/otf/emmentaler-11.otf) concatstrings (r) file .loadfont
%%EndFont

%%BeginFont: Emmentaler-18
lilypond-datadir (/fonts/otf/emmentaler-18.otf) concatstrings (r) file .loadfont
%%EndFont

%%BeginFont: TeXGyrePagella-Italic
(/usr/share/texmf/fonts/opentype/public/tex-gyre/texgyrepagella-italic.otf) (r) file .loadfont
%%EndFont

%%BeginFont: TeXGyrePagella-Regular
(/usr/share/texmf/fonts/opentype/public/tex-gyre/texgyrepagella-regular.otf) (r) file .loadfont
%%EndFont

/magfontemmentaler-11mORo { /Emmentaler-11 3.1631 output-scale div selectfont } bind def
/magfontemmentaler-18mDWo { /Emmentaler-18 6.3263 output-scale div selectfont } bind def
/lily-output-units 2.83464566929134 def %% millimeter
/staff-line-thickness 0.1 def
/line-width 67.3237795275591 def
/paper-size (a4) def
/staff-height 4.0 def
/output-scale 1.75729901757299 def
/page-height 169.00937007874 def
/page-width 119.50157480315 def
%%BeginResource: procset (music-drawing-routines.ps) 1 0
%!PS-Adobe-2.0
%
% Functions for direct and embedded PostScript

% Careful with double % as comment prefix.
% Any %%X comment is interpreted as DSC comments.

% TODO: use dicts or prefixes to prevent namespace pollution.

/pdfmark where
{pop} {userdict /pdfmark /cleartomark load put} ifelse


% llx lly urx ury URI
/mark_URI
{
    /uri exch def
    /ury exch def
    /urx exch def
    /lly exch def
    /llx exch def
    [
	/Rect [ llx lly urx ury ]
	
	/Border [ 0 0 0 ]

        /Action
	    <<
		/Subtype /URI
		/URI uri
	    >>
        /Subtype /Link
    /ANN
    pdfmark
}
bind def

% llx lly urx ury page
/mark_page_link
{
    /page exch def
    /ury exch def
    /urx exch def
    /lly exch def
    /llx exch def
    [
        /Rect [ llx lly urx ury ]
        /Border [ 0 0 0 ]
        /Page page
        /Subtype /Link
    /ANN
    pdfmark
}
bind def

% from adobe tech note 5002.
/BeginEPSF { %def
    /b4_Inc_state save def % Save state for cleanup
    /dict_count countdictstack def % Count objects on dict stack
    /op_count count 1 sub def % Count objects on operand stack
    userdict begin % Push userdict on dict stack
    /showpage { } def % Redefine showpage, { } = null proc
    0 setgray 0 setlinecap % Prepare graphics state
    1 setlinewidth 0 setlinejoin
    10 setmiterlimit [ ] 0 setdash newpath
    false setoverprint
} bind def

/EndEPSF { %def
  count op_count sub {pop} repeat % Clean up stacks
  countdictstack dict_count sub {end} repeat
  b4_Inc_state restore
} bind def

/stroke_and_fill? {
    {
	gsave
	    false setstrokeadjust
	    stroke
	grestore
	fill
    }
    {
	stroke
    }
    ifelse
} bind def

/vector_add { % x1 y1 x2 y2 vector_add x1+x2 y1+y2
	exch
	4 1 roll
	add
	3 1 roll
	add
	exch
} bind def

/draw_round_box % width height x y blot
{
    0 max setlinewidth
    matrix currentmatrix 5 1 roll
    currentpoint translate newpath translate
    2 copy 0 min exch 0 min exch translate
    abs exch abs exch
    currentlinewidth 0 eq
    { % straight corners
	2 copy 2 mul gt
	{ % horizontal
	    0 1 index 2 div moveto
	    setlinewidth
	    0 rlineto
	    0 setlinecap
	    stroke
	}
	{
	    2 copy exch 2 mul gt
	    { % vertical
		1 index 2 div 0 moveto
		exch setlinewidth
		0 exch rlineto
		0 setlinecap
		stroke
	    }
	    {
		0 0 4 2 roll rectfill
	    }
	    ifelse
	}
	ifelse
    }
    { % rounded corners
	2 copy 0 eq exch 0 eq or
	{ % line shape
	    0 0 moveto
	    rlineto
	    1 setlinecap
	    stroke
	    0 setlinecap
	}
	{ % full shape
	    currentstrokeadjust {
		currentlinewidth 2 div
		0 0 2 index 180 270 arc
		2 index 0 2 index 270 360 arc
		3 copy 0 90 arc
		0 2 index 3 -1 roll 90 180 arc
		closepath
		2 copy 2 mul gt
		{ % horizontal
		    2 copy add currentlinewidth add 10 add % large enough
		    0 1 index neg moveto
		    2 index 1 index neg lineto
		    2 index 1 index lineto
		    0 exch lineto closepath
		    gsave clip newpath
		    0 1 index 2 div moveto
		    currentlinewidth add setlinewidth
		    0 rlineto
		    2 setlinecap
		    stroke
		    grestore
		}
		{
		    2 copy exch 2 mul gt
		    { % vertical
			2 copy add currentlinewidth add 10 add % large enough
			dup neg 0 moveto
			dup 0 lineto
			dup 2 index lineto
			neg 1 index lineto closepath
			gsave clip newpath
			1 index 2 div 0 moveto
			exch currentlinewidth add setlinewidth
			0 exch rlineto
			2 setlinecap
			stroke
			grestore
		    }
		    {
			pop pop
			fill
		    }
		    ifelse
		}
		ifelse
		newpath
	    }
	    {
		1 setlinejoin
		0 0 4 2 roll 4 copy rectstroke rectfill
	    }
	    ifelse
	}
	ifelse
    }
    ifelse
    setmatrix
} bind def

/draw_polygon % fill? x(n) y(n) x(n-1) y(n-1) ... x(0) y(0) n blot
{
	setlinewidth %set to blot

	0 setlinecap
	1 setlinejoin

	3 1 roll
	/polygon_x
	currentpoint
	/polygon_y exch def
	def
	rmoveto % x(0) y(0)
	{ polygon_x polygon_y vector_add lineto } repeat % n times
	closepath
	stroke_and_fill?
} bind def

/draw_circle % filled? radius thickness draw_circle
{
	setlinewidth	% f? r
	currentpoint	% f? r x0 y0
	3 2 roll	% f? x0 y0 r
	dup 0 rmoveto
	0 360 arc closepath
	stroke_and_fill?
} bind def

/draw_ellipse % filled? x-radius y-radius thickness draw_ellipse
{
  setlinewidth % f? x-r y-r
  /savematrix matrix currentmatrix def
  scale % f?
  currentpoint
  1 0 rmoveto
  1 0 360  arc closepath
  savematrix setmatrix
  stroke_and_fill?
} bind def

/draw_partial_ellipse % filled connect x-radius y-radius startangle endangle thickness draw_partial_ellipse
% Note that filled is not boolean to permit for different graylevels (ie for trill keys)
{
  gsave
  currentpoint translate
  /thickness exch def
  /endangle exch def
  /startangle exch def
  /y_radius exch def
  /x_radius exch def
  /endrad x_radius y_radius mul
    x_radius x_radius mul
    endangle cos endangle cos mul mul
    y_radius y_radius mul
    endangle sin endangle sin mul mul add sqrt div def
  /endangle endangle sin endrad mul y_radius div
    endangle cos endrad mul x_radius div atan def
  /startrad x_radius y_radius mul
    x_radius x_radius mul
      startangle cos startangle cos mul mul
    y_radius y_radius mul
      startangle sin startangle sin mul mul add sqrt div def
  /startangle startangle sin startrad mul y_radius div
    startangle cos startrad mul x_radius div atan def
  /connect exch def
  /filled exch def
  /savematrix matrix currentmatrix def
  thickness setlinewidth
  x_radius y_radius scale
  startangle cos startangle sin moveto
  0 0 1 startangle
    startangle endangle eq { endangle 360 add } { endangle } ifelse
    arc
  connect {
    startangle cos startangle sin moveto endangle cos endangle sin lineto }
    if
  savematrix setmatrix filled stroke_and_fill?
  grestore
} bind def

/draw_line % dx dy x1 y1 thickness draw_line
{
	setlinewidth % dx dy x1 y1
	1 setlinecap
	rmoveto % dx dy
	rlineto
	stroke
} bind def

/draw_dashed_line % dx dy thickness dashpattern offset draw_dashed_line
{
	1 setlinecap
	setdash % dx dy thickness
	setlinewidth %dx dy
	rlineto
	stroke
	[] 0 setdash % reset dash pattern
} bind def

/print_glyphs % w dx dy glyph print_glyphs
{
	{
		currentpoint %w dx dy glyph x0 y0
		5 2 roll %w x0 y0 dx dy glyph
		3 1 roll %w x0 y0 glyph dx dy
		rmoveto %w x0 y0 glyph
		glyphshow %w x0 y0
		moveto %w
		0 rmoveto
	}repeat
}bind def
%end music-drawing-routines.ps

%%EndResource
%%BeginResource: procset (lilyponddefs.ps) 1 0
%!PS-Adobe-2.0: lilyponddefs.ps
%
% Functions for direct PostScript output

% /setgray { 1 add } bind def

/set-ps-scale-to-lily-scale {
	lily-output-units output-scale mul dup scale
} bind def


/init-paper {
	gsave
	clippath pathbbox newpath
	/paper-height exch def
	/paper-width exch def pop pop pop
	% FIXME
	/top-margin 2 def
	paper-width line-width sub 2 div /left-margin exch def
	grestore
} bind def

/init-lilypond-parameters {
	staff-line-thickness setlinewidth
	staff-height init-paper
} bind def


% end lilyponddefs.ps

%%EndResource
%%EndProlog
%%BeginSetup
init-lilypond-parameters
%%EndSetup

/mark_page_link { pop pop pop pop pop } bind def
gsave set-ps-scale-to-lily-scale
0.0000 -6.1767 moveto 67.2238 0.0000 0.0500 0.0000 0.1000 draw_line
0.0000 -5.1767 moveto 67.2238 0.0000 0.0500 0.0000 0.1000 draw_line
0.0000 -4.1767 moveto 67.2238 0.0000 0.0500 0.0000 0.1000 draw_line
0.0000 -3.1767 moveto 67.2238 0.0000 0.0500 0.0000 0.1000 draw_line
0.0000 -2.1767 moveto 67.2238 0.0000 0.0500 0.0000 0.1000 draw_line
19.5594 -4.1767 moveto 0.1900 4.0000 0.0000 -2.0000 0.0000 draw_round_box
19.5594 -21.6919 moveto 0.1900 4.0000 0.0000 -2.0000 0.0000 draw_round_box
39.2924 -21.6919 moveto 0.1900 4.0000 0.0000 -2.0000 0.0000 draw_round_box
55.3153 -4.1767 moveto 0.1900 4.0000 0.0000 -2.0000 0.0000 draw_round_box
55.3153 -21.6919 moveto 0.1900 4.0000 0.0000 -2.0000 0.0000 draw_round_box
39.2924 -4.1767 moveto 0.1900 4.0000 0.0000 -2.0000 0.0000 draw_round_box
65.5324 -3.6767 moveto magfontemmentaler-18mDWo /dots.dot glyphshow 
65.5324 -4.6767 moveto magfontemmentaler-18mDWo /dots.dot glyphshow 
66.7238 -4.1767 moveto 0.6000 4.0000 0.0000 -2.0000 0.0000 draw_round_box
66.2338 -4.1767 moveto 0.1900 4.0000 0.0000 -2.0000 0.0000 draw_round_box
65.5324 -21.1919 moveto magfontemmentaler-18mDWo /dots.dot glyphshow 
65.5324 -22.1919 moveto magfontemmentaler-18mDWo /dots.dot glyphshow 
66.7238 -21.6919 moveto 0.6000 4.0000 0.0000 -2.0000 0.0000 draw_round_box
66.2338 -21.6919 moveto 0.1900 4.0000 0.0000 -2.0000 0.0000 draw_round_box
0.0000 -23.6919 moveto 67.2238 0.0000 0.0500 0.0000 0.1000 draw_line
0.0000 -22.6919 moveto 67.2238 0.0000 0.0500 0.0000 0.1000 draw_line
0.0000 -21.6919 moveto 67.2238 0.0000 0.0500 0.0000 0.1000 draw_line
0.0000 -20.6919 moveto 67.2238 0.0000 0.0500 0.0000 0.1000 draw_line
0.0000 -19.6919 moveto 67.2238 0.0000 0.0500 0.0000 0.1000 draw_line
0.0000 -7.1767 moveto 2.4525 0.0000 57.1968 0.0000 0.2000 draw_round_box
0.0000 -18.6919 moveto 2.4525 0.0000 7.4479 0.0000 0.2000 draw_round_box
0.0000 -18.6919 moveto 1.6821 0.0000 40.3178 0.0000 0.2000 draw_round_box
34.9868 -19.1919 moveto magfontemmentaler-18mDWo /noteheads.s2 glyphshow 
7.7900 -4.1767 moveto gsave currentpoint translate
1 setlinecap 1 setlinejoin 0.08000000 setlinewidth
1.55475556 2.14862020 moveto  4.13018107 4.07109770 21.10512699 3.95588034 23.65421881 1.99862020 curveto  21.10431251 3.83588310 4.12936659 3.95110046 1.55475556 2.14862020 curveto   closepath  gsave stroke grestore fill grestore
40.5964 -21.6919 moveto 0.0500 2.5234 -0.0250 -4.2933 0.0800 draw_round_box
41.7212 -21.6919 moveto 0.0500 2.1901 -0.0250 3.2699 0.0800 draw_round_box
45.2628 -6.6767 moveto magfontemmentaler-18mDWo /accidentals.sharp glyphshow 
34.7253 -14.6578 moveto /TeXGyrePagella-Regular 3.90625000 output-scale div selectfont
1.0584 0.0000 0.0000 /e
0.6487 0.0000 0.0000 /l
2 print_glyphs
46.6678 -21.6919 moveto 0.0500 2.6901 -0.0250 -3.9600 0.0800 draw_round_box
47.7219 -21.6919 moveto 0.0500 2.2570 -0.0250 2.7030 0.0800 draw_round_box
46.6678 -4.1767 moveto 0.0500 2.1901 -0.0250 -4.9600 0.0800 draw_round_box
46.6028 -22.6919 moveto magfontemmentaler-18mDWo /noteheads.s1 glyphshow 
46.6028 -19.1919 moveto magfontemmentaler-18mDWo /noteheads.s2 glyphshow 
46.6028 -6.6767 moveto magfontemmentaler-18mDWo /noteheads.s1 glyphshow 
36.1059 -4.1767 moveto 0.0500 3.2570 -0.0250 -0.7970 0.0800 draw_round_box
40.5314 -6.1767 moveto magfontemmentaler-18mDWo /noteheads.s1 glyphshow 
41.8364 -5.6767 moveto magfontemmentaler-18mDWo /noteheads.s1 glyphshow 
35.0518 -21.6919 moveto 0.0500 3.2570 -0.0250 -2.9600 0.0800 draw_round_box
41.4736 -11.8578 moveto /TeXGyrePagella-Regular 3.90625000 output-scale div selectfont
1.3316 0.0000 0.0000 /u
0.6487 0.0000 0.0000 /l
2 print_glyphs
36.1059 -21.6919 moveto 0.0500 2.2570 -0.0250 2.7030 0.0800 draw_round_box
35.0518 -4.1767 moveto 0.0500 2.4237 -0.0250 -4.6267 0.0800 draw_round_box
34.9868 -21.1919 moveto magfontemmentaler-18mDWo /noteheads.s2 glyphshow 
40.5964 -4.1767 moveto 0.0500 2.3568 -0.0250 -4.6267 0.0800 draw_round_box
43.0262 -4.1767 moveto 0.0500 3.1901 -0.0250 -1.2301 0.0800 draw_round_box
43.4925 -5.6767 moveto magfontemmentaler-18mDWo /dots.dot glyphshow 
40.5314 -23.1919 moveto magfontemmentaler-18mDWo /noteheads.s1 glyphshow 
40.5314 -18.6919 moveto magfontemmentaler-18mDWo /noteheads.s1 glyphshow 
41.4736 -14.6578 moveto /TeXGyrePagella-Regular 3.90625000 output-scale div selectfont
1.3316 0.0000 0.0000 /u
0.6487 0.0000 0.0000 /l
2 print_glyphs
57.0251 -1.2360 moveto magfontemmentaler-11mORo /accidentals.leftparen glyphshow 
59.8210 -1.2360 moveto magfontemmentaler-11mORo /accidentals.rightparen glyphshow 
46.9805 -11.8578 moveto 0.5800 0.0500 0.0400 0.4600 0.0800 draw_round_box
7.7900 -4.1767 moveto gsave currentpoint translate
1 setlinecap 1 setlinejoin 0.08000000 setlinewidth
0.05860829 -4.64862020 moveto  2.62610979 -6.46947259 20.33716710 -6.74015962 22.95911443 -4.99862020 curveto  20.33900091 -6.62017364 2.62794359 -6.34948660 0.05860829 -4.64862020 curveto   closepath  gsave stroke grestore fill grestore
31.8154 -11.8578 moveto 0.5800 0.0500 0.0400 0.4600 0.0800 draw_round_box
21.8154 -11.8578 moveto 0.5800 0.0500 0.0400 0.4600 0.0800 draw_round_box
11.8154 -11.8578 moveto 0.5800 0.0500 0.0400 0.4600 0.0800 draw_round_box
31.8154 -14.6578 moveto 0.5800 0.0500 0.0400 0.4600 0.0800 draw_round_box
21.8154 -14.6578 moveto 0.5800 0.0500 0.0400 0.4600 0.0800 draw_round_box
11.8154 -14.6578 moveto 0.5800 0.0500 0.0400 0.4600 0.0800 draw_round_box
7.7900 -21.6919 moveto gsave currentpoint translate
1 setlinecap 1 setlinejoin 0.08000000 setlinewidth
0.92914749 4.49862020 moveto  3.09622146 5.92329773 12.02344285 5.23755674 13.94750505 3.49862020 curveto  12.01425217 5.11790921 3.08703078 5.80365020 0.92914749 4.49862020 curveto   closepath  gsave stroke grestore fill grestore
7.7900 -21.6919 moveto gsave currentpoint translate
1 setlinecap 1 setlinejoin 0.08000000 setlinewidth
0.04402265 -2.99862020 moveto  2.54749962 -4.90829999 20.26315882 -5.79789942 22.94535043 -4.14862020 curveto  20.26917709 -5.67805043 2.55351788 -4.78845100 0.04402265 -2.99862020 curveto   closepath  gsave stroke grestore fill grestore
26.2635 -2.3667 moveto true 2.8304 0.3900 2.8304 -0.0100 0.0400 -0.2000 0.0400 0.2000 3 0.0800 draw_polygon
25.2094 -8.9867 moveto true 2.8304 0.5100 2.8304 0.1100 0.0400 -0.2000 0.0400 0.2000 3 0.0800 draw_polygon
38.6230 -11.8578 moveto 0.5800 0.0500 0.0400 0.4600 0.0800 draw_round_box
38.6230 -14.6578 moveto 0.5800 0.0500 0.0400 0.4600 0.0800 draw_round_box
46.9805 -14.6578 moveto 0.5800 0.0500 0.0400 0.4600 0.0800 draw_round_box
40.5314 -21.6919 moveto gsave currentpoint translate
1 setlinecap 1 setlinejoin 0.08000000 setlinewidth
1.55475556 3.99862020 moveto  2.84868558 4.96542142 5.73636337 4.69148260 6.82541746 3.49862020 curveto  5.72503048 4.57201894 2.83735269 4.84595776 1.55475556 3.99862020 curveto   closepath  gsave stroke grestore fill grestore
54.3541 -11.8578 moveto 0.5800 0.0500 0.0400 0.4600 0.0800 draw_round_box
54.3541 -14.6578 moveto 0.5800 0.0500 0.0400 0.4600 0.0800 draw_round_box
52.0185 -21.6919 moveto 0.0500 2.4237 -0.0250 2.2030 0.0800 draw_round_box
57.5389 -20.1919 moveto magfontemmentaler-18mDWo /noteheads.s0 glyphshow 
57.5524 -14.6578 moveto /TeXGyrePagella-Regular 3.90625000 output-scale div selectfont
0.6146 0.0000 0.0000 /exclam
1.1267 0.0000 0.0000 /a
2 print_glyphs
57.5524 -11.8578 moveto /TeXGyrePagella-Regular 3.90625000 output-scale div selectfont
0.6146 0.0000 0.0000 /exclam
1.1267 0.0000 0.0000 /a
2 print_glyphs
57.5389 -7.6767 moveto magfontemmentaler-18mDWo /noteheads.s0 glyphshow 
58.4231 -1.8547 moveto magfontemmentaler-18mDWo /scripts.ufermata glyphshow 
57.5389 -6.1767 moveto magfontemmentaler-18mDWo /noteheads.s0 glyphshow 
57.5389 -21.1919 moveto magfontemmentaler-18mDWo /noteheads.s0 glyphshow 
52.0185 -4.1767 moveto 0.0500 3.2570 -0.0250 -1.2970 0.0800 draw_round_box
50.8995 -19.6919 moveto magfontemmentaler-18mDWo /noteheads.s2 glyphshow 
51.1671 -14.6578 moveto /TeXGyrePagella-Regular 3.90625000 output-scale div selectfont
0.6487 0.0000 0.0000 /i
1 print_glyphs
51.1671 -11.8578 moveto /TeXGyrePagella-Regular 3.90625000 output-scale div selectfont
0.6487 0.0000 0.0000 /i
1 print_glyphs
50.8995 -5.6767 moveto magfontemmentaler-18mDWo /noteheads.s2 glyphshow 
14.8201 -4.1767 moveto 0.0500 3.1901 -0.0250 -0.2301 0.0800 draw_round_box
13.6303 -21.6919 moveto magfontemmentaler-18mDWo /noteheads.s1 glyphshow 
13.6303 -5.6767 moveto magfontemmentaler-18mDWo /noteheads.s1 glyphshow 
13.6303 -4.6767 moveto magfontemmentaler-18mDWo /noteheads.s1 glyphshow 
13.6953 -4.1767 moveto 0.0500 2.5234 -0.0250 -4.2933 0.0800 draw_round_box
7.8550 -21.6919 moveto 0.0500 3.1901 -0.0250 -1.9600 0.0800 draw_round_box
20.9128 -6.1767 moveto magfontemmentaler-18mDWo /noteheads.s2 glyphshow 
20.9778 -4.1767 moveto 0.0500 2.4237 -0.0250 -4.6267 0.0800 draw_round_box
34.7253 -11.8578 moveto /TeXGyrePagella-Regular 3.90625000 output-scale div selectfont
1.0584 0.0000 0.0000 /e
0.6487 0.0000 0.0000 /l
2 print_glyphs
22.0318 -4.1767 moveto 0.0500 3.2570 -0.0250 -0.7970 0.0800 draw_round_box
20.9128 -21.1919 moveto magfontemmentaler-18mDWo /noteheads.s1 glyphshow 
20.9128 -19.1919 moveto magfontemmentaler-18mDWo /noteheads.s1 glyphshow 
7.8550 -4.1767 moveto 0.0500 2.6901 -0.0250 -3.9600 0.0800 draw_round_box
20.9128 -5.1767 moveto magfontemmentaler-18mDWo /noteheads.s2 glyphshow 
13.6953 -21.6919 moveto 0.0500 3.0234 -0.0250 -3.2933 0.0800 draw_round_box
4.3000 -2.1767 moveto magfontemmentaler-18mDWo /accidentals.sharp glyphshow 
0.8000 -5.1767 moveto magfontemmentaler-18mDWo /clefs.G glyphshow 
-0.7853 -1.0926 moveto /TeXGyrePagella-Regular 2.76074219 output-scale div selectfont
0.7853 0.0000 0.0000 /five
1 print_glyphs
-0.0600 -12.9343 moveto 0.0600 21.5152 0.0500 -10.7576 0.1000 draw_round_box
-1.3100 -1.9242 moveto magfontemmentaler-18mDWo /brackettips.up glyphshow 
-1.3100 -23.9444 moveto magfontemmentaler-18mDWo /brackettips.down glyphshow 
-1.3100 -12.9343 moveto 0.4500 21.7052 0.0000 -10.8526 0.0000 draw_round_box
7.7900 -4.1767 moveto magfontemmentaler-18mDWo /noteheads.s1 glyphshow 
8.9798 -4.1767 moveto 0.0500 3.0234 -0.0250 0.2699 0.0800 draw_round_box
7.7900 -20.1919 moveto magfontemmentaler-18mDWo /noteheads.s1 glyphshow 
7.7900 -18.1919 moveto magfontemmentaler-18mDWo /noteheads.s0 glyphshow 
7.7900 -14.6578 moveto /TeXGyrePagella-Regular 3.90625000 output-scale div selectfont
0.6487 0.0000 0.0000 /l
1.1267 0.0000 0.0000 /a
2 print_glyphs
7.7900 -11.8578 moveto /TeXGyrePagella-Regular 3.90625000 output-scale div selectfont
0.6487 0.0000 0.0000 /l
1.1267 0.0000 0.0000 /a
2 print_glyphs
7.7900 -5.1767 moveto magfontemmentaler-18mDWo /noteheads.s1 glyphshow 
4.3000 -20.6919 moveto magfontemmentaler-18mDWo /accidentals.sharp glyphshow 
0.8000 -20.6919 moveto magfontemmentaler-18mDWo /clefs.F glyphshow 
29.0689 -4.1767 moveto 0.0500 2.7527 -0.0250 -0.7970 0.0800 draw_round_box
28.0148 -4.1767 moveto 0.0500 2.2640 -0.0250 -4.4670 0.0800 draw_round_box
30.6902 -4.6767 moveto magfontemmentaler-18mDWo /noteheads.s2 glyphshow 
27.9498 -6.1767 moveto magfontemmentaler-18mDWo /noteheads.s2 glyphshow 
27.9498 -5.1767 moveto magfontemmentaler-18mDWo /noteheads.s2 glyphshow 
23.8694 -6.6767 moveto magfontemmentaler-18mDWo /accidentals.sharp glyphshow 
34.9868 -6.1767 moveto magfontemmentaler-18mDWo /noteheads.s2 glyphshow 
34.9868 -5.1767 moveto magfontemmentaler-18mDWo /noteheads.s2 glyphshow 
29.3502 -21.6919 moveto magfontemmentaler-18mDWo /accidentals.sharp glyphshow 
30.7552 -21.6919 moveto 0.0500 3.0903 -0.0250 -3.2933 0.0800 draw_round_box
30.7552 -4.1767 moveto 0.0500 2.5903 -0.0250 -4.2933 0.0800 draw_round_box
31.8092 -4.1767 moveto 0.0500 3.2570 -0.0250 -0.2970 0.0800 draw_round_box
30.6902 -21.6919 moveto magfontemmentaler-18mDWo /noteheads.s2 glyphshow 
30.6902 -5.6767 moveto magfontemmentaler-18mDWo /noteheads.s2 glyphshow 
20.9778 -21.6919 moveto 0.0500 3.1901 -0.0250 -2.9600 0.0800 draw_round_box
22.1025 -21.6919 moveto 0.0500 2.1901 -0.0250 2.7699 0.0800 draw_round_box
22.5689 -19.1919 moveto magfontemmentaler-18mDWo /dots.dot glyphshow 
25.2744 -4.1767 moveto 0.0500 2.0600 -0.0250 -4.7630 0.0800 draw_round_box
26.3285 -4.1767 moveto 0.0500 3.0713 -0.0250 -1.2970 0.0800 draw_round_box
25.2094 -6.6767 moveto magfontemmentaler-18mDWo /noteheads.s2 glyphshow 
25.2094 -5.6767 moveto magfontemmentaler-18mDWo /noteheads.s2 glyphshow 
stroke grestore
%%Trailer
%%EOF
