%!PS-Adobe-2.0 EPSF-2.0
%%Creator: LilyPond 2.18.2
%%BoundingBox: -9 -133 336 1
%%Orientation: Portrait
%%DocumentSuppliedResources: font Emmentaler-11
%%DocumentSuppliedResources: font Emmentaler-18
%%DocumentSuppliedResources: font TeXGyrePagella-Italic
%%DocumentSuppliedResources: font TeXGyrePagella-Regular
%%EndComments
%%BeginProlog
/lilypond-datadir where {pop} {userdict /lilypond-datadir (/usr/share/lilypond/2.18.2) put } ifelse
%%BeginFont: Emmentaler-11
lilypond-datadir (/fonts/otf/emmentaler-11.otf) concatstrings (r) file .loadfont
%%EndFont

%%BeginFont: Emmentaler-18
lilypond-datadir (/fonts/otf/emmentaler-18.otf) concatstrings (r) file .loadfont
%%EndFont

%%BeginFont: TeXGyrePagella-Italic
(/usr/share/texmf/fonts/opentype/public/tex-gyre/texgyrepagella-italic.otf) (r) file .loadfont
%%EndFont

%%BeginFont: TeXGyrePagella-Regular
(/usr/share/texmf/fonts/opentype/public/tex-gyre/texgyrepagella-regular.otf) (r) file .loadfont
%%EndFont

/magfontemmentaler-11mORo { /Emmentaler-11 3.1631 output-scale div selectfont } bind def
/magfontemmentaler-18mDWo { /Emmentaler-18 6.3263 output-scale div selectfont } bind def
/lily-output-units 2.83464566929134 def %% millimeter
/staff-line-thickness 0.1 def
/line-width 67.3237795275591 def
/paper-size (a4) def
/staff-height 4.0 def
/output-scale 1.75729901757299 def
/page-height 169.00937007874 def
/page-width 119.50157480315 def
%%BeginResource: procset (music-drawing-routines.ps) 1 0
%!PS-Adobe-2.0
%
% Functions for direct and embedded PostScript

% Careful with double % as comment prefix.
% Any %%X comment is interpreted as DSC comments.

% TODO: use dicts or prefixes to prevent namespace pollution.

/pdfmark where
{pop} {userdict /pdfmark /cleartomark load put} ifelse


% llx lly urx ury URI
/mark_URI
{
    /uri exch def
    /ury exch def
    /urx exch def
    /lly exch def
    /llx exch def
    [
	/Rect [ llx lly urx ury ]
	
	/Border [ 0 0 0 ]

        /Action
	    <<
		/Subtype /URI
		/URI uri
	    >>
        /Subtype /Link
    /ANN
    pdfmark
}
bind def

% llx lly urx ury page
/mark_page_link
{
    /page exch def
    /ury exch def
    /urx exch def
    /lly exch def
    /llx exch def
    [
        /Rect [ llx lly urx ury ]
        /Border [ 0 0 0 ]
        /Page page
        /Subtype /Link
    /ANN
    pdfmark
}
bind def

% from adobe tech note 5002.
/BeginEPSF { %def
    /b4_Inc_state save def % Save state for cleanup
    /dict_count countdictstack def % Count objects on dict stack
    /op_count count 1 sub def % Count objects on operand stack
    userdict begin % Push userdict on dict stack
    /showpage { } def % Redefine showpage, { } = null proc
    0 setgray 0 setlinecap % Prepare graphics state
    1 setlinewidth 0 setlinejoin
    10 setmiterlimit [ ] 0 setdash newpath
    false setoverprint
} bind def

/EndEPSF { %def
  count op_count sub {pop} repeat % Clean up stacks
  countdictstack dict_count sub {end} repeat
  b4_Inc_state restore
} bind def

/stroke_and_fill? {
    {
	gsave
	    false setstrokeadjust
	    stroke
	grestore
	fill
    }
    {
	stroke
    }
    ifelse
} bind def

/vector_add { % x1 y1 x2 y2 vector_add x1+x2 y1+y2
	exch
	4 1 roll
	add
	3 1 roll
	add
	exch
} bind def

/draw_round_box % width height x y blot
{
    0 max setlinewidth
    matrix currentmatrix 5 1 roll
    currentpoint translate newpath translate
    2 copy 0 min exch 0 min exch translate
    abs exch abs exch
    currentlinewidth 0 eq
    { % straight corners
	2 copy 2 mul gt
	{ % horizontal
	    0 1 index 2 div moveto
	    setlinewidth
	    0 rlineto
	    0 setlinecap
	    stroke
	}
	{
	    2 copy exch 2 mul gt
	    { % vertical
		1 index 2 div 0 moveto
		exch setlinewidth
		0 exch rlineto
		0 setlinecap
		stroke
	    }
	    {
		0 0 4 2 roll rectfill
	    }
	    ifelse
	}
	ifelse
    }
    { % rounded corners
	2 copy 0 eq exch 0 eq or
	{ % line shape
	    0 0 moveto
	    rlineto
	    1 setlinecap
	    stroke
	    0 setlinecap
	}
	{ % full shape
	    currentstrokeadjust {
		currentlinewidth 2 div
		0 0 2 index 180 270 arc
		2 index 0 2 index 270 360 arc
		3 copy 0 90 arc
		0 2 index 3 -1 roll 90 180 arc
		closepath
		2 copy 2 mul gt
		{ % horizontal
		    2 copy add currentlinewidth add 10 add % large enough
		    0 1 index neg moveto
		    2 index 1 index neg lineto
		    2 index 1 index lineto
		    0 exch lineto closepath
		    gsave clip newpath
		    0 1 index 2 div moveto
		    currentlinewidth add setlinewidth
		    0 rlineto
		    2 setlinecap
		    stroke
		    grestore
		}
		{
		    2 copy exch 2 mul gt
		    { % vertical
			2 copy add currentlinewidth add 10 add % large enough
			dup neg 0 moveto
			dup 0 lineto
			dup 2 index lineto
			neg 1 index lineto closepath
			gsave clip newpath
			1 index 2 div 0 moveto
			exch currentlinewidth add setlinewidth
			0 exch rlineto
			2 setlinecap
			stroke
			grestore
		    }
		    {
			pop pop
			fill
		    }
		    ifelse
		}
		ifelse
		newpath
	    }
	    {
		1 setlinejoin
		0 0 4 2 roll 4 copy rectstroke rectfill
	    }
	    ifelse
	}
	ifelse
    }
    ifelse
    setmatrix
} bind def

/draw_polygon % fill? x(n) y(n) x(n-1) y(n-1) ... x(0) y(0) n blot
{
	setlinewidth %set to blot

	0 setlinecap
	1 setlinejoin

	3 1 roll
	/polygon_x
	currentpoint
	/polygon_y exch def
	def
	rmoveto % x(0) y(0)
	{ polygon_x polygon_y vector_add lineto } repeat % n times
	closepath
	stroke_and_fill?
} bind def

/draw_circle % filled? radius thickness draw_circle
{
	setlinewidth	% f? r
	currentpoint	% f? r x0 y0
	3 2 roll	% f? x0 y0 r
	dup 0 rmoveto
	0 360 arc closepath
	stroke_and_fill?
} bind def

/draw_ellipse % filled? x-radius y-radius thickness draw_ellipse
{
  setlinewidth % f? x-r y-r
  /savematrix matrix currentmatrix def
  scale % f?
  currentpoint
  1 0 rmoveto
  1 0 360  arc closepath
  savematrix setmatrix
  stroke_and_fill?
} bind def

/draw_partial_ellipse % filled connect x-radius y-radius startangle endangle thickness draw_partial_ellipse
% Note that filled is not boolean to permit for different graylevels (ie for trill keys)
{
  gsave
  currentpoint translate
  /thickness exch def
  /endangle exch def
  /startangle exch def
  /y_radius exch def
  /x_radius exch def
  /endrad x_radius y_radius mul
    x_radius x_radius mul
    endangle cos endangle cos mul mul
    y_radius y_radius mul
    endangle sin endangle sin mul mul add sqrt div def
  /endangle endangle sin endrad mul y_radius div
    endangle cos endrad mul x_radius div atan def
  /startrad x_radius y_radius mul
    x_radius x_radius mul
      startangle cos startangle cos mul mul
    y_radius y_radius mul
      startangle sin startangle sin mul mul add sqrt div def
  /startangle startangle sin startrad mul y_radius div
    startangle cos startrad mul x_radius div atan def
  /connect exch def
  /filled exch def
  /savematrix matrix currentmatrix def
  thickness setlinewidth
  x_radius y_radius scale
  startangle cos startangle sin moveto
  0 0 1 startangle
    startangle endangle eq { endangle 360 add } { endangle } ifelse
    arc
  connect {
    startangle cos startangle sin moveto endangle cos endangle sin lineto }
    if
  savematrix setmatrix filled stroke_and_fill?
  grestore
} bind def

/draw_line % dx dy x1 y1 thickness draw_line
{
	setlinewidth % dx dy x1 y1
	1 setlinecap
	rmoveto % dx dy
	rlineto
	stroke
} bind def

/draw_dashed_line % dx dy thickness dashpattern offset draw_dashed_line
{
	1 setlinecap
	setdash % dx dy thickness
	setlinewidth %dx dy
	rlineto
	stroke
	[] 0 setdash % reset dash pattern
} bind def

/print_glyphs % w dx dy glyph print_glyphs
{
	{
		currentpoint %w dx dy glyph x0 y0
		5 2 roll %w x0 y0 dx dy glyph
		3 1 roll %w x0 y0 glyph dx dy
		rmoveto %w x0 y0 glyph
		glyphshow %w x0 y0
		moveto %w
		0 rmoveto
	}repeat
}bind def
%end music-drawing-routines.ps

%%EndResource
%%BeginResource: procset (lilyponddefs.ps) 1 0
%!PS-Adobe-2.0: lilyponddefs.ps
%
% Functions for direct PostScript output

% /setgray { 1 add } bind def

/set-ps-scale-to-lily-scale {
	lily-output-units output-scale mul dup scale
} bind def


/init-paper {
	gsave
	clippath pathbbox newpath
	/paper-height exch def
	/paper-width exch def pop pop pop
	% FIXME
	/top-margin 2 def
	paper-width line-width sub 2 div /left-margin exch def
	grestore
} bind def

/init-lilypond-parameters {
	staff-line-thickness setlinewidth
	staff-height init-paper
} bind def


% end lilyponddefs.ps

%%EndResource
%%EndProlog
%%BeginSetup
init-lilypond-parameters
%%EndSetup

/mark_page_link { pop pop pop pop pop } bind def
gsave set-ps-scale-to-lily-scale
0.0000 -6.0677 moveto 67.2238 0.0000 0.0500 0.0000 0.1000 draw_line
0.0000 -5.0677 moveto 67.2238 0.0000 0.0500 0.0000 0.1000 draw_line
0.0000 -4.0677 moveto 67.2238 0.0000 0.0500 0.0000 0.1000 draw_line
0.0000 -3.0677 moveto 67.2238 0.0000 0.0500 0.0000 0.1000 draw_line
0.0000 -2.0677 moveto 67.2238 0.0000 0.0500 0.0000 0.1000 draw_line
41.6248 -21.7439 moveto 0.1900 4.0000 0.0000 -2.0000 0.0000 draw_round_box
25.6828 -21.7439 moveto 0.1900 4.0000 0.0000 -2.0000 0.0000 draw_round_box
67.1338 -21.7439 moveto 0.1900 4.0000 0.0000 -2.0000 0.0000 draw_round_box
67.1338 -4.0677 moveto 0.1900 4.0000 0.0000 -2.0000 0.0000 draw_round_box
41.6248 -4.0677 moveto 0.1900 4.0000 0.0000 -2.0000 0.0000 draw_round_box
58.4217 -4.0677 moveto 0.1900 4.0000 0.0000 -2.0000 0.0000 draw_round_box
25.6828 -4.0677 moveto 0.1900 4.0000 0.0000 -2.0000 0.0000 draw_round_box
58.4217 -21.7439 moveto 0.1900 4.0000 0.0000 -2.0000 0.0000 draw_round_box
0.0000 -23.7439 moveto 67.2238 0.0000 0.0500 0.0000 0.1000 draw_line
0.0000 -22.7439 moveto 67.2238 0.0000 0.0500 0.0000 0.1000 draw_line
0.0000 -21.7439 moveto 67.2238 0.0000 0.0500 0.0000 0.1000 draw_line
0.0000 -20.7439 moveto 67.2238 0.0000 0.0500 0.0000 0.1000 draw_line
0.0000 -19.7439 moveto 67.2238 0.0000 0.0500 0.0000 0.1000 draw_line
0.0000 -18.7439 moveto 1.5761 0.0000 42.5712 0.0000 0.2000 draw_round_box
0.0000 -18.7439 moveto 1.5761 0.0000 46.1799 0.0000 0.2000 draw_round_box
0.0000 -18.7439 moveto 1.5761 0.0000 49.7886 0.0000 0.2000 draw_round_box
0.0000 -18.7439 moveto 1.5761 0.0000 53.3972 0.0000 0.2000 draw_round_box
0.0000 -18.7439 moveto 2.4525 0.0000 60.1742 0.0000 0.2000 draw_round_box
49.9846 -4.0677 moveto magfontemmentaler-18mDWo /noteheads.s2 glyphshow 
51.1037 -4.0677 moveto 0.0500 2.7570 -0.0250 1.2030 0.0800 draw_round_box
49.9846 -23.7439 moveto magfontemmentaler-18mDWo /noteheads.s2 glyphshow 
49.9846 -18.2439 moveto magfontemmentaler-18mDWo /noteheads.s2 glyphshow 
49.5865 -14.2098 moveto /TeXGyrePagella-Regular 3.90625000 output-scale div selectfont
1.3316 0.0000 0.0000 /u
0.6487 0.0000 0.0000 /l
2 print_glyphs
49.5865 -11.4098 moveto /TeXGyrePagella-Regular 3.90625000 output-scale div selectfont
1.3316 0.0000 0.0000 /u
0.6487 0.0000 0.0000 /l
2 print_glyphs
47.4950 -21.7439 moveto 0.0500 2.2570 -0.0250 3.7030 0.0800 draw_round_box
49.9846 -3.0677 moveto magfontemmentaler-18mDWo /noteheads.s2 glyphshow 
46.4409 -21.7439 moveto 0.0500 2.4237 -0.0250 -4.6267 0.0800 draw_round_box
42.7673 -4.0677 moveto magfontemmentaler-18mDWo /noteheads.s2 glyphshow 
53.6582 -4.0677 moveto 0.0500 2.4550 -0.0250 -3.1580 0.0800 draw_round_box
54.7123 -4.0677 moveto 0.0500 2.2521 -0.0250 0.7030 0.0800 draw_round_box
53.5932 -23.7439 moveto magfontemmentaler-18mDWo /noteheads.s2 glyphshow 
53.5932 -18.2439 moveto magfontemmentaler-18mDWo /noteheads.s2 glyphshow 
53.5932 -14.2098 moveto /TeXGyrePagella-Regular 3.90625000 output-scale div selectfont
0.6487 0.0000 0.0000 /i
1 print_glyphs
53.5932 -11.4098 moveto /TeXGyrePagella-Regular 3.90625000 output-scale div selectfont
0.6487 0.0000 0.0000 /i
1 print_glyphs
53.5932 -4.5677 moveto magfontemmentaler-18mDWo /noteheads.s2 glyphshow 
53.5932 -3.5677 moveto magfontemmentaler-18mDWo /noteheads.s2 glyphshow 
50.0496 -4.0677 moveto 0.0500 3.0903 -0.0250 -3.2933 0.0800 draw_round_box
50.0496 -21.7439 moveto 0.0500 2.4237 -0.0250 -4.6267 0.0800 draw_round_box
51.1037 -21.7439 moveto 0.0500 2.2570 -0.0250 3.7030 0.0800 draw_round_box
42.8323 -4.0677 moveto 0.0500 2.7570 -0.0250 -3.9600 0.0800 draw_round_box
42.8323 -21.7439 moveto 0.0500 2.4237 -0.0250 -4.6267 0.0800 draw_round_box
43.8863 -21.7439 moveto 0.0500 2.2570 -0.0250 3.7030 0.0800 draw_round_box
43.8863 -4.0677 moveto 0.0500 3.0903 -0.0250 0.2030 0.0800 draw_round_box
42.7673 -23.7439 moveto magfontemmentaler-18mDWo /noteheads.s2 glyphshow 
42.7673 -18.2439 moveto magfontemmentaler-18mDWo /noteheads.s2 glyphshow 
42.4716 -14.2098 moveto /TeXGyrePagella-Regular 3.90625000 output-scale div selectfont
0.6487 0.0000 0.0000 /l
1.1267 0.0000 0.0000 /a
2 print_glyphs
42.1643 -11.4098 moveto /TeXGyrePagella-Regular 3.90625000 output-scale div selectfont
0.6487 0.0000 0.0000 /l
1.7413 0.0000 0.0000 /A
2 print_glyphs
42.7673 -5.0677 moveto magfontemmentaler-18mDWo /noteheads.s2 glyphshow 
12.1998 -11.4098 moveto 0.5800 0.0500 0.0400 0.4600 0.0800 draw_round_box
46.4409 -4.0677 moveto 0.0500 2.9237 -0.0250 -3.6267 0.0800 draw_round_box
47.4950 -4.0677 moveto 0.0500 2.9237 -0.0250 0.7030 0.0800 draw_round_box
46.3759 -23.7439 moveto magfontemmentaler-18mDWo /noteheads.s2 glyphshow 
46.3759 -18.2439 moveto magfontemmentaler-18mDWo /noteheads.s2 glyphshow 
46.1144 -14.2098 moveto /TeXGyrePagella-Regular 3.90625000 output-scale div selectfont
1.0584 0.0000 0.0000 /e
0.6487 0.0000 0.0000 /l
2 print_glyphs
46.1144 -11.4098 moveto /TeXGyrePagella-Regular 3.90625000 output-scale div selectfont
1.0584 0.0000 0.0000 /e
0.6487 0.0000 0.0000 /l
2 print_glyphs
46.3759 -4.5677 moveto magfontemmentaler-18mDWo /noteheads.s2 glyphshow 
46.3759 -3.5677 moveto magfontemmentaler-18mDWo /noteheads.s2 glyphshow 
53.5932 -7.2577 moveto true 2.4864 -0.1100 2.4864 -0.5100 0.0400 -0.2000 0.0400 0.2000 3 0.0800 draw_polygon
54.6473 -1.0677 moveto true 2.4864 0.0100 2.4864 -0.3900 0.0400 -0.2000 0.0400 0.2000 3 0.0800 draw_polygon
12.3876 -14.2098 moveto 0.5800 0.0500 0.0400 0.4600 0.0800 draw_round_box
15.5695 -11.4098 moveto 0.5800 0.0500 0.0400 0.4600 0.0800 draw_round_box
15.5695 -14.2098 moveto 0.5800 0.0500 0.0400 0.4600 0.0800 draw_round_box
19.4455 -11.4098 moveto 0.5800 0.0500 0.0400 0.4600 0.0800 draw_round_box
19.4455 -14.2098 moveto 0.5800 0.0500 0.0400 0.4600 0.0800 draw_round_box
20.7887 -4.0677 moveto gsave currentpoint translate
1 setlinecap 1 setlinejoin 0.08000000 setlinewidth
1.14867259 2.92511155 moveto  1.84279964 3.49600700 2.94410669 3.41318117 3.54503830 2.74488845 curveto  2.93510729 3.29351910 1.83380023 3.37634494 1.14867259 2.92511155 curveto   closepath  gsave stroke grestore fill grestore
20.7887 -4.0677 moveto gsave currentpoint translate
1 setlinecap 1 setlinejoin 0.08000000 setlinewidth
0.01692963 -4.93797588 moveto  0.58801534 -5.63636210 1.69030201 -5.77161918 2.41329534 -5.23202412 curveto  1.70491710 -5.65251251 0.60263044 -5.51725543 0.01692963 -4.93797588 curveto   closepath  gsave stroke grestore fill grestore
24.2713 -11.4098 moveto 0.5800 0.0500 0.0400 0.4600 0.0800 draw_round_box
24.2713 -14.2098 moveto 0.5800 0.0500 0.0400 0.4600 0.0800 draw_round_box
21.8428 -1.8777 moveto true 2.4864 0.0100 2.4864 -0.3900 0.0400 -0.2000 0.0400 0.2000 3 0.0800 draw_polygon
20.7887 -8.2577 moveto true 2.4864 -0.1100 2.4864 -0.5100 0.0400 -0.2000 0.0400 0.2000 3 0.0800 draw_polygon
27.7174 -21.7439 moveto gsave currentpoint translate
1 setlinecap 1 setlinejoin 0.08000000 setlinewidth
0.43000000 -3.64862020 moveto  2.12174831 -5.15022129 8.22615089 -5.37294400 10.02282901 -3.99862020 curveto  8.23052625 -5.25302379 2.12612367 -5.03030108 0.43000000 -3.64862020 curveto   closepath  gsave stroke grestore fill grestore
45.0043 -11.4098 moveto 0.5800 0.0500 0.0400 0.4600 0.0800 draw_round_box
44.8507 -14.2098 moveto 0.5800 0.0500 0.0400 0.4600 0.0800 draw_round_box
48.3740 -11.4098 moveto 0.5800 0.0500 0.0400 0.4600 0.0800 draw_round_box
48.3740 -14.2098 moveto 0.5800 0.0500 0.0400 0.4600 0.0800 draw_round_box
52.2500 -11.4098 moveto 0.5800 0.0500 0.0400 0.4600 0.0800 draw_round_box
52.2500 -14.2098 moveto 0.5800 0.0500 0.0400 0.4600 0.0800 draw_round_box
53.5932 -4.0677 moveto gsave currentpoint translate
1 setlinecap 1 setlinejoin 0.08000000 setlinewidth
1.14867259 3.73511155 moveto  1.84279964 4.30600700 2.94410669 4.22318117 3.54503830 3.55488845 curveto  2.93510729 4.10351910 1.83380023 4.18634494 1.14867259 3.73511155 curveto   closepath  gsave stroke grestore fill grestore
53.5932 -4.0677 moveto gsave currentpoint translate
1 setlinecap 1 setlinejoin 0.08000000 setlinewidth
0.01692963 -3.93797588 moveto  0.58801534 -4.63636210 1.69030201 -4.77161918 2.41329534 -4.23202412 curveto  1.70491710 -4.65251251 0.60263044 -4.51725543 0.01692963 -3.93797588 curveto   closepath  gsave stroke grestore fill grestore
57.0729 -11.4098 moveto 0.5800 0.0500 0.0400 0.4600 0.0800 draw_round_box
57.0729 -14.2098 moveto 0.5800 0.0500 0.0400 0.4600 0.0800 draw_round_box
55.9896 -4.0677 moveto magfontemmentaler-18mDWo /noteheads.s2 glyphshow 
56.0546 -4.0677 moveto 0.0500 2.2490 -0.0250 -3.4520 0.0800 draw_round_box
57.1087 -4.0677 moveto 0.0500 2.5719 -0.0250 0.2030 0.0800 draw_round_box
55.9896 -5.0677 moveto magfontemmentaler-18mDWo /noteheads.s2 glyphshow 
60.5163 -4.5677 moveto magfontemmentaler-18mDWo /noteheads.s0 glyphshow 
53.6582 -21.7439 moveto 0.0500 2.4237 -0.0250 -4.6267 0.0800 draw_round_box
54.7123 -21.7439 moveto 0.0500 2.2570 -0.0250 3.7030 0.0800 draw_round_box
60.5163 -21.7439 moveto magfontemmentaler-18mDWo /noteheads.s0 glyphshow 
60.5163 -18.2439 moveto magfontemmentaler-18mDWo /noteheads.s0 glyphshow 
60.5639 -14.2098 moveto /TeXGyrePagella-Regular 3.90625000 output-scale div selectfont
0.5463 0.0000 0.0000 /comma
1.1267 0.0000 0.0000 /a
2 print_glyphs
60.5639 -11.4098 moveto /TeXGyrePagella-Regular 3.90625000 output-scale div selectfont
0.5463 0.0000 0.0000 /comma
1.1267 0.0000 0.0000 /a
2 print_glyphs
60.5163 -5.5677 moveto magfontemmentaler-18mDWo /noteheads.s0 glyphshow 
18.2992 -4.0677 moveto 0.0500 3.0903 -0.0250 0.2030 0.0800 draw_round_box
17.1801 -21.2439 moveto magfontemmentaler-18mDWo /noteheads.s2 glyphshow 
17.1801 -19.2439 moveto magfontemmentaler-18mDWo /noteheads.s2 glyphshow 
16.7820 -14.2098 moveto /TeXGyrePagella-Regular 3.90625000 output-scale div selectfont
1.3316 0.0000 0.0000 /u
0.6487 0.0000 0.0000 /l
2 print_glyphs
16.7820 -11.4098 moveto /TeXGyrePagella-Regular 3.90625000 output-scale div selectfont
1.3316 0.0000 0.0000 /u
0.6487 0.0000 0.0000 /l
2 print_glyphs
17.1801 -5.0677 moveto magfontemmentaler-18mDWo /noteheads.s2 glyphshow 
17.1801 -4.0677 moveto magfontemmentaler-18mDWo /noteheads.s2 glyphshow 
17.2451 -4.0677 moveto 0.0500 2.7570 -0.0250 -3.9600 0.0800 draw_round_box
13.6364 -21.7439 moveto 0.0500 3.2570 -0.0250 -2.9600 0.0800 draw_round_box
14.6905 -21.7439 moveto 0.0500 2.2570 -0.0250 2.7030 0.0800 draw_round_box
21.9078 -4.0677 moveto 0.0500 2.4421 -0.0250 -0.2970 0.0800 draw_round_box
20.7887 -21.2439 moveto magfontemmentaler-18mDWo /noteheads.s2 glyphshow 
20.7887 -19.2439 moveto magfontemmentaler-18mDWo /noteheads.s2 glyphshow 
20.7887 -14.2098 moveto /TeXGyrePagella-Regular 3.90625000 output-scale div selectfont
0.6487 0.0000 0.0000 /i
1 print_glyphs
20.7887 -11.4098 moveto /TeXGyrePagella-Regular 3.90625000 output-scale div selectfont
0.6487 0.0000 0.0000 /i
1 print_glyphs
20.7887 -5.5677 moveto magfontemmentaler-18mDWo /noteheads.s2 glyphshow 
20.7887 -4.5677 moveto magfontemmentaler-18mDWo /noteheads.s2 glyphshow 
13.6364 -4.0677 moveto 0.0500 2.5903 -0.0250 -4.2933 0.0800 draw_round_box
17.2451 -21.7439 moveto 0.0500 3.2570 -0.0250 -2.9600 0.0800 draw_round_box
18.2992 -21.7439 moveto 0.0500 2.2570 -0.0250 2.7030 0.0800 draw_round_box
11.0818 -21.7439 moveto 0.0500 2.2570 -0.0250 2.7030 0.0800 draw_round_box
10.0278 -4.0677 moveto 0.0500 2.4237 -0.0250 -4.6267 0.0800 draw_round_box
10.0278 -21.7439 moveto 0.0500 3.2570 -0.0250 -2.9600 0.0800 draw_round_box
11.0818 -4.0677 moveto 0.0500 3.2570 -0.0250 -0.7970 0.0800 draw_round_box
6.4400 -21.7439 moveto magfontemmentaler-18mDWo /timesig.C22 glyphshow 
4.3000 -20.7439 moveto magfontemmentaler-18mDWo /accidentals.sharp glyphshow 
0.8000 -20.7439 moveto magfontemmentaler-18mDWo /clefs.F glyphshow 
9.9628 -21.2439 moveto magfontemmentaler-18mDWo /noteheads.s2 glyphshow 
9.9628 -19.2439 moveto magfontemmentaler-18mDWo /noteheads.s2 glyphshow 
8.9842 -14.2098 moveto /TeXGyrePagella-Regular 3.90625000 output-scale div selectfont
0.6487 0.0000 0.0000 /l
1.7413 0.0000 0.0000 /A
0.7512 0.0000 0.0000 /parenleft
3 print_glyphs
9.3598 -11.4098 moveto /TeXGyrePagella-Regular 3.90625000 output-scale div selectfont
0.6487 0.0000 0.0000 /l
1.7413 0.0000 0.0000 /A
2 print_glyphs
6.4400 -4.0677 moveto magfontemmentaler-18mDWo /timesig.C22 glyphshow 
4.3000 -2.0677 moveto magfontemmentaler-18mDWo /accidentals.sharp glyphshow 
0.8000 -5.0677 moveto magfontemmentaler-18mDWo /clefs.G glyphshow 
14.6905 -4.0677 moveto 0.0500 3.2570 -0.0250 -0.2970 0.0800 draw_round_box
13.5714 -21.2439 moveto magfontemmentaler-18mDWo /noteheads.s2 glyphshow 
13.5714 -19.2439 moveto magfontemmentaler-18mDWo /noteheads.s2 glyphshow 
13.3099 -14.2098 moveto /TeXGyrePagella-Regular 3.90625000 output-scale div selectfont
1.0584 0.0000 0.0000 /e
0.6487 0.0000 0.0000 /l
2 print_glyphs
13.3099 -11.4098 moveto /TeXGyrePagella-Regular 3.90625000 output-scale div selectfont
1.0584 0.0000 0.0000 /e
0.6487 0.0000 0.0000 /l
2 print_glyphs
13.5714 -5.5677 moveto magfontemmentaler-18mDWo /noteheads.s2 glyphshow 
13.5714 -4.5677 moveto magfontemmentaler-18mDWo /noteheads.s2 glyphshow 
9.9628 -5.0677 moveto magfontemmentaler-18mDWo /noteheads.s2 glyphshow 
9.9628 -6.0677 moveto magfontemmentaler-18mDWo /noteheads.s2 glyphshow 
27.7824 -21.7439 moveto 0.0500 2.7570 -0.0250 -3.9600 0.0800 draw_round_box
29.3029 -23.2439 moveto magfontemmentaler-18mDWo /dots.dot glyphshow 
26.3774 -6.5677 moveto magfontemmentaler-18mDWo /accidentals.sharp glyphshow 
38.1052 -21.7439 moveto 0.0500 2.5903 -0.0250 -4.2933 0.0800 draw_round_box
38.0402 -23.2439 moveto magfontemmentaler-18mDWo /noteheads.s2 glyphshow 
34.4966 -21.7439 moveto 0.0500 2.7570 -0.0250 -3.9600 0.0800 draw_round_box
34.4316 -22.7439 moveto magfontemmentaler-18mDWo /noteheads.s2 glyphshow 
32.1652 -25.4539 moveto magfontemmentaler-18mDWo /flags.d3 glyphshow 
32.1002 -21.7439 moveto 0.0500 3.0070 -0.0250 -3.7100 0.0800 draw_round_box
32.0352 -22.2439 moveto magfontemmentaler-18mDWo /noteheads.s2 glyphshow 
24.3042 -4.0677 moveto 0.0500 2.7619 -0.0250 -0.7970 0.0800 draw_round_box
23.1851 -6.0677 moveto magfontemmentaler-18mDWo /noteheads.s2 glyphshow 
23.1851 -5.0677 moveto magfontemmentaler-18mDWo /noteheads.s2 glyphshow 
-0.0600 -12.9058 moveto 0.0600 21.6762 0.0500 -10.8381 0.1000 draw_round_box
20.8537 -21.7439 moveto 0.0500 3.2570 -0.0250 -2.9600 0.0800 draw_round_box
21.9078 -21.7439 moveto 0.0500 2.2570 -0.0250 2.7030 0.0800 draw_round_box
20.8537 -4.0677 moveto 0.0500 2.4550 -0.0250 -4.1580 0.0800 draw_round_box
23.2501 -4.0677 moveto 0.0500 2.2490 -0.0250 -4.4520 0.0800 draw_round_box
27.7174 -22.7439 moveto magfontemmentaler-18mDWo /noteheads.s2 glyphshow 
27.7174 -19.2439 moveto magfontemmentaler-18mDWo /noteheads.s0 glyphshow 
27.7651 -14.2098 moveto /TeXGyrePagella-Regular 3.90625000 output-scale div selectfont
0.5463 0.0000 0.0000 /comma
1.1267 0.0000 0.0000 /a
2 print_glyphs
27.7651 -11.4098 moveto /TeXGyrePagella-Regular 3.90625000 output-scale div selectfont
0.5463 0.0000 0.0000 /comma
1.1267 0.0000 0.0000 /a
2 print_glyphs
27.7174 -6.5677 moveto magfontemmentaler-18mDWo /noteheads.s0 glyphshow 
27.7174 -5.5677 moveto magfontemmentaler-18mDWo /noteheads.s0 glyphshow 
-1.3100 -1.8152 moveto magfontemmentaler-18mDWo /brackettips.up glyphshow 
-1.3100 -23.9964 moveto magfontemmentaler-18mDWo /brackettips.down glyphshow 
-1.3100 -12.9058 moveto 0.4500 21.8662 0.0000 -10.9331 0.0000 draw_round_box
stroke grestore
%%Trailer
%%EOF
