
%% LilyPond file generated by Denemo version 2.0.8

%%http://www.gnu.org/software/denemo/

\version "2.18.0"

CompactChordSymbols = {}
#(define DenemoTransposeStep 0)
#(define DenemoTransposeAccidental 0)
DenemoGlobalTranspose = \void #0
titledPiece = {}
AutoBarline = {}
AutoEndMovementBarline = \bar "|."
				%\include "control-points.ly"
				%\include "red-dot.ly"

				% The music follows

MvmntIVoiceI = {
  \voiceOne  g'4 a' b' a'8( g')\AutoBarline
  fis'1\AutoBarline
  b'4 c'' d'' c''8( b')\AutoBarline
  a'1\AutoBarline
				%5
  b'2( a'\AutoBarline
  g'4 fis'8 g' a'4) g'\AutoBarline
  fis'2. fis'4\AutoBarline
  e'1-\parenthesize\fermata \mark\markup{\italic Fine} \bar ":|."
  e'4 fis' g' a'\AutoBarline
				%10
  b'4. (c''8 b'4) a'\AutoBarline
  g' a' b' c''\AutoBarline
  d''( c''8 b') a'2\AutoBarline
  c''4 b' a' g'\AutoBarline
  b'2 a'\mark\markup{\italic {D.C. al Fine}} \bar "||"}


MvmntIVoiceILyricsVerseI = \lyricmode { Al -- le -- lu -- i -- a,
					Al -- le -- lu -- i -- a,
					al -- -- -- -- -- le -- lu -- i -- a!
					Sla -- va tie -- bie Bo --  že! Sla -- va tie -- bie Bo -- -- že! Sla -- va tie -- bie Bo -- že!
				      }

EnglishLyrics = \lyricmode {
  (Al -- le -- lu -- i -- a,
  al -- le -- lu -- i -- a,
  al -- -- -- -- -- le -- lu -- i -- a!
  Glo -- ry be to you, __ Lord!
  Glo -- ry be to you,__ Lord!
  Glo -- ry be to you,__ Lord!)

}

MvmntIVoiceII = {
  \voiceTwo e'4 fis' g' fis'8( e')\AutoBarline
  dis'1\AutoBarline
  g'4 a' b' a'8( g')\AutoBarline
  fis'1\AutoBarline
				%5
  g'2( fis'\AutoBarline
  e'4 dis'8 e' fis'4) e'\AutoBarline
  e'2 dis'\AutoBarline
  b1\AutoBarline
  e'4 e' e' e'\AutoBarline
				%10
  fis'2 fis'4 r\AutoBarline
  g' g' g' g'\AutoBarline
  g'( e') fis'2\AutoBarline
  e'4 e' e' e'\AutoBarline
  d'( e') fis'2 \bar "||"}


MvmntIVoiceIII = {
  \voiceThree b4 b b b\AutoBarline
  b1\AutoBarline
  d'4 d' d' d'\AutoBarline
  d'1\AutoBarline
				%5
  d'(\AutoBarline
  b2.) b4\AutoBarline
  c'2( b4) a\AutoBarline
  g1\AutoBarline
  g4 a b c'\AutoBarline
				%10
  b2 b4 r\AutoBarline
  b c' d' c'\AutoBarline
  a( g) a2\AutoBarline
  a4 g a b\AutoBarline
  g( b) d'2 \bar "||"}


MvmntIVoiceIV = {
  \voiceFour e4 e e e\AutoBarline
  b,4.( c8 b,4 a,)\AutoBarline
  g, g, g, g,\AutoBarline
  d1\AutoBarline
				%5
  g2( d\AutoBarline
  e dis4) e\AutoBarline
  a,2 b,\AutoBarline
  e1\AutoBarline
  e4 e e e\AutoBarline
				%10
  dis2 b,4 r\AutoBarline
  g g g e\AutoBarline
  d2 d\AutoBarline
  a,4 b, c e\AutoBarline
  b,( g,) d2 \bar "||"}



MvmntIVoiceIVerseIContext = \context Lyrics = MvmntIVoiceIVerseI \lyricsto VoiceIMvmntI \MvmntIVoiceILyricsVerseI


#(set-global-staff-size 20)
\paper {
  myStaffSize = #18
    #(define fonts
    (make-pango-font-tree "TeX Gyre Pagella"
                          "TeX Gyre Pagella"
     "TeX Gyre Pagella"
     (/ myStaffSize 20)
                           ))
   indent = 0\cm} 

\score { %Start of Movement
  <<
    \new ChoirStaff <<

				%Start of Staff
      \new Staff = "Soprano"  << \set Staff.instrumentName = ""\set Staff.shortInstrumentName = ""
				 \new Voice = "VoiceIMvmntI"  { 
				   \clef treble    \key g \major    \time 2/2   \MvmntIVoiceI
				 } %End of voice
				 \new Voice = "VoiceIIMvmntI"  { 
				   \MvmntIVoiceII
				 } %End of voice

			       >> %End of Staff

      \new Lyrics = MvmntIVoiceIVerseI

      \MvmntIVoiceIVerseIContext
      \new Lyrics = EnglishLyrics \lyricsto VoiceIMvmntI \EnglishLyrics
				%Start of Staff
      \new Staff = "Tenor"  << \set Staff.instrumentName = ""\set Staff.shortInstrumentName = ""
			       \new Voice = "VoiceIIIMvmntI"  { 
				 \clef bass    \key g \major    \time 2/2   \MvmntIVoiceIII
			       } %End of voice
			       \new Voice = "VoiceIVMvmntI"  { 
				 \MvmntIVoiceIV
			       } %End of voice

			     >> %End of Staff
    >>
  >>
  \midi { }
  \layout { }

}




