<?xml version="1.0" encoding="UTF-8"?>
<svg xmlns="http://www.w3.org/2000/svg" xmlns:xlink="http://www.w3.org/1999/xlink" width="348pt" height="160pt" viewBox="0 0 348 160" version="1.1">
<defs>
<g>
<symbol overflow="visible" id="glyph0-0">
<path style="stroke:none;" d=""/>
</symbol>
<symbol overflow="visible" id="glyph0-1">
<path style="stroke:none;" d="M 26.65625 0.125 L 26.65625 -1.078125 C 25.375 -1.203125 24.75 -1.4375 24.21875 -2.109375 L 15.1875 -13.90625 C 17.40625 -14.46875 18.453125 -14.90625 19.765625 -15.8125 C 21.828125 -17.296875 22.953125 -19.28125 22.953125 -21.59375 C 22.953125 -25.421875 20.359375 -27.578125 15.1875 -27.578125 C 12.796875 -27.578125 10.4375 -27.453125 8.046875 -27.453125 C 5.734375 -27.453125 3.46875 -27.5 1.15625 -27.578125 L 1.15625 -26.375 L 2.796875 -26.25 C 4.625 -26.140625 4.828125 -25.78125 4.828125 -22.671875 L 4.828125 -4.78125 C 4.828125 -1.640625 4.625 -1.3125 2.796875 -1.203125 L 0.875 -1.078125 L 0.875 0.125 C 2.828125 0.046875 4.734375 0 6.6875 0 C 8.640625 0 10.59375 0.046875 12.546875 0.125 L 12.546875 -1.078125 L 10.640625 -1.203125 C 8.8125 -1.3125 8.609375 -1.640625 8.609375 -4.78125 L 8.609375 -25.578125 C 9.96875 -25.90625 11.15625 -26.0625 12.515625 -26.0625 C 16.65625 -26.0625 18.96875 -24.140625 18.96875 -20.765625 C 18.96875 -17.09375 16.0625 -14.78125 11.4375 -14.78125 L 10.28125 -14.78125 L 10.28125 -14.140625 C 11.15625 -13.1875 11.46875 -12.75 12.109375 -11.875 L 19.4375 -2.03125 L 21.078125 0.125 C 22 0.046875 22.875 0 23.78125 0 C 24.75 0 25.703125 0.046875 26.65625 0.125 Z M 26.65625 0.125 "/>
</symbol>
<symbol overflow="visible" id="glyph1-0">
<path style="stroke:none;" d=""/>
</symbol>
<symbol overflow="visible" id="glyph1-1">
<path style="stroke:none;" d="M 7.03125 -6.59375 L 7.03125 -6.890625 C 6.671875 -6.875 6.3125 -6.875 5.96875 -6.875 C 5.609375 -6.875 5.25 -6.875 4.890625 -6.890625 L 4.890625 -6.59375 L 5.40625 -6.5625 C 5.765625 -6.546875 5.796875 -6.265625 5.65625 -5.921875 L 3.84375 -1.203125 L 1.875 -6.265625 C 1.828125 -6.40625 1.90625 -6.5625 2.171875 -6.5625 L 2.734375 -6.59375 L 2.734375 -6.890625 C 2.296875 -6.875 1.84375 -6.875 1.40625 -6.875 C 0.96875 -6.875 0.515625 -6.875 0.078125 -6.890625 L 0.078125 -6.59375 L 0.4375 -6.5625 C 0.640625 -6.546875 0.75 -6.453125 0.875 -6.15625 L 2.75 -1.5625 C 3.0625 -0.796875 3.1875 -0.453125 3.328125 0.09375 L 3.828125 0.09375 C 4.015625 -0.53125 4.140625 -0.859375 4.46875 -1.65625 L 6.203125 -5.859375 C 6.4375 -6.40625 6.5625 -6.546875 6.734375 -6.5625 Z M 7.03125 -6.59375 "/>
</symbol>
<symbol overflow="visible" id="glyph1-2">
<path style="stroke:none;" d="M 3.140625 0.03125 L 3.140625 -0.265625 L 2.65625 -0.296875 C 2.203125 -0.328125 2.15625 -0.40625 2.15625 -1.203125 L 2.15625 -5.671875 C 2.15625 -6.453125 2.203125 -6.546875 2.65625 -6.5625 L 3.140625 -6.59375 L 3.140625 -6.890625 C 2.65625 -6.875 2.15625 -6.875 1.671875 -6.875 C 1.1875 -6.875 0.703125 -6.875 0.21875 -6.890625 L 0.21875 -6.59375 L 0.703125 -6.5625 C 1.15625 -6.546875 1.203125 -6.453125 1.203125 -5.671875 L 1.203125 -1.203125 C 1.203125 -0.40625 1.15625 -0.328125 0.703125 -0.296875 L 0.21875 -0.265625 L 0.21875 0.03125 C 0.703125 0.015625 1.1875 0 1.671875 0 C 2.15625 0 2.65625 0.015625 3.140625 0.03125 Z M 3.140625 0.03125 "/>
</symbol>
<symbol overflow="visible" id="glyph1-3">
<path style="stroke:none;" d="M 5.703125 -1.640625 L 5.359375 -1.640625 L 5.296875 -1.296875 C 5.25 -0.875 5.109375 -0.5625 4.96875 -0.515625 C 4.765625 -0.4375 4.03125 -0.390625 3.140625 -0.390625 C 2.625 -0.390625 2.4375 -0.40625 2.15625 -0.46875 L 2.15625 -3.265625 L 3.75 -3.296875 C 4.1875 -3.296875 4.375 -3.25 4.453125 -2.921875 C 4.484375 -2.703125 4.5 -2.328125 4.5 -2.328125 L 4.796875 -2.328125 C 4.78125 -2.703125 4.765625 -3.078125 4.765625 -3.4375 C 4.765625 -3.828125 4.78125 -4.203125 4.796875 -4.59375 L 4.5 -4.59375 C 4.5 -4.59375 4.5 -4.265625 4.453125 -4.078125 C 4.359375 -3.734375 4.171875 -3.703125 3.75 -3.703125 C 3.25 -3.703125 2.59375 -3.703125 2.15625 -3.734375 L 2.15625 -6.40625 C 2.46875 -6.46875 2.625 -6.484375 3.3125 -6.484375 C 3.890625 -6.484375 4.453125 -6.4375 4.765625 -6.34375 C 5 -6.265625 5.03125 -6.234375 5.03125 -6 L 5.03125 -5.359375 L 5.390625 -5.359375 C 5.390625 -5.953125 5.4375 -6.4375 5.546875 -6.875 L 4.3125 -6.890625 C 3.53125 -6.875 2.765625 -6.875 2 -6.875 C 1.40625 -6.875 0.8125 -6.875 0.21875 -6.890625 L 0.21875 -6.59375 L 0.703125 -6.5625 C 1.15625 -6.546875 1.203125 -6.453125 1.203125 -5.671875 L 1.203125 -1.203125 C 1.203125 -0.40625 1.171875 -0.34375 0.703125 -0.296875 L 0.34375 -0.265625 L 0.34375 0.03125 C 0.75 0.015625 1.15625 0 1.5625 0 C 2.328125 0 3.109375 0.015625 3.875 0.03125 L 5.546875 0 C 5.546875 -0.578125 5.609375 -1.109375 5.703125 -1.640625 Z M 5.703125 -1.640625 "/>
</symbol>
<symbol overflow="visible" id="glyph1-4">
<path style="stroke:none;" d="M 3.109375 -2.8125 L 3.0625 -2.859375 L 0.4375 -2.859375 L 0.171875 -2.1875 L 0.21875 -2.140625 L 2.8125 -2.140625 Z M 3.109375 -2.8125 "/>
</symbol>
<symbol overflow="visible" id="glyph1-5">
<path style="stroke:none;" d="M 5.421875 -4.171875 L 5.390625 -4.296875 L 3.96875 -4.25 C 3.59375 -4.5625 3.234375 -4.671875 2.75 -4.671875 C 2.3125 -4.671875 1.796875 -4.53125 1.390625 -4.296875 C 0.84375 -3.984375 0.546875 -3.484375 0.546875 -2.875 C 0.546875 -2.140625 1 -1.640625 1.75 -1.5625 L 0.953125 -0.953125 C 0.859375 -0.796875 0.8125 -0.671875 0.8125 -0.515625 C 0.8125 -0.234375 0.984375 -0.078125 1.46875 0.0625 L 0.59375 0.53125 C 0.453125 0.609375 0.3125 0.984375 0.3125 1.28125 C 0.3125 2.1875 1.203125 2.828125 2.46875 2.828125 C 3.984375 2.828125 5.15625 1.875 5.15625 0.65625 C 5.15625 -0.0625 4.6875 -0.5625 3.984375 -0.5625 L 2.390625 -0.5625 C 1.875 -0.5625 1.640625 -0.671875 1.640625 -0.953125 C 1.640625 -1.078125 1.71875 -1.1875 1.96875 -1.40625 C 2.03125 -1.453125 2.046875 -1.46875 2.09375 -1.515625 C 2.1875 -1.5 2.25 -1.5 2.328125 -1.5 C 2.765625 -1.5 3.296875 -1.6875 3.703125 -1.96875 C 4.140625 -2.296875 4.359375 -2.703125 4.359375 -3.234375 C 4.359375 -3.421875 4.34375 -3.5625 4.25 -3.765625 L 5.171875 -3.765625 Z M 3.53125 -2.9375 C 3.53125 -2.28125 3.109375 -1.828125 2.5 -1.828125 C 1.828125 -1.828125 1.390625 -2.359375 1.390625 -3.125 C 1.390625 -3.890625 1.75 -4.34375 2.390625 -4.34375 C 3.078125 -4.34375 3.53125 -3.78125 3.53125 -2.9375 Z M 4.375 1.015625 C 4.375 1.875 3.59375 2.515625 2.546875 2.515625 C 1.671875 2.515625 1.078125 2 1.078125 1.265625 C 1.078125 0.8125 1.328125 0.421875 1.734375 0.234375 C 1.890625 0.171875 2.171875 0.140625 2.859375 0.140625 C 3.984375 0.140625 4.375 0.375 4.375 1.015625 Z M 4.375 1.015625 "/>
</symbol>
<symbol overflow="visible" id="glyph1-6">
<path style="stroke:none;" d="M 2.703125 0.03125 L 2.703125 -0.265625 L 2.25 -0.296875 C 1.90625 -0.3125 1.875 -0.390625 1.875 -1.015625 L 1.875 -4.640625 L 1.78125 -4.671875 C 1.28125 -4.46875 0.75 -4.328125 0.234375 -4.265625 L 0.234375 -3.984375 L 0.59375 -3.984375 C 1 -3.984375 1.03125 -3.921875 1.03125 -3.265625 L 1.03125 -1.015625 C 1.03125 -0.390625 1 -0.3125 0.671875 -0.296875 L 0.203125 -0.265625 L 0.203125 0.03125 C 0.625 0.015625 1.03125 0 1.453125 0 C 1.875 0 2.28125 0.015625 2.703125 0.03125 Z M 2.796875 -6.40625 C 2.796875 -6.59375 2.65625 -6.75 2.5 -6.75 C 2.34375 -6.75 2.15625 -6.640625 1.9375 -6.421875 L 0.5625 -5.046875 L 0.96875 -5.046875 L 2.40625 -5.9375 C 2.734375 -6.15625 2.796875 -6.234375 2.796875 -6.40625 Z M 2.796875 -6.40625 "/>
</symbol>
<symbol overflow="visible" id="glyph1-7">
<path style="stroke:none;" d="M 5.703125 0.03125 L 5.703125 -0.265625 L 5.296875 -0.296875 C 4.953125 -0.3125 4.921875 -0.375 4.921875 -1.015625 L 4.921875 -2.9375 C 4.921875 -4.109375 4.375 -4.671875 3.265625 -4.671875 C 2.890625 -4.671875 2.6875 -4.609375 2.46875 -4.421875 L 1.71875 -3.765625 L 1.71875 -4.640625 L 1.625 -4.671875 C 1.109375 -4.46875 0.59375 -4.328125 0.0625 -4.265625 L 0.0625 -3.984375 L 0.4375 -3.984375 C 0.84375 -3.984375 0.875 -3.921875 0.875 -3.265625 L 0.875 -1.015625 C 0.875 -0.390625 0.84375 -0.3125 0.515625 -0.296875 L 0.0625 -0.265625 L 0.0625 0.03125 C 0.46875 0.015625 0.890625 0 1.296875 0 C 1.703125 0 2.125 0.015625 2.53125 0.03125 L 2.53125 -0.265625 L 2.078125 -0.296875 C 1.75 -0.3125 1.71875 -0.390625 1.71875 -1.015625 L 1.71875 -3.125 C 1.71875 -3.578125 2.375 -4.0625 2.984375 -4.0625 C 3.65625 -4.0625 4.09375 -3.5625 4.09375 -2.796875 L 4.09375 0.03125 C 4.34375 0.015625 4.609375 0 4.875 0 C 5.15625 0 5.421875 0.015625 5.703125 0.03125 Z M 5.703125 0.03125 "/>
</symbol>
<symbol overflow="visible" id="glyph1-8">
<path style="stroke:none;" d="M 4.6875 0.03125 L 4.6875 -0.265625 L 4.3125 -0.296875 C 4.0625 -0.296875 4.03125 -0.375 4.03125 -0.875 L 4.03125 -2.6875 C 4.03125 -4.140625 3.609375 -4.671875 2.453125 -4.671875 C 2.03125 -4.671875 1.625 -4.5625 1.25 -4.34375 L 0.71875 -4.015625 L 0.71875 -3.375 L 0.984375 -3.296875 L 1.109375 -3.609375 C 1.3125 -4.078125 1.421875 -4.140625 1.875 -4.140625 C 2.8125 -4.140625 3.203125 -3.78125 3.234375 -2.875 L 2.25 -2.6875 C 0.890625 -2.4375 0.3125 -1.96875 0.3125 -1.109375 C 0.3125 -0.328125 0.78125 0.125 1.578125 0.125 C 1.75 0.125 1.921875 0.09375 2 0.046875 L 3.234375 -0.8125 L 3.1875 0.03125 C 3.4375 0.015625 3.703125 0 3.953125 0 C 4.203125 0 4.453125 0.015625 4.6875 0.03125 Z M 3.234375 -1.234375 C 2.9375 -0.828125 2.3125 -0.453125 1.921875 -0.453125 C 1.53125 -0.453125 1.171875 -0.8125 1.171875 -1.25 C 1.171875 -1.609375 1.375 -1.96875 1.671875 -2.15625 C 1.921875 -2.296875 2.46875 -2.4375 3.234375 -2.546875 Z M 3.234375 -1.234375 "/>
</symbol>
<symbol overflow="visible" id="glyph1-9">
<path style="stroke:none;" d="M 4.109375 -0.453125 L 4.015625 -0.609375 C 3.65625 -0.40625 3.328125 -0.3125 2.96875 -0.3125 C 1.859375 -0.3125 1.140625 -1.171875 1.140625 -2.5 C 1.140625 -3.5625 1.640625 -4.15625 2.53125 -4.15625 C 2.96875 -4.15625 3.453125 -3.953125 3.625 -3.703125 L 3.703125 -3.09375 L 3.984375 -3.09375 C 3.984375 -3.5625 4.03125 -3.96875 4.109375 -4.328125 C 3.71875 -4.5625 3.375 -4.671875 2.953125 -4.671875 C 2.484375 -4.671875 1.921875 -4.484375 1.328125 -4.109375 C 0.625 -3.671875 0.265625 -2.96875 0.265625 -2.09375 C 0.265625 -0.75 1.203125 0.203125 2.546875 0.203125 C 3.0625 0.203125 3.8125 0.015625 3.90625 -0.140625 Z M 4.109375 -0.453125 "/>
</symbol>
<symbol overflow="visible" id="glyph1-10">
<path style="stroke:none;" d="M 7.296875 -2.765625 C 7.296875 -3.171875 7.203125 -3.546875 7.0625 -3.8125 C 6.734375 -4.34375 6.125 -4.671875 5.4375 -4.671875 C 4.859375 -4.671875 4.46875 -4.5 3.828125 -3.96875 C 3.4375 -4.46875 3.015625 -4.671875 2.375 -4.671875 C 2.09375 -4.671875 1.890625 -4.625 1.671875 -4.5 L 0.6875 -3.984375 L 0.6875 -3.359375 L 0.953125 -3.296875 C 1.015625 -3.5625 1.125 -3.796875 1.203125 -3.875 C 1.3125 -4.015625 1.765625 -4.140625 2.109375 -4.140625 C 2.453125 -4.140625 2.78125 -3.984375 2.953125 -3.734375 C 3.15625 -3.453125 3.203125 -3.21875 3.234375 -2.640625 L 2.671875 -2.578125 C 1.828125 -2.5 1 -2.265625 0.703125 -2.046875 C 0.4375 -1.828125 0.296875 -1.5 0.296875 -1.0625 C 0.296875 -0.296875 0.828125 0.203125 1.65625 0.203125 C 1.890625 0.203125 2.109375 0.15625 2.203125 0.0625 L 3.421875 -0.890625 C 3.59375 -0.59375 3.703125 -0.484375 3.875 -0.328125 C 4.25 0 4.78125 0.203125 5.34375 0.203125 C 5.71875 0.203125 6.109375 0.109375 6.515625 -0.0625 C 6.78125 -0.171875 6.984375 -0.296875 7.015625 -0.359375 L 7.21875 -0.703125 L 7.078125 -0.796875 C 6.484375 -0.421875 6.203125 -0.328125 5.765625 -0.328125 C 5.109375 -0.328125 4.5625 -0.609375 4.28125 -1.109375 C 4.09375 -1.4375 4.03125 -1.71875 4.015625 -2.296875 L 5.46875 -2.296875 C 6.15625 -2.296875 6.59375 -2.328125 7.28125 -2.4375 C 7.28125 -2.578125 7.296875 -2.65625 7.296875 -2.765625 Z M 3.234375 -1.171875 C 2.796875 -0.640625 2.46875 -0.453125 2 -0.453125 C 1.46875 -0.453125 1.15625 -0.734375 1.15625 -1.21875 C 1.15625 -1.4375 1.21875 -1.640625 1.328125 -1.796875 C 1.421875 -1.921875 1.5625 -2 1.890625 -2.09375 C 2.328125 -2.21875 2.421875 -2.234375 3.234375 -2.328125 Z M 6.46875 -2.65625 L 5.296875 -2.625 C 4.828125 -2.625 4.578125 -2.640625 4.03125 -2.6875 C 4.0625 -3.265625 4.140625 -3.5625 4.34375 -3.84375 C 4.5625 -4.140625 4.96875 -4.34375 5.375 -4.34375 C 5.75 -4.34375 6.015625 -4.171875 6.234375 -3.765625 C 6.40625 -3.4375 6.46875 -3.1875 6.46875 -2.65625 Z M 6.46875 -2.65625 "/>
</symbol>
<symbol overflow="visible" id="glyph1-11">
<path style="stroke:none;" d="M -1.140625 -6.40625 C -1.140625 -6.59375 -1.28125 -6.75 -1.453125 -6.75 C -1.59375 -6.75 -1.78125 -6.640625 -2 -6.421875 L -3.375 -5.046875 L -2.96875 -5.046875 L -1.53125 -5.9375 C -1.203125 -6.15625 -1.140625 -6.234375 -1.140625 -6.40625 Z M -1.140625 -6.40625 "/>
</symbol>
<symbol overflow="visible" id="glyph1-12">
<path style="stroke:none;" d="M 2.703125 0.03125 L 2.703125 -0.265625 L 2.25 -0.296875 C 1.90625 -0.3125 1.875 -0.390625 1.875 -1.015625 L 1.875 -7.15625 L 1.78125 -7.234375 C 1.34375 -7.0625 1.015625 -6.984375 0.234375 -6.875 L 0.234375 -6.59375 L 0.78125 -6.59375 C 0.96875 -6.59375 1.03125 -6.484375 1.03125 -6.1875 L 1.03125 -1.015625 C 1.03125 -0.390625 1 -0.3125 0.671875 -0.296875 L 0.203125 -0.265625 L 0.203125 0.03125 C 0.625 0.015625 1.03125 0 1.453125 0 C 1.875 0 2.28125 0.015625 2.703125 0.03125 Z M 2.703125 0.03125 "/>
</symbol>
<symbol overflow="visible" id="glyph1-13">
<path style="stroke:none;" d="M 2.703125 0.03125 L 2.703125 -0.265625 L 2.25 -0.296875 C 1.90625 -0.3125 1.875 -0.390625 1.875 -1.015625 L 1.875 -4.640625 L 1.78125 -4.671875 C 1.28125 -4.46875 0.75 -4.328125 0.234375 -4.265625 L 0.234375 -3.984375 L 0.59375 -3.984375 C 1 -3.984375 1.03125 -3.921875 1.03125 -3.265625 L 1.03125 -1.015625 C 1.03125 -0.390625 1 -0.3125 0.671875 -0.296875 L 0.203125 -0.265625 L 0.203125 0.03125 C 0.625 0.015625 1.03125 0 1.453125 0 C 1.875 0 2.28125 0.015625 2.703125 0.03125 Z M 1.953125 -5.90625 C 1.953125 -6.1875 1.75 -6.40625 1.46875 -6.40625 C 1.15625 -6.40625 0.953125 -6.203125 0.953125 -5.90625 C 0.953125 -5.609375 1.15625 -5.40625 1.453125 -5.40625 C 1.75 -5.40625 1.953125 -5.609375 1.953125 -5.90625 Z M 1.953125 -5.90625 "/>
</symbol>
<symbol overflow="visible" id="glyph1-14">
<path style="stroke:none;" d="M 3.1875 -4.34375 L 1.8125 -4.28125 L 1.8125 -4.671875 C 1.8125 -5.078125 1.84375 -5.4375 1.921875 -6.078125 L 1.796875 -6.1875 C 1.5625 -6.046875 1.265625 -5.90625 0.953125 -5.8125 C 0.984375 -5.515625 1 -5.328125 1 -5.03125 L 1 -4.328125 L 0.21875 -3.984375 L 0.21875 -3.765625 L 0.984375 -3.8125 L 0.984375 -0.9375 C 0.984375 -0.203125 1.3125 0.125 2.078125 0.125 C 2.296875 0.125 2.546875 0.0625 2.609375 0 L 3.078125 -0.53125 L 2.953125 -0.703125 C 2.703125 -0.5625 2.546875 -0.515625 2.359375 -0.515625 C 1.96875 -0.515625 1.8125 -0.703125 1.8125 -1.203125 L 1.8125 -3.8125 L 3.09375 -3.8125 Z M 3.1875 -4.34375 "/>
</symbol>
<symbol overflow="visible" id="glyph1-15">
<path style="stroke:none;" d="M 4.6875 0.03125 L 4.6875 -0.265625 L 4.3125 -0.296875 C 4.0625 -0.296875 4.03125 -0.375 4.03125 -0.875 L 4.03125 -2.6875 C 4.03125 -4.140625 3.609375 -4.671875 2.453125 -4.671875 C 2.03125 -4.671875 1.625 -4.5625 1.25 -4.34375 L 0.71875 -4.015625 L 0.71875 -3.375 L 0.984375 -3.296875 L 1.109375 -3.609375 C 1.3125 -4.078125 1.421875 -4.140625 1.875 -4.140625 C 2.8125 -4.140625 3.203125 -3.78125 3.234375 -2.875 L 2.25 -2.6875 C 0.890625 -2.4375 0.3125 -1.96875 0.3125 -1.109375 C 0.3125 -0.328125 0.78125 0.125 1.578125 0.125 C 1.75 0.125 1.921875 0.09375 2 0.046875 L 3.234375 -0.8125 L 3.1875 0.03125 C 3.4375 0.015625 3.703125 0 3.953125 0 C 4.203125 0 4.453125 0.015625 4.6875 0.03125 Z M 3.234375 -1.234375 C 2.9375 -0.828125 2.3125 -0.453125 1.921875 -0.453125 C 1.53125 -0.453125 1.171875 -0.8125 1.171875 -1.25 C 1.171875 -1.609375 1.375 -1.96875 1.671875 -2.15625 C 1.921875 -2.296875 2.46875 -2.4375 3.234375 -2.546875 Z M 3.796875 -6.40625 C 3.796875 -6.59375 3.65625 -6.75 3.484375 -6.75 C 3.34375 -6.75 3.15625 -6.640625 2.9375 -6.421875 L 1.5625 -5.046875 L 1.96875 -5.046875 L 3.40625 -5.9375 C 3.734375 -6.15625 3.796875 -6.234375 3.796875 -6.40625 Z M 3.796875 -6.40625 "/>
</symbol>
<symbol overflow="visible" id="glyph1-16">
<path style="stroke:none;" d="M 3.734375 -4.5625 C 3.625 -4.640625 3.4375 -4.671875 3.265625 -4.671875 C 2.953125 -4.671875 2.640625 -4.515625 2.4375 -4.265625 L 1.875 -3.609375 L 1.875 -4.640625 L 1.78125 -4.671875 C 1.28125 -4.46875 0.75 -4.328125 0.234375 -4.265625 L 0.234375 -3.984375 L 0.59375 -3.984375 C 1 -3.984375 1.03125 -3.921875 1.03125 -3.265625 L 1.03125 -1.015625 C 1.03125 -0.390625 1 -0.3125 0.671875 -0.296875 L 0.203125 -0.265625 L 0.203125 0.03125 C 0.625 0.015625 1.03125 0 1.4375 0 C 1.90625 0 2.375 0.015625 2.859375 0.03125 L 2.859375 -0.265625 L 2.34375 -0.296875 C 1.890625 -0.328125 1.875 -0.359375 1.875 -1.015625 L 1.875 -2.734375 C 1.875 -3.328125 2.265625 -3.828125 2.765625 -3.828125 C 3.0625 -3.828125 3.265625 -3.6875 3.421875 -3.375 L 3.640625 -3.375 Z M 3.734375 -4.5625 "/>
</symbol>
<symbol overflow="visible" id="glyph1-17">
<path style="stroke:none;" d="M 4.46875 -2.78125 C 4.46875 -3.921875 3.734375 -4.671875 2.609375 -4.671875 C 2.25 -4.671875 1.8125 -4.546875 1.40625 -4.3125 C 0.59375 -3.84375 0.265625 -3.21875 0.265625 -2.1875 C 0.265625 -1.5625 0.40625 -1.015625 0.671875 -0.640625 C 1.0625 -0.109375 1.75 0.203125 2.5 0.203125 C 2.859375 0.203125 3.234375 0.125 3.640625 -0.0625 C 3.90625 -0.171875 4.109375 -0.296875 4.15625 -0.359375 L 4.359375 -0.703125 L 4.234375 -0.796875 C 3.59375 -0.421875 3.359375 -0.328125 2.9375 -0.328125 C 2.28125 -0.328125 1.75 -0.625 1.46875 -1.109375 C 1.28125 -1.4375 1.203125 -1.71875 1.1875 -2.296875 L 2.640625 -2.296875 C 3.328125 -2.296875 3.765625 -2.328125 4.453125 -2.4375 C 4.453125 -2.578125 4.46875 -2.65625 4.46875 -2.78125 Z M 3.578125 -2.65625 L 2.46875 -2.625 C 2 -2.625 1.75 -2.640625 1.203125 -2.6875 C 1.203125 -3.15625 1.25 -3.375 1.375 -3.640625 C 1.578125 -4.078125 2.015625 -4.34375 2.5 -4.34375 C 2.828125 -4.34375 3.078125 -4.21875 3.265625 -3.953125 C 3.484375 -3.625 3.578125 -3.328125 3.578125 -2.65625 Z M 3.578125 -2.65625 "/>
</symbol>
<symbol overflow="visible" id="glyph1-18">
<path style="stroke:none;" d="M 2.171875 -1.09375 L 2.03125 -1.21875 C 1.765625 -1.140625 1.578125 -1.078125 1.0625 -0.921875 C 0.984375 -0.171875 0.734375 0.484375 0.15625 1.4375 L 0.296875 1.546875 L 0.703125 1.359375 C 1.515625 0.3125 1.890625 -0.3125 2.171875 -1.09375 Z M 2.171875 -1.09375 "/>
</symbol>
<symbol overflow="visible" id="glyph1-19">
<path style="stroke:none;" d="M 5.796875 0.03125 L 5.796875 -0.265625 L 5.390625 -0.296875 C 5.046875 -0.3125 5.015625 -0.375 5.015625 -1.015625 L 5.015625 -4.640625 L 4.921875 -4.671875 C 4.421875 -4.46875 3.890625 -4.328125 3.375 -4.265625 L 3.375 -3.984375 L 3.734375 -3.984375 C 4.140625 -3.984375 4.171875 -3.921875 4.171875 -3.265625 L 4.171875 -1.640625 C 4.171875 -1.421875 4.03125 -1.140625 3.8125 -0.90625 C 3.53125 -0.625 3.203125 -0.484375 2.828125 -0.484375 C 2.46875 -0.484375 2.1875 -0.59375 2.03125 -0.78125 C 1.890625 -0.953125 1.828125 -1.25 1.828125 -1.6875 L 1.828125 -4.640625 L 1.734375 -4.671875 C 1.21875 -4.46875 0.703125 -4.328125 0.171875 -4.265625 L 0.171875 -3.984375 L 0.546875 -3.984375 C 0.953125 -3.984375 0.984375 -3.921875 0.984375 -3.265625 L 0.984375 -1.578125 C 0.984375 -0.890625 1.046875 -0.578125 1.21875 -0.328125 C 1.453125 -0.03125 1.828125 0.125 2.390625 0.125 C 2.84375 0.125 3.234375 -0.015625 3.515625 -0.265625 L 4.171875 -0.890625 C 4.171875 -0.59375 4.171875 -0.4375 4.140625 0.03125 C 4.421875 0.015625 4.6875 0 4.96875 0 C 5.25 0 5.515625 0.015625 5.796875 0.03125 Z M 4.34375 -6.40625 C 4.34375 -6.59375 4.203125 -6.75 4.03125 -6.75 C 3.890625 -6.75 3.703125 -6.640625 3.484375 -6.421875 L 2.109375 -5.046875 L 2.515625 -5.046875 L 3.953125 -5.9375 C 4.28125 -6.15625 4.34375 -6.234375 4.34375 -6.40625 Z M 4.34375 -6.40625 "/>
</symbol>
<symbol overflow="visible" id="glyph1-20">
<path style="stroke:none;" d="M 1.8125 -0.53125 C 1.8125 -0.828125 1.53125 -1.109375 1.21875 -1.109375 C 0.921875 -1.109375 0.65625 -0.828125 0.65625 -0.53125 C 0.65625 -0.234375 0.921875 0.046875 1.21875 0.046875 C 1.53125 0.046875 1.8125 -0.21875 1.8125 -0.53125 Z M 1.8125 -3.953125 C 1.8125 -4.265625 1.53125 -4.546875 1.21875 -4.546875 C 0.921875 -4.546875 0.65625 -4.265625 0.65625 -3.96875 C 0.65625 -3.671875 0.921875 -3.390625 1.21875 -3.390625 C 1.53125 -3.390625 1.8125 -3.65625 1.8125 -3.953125 Z M 1.8125 -3.953125 "/>
</symbol>
<symbol overflow="visible" id="glyph1-21">
<path style="stroke:none;" d="M 7.609375 1.203125 L 7.609375 0.984375 C 7.234375 1.03125 7.125 1.046875 7.03125 1.046875 C 6.546875 1.046875 6 0.890625 5.203125 0.5625 C 4.578125 0.296875 4.421875 0.234375 4 0.1875 C 4.78125 0.125 5.15625 0.015625 5.671875 -0.28125 C 6.875 -0.96875 7.609375 -2.265625 7.609375 -3.703125 C 7.609375 -5.765625 6.203125 -7.0625 3.96875 -7.0625 C 1.734375 -7.0625 0.21875 -5.59375 0.21875 -3.421875 C 0.21875 -1.234375 1.609375 0.1875 3.765625 0.1875 L 3.703125 0.203125 C 3.515625 0.28125 3.1875 0.53125 2.625 0.96875 L 2.609375 1.28125 L 3.1875 0.96875 C 3.3125 0.90625 3.375 0.890625 3.46875 0.890625 C 3.65625 0.890625 3.9375 0.9375 4.25 1.03125 L 5.71875 1.5 C 6.078125 1.609375 6.375 1.671875 6.78125 1.75 Z M 6.546875 -3.34375 C 6.546875 -1.34375 5.671875 -0.234375 4.109375 -0.234375 C 3.265625 -0.234375 2.578125 -0.546875 2.078125 -1.171875 C 1.578125 -1.796875 1.28125 -2.75 1.28125 -3.734375 C 1.28125 -5.609375 2.1875 -6.65625 3.84375 -6.65625 C 5.546875 -6.65625 6.546875 -5.4375 6.546875 -3.34375 Z M 6.546875 -3.34375 "/>
</symbol>
<symbol overflow="visible" id="glyph1-22">
<path style="stroke:none;" d="M 5.796875 0.03125 L 5.796875 -0.265625 L 5.390625 -0.296875 C 5.046875 -0.3125 5.015625 -0.375 5.015625 -1.015625 L 5.015625 -4.640625 L 4.921875 -4.671875 C 4.421875 -4.46875 3.890625 -4.328125 3.375 -4.265625 L 3.375 -3.984375 L 3.734375 -3.984375 C 4.140625 -3.984375 4.171875 -3.921875 4.171875 -3.265625 L 4.171875 -1.640625 C 4.171875 -1.421875 4.03125 -1.140625 3.8125 -0.90625 C 3.53125 -0.625 3.203125 -0.484375 2.828125 -0.484375 C 2.46875 -0.484375 2.1875 -0.59375 2.03125 -0.78125 C 1.890625 -0.953125 1.828125 -1.25 1.828125 -1.6875 L 1.828125 -4.640625 L 1.734375 -4.671875 C 1.21875 -4.46875 0.703125 -4.328125 0.171875 -4.265625 L 0.171875 -3.984375 L 0.546875 -3.984375 C 0.953125 -3.984375 0.984375 -3.921875 0.984375 -3.265625 L 0.984375 -1.578125 C 0.984375 -0.890625 1.046875 -0.578125 1.21875 -0.328125 C 1.453125 -0.03125 1.828125 0.125 2.390625 0.125 C 2.84375 0.125 3.234375 -0.015625 3.515625 -0.265625 L 4.171875 -0.890625 C 4.171875 -0.59375 4.171875 -0.4375 4.140625 0.03125 C 4.421875 0.015625 4.6875 0 4.96875 0 C 5.25 0 5.515625 0.015625 5.796875 0.03125 Z M 5.796875 0.03125 "/>
</symbol>
<symbol overflow="visible" id="glyph1-23">
<path style="stroke:none;" d="M 5.578125 2.796875 L 5.578125 2.5 L 5.125 2.46875 C 4.78125 2.453125 4.75 2.375 4.75 1.75 L 4.75 -3.171875 C 4.75 -3.78125 4.8125 -4.171875 4.984375 -4.546875 L 4.796875 -4.65625 L 4.3125 -4.34375 C 3.796875 -4.578125 3.375 -4.671875 2.9375 -4.671875 C 2.65625 -4.671875 2.296875 -4.59375 2.15625 -4.5 L 1.3125 -3.96875 C 0.671875 -3.5625 0.34375 -2.90625 0.34375 -2.03125 C 0.34375 -0.734375 1.140625 0.125 2.375 0.125 C 2.578125 0.125 2.75 0.078125 2.875 0 L 3.921875 -0.65625 L 3.921875 1.75 C 3.921875 2.375 3.875 2.453125 3.546875 2.46875 L 2.96875 2.5 L 2.96875 2.796875 C 3.421875 2.78125 3.890625 2.765625 4.359375 2.765625 C 4.765625 2.765625 5.171875 2.78125 5.578125 2.796875 Z M 3.921875 -1.203125 C 3.921875 -1.0625 3.671875 -0.796875 3.40625 -0.640625 C 3.171875 -0.515625 2.9375 -0.453125 2.703125 -0.453125 C 1.828125 -0.453125 1.21875 -1.265625 1.21875 -2.46875 C 1.21875 -3.5625 1.78125 -4.203125 2.734375 -4.203125 C 3.21875 -4.203125 3.5625 -4.09375 3.921875 -3.796875 Z M 3.921875 -1.203125 "/>
</symbol>
<symbol overflow="visible" id="glyph1-24">
<path style="stroke:none;" d="M 8.65625 0.03125 L 8.65625 -0.265625 L 8.1875 -0.296875 C 7.859375 -0.3125 7.828125 -0.390625 7.828125 -1.015625 L 7.828125 -3.078125 C 7.828125 -4.0625 7.25 -4.671875 6.328125 -4.671875 C 5.984375 -4.671875 5.6875 -4.578125 5.515625 -4.421875 L 4.75 -3.75 C 4.4375 -4.40625 4.03125 -4.671875 3.34375 -4.671875 C 2.96875 -4.671875 2.6875 -4.578125 2.515625 -4.421875 L 1.828125 -3.78125 L 1.828125 -4.640625 L 1.734375 -4.671875 C 1.21875 -4.46875 0.703125 -4.328125 0.171875 -4.265625 L 0.171875 -3.984375 L 0.546875 -3.984375 C 0.953125 -3.984375 0.984375 -3.921875 0.984375 -3.265625 L 0.984375 -1.015625 C 0.984375 -0.390625 0.953125 -0.3125 0.625 -0.296875 L 0.15625 -0.265625 L 0.15625 0.03125 C 0.578125 0.015625 1 0 1.421875 0 C 1.828125 0 2.21875 0.015625 2.609375 0.03125 L 2.609375 -0.265625 L 2.1875 -0.296875 C 1.859375 -0.3125 1.828125 -0.390625 1.828125 -1.015625 L 1.828125 -3.125 C 1.828125 -3.578125 2.484375 -4.0625 3.078125 -4.0625 C 3.625 -4.0625 3.984375 -3.5625 3.984375 -2.796875 L 3.984375 -1.015625 C 3.984375 -0.390625 3.953125 -0.3125 3.625 -0.296875 L 3.15625 -0.265625 L 3.15625 0.03125 C 3.578125 0.015625 3.984375 0 4.40625 0 C 4.828125 0 5.234375 0.015625 5.65625 0.03125 L 5.65625 -0.265625 L 5.1875 -0.296875 C 4.859375 -0.3125 4.828125 -0.390625 4.828125 -1.015625 L 4.828125 -3.125 C 4.828125 -3.578125 5.484375 -4.0625 6.078125 -4.0625 C 6.625 -4.0625 6.984375 -3.5625 6.984375 -2.796875 L 6.984375 0.03125 C 7.25 0.015625 7.515625 0 7.78125 0 C 8.078125 0 8.359375 0.015625 8.65625 0.03125 Z M 8.65625 0.03125 "/>
</symbol>
<symbol overflow="visible" id="glyph1-25">
<path style="stroke:none;" d="M 3.890625 -1.46875 C 3.890625 -1.78125 3.8125 -2.015625 3.625 -2.21875 C 3.359375 -2.46875 3.03125 -2.578125 2.15625 -2.75 C 1.328125 -2.90625 1.0625 -3.109375 1.0625 -3.5625 C 1.0625 -4.0625 1.421875 -4.34375 2.03125 -4.34375 C 2.6875 -4.34375 3.203125 -4 3.203125 -3.53125 L 3.203125 -3.296875 L 3.484375 -3.296875 C 3.484375 -3.875 3.5 -4.109375 3.53125 -4.421875 C 3 -4.609375 2.640625 -4.671875 2.234375 -4.671875 C 1.078125 -4.671875 0.375 -4.125 0.375 -3.234375 C 0.375 -2.75 0.59375 -2.40625 1.046875 -2.203125 C 1.3125 -2.078125 1.84375 -1.921875 2.515625 -1.78125 C 2.96875 -1.671875 3.15625 -1.46875 3.15625 -1.09375 C 3.15625 -0.546875 2.65625 -0.171875 1.953125 -0.171875 C 1.21875 -0.171875 0.703125 -0.515625 0.703125 -1.015625 L 0.703125 -1.421875 L 0.40625 -1.421875 C 0.40625 -0.734375 0.375 -0.4375 0.296875 -0.046875 C 0.8125 0.125 1.203125 0.203125 1.671875 0.203125 C 2.96875 0.203125 3.890625 -0.5 3.890625 -1.46875 Z M 3.890625 -1.46875 "/>
</symbol>
<symbol overflow="visible" id="glyph1-26">
<path style="stroke:none;" d="M 5.515625 -2.703125 C 5.515625 -3.8125 4.609375 -4.671875 3.453125 -4.671875 C 3.078125 -4.671875 2.71875 -4.578125 2.5625 -4.421875 L 1.75 -3.671875 L 1.75 -4.640625 L 1.65625 -4.671875 C 1.140625 -4.46875 0.625 -4.328125 0.09375 -4.265625 L 0.09375 -3.984375 L 0.46875 -3.984375 C 0.875 -3.984375 0.90625 -3.921875 0.90625 -3.265625 L 0.90625 1.75 C 0.90625 2.375 0.875 2.453125 0.53125 2.46875 L 0.078125 2.5 L 0.078125 2.796875 C 0.5 2.78125 0.90625 2.765625 1.328125 2.765625 C 1.75 2.765625 2.15625 2.78125 2.578125 2.796875 L 2.578125 2.5 L 2.109375 2.46875 C 1.78125 2.453125 1.75 2.375 1.75 1.75 L 1.75 -0.125 C 2.046875 0.046875 2.359375 0.125 2.8125 0.125 C 3.09375 0.125 3.359375 0.0625 3.515625 -0.046875 L 4.65625 -0.78125 C 5.046875 -1.03125 5.515625 -2.0625 5.515625 -2.703125 Z M 4.65625 -2.328125 C 4.65625 -1.21875 3.984375 -0.390625 3.09375 -0.390625 C 2.546875 -0.390625 2.140625 -0.5625 1.75 -0.984375 L 1.75 -3.046875 C 1.75 -3.1875 1.796875 -3.296875 1.921875 -3.46875 C 2.21875 -3.84375 2.625 -4.03125 3.125 -4.03125 C 4.0625 -4.03125 4.65625 -3.375 4.65625 -2.328125 Z M 4.65625 -2.328125 "/>
</symbol>
<symbol overflow="visible" id="glyph1-27">
<path style="stroke:none;" d="M 5.125 -2.359375 C 5.125 -3.703125 4.140625 -4.671875 2.78125 -4.671875 C 1.328125 -4.671875 0.3125 -3.65625 0.3125 -2.15625 C 0.3125 -0.75 1.203125 0.203125 2.5 0.203125 C 4.03125 0.203125 5.125 -0.875 5.125 -2.359375 Z M 4.203125 -2 C 4.203125 -0.84375 3.6875 -0.125 2.875 -0.125 C 1.90625 -0.125 1.25 -1.09375 1.25 -2.5 C 1.25 -3.703125 1.71875 -4.34375 2.609375 -4.34375 C 3.515625 -4.34375 4.203125 -3.34375 4.203125 -2 Z M 4.203125 -2 "/>
</symbol>
<symbol overflow="visible" id="glyph1-28">
<path style="stroke:none;" d="M 6.671875 0.03125 L 6.671875 -0.265625 C 6.34375 -0.296875 6.1875 -0.359375 6.0625 -0.53125 L 3.796875 -3.484375 C 4.359375 -3.625 4.609375 -3.734375 4.9375 -3.953125 C 5.46875 -4.328125 5.734375 -4.828125 5.734375 -5.40625 C 5.734375 -6.359375 5.09375 -6.890625 3.796875 -6.890625 C 3.203125 -6.890625 2.609375 -6.875 2.015625 -6.875 C 1.4375 -6.875 0.875 -6.875 0.296875 -6.890625 L 0.296875 -6.59375 L 0.703125 -6.5625 C 1.15625 -6.546875 1.203125 -6.453125 1.203125 -5.671875 L 1.203125 -1.203125 C 1.203125 -0.40625 1.15625 -0.328125 0.703125 -0.296875 L 0.21875 -0.265625 L 0.21875 0.03125 C 0.703125 0.015625 1.1875 0 1.671875 0 C 2.15625 0 2.65625 0.015625 3.140625 0.03125 L 3.140625 -0.265625 L 2.65625 -0.296875 C 2.203125 -0.328125 2.15625 -0.40625 2.15625 -1.203125 L 2.15625 -6.40625 C 2.5 -6.484375 2.796875 -6.515625 3.125 -6.515625 C 4.171875 -6.515625 4.75 -6.046875 4.75 -5.1875 C 4.75 -4.28125 4.015625 -3.703125 2.859375 -3.703125 L 2.578125 -3.703125 L 2.578125 -3.53125 C 2.796875 -3.296875 2.875 -3.1875 3.03125 -2.96875 L 4.859375 -0.515625 L 5.28125 0.03125 C 5.5 0.015625 5.71875 0 5.953125 0 C 6.1875 0 6.4375 0.015625 6.671875 0.03125 Z M 6.671875 0.03125 "/>
</symbol>
<symbol overflow="visible" id="glyph1-29">
<path style="stroke:none;" d="M 4.46875 -2.78125 C 4.46875 -3.921875 3.734375 -4.671875 2.609375 -4.671875 C 2.25 -4.671875 1.8125 -4.546875 1.40625 -4.3125 C 0.59375 -3.84375 0.265625 -3.21875 0.265625 -2.1875 C 0.265625 -1.5625 0.40625 -1.015625 0.671875 -0.640625 C 1.0625 -0.109375 1.75 0.203125 2.5 0.203125 C 2.859375 0.203125 3.234375 0.125 3.640625 -0.0625 C 3.90625 -0.171875 4.109375 -0.296875 4.15625 -0.359375 L 4.359375 -0.703125 L 4.234375 -0.796875 C 3.59375 -0.421875 3.359375 -0.328125 2.9375 -0.328125 C 2.28125 -0.328125 1.75 -0.625 1.46875 -1.109375 C 1.28125 -1.4375 1.203125 -1.71875 1.1875 -2.296875 L 2.640625 -2.296875 C 3.328125 -2.296875 3.765625 -2.328125 4.453125 -2.4375 C 4.453125 -2.578125 4.46875 -2.65625 4.46875 -2.78125 Z M 3.578125 -2.65625 L 2.46875 -2.625 C 2 -2.625 1.75 -2.640625 1.203125 -2.6875 C 1.203125 -3.15625 1.25 -3.375 1.375 -3.640625 C 1.578125 -4.078125 2.015625 -4.34375 2.5 -4.34375 C 2.828125 -4.34375 3.078125 -4.21875 3.265625 -3.953125 C 3.484375 -3.625 3.578125 -3.328125 3.578125 -2.65625 Z M 3.953125 -6.40625 C 3.953125 -6.59375 3.8125 -6.75 3.65625 -6.75 C 3.5 -6.75 3.3125 -6.640625 3.09375 -6.421875 L 1.71875 -5.046875 L 2.125 -5.046875 L 3.5625 -5.9375 C 3.890625 -6.15625 3.953125 -6.234375 3.953125 -6.40625 Z M 3.953125 -6.40625 "/>
</symbol>
<symbol overflow="visible" id="glyph1-30">
<path style="stroke:none;" d="M 4.9375 0.03125 L 4.9375 -0.265625 L 4.6875 -0.296875 C 4.578125 -0.3125 4.453125 -0.390625 4.34375 -0.53125 L 2.875 -2.53125 L 4.28125 -4.1875 C 4.34375 -4.25 4.453125 -4.296875 4.625 -4.296875 L 4.765625 -4.296875 L 4.765625 -4.578125 L 3.953125 -4.578125 L 2.71875 -2.828125 L 1.953125 -3.984375 C 1.796875 -4.203125 1.6875 -4.34375 1.359375 -4.671875 L 0.203125 -4.46875 L 0.25 -4.21875 L 0.453125 -4.203125 C 0.640625 -4.171875 0.859375 -4.046875 0.953125 -3.90625 L 2.15625 -2.171875 L 0.671875 -0.421875 C 0.59375 -0.328125 0.46875 -0.265625 0.375 -0.265625 L 0.203125 -0.265625 L 0.203125 0 L 1.0625 0 C 1.0625 0 1.125 -0.234375 1.65625 -0.9375 L 2.390625 -1.90625 L 3.71875 0.03125 C 3.921875 0.015625 4.125 0 4.328125 0 C 4.53125 0 4.734375 0.015625 4.9375 0.03125 Z M 4.9375 0.03125 "/>
</symbol>
<symbol overflow="visible" id="glyph1-31">
<path style="stroke:none;" d="M 5.765625 0.03125 L 5.765625 -0.265625 L 5.3125 -0.296875 C 4.96875 -0.3125 4.9375 -0.390625 4.9375 -1.015625 L 4.9375 -7.15625 L 4.859375 -7.234375 C 4.421875 -7.0625 4.09375 -6.984375 3.296875 -6.875 L 3.296875 -6.59375 L 3.859375 -6.59375 C 4.03125 -6.59375 4.109375 -6.484375 4.109375 -6.1875 L 4.109375 -4.359375 C 3.546875 -4.59375 3.265625 -4.671875 2.921875 -4.671875 C 2.65625 -4.671875 2.40625 -4.609375 2.15625 -4.484375 L 1.28125 -4.03125 C 0.71875 -3.734375 0.34375 -3 0.34375 -2.15625 C 0.34375 -1.359375 0.625 -0.703125 1.109375 -0.296875 C 1.453125 -0.015625 1.90625 0.125 2.5625 0.125 C 2.765625 0.125 2.984375 0.078125 3.046875 0.046875 L 4.140625 -0.890625 L 4.09375 0.03125 C 4.359375 0.015625 4.609375 0 4.859375 0 C 5.15625 0 5.46875 0.015625 5.765625 0.03125 Z M 4.109375 -2.203125 C 4.109375 -1.5625 4.09375 -1.453125 3.953125 -1.21875 C 3.671875 -0.75 3.1875 -0.453125 2.71875 -0.453125 C 1.84375 -0.453125 1.21875 -1.296875 1.21875 -2.484375 C 1.21875 -3.5625 1.75 -4.203125 2.65625 -4.203125 C 3.03125 -4.203125 3.421875 -4.078125 3.78125 -3.84375 C 3.984375 -3.703125 4.109375 -3.5625 4.109375 -3.484375 Z M 4.109375 -2.203125 "/>
</symbol>
<symbol overflow="visible" id="glyph1-32">
<path style="stroke:none;" d="M 7.609375 -3.65625 C 7.609375 -5.75 6.21875 -7.0625 4 -7.0625 C 1.734375 -7.0625 0.21875 -5.59375 0.21875 -3.40625 C 0.21875 -1.3125 1.671875 0.203125 3.6875 0.203125 C 5.921875 0.203125 7.609375 -1.46875 7.609375 -3.65625 Z M 6.546875 -3.359375 C 6.546875 -1.390625 5.625 -0.21875 4.09375 -0.21875 C 2.40625 -0.21875 1.28125 -1.640625 1.28125 -3.765625 C 1.28125 -5.609375 2.203125 -6.65625 3.84375 -6.65625 C 5.546875 -6.65625 6.546875 -5.4375 6.546875 -3.359375 Z M 6.546875 -3.359375 "/>
</symbol>
<symbol overflow="visible" id="glyph1-33">
<path style="stroke:none;" d="M 5.0625 -2.6875 C 5.0625 -3.84375 4.3125 -4.671875 3.265625 -4.671875 C 2.796875 -4.671875 2.296875 -4.5 2.046875 -4.234375 L 1.5 -3.671875 L 1.5 -7.15625 L 1.40625 -7.234375 C 0.96875 -7.0625 0.640625 -6.984375 -0.15625 -6.875 L -0.15625 -6.59375 L 0.40625 -6.59375 C 0.59375 -6.59375 0.65625 -6.484375 0.65625 -6.1875 L 0.65625 -1.53125 C 0.65625 -0.90625 0.640625 -0.640625 0.578125 0.0625 L 0.734375 0.125 L 1.140625 -0.234375 C 1.53125 0.015625 1.890625 0.125 2.421875 0.125 C 2.8125 0.125 3.078125 0.046875 3.28125 -0.09375 L 4.28125 -0.8125 C 4.71875 -1.140625 5.0625 -1.96875 5.0625 -2.6875 Z M 4.203125 -2.28125 C 4.203125 -1.171875 3.59375 -0.390625 2.75 -0.390625 C 2.234375 -0.390625 1.5 -0.703125 1.5 -0.921875 L 1.5 -3.078125 C 1.5 -3.203125 1.59375 -3.390625 1.75 -3.5625 C 2.03125 -3.859375 2.421875 -4.03125 2.828125 -4.03125 C 3.671875 -4.03125 4.203125 -3.34375 4.203125 -2.28125 Z M 4.203125 -2.28125 "/>
</symbol>
<symbol overflow="visible" id="glyph1-34">
<path style="stroke:none;" d="M 7.484375 -3.84375 C 7.484375 -5.6875 6.109375 -6.890625 4 -6.890625 C 3.421875 -6.890625 2.84375 -6.875 2.265625 -6.875 C 1.578125 -6.875 0.90625 -6.875 0.21875 -6.890625 L 0.21875 -6.59375 L 0.625 -6.5625 C 1.078125 -6.546875 1.125 -6.453125 1.125 -5.671875 L 1.125 -0.953125 C 1.125 -0.65625 1.03125 -0.4375 0.875 -0.359375 L 0.5625 -0.203125 L 0.5625 0.03125 C 1.03125 0.015625 1.5 0 1.953125 0 C 2.4375 0 2.921875 0.03125 3.40625 0.03125 C 4.671875 0.03125 5.625 -0.296875 6.328125 -0.984375 C 7.046875 -1.6875 7.484375 -2.765625 7.484375 -3.84375 Z M 6.421875 -3.578125 C 6.421875 -2.46875 6.078125 -1.609375 5.421875 -1.0625 C 4.828125 -0.578125 4.234375 -0.40625 3.09375 -0.40625 C 2.640625 -0.40625 2.328125 -0.421875 2.078125 -0.484375 L 2.078125 -6.421875 C 2.328125 -6.46875 2.6875 -6.5 3.1875 -6.5 C 4.28125 -6.5 5.1875 -6.296875 5.71875 -5.765625 C 6.1875 -5.296875 6.421875 -4.578125 6.421875 -3.578125 Z M 6.421875 -3.578125 "/>
</symbol>
<symbol overflow="visible" id="glyph1-35">
<path style="stroke:none;" d="M 1.828125 -0.53125 C 1.828125 -0.828125 1.546875 -1.109375 1.234375 -1.109375 C 0.9375 -1.109375 0.671875 -0.828125 0.671875 -0.53125 C 0.671875 -0.234375 0.9375 0.046875 1.21875 0.046875 C 1.546875 0.046875 1.828125 -0.21875 1.828125 -0.53125 Z M 1.828125 -0.53125 "/>
</symbol>
<symbol overflow="visible" id="glyph2-0">
<path style="stroke:none;" d="M 0.859375 0 L 0.859375 -17.21875 L 7.703125 -17.21875 L 7.703125 0 Z M 1.703125 -0.859375 L 6.84375 -0.859375 L 6.84375 -16.359375 L 1.703125 -16.359375 Z M 1.703125 -0.859375 "/>
</symbol>
<symbol overflow="visible" id="glyph2-1">
<path style="stroke:none;" d="M 0 -1.703125 L 0 -10.125 C 0 -10.988281 0.25 -11.648438 0.75 -12.109375 C 1.25 -12.566406 1.929688 -12.796875 2.796875 -12.796875 C 3.273438 -12.773438 3.644531 -12.644531 3.90625 -12.40625 C 4.164062 -12.175781 4.296875 -11.882812 4.296875 -11.53125 L 4.296875 -6.984375 L 4.03125 -7.203125 C 3.53125 -7.648438 2.894531 -7.875 2.125 -7.875 C 1.601562 -7.875 1.160156 -7.6875 0.796875 -7.3125 C 0.441406 -6.9375 0.265625 -6.472656 0.265625 -5.921875 C 0.265625 -5.367188 0.441406 -4.898438 0.796875 -4.515625 C 1.160156 -4.140625 1.601562 -3.953125 2.125 -3.953125 C 2.914062 -3.953125 3.550781 -4.160156 4.03125 -4.578125 L 4.296875 -4.828125 L 4.296875 -0.265625 C 4.296875 0.148438 4.144531 0.46875 3.84375 0.6875 C 3.550781 0.914062 3.203125 1.03125 2.796875 1.03125 C 1.929688 1.019531 1.25 0.773438 0.75 0.296875 C 0.25 -0.171875 0 -0.835938 0 -1.703125 Z M 0 -1.703125 "/>
</symbol>
<symbol overflow="visible" id="glyph2-2">
<path style="stroke:none;" d="M 2.125 -4.375 C 3.570312 -4.375 4.296875 -3.96875 4.296875 -3.15625 L 4.296875 0.9375 C 3.828125 0.445312 3.109375 0.203125 2.140625 0.203125 C 1.179688 0.203125 0.46875 0.445312 0 0.9375 L 0 -3.15625 C 0 -3.96875 0.707031 -4.375 2.125 -4.375 Z M 2.125 -4.375 "/>
</symbol>
<symbol overflow="visible" id="glyph2-3">
<path style="stroke:none;" d="M 0 -2.203125 C 0.0703125 -2.304688 0.210938 -2.359375 0.421875 -2.359375 C 0.640625 -2.359375 0.789062 -2.304688 0.875 -2.203125 L 0.875 0.3125 C 0.8125 0.414062 0.671875 0.46875 0.453125 0.46875 C 0.234375 0.46875 0.0820312 0.414062 0 0.3125 Z M 0 -2.203125 "/>
</symbol>
<symbol overflow="visible" id="glyph2-4">
<path style="stroke:none;" d="M 1.546875 -1.484375 C 1.359375 -1.316406 1.144531 -1.234375 0.90625 -1.234375 C 0.675781 -1.234375 0.46875 -1.316406 0.28125 -1.484375 C 0.09375 -1.660156 0 -1.882812 0 -2.15625 C 0 -2.425781 0.09375 -2.644531 0.28125 -2.8125 C 0.46875 -2.988281 0.675781 -3.078125 0.90625 -3.078125 C 1.144531 -3.078125 1.359375 -2.988281 1.546875 -2.8125 C 1.734375 -2.644531 1.828125 -2.425781 1.828125 -2.15625 C 1.828125 -1.882812 1.734375 -1.660156 1.546875 -1.484375 Z M 1.546875 -1.484375 "/>
</symbol>
<symbol overflow="visible" id="glyph2-5">
<path style="stroke:none;" d="M 3.921875 -0.859375 C 3.921875 -0.421875 3.707031 -0.203125 3.28125 -0.203125 C 3.007812 -0.203125 2.628906 -0.34375 2.140625 -0.625 C 1.660156 -0.914062 1.25 -1.195312 0.90625 -1.46875 L 0.390625 -1.890625 L 0.390625 -3.515625 L 1.078125 -3.40625 L 2.359375 -2.71875 C 3.023438 -2.320312 3.453125 -2.007812 3.640625 -1.78125 C 3.828125 -1.5625 3.921875 -1.253906 3.921875 -0.859375 Z M 3.921875 -0.859375 "/>
</symbol>
<symbol overflow="visible" id="glyph2-6">
<path style="stroke:none;" d="M 1.1875 -4.625 C 1.945312 -4.625 2.632812 -4.414062 3.25 -4 C 3.875 -3.59375 4.1875 -3.191406 4.1875 -2.796875 C 4.1875 -0.117188 4.171875 1.21875 4.140625 1.21875 C 2.484375 1.21875 1.15625 0.691406 0.15625 -0.359375 C 0.0507812 -2.910156 0 -4.582031 0 -5.375 C 0 -5.375 0 -6.113281 0 -7.59375 C 0 -8.0625 0.113281 -8.296875 0.34375 -8.296875 C 0.53125 -8.296875 0.625 -8.070312 0.625 -7.625 L 0.546875 -1.890625 C 1.472656 -0.859375 2.347656 -0.34375 3.171875 -0.34375 C 3.566406 -0.34375 3.765625 -0.546875 3.765625 -0.953125 C 3.765625 -1.296875 3.675781 -1.570312 3.5 -1.78125 C 3.332031 -1.988281 2.941406 -2.273438 2.328125 -2.640625 L 1.1875 -3.28125 Z M 1.1875 -4.625 "/>
</symbol>
<symbol overflow="visible" id="glyph2-7">
<path style="stroke:none;" d="M -0.125 -0.40625 L 4.46875 -0.40625 L 4.421875 0.40625 L -0.1875 0.40625 Z M -0.125 -0.40625 "/>
</symbol>
<symbol overflow="visible" id="glyph2-8">
<path style="stroke:none;" d="M 0.484375 -9.96875 L 0.484375 7.578125 C 0.234375 7.585938 0.0703125 7.613281 0 7.65625 L 0 -9.890625 C 0.0820312 -9.941406 0.242188 -9.96875 0.484375 -9.96875 Z M 0.484375 -9.96875 "/>
</symbol>
<symbol overflow="visible" id="glyph2-9">
<path style="stroke:none;" d="M 0 0 L 0 -4.625 C 0.238281 -4.414062 0.453125 -4.273438 0.640625 -4.203125 C 0.835938 -4.140625 1.113281 -4.109375 1.46875 -4.109375 L 1.46875 -12.5625 C 1.46875 -13.0625 1.539062 -13.3125 1.6875 -13.3125 L 1.703125 -13.3125 C 1.859375 -13.3125 1.9375 -13.171875 1.9375 -12.890625 C 1.9375 -12.773438 1.921875 -12.625 1.890625 -12.4375 L 1.890625 1.265625 C 0.628906 1.078125 0 0.65625 0 0 Z M 0 0 "/>
</symbol>
<symbol overflow="visible" id="glyph2-10">
<path style="stroke:none;" d="M 0 -14.234375 L 0.484375 -14.234375 L 0.484375 10.5625 L 0 10.5625 Z M 0 -14.234375 "/>
</symbol>
<symbol overflow="visible" id="glyph2-11">
<path style="stroke:none;" d="M 0 0 L 0 -4.625 C 0.238281 -4.414062 0.453125 -4.273438 0.640625 -4.203125 C 0.835938 -4.140625 1.113281 -4.109375 1.46875 -4.109375 L 1.46875 -9.828125 C 1.46875 -10.148438 1.53125 -10.3125 1.65625 -10.3125 L 1.6875 -10.3125 C 1.820312 -10.289062 1.890625 -10.015625 1.890625 -9.484375 L 1.890625 1.265625 C 0.628906 1.078125 0 0.65625 0 0 Z M 0 0 "/>
</symbol>
<symbol overflow="visible" id="glyph3-0">
<path style="stroke:none;" d="M 0.328125 0 L 0.328125 -6.640625 L 2.96875 -6.640625 L 2.96875 0 Z M 0.65625 -0.328125 L 2.640625 -0.328125 L 2.640625 -6.3125 L 0.65625 -6.3125 Z M 0.65625 -0.328125 "/>
</symbol>
<symbol overflow="visible" id="glyph3-1">
<path style="stroke:none;" d="M 2.40625 -3.875 L 2.40625 -3.953125 C 2.132812 -3.785156 1.960938 -3.664062 1.890625 -3.59375 C 1.816406 -3.53125 1.675781 -3.378906 1.46875 -3.140625 C 1.320312 -2.984375 1.179688 -2.90625 1.046875 -2.90625 C 0.828125 -2.9375 0.707031 -3.050781 0.6875 -3.25 C 0.6875 -3.4375 0.816406 -3.570312 1.078125 -3.65625 C 1.140625 -3.664062 1.21875 -3.679688 1.3125 -3.703125 C 1.65625 -3.765625 1.957031 -3.875 2.21875 -4.03125 C 2.25 -4.050781 2.285156 -4.070312 2.328125 -4.09375 L 2.21875 -4.171875 C 2.03125 -4.296875 1.742188 -4.394531 1.359375 -4.46875 C 0.921875 -4.539062 0.695312 -4.695312 0.6875 -4.9375 C 0.6875 -5.101562 0.765625 -5.21875 0.921875 -5.28125 C 0.960938 -5.289062 1 -5.296875 1.03125 -5.296875 C 1.164062 -5.296875 1.320312 -5.1875 1.5 -4.96875 C 1.78125 -4.664062 2.066406 -4.429688 2.359375 -4.265625 L 2.40625 -4.25 L 2.40625 -4.375 C 2.40625 -4.644531 2.351562 -4.945312 2.25 -5.28125 C 2.1875 -5.507812 2.15625 -5.679688 2.15625 -5.796875 C 2.15625 -5.960938 2.234375 -6.070312 2.390625 -6.125 C 2.421875 -6.132812 2.457031 -6.140625 2.5 -6.140625 C 2.664062 -6.140625 2.78125 -6.0625 2.84375 -5.90625 C 2.851562 -5.863281 2.859375 -5.816406 2.859375 -5.765625 C 2.859375 -5.671875 2.828125 -5.519531 2.765625 -5.3125 C 2.648438 -4.988281 2.59375 -4.710938 2.59375 -4.484375 L 2.59375 -4.234375 L 2.65625 -4.265625 C 2.882812 -4.390625 3.125 -4.601562 3.375 -4.90625 C 3.613281 -5.175781 3.800781 -5.3125 3.9375 -5.3125 C 4.125 -5.3125 4.238281 -5.222656 4.28125 -5.046875 C 4.289062 -5.003906 4.296875 -4.960938 4.296875 -4.921875 C 4.296875 -4.734375 4.191406 -4.609375 3.984375 -4.546875 C 3.921875 -4.535156 3.851562 -4.519531 3.78125 -4.5 C 3.445312 -4.445312 3.125 -4.335938 2.8125 -4.171875 L 2.671875 -4.09375 L 2.75 -4.03125 C 3.019531 -3.863281 3.34375 -3.753906 3.71875 -3.703125 C 4.0625 -3.648438 4.253906 -3.539062 4.296875 -3.375 L 4.3125 -3.265625 C 4.3125 -3.054688 4.21875 -2.9375 4.03125 -2.90625 L 3.953125 -2.890625 C 3.785156 -2.890625 3.585938 -3.03125 3.359375 -3.3125 C 3.097656 -3.625 2.863281 -3.828125 2.65625 -3.921875 L 2.59375 -3.953125 L 2.59375 -3.875 C 2.59375 -3.488281 2.660156 -3.117188 2.796875 -2.765625 C 2.847656 -2.617188 2.875 -2.507812 2.875 -2.4375 C 2.875 -2.269531 2.789062 -2.148438 2.625 -2.078125 C 2.582031 -2.054688 2.535156 -2.046875 2.484375 -2.046875 C 2.328125 -2.046875 2.21875 -2.117188 2.15625 -2.265625 C 2.144531 -2.316406 2.140625 -2.363281 2.140625 -2.40625 C 2.140625 -2.53125 2.175781 -2.6875 2.25 -2.875 C 2.351562 -3.164062 2.40625 -3.414062 2.40625 -3.625 Z M 2.40625 -3.875 "/>
</symbol>
</g>
<clipPath id="clip1">
  <path d="M 37 6 L 347.761719 6 L 347.761719 8 L 37 8 Z M 37 6 "/>
</clipPath>
<clipPath id="clip2">
  <path d="M 37 14 L 347.761719 14 L 347.761719 16 L 37 16 Z M 37 14 "/>
</clipPath>
<clipPath id="clip3">
  <path d="M 37 23 L 347.761719 23 L 347.761719 24 L 37 24 Z M 37 23 "/>
</clipPath>
<clipPath id="clip4">
  <path d="M 37 31 L 347.761719 31 L 347.761719 32 L 37 32 Z M 37 31 "/>
</clipPath>
<clipPath id="clip5">
  <path d="M 345 11 L 347.761719 11 L 347.761719 27 L 345 27 Z M 345 11 "/>
</clipPath>
<clipPath id="clip6">
  <path d="M 0 61 L 347.761719 61 L 347.761719 62 L 0 62 Z M 0 61 "/>
</clipPath>
<clipPath id="clip7">
  <path d="M 0 69 L 347.761719 69 L 347.761719 71 L 0 71 Z M 0 69 "/>
</clipPath>
<clipPath id="clip8">
  <path d="M 0 77 L 347.761719 77 L 347.761719 79 L 0 79 Z M 0 77 "/>
</clipPath>
<clipPath id="clip9">
  <path d="M 0 85 L 347.761719 85 L 347.761719 87 L 0 87 Z M 0 85 "/>
</clipPath>
<clipPath id="clip10">
  <path d="M 345 65 L 347.761719 65 L 347.761719 77 L 345 77 Z M 345 65 "/>
</clipPath>
<clipPath id="clip11">
  <path d="M 0 116 L 347.761719 116 L 347.761719 117 L 0 117 Z M 0 116 "/>
</clipPath>
<clipPath id="clip12">
  <path d="M 0 124 L 347.761719 124 L 347.761719 125 L 0 125 Z M 0 124 "/>
</clipPath>
<clipPath id="clip13">
  <path d="M 0 132 L 347.761719 132 L 347.761719 133 L 0 133 Z M 0 132 "/>
</clipPath>
<clipPath id="clip14">
  <path d="M 0 140 L 347.761719 140 L 347.761719 142 L 0 142 Z M 0 140 "/>
</clipPath>
</defs>
<g id="surface1">
<g style="fill:rgb(0%,0%,0%);fill-opacity:1;">
  <use xlink:href="#glyph0-1" x="5.669" y="48.711"/>
</g>
<g style="fill:rgb(0%,0%,0%);fill-opacity:1;">
  <use xlink:href="#glyph1-1" x="13.704" y="12.388"/>
  <use xlink:href="#glyph1-2" x="20.897026" y="12.388"/>
</g>
<g clip-path="url(#clip1)" clip-rule="nonzero">
<path style="fill:none;stroke-width:0.388;stroke-linecap:butt;stroke-linejoin:miter;stroke:rgb(0%,0%,0%);stroke-opacity:1;stroke-miterlimit:10;" d="M 0.0019375 -0.0010625 L 309.802719 -0.0010625 " transform="matrix(1,0,0,-1,37.959,6.913)"/>
</g>
<g clip-path="url(#clip2)" clip-rule="nonzero">
<path style="fill:none;stroke-width:0.388;stroke-linecap:butt;stroke-linejoin:miter;stroke:rgb(0%,0%,0%);stroke-opacity:1;stroke-miterlimit:10;" d="M 0.0019375 -0.0006875 L 309.802719 -0.0006875 " transform="matrix(1,0,0,-1,37.959,15.054)"/>
</g>
<g clip-path="url(#clip3)" clip-rule="nonzero">
<path style="fill:none;stroke-width:0.388;stroke-linecap:butt;stroke-linejoin:miter;stroke:rgb(0%,0%,0%);stroke-opacity:1;stroke-miterlimit:10;" d="M 0.0019375 -0.0013125 L 309.802719 -0.0013125 " transform="matrix(1,0,0,-1,37.959,23.194)"/>
</g>
<g clip-path="url(#clip4)" clip-rule="nonzero">
<path style="fill:none;stroke-width:0.388;stroke-linecap:butt;stroke-linejoin:miter;stroke:rgb(0%,0%,0%);stroke-opacity:1;stroke-miterlimit:10;" d="M 0.0019375 -0.0009375 L 309.802719 -0.0009375 " transform="matrix(1,0,0,-1,37.959,31.335)"/>
</g>
<g style="fill:rgb(0%,0%,0%);fill-opacity:1;">
  <use xlink:href="#glyph2-1" x="37.959" y="12.792"/>
</g>
<g style="fill:rgb(0%,0%,0%);fill-opacity:1;">
  <use xlink:href="#glyph1-3" x="46.452" y="48.711"/>
  <use xlink:href="#glyph1-4" x="52.539173" y="48.711"/>
</g>
<g style="fill:rgb(0%,0%,0%);fill-opacity:1;">
  <use xlink:href="#glyph2-2" x="47.351" y="25.003"/>
</g>
<g style="fill:rgb(0%,0%,0%);fill-opacity:1;">
  <use xlink:href="#glyph1-5" x="56.422" y="48.711"/>
  <use xlink:href="#glyph1-6" x="61.961228" y="48.711"/>
  <use xlink:href="#glyph1-4" x="64.820506" y="48.711"/>
</g>
<g style="fill:rgb(0%,0%,0%);fill-opacity:1;">
  <use xlink:href="#glyph2-2" x="61.246" y="20.933"/>
</g>
<g style="fill:rgb(0%,0%,0%);fill-opacity:1;">
  <use xlink:href="#glyph1-7" x="68.702" y="48.711"/>
  <use xlink:href="#glyph1-8" x="74.500256" y="48.711"/>
</g>
<g style="fill:rgb(0%,0%,0%);fill-opacity:1;">
  <use xlink:href="#glyph2-2" x="74.846" y="25.003"/>
</g>
<g style="fill:rgb(0%,0%,0%);fill-opacity:1;">
  <use xlink:href="#glyph2-3" x="76.552" y="29.431"/>
</g>
<g style="fill:rgb(0%,0%,0%);fill-opacity:1;">
  <use xlink:href="#glyph1-9" x="84.866" y="48.711"/>
  <use xlink:href="#glyph1-10" x="89.289412" y="48.711"/>
  <use xlink:href="#glyph1-11" x="96.841093" y="48.711"/>
  <use xlink:href="#glyph1-4" x="96.841093" y="48.711"/>
</g>
<g style="fill:rgb(0%,0%,0%);fill-opacity:1;">
  <use xlink:href="#glyph2-2" x="88.708" y="20.933"/>
</g>
<g style="fill:rgb(0%,0%,0%);fill-opacity:1;">
  <use xlink:href="#glyph1-12" x="100.723" y="48.711"/>
  <use xlink:href="#glyph1-13" x="103.622128" y="48.711"/>
</g>
<g style="fill:rgb(0%,0%,0%);fill-opacity:1;">
  <use xlink:href="#glyph2-2" x="102.927" y="16.863"/>
</g>
<g style="fill:rgb(0%,0%,0%);fill-opacity:1;">
  <use xlink:href="#glyph2-4" x="108.679" y="14.582"/>
</g>
<g style="fill:rgb(0%,0%,0%);fill-opacity:1;">
  <use xlink:href="#glyph3-1" x="111.951" y="48.711"/>
</g>
<g style="fill:rgb(0%,0%,0%);fill-opacity:1;">
  <use xlink:href="#glyph1-12" x="122.158" y="48.711"/>
  <use xlink:href="#glyph1-10" x="125.057128" y="48.711"/>
  <use xlink:href="#glyph1-4" x="132.608809" y="48.711"/>
</g>
<g style="fill:rgb(100%,100%,100%);fill-opacity:1;">
  <use xlink:href="#glyph2-5" x="120.305" y="12.792"/>
</g>
<g style="fill:rgb(0%,0%,0%);fill-opacity:1;">
  <use xlink:href="#glyph2-6" x="120.305" y="12.792"/>
</g>
<g style="fill:rgb(0%,0%,0%);fill-opacity:1;">
  <use xlink:href="#glyph2-2" x="126.688228" y="12.792"/>
</g>
<g style="fill:rgb(0%,0%,0%);fill-opacity:1;">
  <use xlink:href="#glyph1-14" x="136.491" y="48.711"/>
  <use xlink:href="#glyph1-15" x="139.738821" y="48.711"/>
  <use xlink:href="#glyph1-4" x="144.720141" y="48.711"/>
</g>
<g style="fill:rgb(0%,0%,0%);fill-opacity:1;">
  <use xlink:href="#glyph2-2" x="140.084" y="16.863"/>
</g>
<g style="fill:rgb(0%,0%,0%);fill-opacity:1;">
  <use xlink:href="#glyph1-16" x="148.602" y="48.711"/>
  <use xlink:href="#glyph1-17" x="152.537243" y="48.711"/>
  <use xlink:href="#glyph1-18" x="157.309347" y="48.711"/>
</g>
<g style="fill:rgb(0%,0%,0%);fill-opacity:1;">
  <use xlink:href="#glyph2-2" x="152.779" y="20.933"/>
</g>
<g style="fill:rgb(0%,0%,0%);fill-opacity:1;">
  <use xlink:href="#glyph2-7" x="152.779" y="12.144"/>
</g>
<g style="fill:rgb(0%,0%,0%);fill-opacity:1;">
  <use xlink:href="#glyph2-3" x="154.484" y="27.193"/>
</g>
<g style="fill:rgb(0%,0%,0%);fill-opacity:1;">
  <use xlink:href="#glyph1-8" x="166.731" y="48.711"/>
  <use xlink:href="#glyph1-12" x="171.71232" y="48.711"/>
  <use xlink:href="#glyph1-4" x="174.611448" y="48.711"/>
</g>
<g style="fill:rgb(100%,100%,100%);fill-opacity:1;">
  <use xlink:href="#glyph2-5" x="160.694" y="12.792"/>
</g>
<g style="fill:rgb(0%,0%,0%);fill-opacity:1;">
  <use xlink:href="#glyph2-6" x="160.694" y="12.792"/>
</g>
<g style="fill:rgb(0%,0%,0%);fill-opacity:1;">
  <use xlink:href="#glyph2-2" x="167.077228" y="12.792"/>
</g>
<g style="fill:rgb(0%,0%,0%);fill-opacity:1;">
  <use xlink:href="#glyph1-12" x="178.494" y="48.711"/>
  <use xlink:href="#glyph1-17" x="181.393128" y="48.711"/>
  <use xlink:href="#glyph1-4" x="186.165233" y="48.711"/>
</g>
<g style="fill:rgb(0%,0%,0%);fill-opacity:1;">
  <use xlink:href="#glyph2-2" x="181.634" y="16.863"/>
</g>
<g style="fill:rgb(0%,0%,0%);fill-opacity:1;">
  <use xlink:href="#glyph2-3" x="183.34" y="21.291"/>
</g>
<g style="fill:rgb(0%,0%,0%);fill-opacity:1;">
  <use xlink:href="#glyph1-12" x="190.047" y="48.711"/>
  <use xlink:href="#glyph1-19" x="192.946128" y="48.711"/>
  <use xlink:href="#glyph1-4" x="198.9536" y="48.711"/>
</g>
<g style="fill:rgb(0%,0%,0%);fill-opacity:1;">
  <use xlink:href="#glyph2-2" x="193.805" y="20.933"/>
</g>
<g style="fill:rgb(0%,0%,0%);fill-opacity:1;">
  <use xlink:href="#glyph1-13" x="202.836" y="48.711"/>
  <use xlink:href="#glyph1-8" x="205.735128" y="48.711"/>
  <use xlink:href="#glyph1-20" x="210.716448" y="48.711"/>
</g>
<g style="fill:rgb(0%,0%,0%);fill-opacity:1;">
  <use xlink:href="#glyph2-2" x="206.081" y="25.003"/>
</g>
<g style="fill:rgb(0%,0%,0%);fill-opacity:1;">
  <use xlink:href="#glyph2-4" x="211.834" y="22.723"/>
</g>
<g style="fill:rgb(0%,0%,0%);fill-opacity:1;">
  <use xlink:href="#glyph2-8" x="221.844" y="20.933"/>
</g>
<g style="fill:rgb(0%,0%,0%);fill-opacity:1;">
  <use xlink:href="#glyph1-21" x="219.203" y="48.711"/>
  <use xlink:href="#glyph1-22" x="227.033635" y="48.711"/>
  <use xlink:href="#glyph1-13" x="233.041107" y="48.711"/>
  <use xlink:href="#glyph1-4" x="235.940235" y="48.711"/>
</g>
<g style="fill:rgb(0%,0%,0%);fill-opacity:1;">
  <use xlink:href="#glyph2-2" x="232.346" y="25.003"/>
</g>
<g style="fill:rgb(0%,0%,0%);fill-opacity:1;">
  <use xlink:href="#glyph1-8" x="243.658" y="48.711"/>
</g>
<g style="fill:rgb(0%,0%,0%);fill-opacity:1;">
  <use xlink:href="#glyph2-2" x="244.004" y="8.722"/>
</g>
<g style="fill:rgb(0%,0%,0%);fill-opacity:1;">
  <use xlink:href="#glyph2-7" x="244.004" y="1.798"/>
</g>
<g style="fill:rgb(0%,0%,0%);fill-opacity:1;">
  <use xlink:href="#glyph2-3" x="245.71" y="13.15"/>
</g>
<g style="fill:rgb(0%,0%,0%);fill-opacity:1;">
  <use xlink:href="#glyph1-23" x="254.023" y="48.711"/>
  <use xlink:href="#glyph1-22" x="259.602078" y="48.711"/>
  <use xlink:href="#glyph1-17" x="265.60955" y="48.711"/>
  <use xlink:href="#glyph1-24" x="270.381655" y="48.711"/>
</g>
<g style="fill:rgb(0%,0%,0%);fill-opacity:1;">
  <use xlink:href="#glyph2-2" x="265.851" y="8.722"/>
</g>
<g style="fill:rgb(0%,0%,0%);fill-opacity:1;">
  <use xlink:href="#glyph1-24" x="284.563" y="48.711"/>
  <use xlink:href="#glyph1-17" x="293.360011" y="48.711"/>
  <use xlink:href="#glyph1-4" x="298.132116" y="48.711"/>
</g>
<g style="fill:rgb(0%,0%,0%);fill-opacity:1;">
  <use xlink:href="#glyph2-2" x="293.601" y="4.652"/>
</g>
<g style="fill:rgb(0%,0%,0%);fill-opacity:1;">
  <use xlink:href="#glyph2-3" x="295.306" y="10.912"/>
</g>
<g style="fill:rgb(0%,0%,0%);fill-opacity:1;">
  <use xlink:href="#glyph1-16" x="302.014" y="48.711"/>
</g>
<g style="fill:rgb(0%,0%,0%);fill-opacity:1;">
  <use xlink:href="#glyph1-22" x="306.048869" y="48.711"/>
  <use xlink:href="#glyph1-4" x="312.056341" y="48.711"/>
</g>
<g style="fill:rgb(0%,0%,0%);fill-opacity:1;">
  <use xlink:href="#glyph2-2" x="306.908" y="8.722"/>
</g>
<g style="fill:rgb(0%,0%,0%);fill-opacity:1;">
  <use xlink:href="#glyph1-6" x="321.695" y="48.711"/>
  <use xlink:href="#glyph1-4" x="324.554278" y="48.711"/>
</g>
<g style="fill:rgb(100%,100%,100%);fill-opacity:1;">
  <use xlink:href="#glyph2-5" x="314.597" y="12.792"/>
</g>
<g style="fill:rgb(0%,0%,0%);fill-opacity:1;">
  <use xlink:href="#glyph2-6" x="314.597" y="12.792"/>
</g>
<g style="fill:rgb(0%,0%,0%);fill-opacity:1;">
  <use xlink:href="#glyph2-2" x="320.980228" y="12.792"/>
</g>
<g style="fill:rgb(0%,0%,0%);fill-opacity:1;">
  <use xlink:href="#glyph2-3" x="322.686" y="19.052"/>
</g>
<g style="fill:rgb(0%,0%,0%);fill-opacity:1;">
  <use xlink:href="#glyph1-25" x="328.437" y="48.711"/>
</g>
<g style="fill:rgb(0%,0%,0%);fill-opacity:1;">
  <use xlink:href="#glyph1-14" x="332.51172" y="48.711"/>
  <use xlink:href="#glyph1-13" x="335.75954" y="48.711"/>
</g>
<g style="fill:rgb(0%,0%,0%);fill-opacity:1;">
  <use xlink:href="#glyph2-2" x="335.064" y="16.863"/>
</g>
<g clip-path="url(#clip5)" clip-rule="nonzero">
<g style="fill:rgb(0%,0%,0%);fill-opacity:1;">
  <use xlink:href="#glyph2-9" x="345.874" y="25.003"/>
</g>
</g>
<g clip-path="url(#clip6)" clip-rule="nonzero">
<path style="fill:none;stroke-width:0.388;stroke-linecap:butt;stroke-linejoin:miter;stroke:rgb(0%,0%,0%);stroke-opacity:1;stroke-miterlimit:10;" d="M 0 0.00096875 L 347.761719 0.00096875 " transform="matrix(1,0,0,-1,0,61.708)"/>
</g>
<g clip-path="url(#clip7)" clip-rule="nonzero">
<path style="fill:none;stroke-width:0.388;stroke-linecap:butt;stroke-linejoin:miter;stroke:rgb(0%,0%,0%);stroke-opacity:1;stroke-miterlimit:10;" d="M 0 0.00034375 L 347.761719 0.00034375 " transform="matrix(1,0,0,-1,0,69.848)"/>
</g>
<g clip-path="url(#clip8)" clip-rule="nonzero">
<path style="fill:none;stroke-width:0.388;stroke-linecap:butt;stroke-linejoin:miter;stroke:rgb(0%,0%,0%);stroke-opacity:1;stroke-miterlimit:10;" d="M 0 0.00071875 L 347.761719 0.00071875 " transform="matrix(1,0,0,-1,0,77.989)"/>
</g>
<g clip-path="url(#clip9)" clip-rule="nonzero">
<path style="fill:none;stroke-width:0.388;stroke-linecap:butt;stroke-linejoin:miter;stroke:rgb(0%,0%,0%);stroke-opacity:1;stroke-miterlimit:10;" d="M 0 0.00009375 L 347.761719 0.00009375 " transform="matrix(1,0,0,-1,0,86.129)"/>
</g>
<g style="fill:rgb(0%,0%,0%);fill-opacity:1;">
  <use xlink:href="#glyph2-1" x="0" y="67.587"/>
</g>
<g style="fill:rgb(0%,0%,0%);fill-opacity:1;">
  <use xlink:href="#glyph1-26" x="4.247" y="103.506"/>
  <use xlink:href="#glyph1-27" x="10.234547" y="103.506"/>
  <use xlink:href="#glyph1-16" x="15.674148" y="103.506"/>
</g>
<g style="fill:rgb(0%,0%,0%);fill-opacity:1;">
  <use xlink:href="#glyph2-2" x="10.81" y="79.798"/>
</g>
<g style="fill:rgb(0%,0%,0%);fill-opacity:1;">
  <use xlink:href="#glyph2-3" x="12.515" y="84.226"/>
</g>
<g style="fill:rgb(0%,0%,0%);fill-opacity:1;">
  <use xlink:href="#glyph1-14" x="19.61" y="103.506"/>
  <use xlink:href="#glyph1-15" x="22.857821" y="103.506"/>
  <use xlink:href="#glyph1-4" x="27.839141" y="103.506"/>
</g>
<g style="fill:rgb(0%,0%,0%);fill-opacity:1;">
  <use xlink:href="#glyph2-2" x="23.203" y="75.727"/>
</g>
<g style="fill:rgb(0%,0%,0%);fill-opacity:1;">
  <use xlink:href="#glyph1-16" x="31.156" y="103.506"/>
  <use xlink:href="#glyph1-17" x="35.091243" y="103.506"/>
  <use xlink:href="#glyph1-18" x="39.863347" y="103.506"/>
</g>
<g style="fill:rgb(0%,0%,0%);fill-opacity:1;">
  <use xlink:href="#glyph2-2" x="35.333" y="71.657"/>
</g>
<g style="fill:rgb(0%,0%,0%);fill-opacity:1;">
  <use xlink:href="#glyph2-7" x="35.333" y="64.733"/>
</g>
<g style="fill:rgb(0%,0%,0%);fill-opacity:1;">
  <use xlink:href="#glyph2-3" x="37.038" y="76.085"/>
</g>
<g style="fill:rgb(0%,0%,0%);fill-opacity:1;">
  <use xlink:href="#glyph1-8" x="48.375" y="103.506"/>
  <use xlink:href="#glyph1-12" x="53.35632" y="103.506"/>
  <use xlink:href="#glyph1-4" x="56.255448" y="103.506"/>
</g>
<g style="fill:rgb(100%,100%,100%);fill-opacity:1;">
  <use xlink:href="#glyph2-5" x="42.338" y="67.587"/>
</g>
<g style="fill:rgb(0%,0%,0%);fill-opacity:1;">
  <use xlink:href="#glyph2-6" x="42.338" y="67.587"/>
</g>
<g style="fill:rgb(0%,0%,0%);fill-opacity:1;">
  <use xlink:href="#glyph2-2" x="48.721228" y="67.587"/>
</g>
<g style="fill:rgb(0%,0%,0%);fill-opacity:1;">
  <use xlink:href="#glyph1-12" x="59.573" y="103.506"/>
  <use xlink:href="#glyph1-17" x="62.472128" y="103.506"/>
  <use xlink:href="#glyph1-4" x="67.244233" y="103.506"/>
</g>
<g style="fill:rgb(0%,0%,0%);fill-opacity:1;">
  <use xlink:href="#glyph2-2" x="62.713" y="71.657"/>
</g>
<g style="fill:rgb(0%,0%,0%);fill-opacity:1;">
  <use xlink:href="#glyph2-3" x="64.419" y="76.085"/>
</g>
<g style="fill:rgb(0%,0%,0%);fill-opacity:1;">
  <use xlink:href="#glyph1-12" x="70.562" y="103.506"/>
  <use xlink:href="#glyph1-19" x="73.461128" y="103.506"/>
  <use xlink:href="#glyph1-4" x="79.4686" y="103.506"/>
</g>
<g style="fill:rgb(0%,0%,0%);fill-opacity:1;">
  <use xlink:href="#glyph2-2" x="74.319" y="75.727"/>
</g>
<g style="fill:rgb(0%,0%,0%);fill-opacity:1;">
  <use xlink:href="#glyph1-13" x="82.786" y="103.506"/>
  <use xlink:href="#glyph1-8" x="85.685128" y="103.506"/>
  <use xlink:href="#glyph1-20" x="90.666448" y="103.506"/>
</g>
<g style="fill:rgb(0%,0%,0%);fill-opacity:1;">
  <use xlink:href="#glyph2-2" x="86.031" y="79.798"/>
</g>
<g style="fill:rgb(0%,0%,0%);fill-opacity:1;">
  <use xlink:href="#glyph2-4" x="91.69" y="77.517"/>
</g>
<g style="fill:rgb(0%,0%,0%);fill-opacity:1;">
  <use xlink:href="#glyph2-10" x="97.976" y="75.727"/>
</g>
<g style="fill:rgb(0%,0%,0%);fill-opacity:1;">
  <use xlink:href="#glyph1-28" x="98.057" y="103.506"/>
</g>
<g style="fill:rgb(0%,0%,0%);fill-opacity:1;">
  <use xlink:href="#glyph1-17" x="104.512791" y="103.506"/>
  <use xlink:href="#glyph1-4" x="109.284895" y="103.506"/>
</g>
<g style="fill:rgb(0%,0%,0%);fill-opacity:1;">
  <use xlink:href="#glyph2-2" x="104.754" y="63.517"/>
</g>
<g style="fill:rgb(0%,0%,0%);fill-opacity:1;">
  <use xlink:href="#glyph1-25" x="112.602" y="103.506"/>
  <use xlink:href="#glyph1-22" x="116.826159" y="103.506"/>
  <use xlink:href="#glyph1-16" x="122.833631" y="103.506"/>
</g>
<g style="fill:rgb(0%,0%,0%);fill-opacity:1;">
  <use xlink:href="#glyph2-2" x="117.685" y="63.517"/>
</g>
<g style="fill:rgb(0%,0%,0%);fill-opacity:1;">
  <use xlink:href="#glyph2-3" x="119.391" y="67.945"/>
</g>
<g style="fill:rgb(0%,0%,0%);fill-opacity:1;">
  <use xlink:href="#glyph1-16" x="126.769" y="103.506"/>
  <use xlink:href="#glyph1-29" x="130.704243" y="103.506"/>
  <use xlink:href="#glyph1-30" x="135.476347" y="103.506"/>
  <use xlink:href="#glyph1-4" x="140.61707" y="103.506"/>
</g>
<g style="fill:rgb(0%,0%,0%);fill-opacity:1;">
  <use xlink:href="#glyph2-2" x="130.945" y="59.446"/>
</g>
<g style="fill:rgb(0%,0%,0%);fill-opacity:1;">
  <use xlink:href="#glyph1-13" x="143.935" y="103.506"/>
  <use xlink:href="#glyph1-14" x="146.834128" y="103.506"/>
  <use xlink:href="#glyph1-18" x="150.081949" y="103.506"/>
</g>
<g style="fill:rgb(0%,0%,0%);fill-opacity:1;">
  <use xlink:href="#glyph2-2" x="143.239" y="63.517"/>
</g>
<g style="fill:rgb(0%,0%,0%);fill-opacity:1;">
  <use xlink:href="#glyph2-7" x="143.239" y="56.593"/>
</g>
<g style="fill:rgb(0%,0%,0%);fill-opacity:1;">
  <use xlink:href="#glyph2-3" x="144.945" y="67.945"/>
</g>
<g style="fill:rgb(0%,0%,0%);fill-opacity:1;">
  <use xlink:href="#glyph1-25" x="156.794" y="103.506"/>
  <use xlink:href="#glyph1-13" x="161.018159" y="103.506"/>
  <use xlink:href="#glyph1-4" x="163.917288" y="103.506"/>
</g>
<g style="fill:rgb(0%,0%,0%);fill-opacity:1;">
  <use xlink:href="#glyph2-2" x="160.323" y="63.517"/>
</g>
<g style="fill:rgb(0%,0%,0%);fill-opacity:1;">
  <use xlink:href="#glyph1-9" x="167.235" y="103.506"/>
  <use xlink:href="#glyph1-22" x="171.658412" y="103.506"/>
  <use xlink:href="#glyph1-14" x="177.665884" y="103.506"/>
</g>
<g style="fill:rgb(0%,0%,0%);fill-opacity:1;">
  <use xlink:href="#glyph2-2" x="172.517" y="79.798"/>
</g>
<g style="fill:rgb(0%,0%,0%);fill-opacity:1;">
  <use xlink:href="#glyph2-3" x="174.223" y="84.226"/>
</g>
<g style="fill:rgb(0%,0%,0%);fill-opacity:1;">
  <use xlink:href="#glyph1-31" x="185.135" y="103.506"/>
  <use xlink:href="#glyph1-13" x="191.222173" y="103.506"/>
  <use xlink:href="#glyph1-30" x="194.121301" y="103.506"/>
  <use xlink:href="#glyph1-4" x="199.262024" y="103.506"/>
</g>
<g style="fill:rgb(0%,0%,0%);fill-opacity:1;">
  <use xlink:href="#glyph2-2" x="190.527" y="75.727"/>
</g>
<g style="fill:rgb(0%,0%,0%);fill-opacity:1;">
  <use xlink:href="#glyph1-13" x="202.58" y="103.506"/>
  <use xlink:href="#glyph1-14" x="205.479128" y="103.506"/>
  <use xlink:href="#glyph1-18" x="208.726949" y="103.506"/>
</g>
<g style="fill:rgb(0%,0%,0%);fill-opacity:1;">
  <use xlink:href="#glyph2-2" x="201.884" y="79.798"/>
</g>
<g style="fill:rgb(0%,0%,0%);fill-opacity:1;">
  <use xlink:href="#glyph2-7" x="201.884" y="72.874"/>
</g>
<g style="fill:rgb(0%,0%,0%);fill-opacity:1;">
  <use xlink:href="#glyph2-3" x="203.59" y="84.226"/>
</g>
<g style="fill:rgb(0%,0%,0%);fill-opacity:1;">
  <use xlink:href="#glyph1-8" x="215.439" y="103.506"/>
  <use xlink:href="#glyph1-12" x="220.42032" y="103.506"/>
  <use xlink:href="#glyph1-4" x="223.319448" y="103.506"/>
</g>
<g style="fill:rgb(0%,0%,0%);fill-opacity:1;">
  <use xlink:href="#glyph2-2" x="215.784" y="75.727"/>
</g>
<g style="fill:rgb(0%,0%,0%);fill-opacity:1;">
  <use xlink:href="#glyph1-12" x="226.637" y="103.506"/>
  <use xlink:href="#glyph1-17" x="229.536128" y="103.506"/>
  <use xlink:href="#glyph1-4" x="234.308233" y="103.506"/>
</g>
<g style="fill:rgb(0%,0%,0%);fill-opacity:1;">
  <use xlink:href="#glyph2-2" x="229.777" y="71.657"/>
</g>
<g style="fill:rgb(0%,0%,0%);fill-opacity:1;">
  <use xlink:href="#glyph2-3" x="231.483" y="76.085"/>
</g>
<g style="fill:rgb(0%,0%,0%);fill-opacity:1;">
  <use xlink:href="#glyph1-12" x="239.526" y="103.506"/>
  <use xlink:href="#glyph1-19" x="242.425128" y="103.506"/>
  <use xlink:href="#glyph1-4" x="248.4326" y="103.506"/>
</g>
<g style="fill:rgb(100%,100%,100%);fill-opacity:1;">
  <use xlink:href="#glyph2-5" x="236.902" y="67.587"/>
</g>
<g style="fill:rgb(0%,0%,0%);fill-opacity:1;">
  <use xlink:href="#glyph2-6" x="236.902" y="67.587"/>
</g>
<g style="fill:rgb(0%,0%,0%);fill-opacity:1;">
  <use xlink:href="#glyph2-2" x="243.285228" y="67.587"/>
</g>
<g style="fill:rgb(0%,0%,0%);fill-opacity:1;">
  <use xlink:href="#glyph1-13" x="251.75" y="103.506"/>
  <use xlink:href="#glyph1-8" x="254.649128" y="103.506"/>
  <use xlink:href="#glyph1-20" x="259.630448" y="103.506"/>
</g>
<g style="fill:rgb(0%,0%,0%);fill-opacity:1;">
  <use xlink:href="#glyph2-2" x="254.995" y="63.517"/>
</g>
<g style="fill:rgb(0%,0%,0%);fill-opacity:1;">
  <use xlink:href="#glyph2-4" x="260.655" y="61.236"/>
</g>
<g style="fill:rgb(0%,0%,0%);fill-opacity:1;">
  <use xlink:href="#glyph2-8" x="266.941" y="75.727"/>
</g>
<g style="fill:rgb(0%,0%,0%);fill-opacity:1;">
  <use xlink:href="#glyph1-32" x="271.948" y="103.506"/>
  <use xlink:href="#glyph1-4" x="279.778635" y="103.506"/>
</g>
<g style="fill:rgb(0%,0%,0%);fill-opacity:1;">
  <use xlink:href="#glyph2-2" x="273.718" y="63.517"/>
</g>
<g style="fill:rgb(0%,0%,0%);fill-opacity:1;">
  <use xlink:href="#glyph1-16" x="283.096" y="103.506"/>
</g>
<g style="fill:rgb(0%,0%,0%);fill-opacity:1;">
  <use xlink:href="#glyph1-8" x="286.881803" y="103.506"/>
</g>
<g style="fill:rgb(0%,0%,0%);fill-opacity:1;">
  <use xlink:href="#glyph2-2" x="287.228" y="79.798"/>
</g>
<g style="fill:rgb(0%,0%,0%);fill-opacity:1;">
  <use xlink:href="#glyph1-26" x="296.085" y="103.506"/>
  <use xlink:href="#glyph1-16" x="302.072547" y="103.506"/>
  <use xlink:href="#glyph1-27" x="306.007789" y="103.506"/>
</g>
<g style="fill:rgb(0%,0%,0%);fill-opacity:1;">
  <use xlink:href="#glyph2-2" x="306.583" y="75.727"/>
</g>
<g style="fill:rgb(0%,0%,0%);fill-opacity:1;">
  <use xlink:href="#glyph2-3" x="308.288" y="81.987"/>
</g>
<g style="fill:rgb(0%,0%,0%);fill-opacity:1;">
  <use xlink:href="#glyph1-7" x="315.669" y="103.506"/>
  <use xlink:href="#glyph1-27" x="321.467256" y="103.506"/>
  <use xlink:href="#glyph1-4" x="326.906858" y="103.506"/>
</g>
<g style="fill:rgb(100%,100%,100%);fill-opacity:1;">
  <use xlink:href="#glyph2-5" x="315.659" y="67.587"/>
</g>
<g style="fill:rgb(0%,0%,0%);fill-opacity:1;">
  <use xlink:href="#glyph2-6" x="315.659" y="67.587"/>
</g>
<g style="fill:rgb(0%,0%,0%);fill-opacity:1;">
  <use xlink:href="#glyph2-2" x="322.042228" y="67.587"/>
</g>
<g style="fill:rgb(0%,0%,0%);fill-opacity:1;">
  <use xlink:href="#glyph1-33" x="330.224" y="103.506"/>
  <use xlink:href="#glyph1-13" x="335.73334" y="103.506"/>
  <use xlink:href="#glyph1-25" x="338.632468" y="103.506"/>
</g>
<g style="fill:rgb(0%,0%,0%);fill-opacity:1;">
  <use xlink:href="#glyph2-2" x="335.038" y="71.657"/>
</g>
<g style="fill:rgb(0%,0%,0%);fill-opacity:1;">
  <use xlink:href="#glyph2-3" x="336.744" y="76.085"/>
</g>
<g clip-path="url(#clip10)" clip-rule="nonzero">
<g style="fill:rgb(0%,0%,0%);fill-opacity:1;">
  <use xlink:href="#glyph2-11" x="345.848" y="75.727"/>
</g>
</g>
<g clip-path="url(#clip11)" clip-rule="nonzero">
<path style="fill:none;stroke-width:0.388;stroke-linecap:butt;stroke-linejoin:miter;stroke:rgb(0%,0%,0%);stroke-opacity:1;stroke-miterlimit:10;" d="M 0 -0.00190625 L 347.761719 -0.00190625 " transform="matrix(1,0,0,-1,0,116.502)"/>
</g>
<g clip-path="url(#clip12)" clip-rule="nonzero">
<path style="fill:none;stroke-width:0.388;stroke-linecap:butt;stroke-linejoin:miter;stroke:rgb(0%,0%,0%);stroke-opacity:1;stroke-miterlimit:10;" d="M 0 -0.00153125 L 347.761719 -0.00153125 " transform="matrix(1,0,0,-1,0,124.643)"/>
</g>
<g clip-path="url(#clip13)" clip-rule="nonzero">
<path style="fill:none;stroke-width:0.388;stroke-linecap:butt;stroke-linejoin:miter;stroke:rgb(0%,0%,0%);stroke-opacity:1;stroke-miterlimit:10;" d="M 0 0.00175 L 347.761719 0.00175 " transform="matrix(1,0,0,-1,0,132.783)"/>
</g>
<g clip-path="url(#clip14)" clip-rule="nonzero">
<path style="fill:none;stroke-width:0.388;stroke-linecap:butt;stroke-linejoin:miter;stroke:rgb(0%,0%,0%);stroke-opacity:1;stroke-miterlimit:10;" d="M 0 -0.00178125 L 347.761719 -0.00178125 " transform="matrix(1,0,0,-1,0,140.924)"/>
</g>
<g style="fill:rgb(0%,0%,0%);fill-opacity:1;">
  <use xlink:href="#glyph2-1" x="0" y="122.381"/>
</g>
<g style="fill:rgb(0%,0%,0%);fill-opacity:1;">
  <use xlink:href="#glyph1-34" x="2.857" y="158.3"/>
  <use xlink:href="#glyph1-17" x="10.568083" y="158.3"/>
  <use xlink:href="#glyph1-4" x="15.340188" y="158.3"/>
</g>
<g style="fill:rgb(0%,0%,0%);fill-opacity:1;">
  <use xlink:href="#glyph2-2" x="10.81" y="130.522"/>
</g>
<g style="fill:rgb(0%,0%,0%);fill-opacity:1;">
  <use xlink:href="#glyph1-22" x="21.044" y="158.3"/>
  <use xlink:href="#glyph1-24" x="27.051472" y="158.3"/>
  <use xlink:href="#glyph1-18" x="35.848483" y="158.3"/>
</g>
<g style="fill:rgb(0%,0%,0%);fill-opacity:1;">
  <use xlink:href="#glyph2-2" x="21.903" y="134.592"/>
</g>
<g style="fill:rgb(0%,0%,0%);fill-opacity:1;">
  <use xlink:href="#glyph2-4" x="27.61" y="132.312"/>
</g>
<g style="fill:rgb(0%,0%,0%);fill-opacity:1;">
  <use xlink:href="#glyph1-8" x="43.158" y="158.3"/>
  <use xlink:href="#glyph1-12" x="48.13932" y="158.3"/>
  <use xlink:href="#glyph1-4" x="51.038448" y="158.3"/>
</g>
<g style="fill:rgb(0%,0%,0%);fill-opacity:1;">
  <use xlink:href="#glyph2-2" x="43.504" y="138.662"/>
</g>
<g style="fill:rgb(0%,0%,0%);fill-opacity:1;">
  <use xlink:href="#glyph1-12" x="54.356" y="158.3"/>
  <use xlink:href="#glyph1-17" x="57.255128" y="158.3"/>
  <use xlink:href="#glyph1-4" x="62.027233" y="158.3"/>
</g>
<g style="fill:rgb(0%,0%,0%);fill-opacity:1;">
  <use xlink:href="#glyph2-2" x="57.496" y="130.522"/>
</g>
<g style="fill:rgb(0%,0%,0%);fill-opacity:1;">
  <use xlink:href="#glyph1-12" x="65.345" y="158.3"/>
  <use xlink:href="#glyph1-19" x="68.244128" y="158.3"/>
  <use xlink:href="#glyph1-4" x="74.2516" y="158.3"/>
</g>
<g style="fill:rgb(0%,0%,0%);fill-opacity:1;">
  <use xlink:href="#glyph2-2" x="69.103" y="130.522"/>
</g>
<g style="fill:rgb(0%,0%,0%);fill-opacity:1;">
  <use xlink:href="#glyph2-2" x="75.357013" y="130.522"/>
</g>
<g style="fill:rgb(0%,0%,0%);fill-opacity:1;">
  <use xlink:href="#glyph1-13" x="83.205" y="158.3"/>
  <use xlink:href="#glyph1-8" x="86.104128" y="158.3"/>
  <use xlink:href="#glyph1-35" x="91.085448" y="158.3"/>
</g>
<g style="fill:rgb(0%,0%,0%);fill-opacity:1;">
  <use xlink:href="#glyph2-2" x="86.45" y="134.592"/>
</g>
<g style="fill:rgb(0%,0%,0%);fill-opacity:1;">
  <use xlink:href="#glyph2-4" x="92.157" y="132.312"/>
</g>
<g style="fill:rgb(0%,0%,0%);fill-opacity:1;">
  <use xlink:href="#glyph2-10" x="100.425" y="130.522"/>
</g>
<g style="fill:rgb(0%,0%,0%);fill-opacity:1;">
  <use xlink:href="#glyph2-10" x="104.017181" y="130.522"/>
</g>
</g>
</svg>
