\BOOKMARK [2][]{section*.1}{Introduction}{}% 1
\BOOKMARK [2][]{section*.2}{Introit}{}% 2
\BOOKMARK [1][]{section*.3}{The Mass of the Catechumens}{}% 3
\BOOKMARK [2][]{section*.4}{Judica Me \(Psalm 42\)}{section*.3}% 4
\BOOKMARK [2][]{section*.5}{Confession of the Priest}{section*.3}% 5
\BOOKMARK [2][]{section*.6}{Confession of the Faithful}{section*.3}% 6
\BOOKMARK [2][]{section*.7}{The Priest Ascends to the Altar}{section*.3}% 7
\BOOKMARK [2][]{section*.8}{Kyrie}{section*.3}% 8
\BOOKMARK [2][]{section*.9}{Gloria}{section*.3}% 9
\BOOKMARK [2][]{section*.10}{Collect}{section*.3}% 10
\BOOKMARK [2][]{section*.11}{Lesson}{section*.3}% 11
\BOOKMARK [2][]{section*.12}{Gradual and Alleluia}{section*.3}% 12
\BOOKMARK [2][]{section*.13}{Preparation for the Gospel}{section*.3}% 13
\BOOKMARK [2][]{section*.14}{Gospel}{section*.3}% 14
\BOOKMARK [1][]{section*.15}{The Mass of the Faithful}{}% 15
\BOOKMARK [2][]{section*.16}{Offertory Verse}{section*.15}% 16
\BOOKMARK [2][]{section*.17}{Offertory}{section*.15}% 17
\BOOKMARK [2][]{section*.18}{Incensing the Offerings}{section*.15}% 18
\BOOKMARK [2][]{section*.19}{The Lavabo}{section*.15}% 19
\BOOKMARK [2][]{section*.20}{Prayer to the Most Holy Trinity}{section*.15}% 20
\BOOKMARK [2][]{section*.21}{Orate Fratres}{section*.15}% 21
\BOOKMARK [2][]{section*.22}{Secret}{section*.15}% 22
\BOOKMARK [2][]{section*.23}{Preface}{section*.15}% 23
\BOOKMARK [2][]{section*.24}{Sanctus}{section*.15}% 24
\BOOKMARK [2][]{section*.25}{Roman Canon}{section*.15}% 25
\BOOKMARK [2][]{section*.26}{Pater Noster}{section*.15}% 26
\BOOKMARK [2][]{section*.27}{Fraction of the Host}{section*.15}% 27
\BOOKMARK [2][]{section*.28}{Commixture}{section*.15}% 28
\BOOKMARK [2][]{section*.29}{Agnus Dei}{section*.15}% 29
\BOOKMARK [2][]{section*.30}{Prayers before Communion}{section*.15}% 30
\BOOKMARK [2][]{section*.31}{Priest's Communion}{section*.15}% 31
\BOOKMARK [2][]{section*.32}{People's Communion}{section*.15}% 32
\BOOKMARK [2][]{section*.33}{Communion Verse}{section*.15}% 33
\BOOKMARK [2][]{section*.34}{Thanksgiving and Ablutions}{section*.15}% 34
\BOOKMARK [2][]{section*.35}{Post Communion Prayer}{section*.15}% 35
\BOOKMARK [2][]{section*.36}{Dismissal}{section*.15}% 36
\BOOKMARK [2][]{section*.37}{Blessing}{section*.15}% 37
\BOOKMARK [2][]{section*.38}{Last Gospel}{section*.15}% 38
\BOOKMARK [2][]{section*.39}{Marian Antiphon}{section*.15}% 39
\BOOKMARK [2][]{section*.40}{Credits}{section*.15}% 40
