<?xml version="1.0" encoding="UTF-8"?>
<svg xmlns="http://www.w3.org/2000/svg" xmlns:xlink="http://www.w3.org/1999/xlink" width="348pt" height="216pt" viewBox="0 0 348 216" version="1.1">
<defs>
<g>
<symbol overflow="visible" id="glyph0-0">
<path style="stroke:none;" d=""/>
</symbol>
<symbol overflow="visible" id="glyph0-1">
<path style="stroke:none;" d="M 12.546875 0.125 L 12.546875 -1.078125 L 10.640625 -1.203125 C 8.8125 -1.3125 8.609375 -1.640625 8.609375 -4.78125 L 8.609375 -22.671875 C 8.609375 -25.8125 8.8125 -26.140625 10.640625 -26.25 L 12.546875 -26.375 L 12.546875 -27.578125 C 10.59375 -27.5 8.640625 -27.453125 6.6875 -27.453125 C 4.734375 -27.453125 2.828125 -27.5 0.875 -27.578125 L 0.875 -26.375 L 2.796875 -26.25 C 4.625 -26.140625 4.828125 -25.8125 4.828125 -22.671875 L 4.828125 -4.78125 C 4.828125 -1.640625 4.625 -1.3125 2.796875 -1.203125 L 0.875 -1.078125 L 0.875 0.125 C 2.828125 0.046875 4.734375 0 6.6875 0 C 8.640625 0 10.59375 0.046875 12.546875 0.125 Z M 12.546875 0.125 "/>
</symbol>
<symbol overflow="visible" id="glyph1-0">
<path style="stroke:none;" d="M 0.859375 0 L 0.859375 -17.21875 L 7.703125 -17.21875 L 7.703125 0 Z M 1.703125 -0.859375 L 6.84375 -0.859375 L 6.84375 -16.359375 L 1.703125 -16.359375 Z M 1.703125 -0.859375 "/>
</symbol>
<symbol overflow="visible" id="glyph1-1">
<path style="stroke:none;" d="M 0 -1.703125 L 0 -10.125 C 0 -10.988281 0.25 -11.648438 0.75 -12.109375 C 1.25 -12.566406 1.929688 -12.796875 2.796875 -12.796875 C 3.273438 -12.773438 3.644531 -12.644531 3.90625 -12.40625 C 4.164062 -12.175781 4.296875 -11.882812 4.296875 -11.53125 L 4.296875 -6.984375 L 4.03125 -7.203125 C 3.53125 -7.648438 2.894531 -7.875 2.125 -7.875 C 1.601562 -7.875 1.160156 -7.6875 0.796875 -7.3125 C 0.441406 -6.9375 0.265625 -6.472656 0.265625 -5.921875 C 0.265625 -5.367188 0.441406 -4.898438 0.796875 -4.515625 C 1.160156 -4.140625 1.601562 -3.953125 2.125 -3.953125 C 2.914062 -3.953125 3.550781 -4.160156 4.03125 -4.578125 L 4.296875 -4.828125 L 4.296875 -0.265625 C 4.296875 0.148438 4.144531 0.46875 3.84375 0.6875 C 3.550781 0.914062 3.203125 1.03125 2.796875 1.03125 C 1.929688 1.019531 1.25 0.773438 0.75 0.296875 C 0.25 -0.171875 0 -0.835938 0 -1.703125 Z M 0 -1.703125 "/>
</symbol>
<symbol overflow="visible" id="glyph1-2">
<path style="stroke:none;" d="M 2.125 -4.375 C 3.570312 -4.375 4.296875 -3.96875 4.296875 -3.15625 L 4.296875 0.9375 C 3.828125 0.445312 3.109375 0.203125 2.140625 0.203125 C 1.179688 0.203125 0.46875 0.445312 0 0.9375 L 0 -3.15625 C 0 -3.96875 0.707031 -4.375 2.125 -4.375 Z M 2.125 -4.375 "/>
</symbol>
<symbol overflow="visible" id="glyph1-3">
<path style="stroke:none;" d="M 3.3125 0.703125 C 3.21875 0.703125 3.035156 0.695312 2.765625 0.6875 C 2.492188 0.675781 2.25 0.671875 2.03125 0.671875 C 1.8125 0.671875 1.5625 0.675781 1.28125 0.6875 C 1 0.695312 0.8125 0.703125 0.71875 0.703125 C 0.414062 0.703125 0.21875 0.6875 0.125 0.65625 C 0.0390625 0.632812 0 0.570312 0 0.46875 L 0 -3 C 0 -3.15625 0.0507812 -3.234375 0.15625 -3.234375 L 0.265625 -3.234375 C 0.378906 -3.210938 0.9375 -3.203125 1.9375 -3.203125 L 2.796875 -3.203125 C 3.097656 -3.203125 3.304688 -3.207031 3.421875 -3.21875 C 3.535156 -3.226562 3.628906 -3.257812 3.703125 -3.3125 C 3.785156 -3.375 3.828125 -3.484375 3.828125 -3.640625 C 3.828125 -4.421875 3.316406 -4.8125 2.296875 -4.8125 C 1.472656 -4.8125 0.800781 -4.628906 0.28125 -4.265625 L 0.28125 -7.59375 C 0.28125 -8.457031 0.953125 -8.890625 2.296875 -8.890625 C 2.828125 -8.890625 3.289062 -8.789062 3.6875 -8.59375 C 4.09375 -8.394531 4.296875 -8.0625 4.296875 -7.59375 L 4.296875 0.4375 C 4.296875 0.539062 4.226562 0.609375 4.09375 0.640625 C 3.96875 0.679688 3.707031 0.703125 3.3125 0.703125 Z M 3.3125 0.703125 "/>
</symbol>
<symbol overflow="visible" id="glyph1-4">
<path style="stroke:none;" d="M 0 8.625 L 0 -3.234375 C 0 -4.054688 0.722656 -4.46875 2.171875 -4.46875 C 3.585938 -4.46875 4.296875 -4.054688 4.296875 -3.234375 L 4.296875 0.75 C 4.390625 0.0625 5.09375 -0.28125 6.40625 -0.28125 C 7.851562 -0.28125 8.578125 0.125 8.578125 0.9375 L 8.578125 4.984375 C 8.109375 4.523438 7.390625 4.296875 6.421875 4.296875 C 5.460938 4.296875 4.753906 4.523438 4.296875 4.984375 L 4.296875 0.828125 C 3.847656 0.378906 3.128906 0.15625 2.140625 0.15625 C 1.453125 0.15625 0.894531 0.34375 0.46875 0.71875 L 0.46875 7.953125 C 0.46875 8.265625 0.460938 8.5 0.453125 8.65625 C 0.441406 8.8125 0.429688 8.925781 0.421875 9 C 0.410156 9.082031 0.394531 9.128906 0.375 9.140625 C 0.363281 9.160156 0.332031 9.171875 0.28125 9.171875 C 0.09375 9.117188 0 8.9375 0 8.625 Z M 0 8.625 "/>
</symbol>
<symbol overflow="visible" id="glyph1-5">
<path style="stroke:none;" d="M 0.484375 -9.96875 L 0.484375 7.578125 C 0.234375 7.585938 0.0703125 7.613281 0 7.65625 L 0 -9.890625 C 0.0820312 -9.941406 0.242188 -9.96875 0.484375 -9.96875 Z M 0.484375 -9.96875 "/>
</symbol>
<symbol overflow="visible" id="glyph1-6">
<path style="stroke:none;" d="M 0 -3.234375 C 0 -4.054688 0.710938 -4.46875 2.140625 -4.46875 C 3.578125 -4.46875 4.296875 -4.054688 4.296875 -3.234375 L 4.296875 6.4375 C 4.296875 6.75 4.195312 6.929688 4 6.984375 C 3.945312 6.984375 3.910156 6.972656 3.890625 6.953125 C 3.878906 6.929688 3.867188 6.878906 3.859375 6.796875 C 3.847656 6.722656 3.835938 6.609375 3.828125 6.453125 C 3.828125 6.304688 3.828125 6.078125 3.828125 5.765625 L 3.828125 0.71875 C 3.390625 0.34375 2.828125 0.15625 2.140625 0.15625 C 1.160156 0.15625 0.445312 0.378906 0 0.828125 Z M 0 -3.234375 "/>
</symbol>
<symbol overflow="visible" id="glyph1-7">
<path style="stroke:none;" d="M 0 -1.546875 L 2.0625 -5.0625 L 4.78125 -1.9375 L 2.6875 1.53125 Z M 0 -1.546875 "/>
</symbol>
<symbol overflow="visible" id="glyph1-8">
<path style="stroke:none;" d="M 0 -14.234375 L 0.484375 -14.234375 L 0.484375 10.5625 L 0 10.5625 Z M 0 -14.234375 "/>
</symbol>
<symbol overflow="visible" id="glyph1-9">
<path style="stroke:none;" d="M 0 0 L 0 -4.625 C 0.238281 -4.414062 0.453125 -4.273438 0.640625 -4.203125 C 0.835938 -4.140625 1.113281 -4.109375 1.46875 -4.109375 L 1.46875 -9.828125 C 1.46875 -10.148438 1.53125 -10.3125 1.65625 -10.3125 L 1.6875 -10.3125 C 1.820312 -10.289062 1.890625 -10.015625 1.890625 -9.484375 L 1.890625 1.265625 C 0.628906 1.078125 0 0.65625 0 0 Z M 0 0 "/>
</symbol>
<symbol overflow="visible" id="glyph1-10">
<path style="stroke:none;" d="M 3.921875 -0.859375 C 3.921875 -0.421875 3.707031 -0.203125 3.28125 -0.203125 C 3.007812 -0.203125 2.628906 -0.34375 2.140625 -0.625 C 1.660156 -0.914062 1.25 -1.195312 0.90625 -1.46875 L 0.390625 -1.890625 L 0.390625 -3.515625 L 1.078125 -3.40625 L 2.359375 -2.71875 C 3.023438 -2.320312 3.453125 -2.007812 3.640625 -1.78125 C 3.828125 -1.5625 3.921875 -1.253906 3.921875 -0.859375 Z M 3.921875 -0.859375 "/>
</symbol>
<symbol overflow="visible" id="glyph1-11">
<path style="stroke:none;" d="M 1.1875 -4.625 C 1.945312 -4.625 2.632812 -4.414062 3.25 -4 C 3.875 -3.59375 4.1875 -3.191406 4.1875 -2.796875 C 4.1875 -0.117188 4.171875 1.21875 4.140625 1.21875 C 2.484375 1.21875 1.15625 0.691406 0.15625 -0.359375 C 0.0507812 -2.910156 0 -4.582031 0 -5.375 C 0 -5.375 0 -6.113281 0 -7.59375 C 0 -8.0625 0.113281 -8.296875 0.34375 -8.296875 C 0.53125 -8.296875 0.625 -8.070312 0.625 -7.625 L 0.546875 -1.890625 C 1.472656 -0.859375 2.347656 -0.34375 3.171875 -0.34375 C 3.566406 -0.34375 3.765625 -0.546875 3.765625 -0.953125 C 3.765625 -1.296875 3.675781 -1.570312 3.5 -1.78125 C 3.332031 -1.988281 2.941406 -2.273438 2.328125 -2.640625 L 1.1875 -3.28125 Z M 1.1875 -4.625 "/>
</symbol>
<symbol overflow="visible" id="glyph1-12">
<path style="stroke:none;" d="M 0 -17.65625 L 0.484375 -17.65625 L 0.484375 -9.40625 C 0.242188 -9.425781 0.0820312 -9.488281 0 -9.59375 Z M 0 -17.65625 "/>
</symbol>
<symbol overflow="visible" id="glyph1-13">
<path style="stroke:none;" d="M 0 0 L 0 -4.625 C 0.238281 -4.414062 0.453125 -4.273438 0.640625 -4.203125 C 0.835938 -4.140625 1.113281 -4.109375 1.46875 -4.109375 L 1.46875 -12.5625 C 1.46875 -13.0625 1.539062 -13.3125 1.6875 -13.3125 L 1.703125 -13.3125 C 1.859375 -13.3125 1.9375 -13.171875 1.9375 -12.890625 C 1.9375 -12.773438 1.921875 -12.625 1.890625 -12.4375 L 1.890625 1.265625 C 0.628906 1.078125 0 0.65625 0 0 Z M 0 0 "/>
</symbol>
<symbol overflow="visible" id="glyph1-14">
<path style="stroke:none;" d="M 0 6.4375 L 0 -3.234375 C 0 -4.054688 0.722656 -4.46875 2.171875 -4.46875 C 3.585938 -4.46875 4.296875 -4.054688 4.296875 -3.234375 L 4.296875 0.75 C 4.390625 0.0625 5.09375 -0.28125 6.40625 -0.28125 C 7.851562 -0.28125 8.578125 0.125 8.578125 0.9375 L 8.578125 4.984375 C 8.109375 4.523438 7.390625 4.296875 6.421875 4.296875 C 5.460938 4.296875 4.753906 4.523438 4.296875 4.984375 L 4.296875 0.828125 C 3.847656 0.378906 3.128906 0.15625 2.140625 0.15625 C 1.453125 0.15625 0.894531 0.34375 0.46875 0.71875 L 0.46875 5.765625 C 0.46875 6.078125 0.460938 6.304688 0.453125 6.453125 C 0.441406 6.609375 0.429688 6.722656 0.421875 6.796875 C 0.410156 6.878906 0.394531 6.929688 0.375 6.953125 C 0.363281 6.972656 0.332031 6.984375 0.28125 6.984375 C 0.09375 6.929688 0 6.75 0 6.4375 Z M 0 6.4375 "/>
</symbol>
<symbol overflow="visible" id="glyph2-0">
<path style="stroke:none;" d=""/>
</symbol>
<symbol overflow="visible" id="glyph2-1">
<path style="stroke:none;" d="M 5.703125 0.03125 L 5.703125 -0.265625 L 5.296875 -0.296875 C 4.953125 -0.3125 4.921875 -0.375 4.921875 -1.015625 L 4.921875 -2.9375 C 4.921875 -4.109375 4.375 -4.671875 3.265625 -4.671875 C 2.890625 -4.671875 2.6875 -4.609375 2.46875 -4.421875 L 1.71875 -3.765625 L 1.71875 -4.640625 L 1.625 -4.671875 C 1.109375 -4.46875 0.59375 -4.328125 0.0625 -4.265625 L 0.0625 -3.984375 L 0.4375 -3.984375 C 0.84375 -3.984375 0.875 -3.921875 0.875 -3.265625 L 0.875 -1.015625 C 0.875 -0.390625 0.84375 -0.3125 0.515625 -0.296875 L 0.0625 -0.265625 L 0.0625 0.03125 C 0.46875 0.015625 0.890625 0 1.296875 0 C 1.703125 0 2.125 0.015625 2.53125 0.03125 L 2.53125 -0.265625 L 2.078125 -0.296875 C 1.75 -0.3125 1.71875 -0.390625 1.71875 -1.015625 L 1.71875 -3.125 C 1.71875 -3.578125 2.375 -4.0625 2.984375 -4.0625 C 3.65625 -4.0625 4.09375 -3.5625 4.09375 -2.796875 L 4.09375 0.03125 C 4.34375 0.015625 4.609375 0 4.875 0 C 5.15625 0 5.421875 0.015625 5.703125 0.03125 Z M 5.703125 0.03125 "/>
</symbol>
<symbol overflow="visible" id="glyph2-2">
<path style="stroke:none;" d="M 3.109375 -2.8125 L 3.0625 -2.859375 L 0.4375 -2.859375 L 0.171875 -2.1875 L 0.21875 -2.140625 L 2.8125 -2.140625 Z M 3.109375 -2.8125 "/>
</symbol>
<symbol overflow="visible" id="glyph2-3">
<path style="stroke:none;" d="M 3.1875 -4.34375 L 1.8125 -4.28125 L 1.8125 -4.671875 C 1.8125 -5.078125 1.84375 -5.4375 1.921875 -6.078125 L 1.796875 -6.1875 C 1.5625 -6.046875 1.265625 -5.90625 0.953125 -5.8125 C 0.984375 -5.515625 1 -5.328125 1 -5.03125 L 1 -4.328125 L 0.21875 -3.984375 L 0.21875 -3.765625 L 0.984375 -3.8125 L 0.984375 -0.9375 C 0.984375 -0.203125 1.3125 0.125 2.078125 0.125 C 2.296875 0.125 2.546875 0.0625 2.609375 0 L 3.078125 -0.53125 L 2.953125 -0.703125 C 2.703125 -0.5625 2.546875 -0.515625 2.359375 -0.515625 C 1.96875 -0.515625 1.8125 -0.703125 1.8125 -1.203125 L 1.8125 -3.8125 L 3.09375 -3.8125 Z M 3.1875 -4.34375 "/>
</symbol>
<symbol overflow="visible" id="glyph2-4">
<path style="stroke:none;" d="M 5.125 -2.359375 C 5.125 -3.703125 4.140625 -4.671875 2.78125 -4.671875 C 1.328125 -4.671875 0.3125 -3.65625 0.3125 -2.15625 C 0.3125 -0.75 1.203125 0.203125 2.5 0.203125 C 4.03125 0.203125 5.125 -0.875 5.125 -2.359375 Z M 4.203125 -2 C 4.203125 -0.84375 3.6875 -0.125 2.875 -0.125 C 1.90625 -0.125 1.25 -1.09375 1.25 -2.5 C 1.25 -3.703125 1.71875 -4.34375 2.609375 -4.34375 C 3.515625 -4.34375 4.203125 -3.34375 4.203125 -2 Z M 4.203125 -2 "/>
</symbol>
<symbol overflow="visible" id="glyph2-5">
<path style="stroke:none;" d="M 5.421875 -4.296875 L 5.421875 -4.578125 C 5.109375 -4.5625 4.796875 -4.546875 4.46875 -4.546875 C 4.15625 -4.546875 3.84375 -4.5625 3.53125 -4.578125 L 3.53125 -4.296875 L 3.78125 -4.28125 C 4.203125 -4.25 4.296875 -4.125 4.140625 -3.765625 L 2.953125 -0.859375 C 2.734375 -1.234375 2.640625 -1.46875 2.453125 -1.953125 L 1.8125 -3.625 C 1.640625 -4.0625 1.671875 -4.25 2.046875 -4.28125 L 2.4375 -4.296875 L 2.4375 -4.578125 C 2.046875 -4.5625 1.671875 -4.546875 1.28125 -4.546875 C 0.890625 -4.546875 0.515625 -4.5625 0.125 -4.578125 L 0.125 -4.296875 L 0.296875 -4.28125 C 0.546875 -4.25 0.671875 -4.140625 0.8125 -3.78125 L 2.46875 0.234375 L 2.234375 0.84375 C 1.90625 1.6875 1.53125 2.15625 1.140625 2.15625 C 0.984375 2.15625 0.8125 2.078125 0.640625 1.921875 L 0.515625 1.921875 L 0.265625 2.671875 C 0.453125 2.765625 0.625 2.828125 0.8125 2.828125 C 1.46875 2.828125 1.90625 2.46875 2.28125 1.59375 L 4.3125 -3.078125 C 4.703125 -3.984375 4.890625 -4.25 5.140625 -4.28125 Z M 5.421875 -4.296875 "/>
</symbol>
<symbol overflow="visible" id="glyph2-6">
<path style="stroke:none;" d="M 5.796875 0.03125 L 5.796875 -0.265625 L 5.390625 -0.296875 C 5.046875 -0.3125 5.015625 -0.375 5.015625 -1.015625 L 5.015625 -4.640625 L 4.921875 -4.671875 C 4.421875 -4.46875 3.890625 -4.328125 3.375 -4.265625 L 3.375 -3.984375 L 3.734375 -3.984375 C 4.140625 -3.984375 4.171875 -3.921875 4.171875 -3.265625 L 4.171875 -1.640625 C 4.171875 -1.421875 4.03125 -1.140625 3.8125 -0.90625 C 3.53125 -0.625 3.203125 -0.484375 2.828125 -0.484375 C 2.46875 -0.484375 2.1875 -0.59375 2.03125 -0.78125 C 1.890625 -0.953125 1.828125 -1.25 1.828125 -1.6875 L 1.828125 -4.640625 L 1.734375 -4.671875 C 1.21875 -4.46875 0.703125 -4.328125 0.171875 -4.265625 L 0.171875 -3.984375 L 0.546875 -3.984375 C 0.953125 -3.984375 0.984375 -3.921875 0.984375 -3.265625 L 0.984375 -1.578125 C 0.984375 -0.890625 1.046875 -0.578125 1.21875 -0.328125 C 1.453125 -0.03125 1.828125 0.125 2.390625 0.125 C 2.84375 0.125 3.234375 -0.015625 3.515625 -0.265625 L 4.171875 -0.890625 C 4.171875 -0.59375 4.171875 -0.4375 4.140625 0.03125 C 4.421875 0.015625 4.6875 0 4.96875 0 C 5.25 0 5.515625 0.015625 5.796875 0.03125 Z M 5.796875 0.03125 "/>
</symbol>
<symbol overflow="visible" id="glyph2-7">
<path style="stroke:none;" d="M 3.734375 -4.5625 C 3.625 -4.640625 3.4375 -4.671875 3.265625 -4.671875 C 2.953125 -4.671875 2.640625 -4.515625 2.4375 -4.265625 L 1.875 -3.609375 L 1.875 -4.640625 L 1.78125 -4.671875 C 1.28125 -4.46875 0.75 -4.328125 0.234375 -4.265625 L 0.234375 -3.984375 L 0.59375 -3.984375 C 1 -3.984375 1.03125 -3.921875 1.03125 -3.265625 L 1.03125 -1.015625 C 1.03125 -0.390625 1 -0.3125 0.671875 -0.296875 L 0.203125 -0.265625 L 0.203125 0.03125 C 0.625 0.015625 1.03125 0 1.4375 0 C 1.90625 0 2.375 0.015625 2.859375 0.03125 L 2.859375 -0.265625 L 2.34375 -0.296875 C 1.890625 -0.328125 1.875 -0.359375 1.875 -1.015625 L 1.875 -2.734375 C 1.875 -3.328125 2.265625 -3.828125 2.765625 -3.828125 C 3.0625 -3.828125 3.265625 -3.6875 3.421875 -3.375 L 3.640625 -3.375 Z M 3.734375 -4.5625 "/>
</symbol>
<symbol overflow="visible" id="glyph2-8">
<path style="stroke:none;" d="M 5.703125 0.03125 L 5.703125 -0.265625 L 5.296875 -0.296875 C 4.953125 -0.3125 4.921875 -0.375 4.921875 -1.015625 L 4.921875 -2.9375 C 4.921875 -4.109375 4.375 -4.671875 3.265625 -4.671875 C 2.890625 -4.671875 2.6875 -4.609375 2.46875 -4.421875 L 1.71875 -3.765625 L 1.71875 -7.15625 L 1.625 -7.234375 C 1.1875 -7.0625 0.859375 -6.984375 0.0625 -6.875 L 0.0625 -6.59375 L 0.625 -6.59375 C 0.8125 -6.59375 0.875 -6.484375 0.875 -6.1875 L 0.875 -1.015625 C 0.875 -0.390625 0.84375 -0.3125 0.515625 -0.296875 L 0.0625 -0.265625 L 0.0625 0.03125 C 0.46875 0.015625 0.890625 0 1.296875 0 C 1.703125 0 2.125 0.015625 2.53125 0.03125 L 2.53125 -0.265625 L 2.078125 -0.296875 C 1.75 -0.3125 1.71875 -0.390625 1.71875 -1.015625 L 1.71875 -3.125 C 1.71875 -3.578125 2.375 -4.0625 2.984375 -4.0625 C 3.65625 -4.0625 4.09375 -3.5625 4.09375 -2.796875 L 4.09375 0.03125 C 4.34375 0.015625 4.609375 0 4.875 0 C 5.15625 0 5.421875 0.015625 5.703125 0.03125 Z M 5.703125 0.03125 "/>
</symbol>
<symbol overflow="visible" id="glyph2-9">
<path style="stroke:none;" d="M 4.6875 0.03125 L 4.6875 -0.265625 L 4.3125 -0.296875 C 4.0625 -0.296875 4.03125 -0.375 4.03125 -0.875 L 4.03125 -2.6875 C 4.03125 -4.140625 3.609375 -4.671875 2.453125 -4.671875 C 2.03125 -4.671875 1.625 -4.5625 1.25 -4.34375 L 0.71875 -4.015625 L 0.71875 -3.375 L 0.984375 -3.296875 L 1.109375 -3.609375 C 1.3125 -4.078125 1.421875 -4.140625 1.875 -4.140625 C 2.8125 -4.140625 3.203125 -3.78125 3.234375 -2.875 L 2.25 -2.6875 C 0.890625 -2.4375 0.3125 -1.96875 0.3125 -1.109375 C 0.3125 -0.328125 0.78125 0.125 1.578125 0.125 C 1.75 0.125 1.921875 0.09375 2 0.046875 L 3.234375 -0.8125 L 3.1875 0.03125 C 3.4375 0.015625 3.703125 0 3.953125 0 C 4.203125 0 4.453125 0.015625 4.6875 0.03125 Z M 3.234375 -1.234375 C 2.9375 -0.828125 2.3125 -0.453125 1.921875 -0.453125 C 1.53125 -0.453125 1.171875 -0.8125 1.171875 -1.25 C 1.171875 -1.609375 1.375 -1.96875 1.671875 -2.15625 C 1.921875 -2.296875 2.46875 -2.4375 3.234375 -2.546875 Z M 3.234375 -1.234375 "/>
</symbol>
<symbol overflow="visible" id="glyph2-10">
<path style="stroke:none;" d="M 5.765625 0.03125 L 5.765625 -0.265625 L 5.3125 -0.296875 C 4.96875 -0.3125 4.9375 -0.390625 4.9375 -1.015625 L 4.9375 -7.15625 L 4.859375 -7.234375 C 4.421875 -7.0625 4.09375 -6.984375 3.296875 -6.875 L 3.296875 -6.59375 L 3.859375 -6.59375 C 4.03125 -6.59375 4.109375 -6.484375 4.109375 -6.1875 L 4.109375 -4.359375 C 3.546875 -4.59375 3.265625 -4.671875 2.921875 -4.671875 C 2.65625 -4.671875 2.40625 -4.609375 2.15625 -4.484375 L 1.28125 -4.03125 C 0.71875 -3.734375 0.34375 -3 0.34375 -2.15625 C 0.34375 -1.359375 0.625 -0.703125 1.109375 -0.296875 C 1.453125 -0.015625 1.90625 0.125 2.5625 0.125 C 2.765625 0.125 2.984375 0.078125 3.046875 0.046875 L 4.140625 -0.890625 L 4.09375 0.03125 C 4.359375 0.015625 4.609375 0 4.859375 0 C 5.15625 0 5.46875 0.015625 5.765625 0.03125 Z M 4.109375 -2.203125 C 4.109375 -1.5625 4.09375 -1.453125 3.953125 -1.21875 C 3.671875 -0.75 3.1875 -0.453125 2.71875 -0.453125 C 1.84375 -0.453125 1.21875 -1.296875 1.21875 -2.484375 C 1.21875 -3.5625 1.75 -4.203125 2.65625 -4.203125 C 3.03125 -4.203125 3.421875 -4.078125 3.78125 -3.84375 C 3.984375 -3.703125 4.109375 -3.5625 4.109375 -3.484375 Z M 4.109375 -2.203125 "/>
</symbol>
<symbol overflow="visible" id="glyph2-11">
<path style="stroke:none;" d="M 3.890625 -1.46875 C 3.890625 -1.78125 3.8125 -2.015625 3.625 -2.21875 C 3.359375 -2.46875 3.03125 -2.578125 2.15625 -2.75 C 1.328125 -2.90625 1.0625 -3.109375 1.0625 -3.5625 C 1.0625 -4.0625 1.421875 -4.34375 2.03125 -4.34375 C 2.6875 -4.34375 3.203125 -4 3.203125 -3.53125 L 3.203125 -3.296875 L 3.484375 -3.296875 C 3.484375 -3.875 3.5 -4.109375 3.53125 -4.421875 C 3 -4.609375 2.640625 -4.671875 2.234375 -4.671875 C 1.078125 -4.671875 0.375 -4.125 0.375 -3.234375 C 0.375 -2.75 0.59375 -2.40625 1.046875 -2.203125 C 1.3125 -2.078125 1.84375 -1.921875 2.515625 -1.78125 C 2.96875 -1.671875 3.15625 -1.46875 3.15625 -1.09375 C 3.15625 -0.546875 2.65625 -0.171875 1.953125 -0.171875 C 1.21875 -0.171875 0.703125 -0.515625 0.703125 -1.015625 L 0.703125 -1.421875 L 0.40625 -1.421875 C 0.40625 -0.734375 0.375 -0.4375 0.296875 -0.046875 C 0.8125 0.125 1.203125 0.203125 1.671875 0.203125 C 2.96875 0.203125 3.890625 -0.5 3.890625 -1.46875 Z M 3.890625 -1.46875 "/>
</symbol>
<symbol overflow="visible" id="glyph2-12">
<path style="stroke:none;" d="M 2.171875 -1.09375 L 2.03125 -1.21875 C 1.765625 -1.140625 1.578125 -1.078125 1.0625 -0.921875 C 0.984375 -0.171875 0.734375 0.484375 0.15625 1.4375 L 0.296875 1.546875 L 0.703125 1.359375 C 1.515625 0.3125 1.890625 -0.3125 2.171875 -1.09375 Z M 2.171875 -1.09375 "/>
</symbol>
<symbol overflow="visible" id="glyph2-13">
<path style="stroke:none;" d="M 5.84375 -1.71875 L 5.515625 -1.71875 L 5.40625 -1.21875 C 5.3125 -0.828125 5.25 -0.625 5.1875 -0.5625 C 5.046875 -0.453125 4.1875 -0.390625 3 -0.390625 C 2.640625 -0.390625 2.40625 -0.40625 2.15625 -0.46875 L 2.15625 -5.671875 C 2.15625 -6.453125 2.203125 -6.546875 2.65625 -6.5625 L 3.140625 -6.59375 L 3.140625 -6.890625 C 2.65625 -6.875 2.15625 -6.875 1.671875 -6.875 C 1.1875 -6.875 0.703125 -6.875 0.21875 -6.890625 L 0.21875 -6.59375 L 0.703125 -6.5625 C 1.15625 -6.546875 1.203125 -6.453125 1.203125 -5.671875 L 1.203125 -0.953125 C 1.203125 -0.65625 1.109375 -0.4375 0.953125 -0.359375 L 0.640625 -0.203125 L 0.640625 0.03125 C 0.984375 0.015625 1.3125 0 1.640625 0 C 2.40625 0 3.1875 0.03125 3.953125 0.03125 C 4.375 0.03125 4.28125 0.03125 5.625 0 C 5.703125 -0.421875 5.734375 -0.75 5.84375 -1.71875 Z M 5.84375 -1.71875 "/>
</symbol>
<symbol overflow="visible" id="glyph2-14">
<path style="stroke:none;" d="M 3.140625 0.03125 L 3.140625 -0.265625 L 2.65625 -0.296875 C 2.203125 -0.328125 2.15625 -0.40625 2.15625 -1.203125 L 2.15625 -5.671875 C 2.15625 -6.453125 2.203125 -6.546875 2.65625 -6.5625 L 3.140625 -6.59375 L 3.140625 -6.890625 C 2.65625 -6.875 2.15625 -6.875 1.671875 -6.875 C 1.1875 -6.875 0.703125 -6.875 0.21875 -6.890625 L 0.21875 -6.59375 L 0.703125 -6.5625 C 1.15625 -6.546875 1.203125 -6.453125 1.203125 -5.671875 L 1.203125 -1.203125 C 1.203125 -0.40625 1.15625 -0.328125 0.703125 -0.296875 L 0.21875 -0.265625 L 0.21875 0.03125 C 0.703125 0.015625 1.1875 0 1.671875 0 C 2.15625 0 2.65625 0.015625 3.140625 0.03125 Z M 3.140625 0.03125 "/>
</symbol>
<symbol overflow="visible" id="glyph2-15">
<path style="stroke:none;" d="M 4.109375 -0.453125 L 4.015625 -0.609375 C 3.65625 -0.40625 3.328125 -0.3125 2.96875 -0.3125 C 1.859375 -0.3125 1.140625 -1.171875 1.140625 -2.5 C 1.140625 -3.5625 1.640625 -4.15625 2.53125 -4.15625 C 2.96875 -4.15625 3.453125 -3.953125 3.625 -3.703125 L 3.703125 -3.09375 L 3.984375 -3.09375 C 3.984375 -3.5625 4.03125 -3.96875 4.109375 -4.328125 C 3.71875 -4.5625 3.375 -4.671875 2.953125 -4.671875 C 2.484375 -4.671875 1.921875 -4.484375 1.328125 -4.109375 C 0.625 -3.671875 0.265625 -2.96875 0.265625 -2.09375 C 0.265625 -0.75 1.203125 0.203125 2.546875 0.203125 C 3.0625 0.203125 3.8125 0.015625 3.90625 -0.140625 Z M 4.109375 -0.453125 "/>
</symbol>
<symbol overflow="visible" id="glyph2-16">
<path style="stroke:none;" d="M 8.65625 0.03125 L 8.65625 -0.265625 L 8.1875 -0.296875 C 7.859375 -0.3125 7.828125 -0.390625 7.828125 -1.015625 L 7.828125 -3.078125 C 7.828125 -4.0625 7.25 -4.671875 6.328125 -4.671875 C 5.984375 -4.671875 5.6875 -4.578125 5.515625 -4.421875 L 4.75 -3.75 C 4.4375 -4.40625 4.03125 -4.671875 3.34375 -4.671875 C 2.96875 -4.671875 2.6875 -4.578125 2.515625 -4.421875 L 1.828125 -3.78125 L 1.828125 -4.640625 L 1.734375 -4.671875 C 1.21875 -4.46875 0.703125 -4.328125 0.171875 -4.265625 L 0.171875 -3.984375 L 0.546875 -3.984375 C 0.953125 -3.984375 0.984375 -3.921875 0.984375 -3.265625 L 0.984375 -1.015625 C 0.984375 -0.390625 0.953125 -0.3125 0.625 -0.296875 L 0.15625 -0.265625 L 0.15625 0.03125 C 0.578125 0.015625 1 0 1.421875 0 C 1.828125 0 2.21875 0.015625 2.609375 0.03125 L 2.609375 -0.265625 L 2.1875 -0.296875 C 1.859375 -0.3125 1.828125 -0.390625 1.828125 -1.015625 L 1.828125 -3.125 C 1.828125 -3.578125 2.484375 -4.0625 3.078125 -4.0625 C 3.625 -4.0625 3.984375 -3.5625 3.984375 -2.796875 L 3.984375 -1.015625 C 3.984375 -0.390625 3.953125 -0.3125 3.625 -0.296875 L 3.15625 -0.265625 L 3.15625 0.03125 C 3.578125 0.015625 3.984375 0 4.40625 0 C 4.828125 0 5.234375 0.015625 5.65625 0.03125 L 5.65625 -0.265625 L 5.1875 -0.296875 C 4.859375 -0.3125 4.828125 -0.390625 4.828125 -1.015625 L 4.828125 -3.125 C 4.828125 -3.578125 5.484375 -4.0625 6.078125 -4.0625 C 6.625 -4.0625 6.984375 -3.5625 6.984375 -2.796875 L 6.984375 0.03125 C 7.25 0.015625 7.515625 0 7.78125 0 C 8.078125 0 8.359375 0.015625 8.65625 0.03125 Z M 8.65625 0.03125 "/>
</symbol>
<symbol overflow="visible" id="glyph2-17">
<path style="stroke:none;" d="M 4.46875 -2.78125 C 4.46875 -3.921875 3.734375 -4.671875 2.609375 -4.671875 C 2.25 -4.671875 1.8125 -4.546875 1.40625 -4.3125 C 0.59375 -3.84375 0.265625 -3.21875 0.265625 -2.1875 C 0.265625 -1.5625 0.40625 -1.015625 0.671875 -0.640625 C 1.0625 -0.109375 1.75 0.203125 2.5 0.203125 C 2.859375 0.203125 3.234375 0.125 3.640625 -0.0625 C 3.90625 -0.171875 4.109375 -0.296875 4.15625 -0.359375 L 4.359375 -0.703125 L 4.234375 -0.796875 C 3.59375 -0.421875 3.359375 -0.328125 2.9375 -0.328125 C 2.28125 -0.328125 1.75 -0.625 1.46875 -1.109375 C 1.28125 -1.4375 1.203125 -1.71875 1.1875 -2.296875 L 2.640625 -2.296875 C 3.328125 -2.296875 3.765625 -2.328125 4.453125 -2.4375 C 4.453125 -2.578125 4.46875 -2.65625 4.46875 -2.78125 Z M 3.578125 -2.65625 L 2.46875 -2.625 C 2 -2.625 1.75 -2.640625 1.203125 -2.6875 C 1.203125 -3.15625 1.25 -3.375 1.375 -3.640625 C 1.578125 -4.078125 2.015625 -4.34375 2.5 -4.34375 C 2.828125 -4.34375 3.078125 -4.21875 3.265625 -3.953125 C 3.484375 -3.625 3.578125 -3.328125 3.578125 -2.65625 Z M 3.578125 -2.65625 "/>
</symbol>
<symbol overflow="visible" id="glyph2-18">
<path style="stroke:none;" d="M 5.515625 -2.703125 C 5.515625 -3.8125 4.609375 -4.671875 3.453125 -4.671875 C 3.078125 -4.671875 2.71875 -4.578125 2.5625 -4.421875 L 1.75 -3.671875 L 1.75 -4.640625 L 1.65625 -4.671875 C 1.140625 -4.46875 0.625 -4.328125 0.09375 -4.265625 L 0.09375 -3.984375 L 0.46875 -3.984375 C 0.875 -3.984375 0.90625 -3.921875 0.90625 -3.265625 L 0.90625 1.75 C 0.90625 2.375 0.875 2.453125 0.53125 2.46875 L 0.078125 2.5 L 0.078125 2.796875 C 0.5 2.78125 0.90625 2.765625 1.328125 2.765625 C 1.75 2.765625 2.15625 2.78125 2.578125 2.796875 L 2.578125 2.5 L 2.109375 2.46875 C 1.78125 2.453125 1.75 2.375 1.75 1.75 L 1.75 -0.125 C 2.046875 0.046875 2.359375 0.125 2.8125 0.125 C 3.09375 0.125 3.359375 0.0625 3.515625 -0.046875 L 4.65625 -0.78125 C 5.046875 -1.03125 5.515625 -2.0625 5.515625 -2.703125 Z M 4.65625 -2.328125 C 4.65625 -1.21875 3.984375 -0.390625 3.09375 -0.390625 C 2.546875 -0.390625 2.140625 -0.5625 1.75 -0.984375 L 1.75 -3.046875 C 1.75 -3.1875 1.796875 -3.296875 1.921875 -3.46875 C 2.21875 -3.84375 2.625 -4.03125 3.125 -4.03125 C 4.0625 -4.03125 4.65625 -3.375 4.65625 -2.328125 Z M 4.65625 -2.328125 "/>
</symbol>
<symbol overflow="visible" id="glyph2-19">
<path style="stroke:none;" d="M 2.703125 0.03125 L 2.703125 -0.265625 L 2.25 -0.296875 C 1.90625 -0.3125 1.875 -0.390625 1.875 -1.015625 L 1.875 -4.640625 L 1.78125 -4.671875 C 1.28125 -4.46875 0.75 -4.328125 0.234375 -4.265625 L 0.234375 -3.984375 L 0.59375 -3.984375 C 1 -3.984375 1.03125 -3.921875 1.03125 -3.265625 L 1.03125 -1.015625 C 1.03125 -0.390625 1 -0.3125 0.671875 -0.296875 L 0.203125 -0.265625 L 0.203125 0.03125 C 0.625 0.015625 1.03125 0 1.453125 0 C 1.875 0 2.28125 0.015625 2.703125 0.03125 Z M 1.953125 -5.90625 C 1.953125 -6.1875 1.75 -6.40625 1.46875 -6.40625 C 1.15625 -6.40625 0.953125 -6.203125 0.953125 -5.90625 C 0.953125 -5.609375 1.15625 -5.40625 1.453125 -5.40625 C 1.75 -5.40625 1.953125 -5.609375 1.953125 -5.90625 Z M 1.953125 -5.90625 "/>
</symbol>
<symbol overflow="visible" id="glyph2-20">
<path style="stroke:none;" d="M 1.828125 -0.53125 C 1.828125 -0.828125 1.546875 -1.109375 1.234375 -1.109375 C 0.9375 -1.109375 0.671875 -0.828125 0.671875 -0.53125 C 0.671875 -0.234375 0.9375 0.046875 1.21875 0.046875 C 1.546875 0.046875 1.828125 -0.21875 1.828125 -0.53125 Z M 1.828125 -0.53125 "/>
</symbol>
<symbol overflow="visible" id="glyph2-21">
<path style="stroke:none;" d="M 6.671875 0.03125 L 6.671875 -0.265625 C 6.34375 -0.296875 6.1875 -0.359375 6.0625 -0.53125 L 3.796875 -3.484375 C 4.359375 -3.625 4.609375 -3.734375 4.9375 -3.953125 C 5.46875 -4.328125 5.734375 -4.828125 5.734375 -5.40625 C 5.734375 -6.359375 5.09375 -6.890625 3.796875 -6.890625 C 3.203125 -6.890625 2.609375 -6.875 2.015625 -6.875 C 1.4375 -6.875 0.875 -6.875 0.296875 -6.890625 L 0.296875 -6.59375 L 0.703125 -6.5625 C 1.15625 -6.546875 1.203125 -6.453125 1.203125 -5.671875 L 1.203125 -1.203125 C 1.203125 -0.40625 1.15625 -0.328125 0.703125 -0.296875 L 0.21875 -0.265625 L 0.21875 0.03125 C 0.703125 0.015625 1.1875 0 1.671875 0 C 2.15625 0 2.65625 0.015625 3.140625 0.03125 L 3.140625 -0.265625 L 2.65625 -0.296875 C 2.203125 -0.328125 2.15625 -0.40625 2.15625 -1.203125 L 2.15625 -6.40625 C 2.5 -6.484375 2.796875 -6.515625 3.125 -6.515625 C 4.171875 -6.515625 4.75 -6.046875 4.75 -5.1875 C 4.75 -4.28125 4.015625 -3.703125 2.859375 -3.703125 L 2.578125 -3.703125 L 2.578125 -3.53125 C 2.796875 -3.296875 2.875 -3.1875 3.03125 -2.96875 L 4.859375 -0.515625 L 5.28125 0.03125 C 5.5 0.015625 5.71875 0 5.953125 0 C 6.1875 0 6.4375 0.015625 6.671875 0.03125 Z M 6.671875 0.03125 "/>
</symbol>
<symbol overflow="visible" id="glyph2-22">
<path style="stroke:none;" d="M 7.03125 -6.59375 L 7.03125 -6.890625 C 6.671875 -6.875 6.3125 -6.875 5.96875 -6.875 C 5.609375 -6.875 5.25 -6.875 4.890625 -6.890625 L 4.890625 -6.59375 L 5.40625 -6.5625 C 5.765625 -6.546875 5.796875 -6.265625 5.65625 -5.921875 L 3.84375 -1.203125 L 1.875 -6.265625 C 1.828125 -6.40625 1.90625 -6.5625 2.171875 -6.5625 L 2.734375 -6.59375 L 2.734375 -6.890625 C 2.296875 -6.875 1.84375 -6.875 1.40625 -6.875 C 0.96875 -6.875 0.515625 -6.875 0.078125 -6.890625 L 0.078125 -6.59375 L 0.4375 -6.5625 C 0.640625 -6.546875 0.75 -6.453125 0.875 -6.15625 L 2.75 -1.5625 C 3.0625 -0.796875 3.1875 -0.453125 3.328125 0.09375 L 3.828125 0.09375 C 4.015625 -0.53125 4.140625 -0.859375 4.46875 -1.65625 L 6.203125 -5.859375 C 6.4375 -6.40625 6.5625 -6.546875 6.734375 -6.5625 Z M 7.03125 -6.59375 "/>
</symbol>
<symbol overflow="visible" id="glyph2-23">
<path style="stroke:none;" d="M 6.515625 -6.765625 L 6.515625 -6.921875 L 5.71875 -6.921875 C 5.34375 -6.1875 5.03125 -5.640625 4.640625 -5.03125 L 3.625 -3.40625 L 2.1875 -6 C 1.875 -6.578125 1.46875 -7.03125 1.28125 -7.03125 L 0.09375 -6.78125 L 0.09375 -6.484375 L 0.375 -6.453125 C 0.71875 -6.421875 1.234375 -5.890625 1.65625 -5.15625 L 2.890625 -3.015625 C 2.953125 -2.90625 2.984375 -2.765625 2.984375 -2.609375 L 2.984375 -1.203125 C 2.984375 -0.40625 2.9375 -0.328125 2.46875 -0.296875 L 2 -0.265625 L 2 0.03125 C 2.484375 0.015625 2.953125 0 3.453125 0 C 3.9375 0 4.421875 0.015625 4.921875 0.03125 L 4.921875 -0.265625 L 4.4375 -0.296875 C 3.984375 -0.328125 3.921875 -0.40625 3.921875 -1.203125 L 3.921875 -2.484375 C 3.921875 -3.03125 4.0625 -3.375 4.640625 -4.25 C 5.390625 -5.359375 5.71875 -5.796875 6.515625 -6.765625 Z M 6.515625 -6.765625 "/>
</symbol>
<symbol overflow="visible" id="glyph2-24">
<path style="stroke:none;" d="M 5.375 -4.296875 L 5.375 -4.578125 C 5.0625 -4.5625 4.75 -4.546875 4.4375 -4.546875 C 4.125 -4.546875 3.8125 -4.5625 3.5 -4.578125 L 3.5 -4.296875 L 3.90625 -4.28125 C 4.234375 -4.25 4.234375 -3.96875 3.953125 -3.296875 L 3.53125 -2.234375 L 2.921875 -0.84375 L 1.734375 -3.703125 C 1.625 -3.984375 1.578125 -4.265625 1.890625 -4.28125 L 2.375 -4.296875 L 2.375 -4.578125 C 2 -4.5625 1.609375 -4.546875 1.21875 -4.546875 C 0.828125 -4.546875 0.453125 -4.5625 0.0625 -4.578125 L 0.0625 -4.296875 L 0.40625 -4.28125 C 0.578125 -4.265625 0.609375 -4.171875 0.703125 -3.953125 L 2.421875 0.0625 L 2.921875 0.0625 C 2.984375 -0.265625 3.125 -0.5625 3.328125 -1.015625 L 4.5 -3.609375 C 4.734375 -4.109375 4.859375 -4.265625 5.0625 -4.28125 Z M 5.375 -4.296875 "/>
</symbol>
<symbol overflow="visible" id="glyph2-25">
<path style="stroke:none;" d="M 7.25 -2.453125 L 7.21875 -2.703125 C 6.8125 -2.6875 6.40625 -2.671875 5.984375 -2.671875 C 5.578125 -2.671875 5.1875 -2.6875 4.78125 -2.703125 L 4.78125 -2.40625 L 5.609375 -2.328125 C 5.859375 -2.3125 5.9375 -2.21875 5.9375 -1.984375 L 5.9375 -0.984375 C 5.9375 -0.734375 5.921875 -0.625 5.875 -0.546875 C 5.765625 -0.359375 5.171875 -0.21875 4.515625 -0.21875 C 2.546875 -0.21875 1.28125 -1.53125 1.28125 -3.609375 C 1.28125 -5.53125 2.359375 -6.65625 4.234375 -6.65625 C 4.75 -6.65625 5.1875 -6.59375 5.5625 -6.46875 C 6.140625 -6.28125 6.390625 -6.046875 6.390625 -5.671875 L 6.390625 -5.140625 L 6.703125 -5.140625 C 6.703125 -5.65625 6.765625 -6.125 6.890625 -6.65625 C 5.796875 -6.984375 5.28125 -7.0625 4.484375 -7.0625 C 1.90625 -7.0625 0.21875 -5.609375 0.21875 -3.40625 C 0.21875 -2.390625 0.5625 -1.5 1.1875 -0.890625 C 1.890625 -0.203125 2.953125 0.203125 4.109375 0.203125 C 4.8125 0.203125 5.5 0.0625 6.859375 -0.3125 L 6.859375 -1.984375 C 6.859375 -2.296875 6.875 -2.3125 6.96875 -2.359375 Z M 7.25 -2.453125 "/>
</symbol>
<symbol overflow="visible" id="glyph2-26">
<path style="stroke:none;" d="M 3.40625 -6.375 L 3.40625 -7.140625 C 3.1875 -7.234375 3.078125 -7.25 2.9375 -7.25 C 2.625 -7.25 2.265625 -7.09375 2.046875 -6.84375 L 1.46875 -6.1875 C 1.1875 -5.859375 1.0625 -5.40625 1.0625 -4.75 L 1.0625 -4.328125 L 0.375 -4.015625 L 0.375 -3.796875 L 1.0625 -3.84375 L 1.0625 -1.015625 C 1.0625 -0.390625 1.03125 -0.3125 0.6875 -0.296875 L 0.234375 -0.265625 L 0.234375 0.03125 C 0.640625 0.015625 1.0625 0 1.46875 0 C 1.890625 0 2.296875 0.015625 2.71875 0.03125 L 2.71875 -0.265625 L 2.265625 -0.296875 C 1.921875 -0.3125 1.890625 -0.390625 1.890625 -1.015625 L 1.890625 -3.84375 L 3.125 -3.84375 L 3.203125 -4.359375 C 2.765625 -4.34375 2.328125 -4.328125 1.890625 -4.328125 L 1.890625 -5.171875 C 1.890625 -6.3125 2.03125 -6.59375 2.59375 -6.59375 C 2.859375 -6.59375 3.046875 -6.53125 3.28125 -6.3125 Z M 3.40625 -6.375 "/>
</symbol>
<symbol overflow="visible" id="glyph2-27">
<path style="stroke:none;" d="M 2.703125 0.03125 L 2.703125 -0.265625 L 2.25 -0.296875 C 1.90625 -0.3125 1.875 -0.390625 1.875 -1.015625 L 1.875 -7.15625 L 1.78125 -7.234375 C 1.34375 -7.0625 1.015625 -6.984375 0.234375 -6.875 L 0.234375 -6.59375 L 0.78125 -6.59375 C 0.96875 -6.59375 1.03125 -6.484375 1.03125 -6.1875 L 1.03125 -1.015625 C 1.03125 -0.390625 1 -0.3125 0.671875 -0.296875 L 0.203125 -0.265625 L 0.203125 0.03125 C 0.625 0.015625 1.03125 0 1.453125 0 C 1.875 0 2.28125 0.015625 2.703125 0.03125 Z M 2.703125 0.03125 "/>
</symbol>
<symbol overflow="visible" id="glyph2-28">
<path style="stroke:none;" d="M 5.0625 -2.6875 C 5.0625 -3.84375 4.3125 -4.671875 3.265625 -4.671875 C 2.796875 -4.671875 2.296875 -4.5 2.046875 -4.234375 L 1.5 -3.671875 L 1.5 -7.15625 L 1.40625 -7.234375 C 0.96875 -7.0625 0.640625 -6.984375 -0.15625 -6.875 L -0.15625 -6.59375 L 0.40625 -6.59375 C 0.59375 -6.59375 0.65625 -6.484375 0.65625 -6.1875 L 0.65625 -1.53125 C 0.65625 -0.90625 0.640625 -0.640625 0.578125 0.0625 L 0.734375 0.125 L 1.140625 -0.234375 C 1.53125 0.015625 1.890625 0.125 2.421875 0.125 C 2.8125 0.125 3.078125 0.046875 3.28125 -0.09375 L 4.28125 -0.8125 C 4.71875 -1.140625 5.0625 -1.96875 5.0625 -2.6875 Z M 4.203125 -2.28125 C 4.203125 -1.171875 3.59375 -0.390625 2.75 -0.390625 C 2.234375 -0.390625 1.5 -0.703125 1.5 -0.921875 L 1.5 -3.078125 C 1.5 -3.203125 1.59375 -3.390625 1.75 -3.5625 C 2.03125 -3.859375 2.421875 -4.03125 2.828125 -4.03125 C 3.671875 -4.03125 4.203125 -3.34375 4.203125 -2.28125 Z M 4.203125 -2.28125 "/>
</symbol>
<symbol overflow="visible" id="glyph2-29">
<path style="stroke:none;" d="M 5.34375 -6.875 L 4.125 -6.890625 C 3.40625 -6.875 2.6875 -6.875 1.96875 -6.875 C 1.390625 -6.875 0.8125 -6.875 0.21875 -6.890625 L 0.21875 -6.59375 L 0.703125 -6.5625 C 1.15625 -6.546875 1.203125 -6.453125 1.203125 -5.671875 L 1.203125 -1.203125 C 1.203125 -0.40625 1.15625 -0.328125 0.703125 -0.296875 L 0.21875 -0.265625 L 0.21875 0.03125 C 0.703125 0.015625 1.1875 0 1.671875 0 C 2.15625 0 2.65625 0.015625 3.140625 0.03125 L 3.140625 -0.265625 L 2.65625 -0.296875 C 2.203125 -0.328125 2.15625 -0.40625 2.15625 -1.203125 L 2.15625 -3.265625 L 3.75 -3.296875 C 4.1875 -3.296875 4.375 -3.25 4.453125 -2.921875 C 4.484375 -2.703125 4.5 -2.328125 4.5 -2.328125 L 4.796875 -2.328125 C 4.78125 -2.703125 4.765625 -3.078125 4.765625 -3.4375 C 4.765625 -3.828125 4.78125 -4.203125 4.796875 -4.59375 L 4.5 -4.59375 L 4.453125 -4.078125 C 4.421875 -3.734375 4.171875 -3.703125 3.734375 -3.703125 C 3.1875 -3.703125 2.59375 -3.703125 2.15625 -3.734375 L 2.15625 -6.40625 C 2.453125 -6.46875 2.625 -6.484375 3.21875 -6.484375 C 3.703125 -6.484375 4.25 -6.421875 4.5625 -6.34375 C 4.8125 -6.28125 4.828125 -6.234375 4.828125 -6 L 4.828125 -5.359375 L 5.1875 -5.359375 C 5.1875 -5.953125 5.234375 -6.4375 5.34375 -6.875 Z M 5.34375 -6.875 "/>
</symbol>
<symbol overflow="visible" id="glyph2-30">
<path style="stroke:none;" d="M 5.015625 -2.296875 C 5.015625 -2.765625 4.890625 -3.09375 4.609375 -3.34375 C 4.25 -3.671875 3.84375 -3.8125 2.71875 -3.953125 C 1.5 -4.109375 1.078125 -4.453125 1.078125 -5.21875 C 1.078125 -6.046875 1.703125 -6.65625 2.578125 -6.65625 C 2.96875 -6.65625 3.34375 -6.5625 3.609375 -6.421875 C 3.9375 -6.25 4.046875 -6.09375 4.078125 -5.8125 L 4.140625 -5.25 L 4.453125 -5.25 C 4.453125 -5.765625 4.5 -6.109375 4.59375 -6.65625 C 3.796875 -6.96875 3.34375 -7.0625 2.796875 -7.0625 C 1.3125 -7.0625 0.234375 -6.125 0.234375 -4.828125 C 0.234375 -4.34375 0.375 -3.984375 0.65625 -3.703125 C 1 -3.40625 1.453125 -3.234375 2.421875 -3.109375 C 3.1875 -3 3.53125 -2.875 3.796875 -2.65625 C 4.0625 -2.4375 4.171875 -2.15625 4.171875 -1.78125 C 4.171875 -0.890625 3.421875 -0.234375 2.390625 -0.234375 C 1.59375 -0.234375 0.8125 -0.625 0.765625 -1.03125 L 0.6875 -1.703125 L 0.375 -1.703125 C 0.375 -1.53125 0.375 -1.359375 0.375 -1.3125 C 0.375 -0.84375 0.359375 -0.625 0.296875 -0.171875 C 0.875 0.0625 1.453125 0.203125 2.03125 0.203125 C 3.765625 0.203125 5.015625 -0.84375 5.015625 -2.296875 Z M 5.015625 -2.296875 "/>
</symbol>
<symbol overflow="visible" id="glyph2-31">
<path style="stroke:none;" d="M 8.078125 0.03125 L 8.078125 -0.265625 L 7.59375 -0.296875 C 7.140625 -0.328125 7.09375 -0.40625 7.09375 -1.203125 L 7.09375 -5.671875 C 7.09375 -6.453125 7.140625 -6.546875 7.59375 -6.5625 L 8.078125 -6.59375 L 8.078125 -6.890625 C 7.59375 -6.875 7.09375 -6.875 6.609375 -6.875 C 6.125 -6.875 5.640625 -6.875 5.15625 -6.890625 L 5.15625 -6.59375 L 5.625 -6.5625 C 6.09375 -6.546875 6.140625 -6.453125 6.140625 -5.671875 L 6.140625 -3.890625 C 5.9375 -3.890625 5.71875 -3.875 5.3125 -3.875 L 2.984375 -3.875 C 2.578125 -3.875 2.359375 -3.890625 2.15625 -3.890625 L 2.15625 -5.671875 C 2.15625 -6.453125 2.203125 -6.546875 2.65625 -6.5625 L 3.140625 -6.59375 L 3.140625 -6.890625 C 2.65625 -6.875 2.15625 -6.875 1.671875 -6.875 C 1.1875 -6.875 0.703125 -6.875 0.21875 -6.890625 L 0.21875 -6.59375 L 0.703125 -6.5625 C 1.15625 -6.546875 1.203125 -6.453125 1.203125 -5.671875 L 1.203125 -1.203125 C 1.203125 -0.40625 1.15625 -0.328125 0.703125 -0.296875 L 0.21875 -0.265625 L 0.21875 0.03125 C 0.703125 0.015625 1.1875 0 1.671875 0 C 2.15625 0 2.65625 0.015625 3.140625 0.03125 L 3.140625 -0.265625 L 2.65625 -0.296875 C 2.203125 -0.328125 2.15625 -0.40625 2.15625 -1.203125 L 2.15625 -3.421875 C 2.421875 -3.4375 2.578125 -3.4375 2.984375 -3.4375 L 5.3125 -3.4375 C 5.71875 -3.4375 5.875 -3.4375 6.140625 -3.421875 L 6.140625 -1.203125 C 6.140625 -0.40625 6.09375 -0.328125 5.625 -0.296875 L 5.15625 -0.265625 L 5.15625 0.03125 C 5.640625 0.015625 6.125 0 6.609375 0 C 7.09375 0 7.59375 0.015625 8.078125 0.03125 Z M 8.078125 0.03125 "/>
</symbol>
<symbol overflow="visible" id="glyph3-0">
<path style="stroke:none;" d="M 0.328125 0 L 0.328125 -6.640625 L 2.96875 -6.640625 L 2.96875 0 Z M 0.65625 -0.328125 L 2.640625 -0.328125 L 2.640625 -6.3125 L 0.65625 -6.3125 Z M 0.65625 -0.328125 "/>
</symbol>
<symbol overflow="visible" id="glyph3-1">
<path style="stroke:none;" d="M 1.46875 -1.34375 C 1.226562 -0.820312 1.085938 -0.519531 1.046875 -0.4375 C 0.773438 0.175781 0.640625 0.578125 0.640625 0.765625 C 0.640625 0.796875 0.644531 0.820312 0.65625 0.84375 C 0.675781 0.875 0.691406 0.894531 0.703125 0.90625 C 0.710938 0.925781 0.71875 0.941406 0.71875 0.953125 C 0.726562 0.972656 0.722656 0.988281 0.703125 1 C 0.609375 1.082031 0.488281 1.160156 0.34375 1.234375 C 0.195312 1.304688 0.09375 1.34375 0.03125 1.34375 C 0.0078125 1.34375 0 1.335938 0 1.328125 L 0 1.171875 C 0 0.890625 0.242188 0.21875 0.734375 -0.84375 C 0.910156 -1.195312 1.050781 -1.492188 1.15625 -1.734375 C 1.25 -1.941406 1.363281 -2.207031 1.5 -2.53125 C 1.632812 -2.851562 1.816406 -3.351562 2.046875 -4.03125 C 2.273438 -4.707031 2.390625 -5.195312 2.390625 -5.5 C 2.390625 -5.882812 2.3125 -6.191406 2.15625 -6.421875 C 2.007812 -6.648438 1.847656 -6.765625 1.671875 -6.765625 C 1.640625 -6.765625 1.597656 -6.757812 1.546875 -6.75 C 1.453125 -6.800781 1.410156 -6.84375 1.421875 -6.875 C 1.460938 -6.976562 1.550781 -7.09375 1.6875 -7.21875 C 1.832031 -7.351562 1.945312 -7.421875 2.03125 -7.421875 L 2.078125 -7.421875 C 2.234375 -7.421875 2.394531 -7.328125 2.5625 -7.140625 L 2.65625 -7.046875 C 2.925781 -6.742188 3.0625 -6.375 3.0625 -5.9375 C 3.0625 -5.582031 2.925781 -5.023438 2.65625 -4.265625 C 2.394531 -3.503906 2.128906 -2.828125 1.859375 -2.234375 Z M 1.46875 -1.34375 "/>
</symbol>
<symbol overflow="visible" id="glyph3-2">
<path style="stroke:none;" d="M 2.03125 -2.578125 C 1.90625 -2.265625 1.738281 -1.894531 1.53125 -1.46875 C 0.9375 -0.21875 0.640625 0.523438 0.640625 0.765625 C 0.640625 0.796875 0.644531 0.820312 0.65625 0.84375 C 0.675781 0.875 0.691406 0.894531 0.703125 0.90625 C 0.710938 0.925781 0.71875 0.941406 0.71875 0.953125 C 0.726562 0.972656 0.722656 0.988281 0.703125 1 C 0.609375 1.082031 0.488281 1.160156 0.34375 1.234375 C 0.195312 1.304688 0.09375 1.34375 0.03125 1.34375 C 0.0078125 1.34375 0 1.335938 0 1.328125 L 0 1.171875 C 0 1.054688 0.0195312 0.914062 0.0625 0.75 C 0.113281 0.59375 0.1875 0.398438 0.28125 0.171875 C 0.375 -0.0546875 0.46875 -0.269531 0.5625 -0.46875 C 0.65625 -0.664062 0.78125 -0.929688 0.9375 -1.265625 C 1.09375 -1.597656 1.21875 -1.863281 1.3125 -2.0625 C 1.570312 -2.632812 1.734375 -3.015625 1.796875 -3.203125 C 2.191406 -4.304688 2.390625 -5.070312 2.390625 -5.5 C 2.390625 -5.882812 2.3125 -6.191406 2.15625 -6.421875 C 2.007812 -6.648438 1.847656 -6.765625 1.671875 -6.765625 C 1.640625 -6.765625 1.597656 -6.757812 1.546875 -6.75 C 1.453125 -6.800781 1.410156 -6.84375 1.421875 -6.875 C 1.460938 -6.976562 1.550781 -7.09375 1.6875 -7.21875 C 1.832031 -7.351562 1.945312 -7.421875 2.03125 -7.421875 L 2.078125 -7.421875 C 2.234375 -7.421875 2.394531 -7.328125 2.5625 -7.140625 L 2.65625 -7.046875 C 2.925781 -6.742188 3.0625 -6.375 3.0625 -5.9375 C 3.0625 -5.675781 2.972656 -5.265625 2.796875 -4.703125 C 2.628906 -4.148438 2.460938 -3.660156 2.296875 -3.234375 Z M 2.03125 -2.578125 "/>
</symbol>
</g>
<clipPath id="clip1">
  <path d="M 24 6 L 347.761719 6 L 347.761719 8 L 24 8 Z M 24 6 "/>
</clipPath>
<clipPath id="clip2">
  <path d="M 24 14 L 347.761719 14 L 347.761719 16 L 24 16 Z M 24 14 "/>
</clipPath>
<clipPath id="clip3">
  <path d="M 24 23 L 347.761719 23 L 347.761719 24 L 24 24 Z M 24 23 "/>
</clipPath>
<clipPath id="clip4">
  <path d="M 24 31 L 347.761719 31 L 347.761719 32 L 24 32 Z M 24 31 "/>
</clipPath>
<clipPath id="clip5">
  <path d="M 332 44 L 347.761719 44 L 347.761719 49 L 332 49 Z M 332 44 "/>
</clipPath>
<clipPath id="clip6">
  <path d="M 345 10 L 347.761719 10 L 347.761719 23 L 345 23 Z M 345 10 "/>
</clipPath>
<clipPath id="clip7">
  <path d="M 0 61 L 347.761719 61 L 347.761719 62 L 0 62 Z M 0 61 "/>
</clipPath>
<clipPath id="clip8">
  <path d="M 0 69 L 347.761719 69 L 347.761719 71 L 0 71 Z M 0 69 "/>
</clipPath>
<clipPath id="clip9">
  <path d="M 0 77 L 347.761719 77 L 347.761719 79 L 0 79 Z M 0 77 "/>
</clipPath>
<clipPath id="clip10">
  <path d="M 0 85 L 347.761719 85 L 347.761719 87 L 0 87 Z M 0 85 "/>
</clipPath>
<clipPath id="clip11">
  <path d="M 345 58 L 347.761719 58 L 347.761719 73 L 345 73 Z M 345 58 "/>
</clipPath>
<clipPath id="clip12">
  <path d="M 0 116 L 347.761719 116 L 347.761719 117 L 0 117 Z M 0 116 "/>
</clipPath>
<clipPath id="clip13">
  <path d="M 0 124 L 347.761719 124 L 347.761719 125 L 0 125 Z M 0 124 "/>
</clipPath>
<clipPath id="clip14">
  <path d="M 0 132 L 347.761719 132 L 347.761719 133 L 0 133 Z M 0 132 "/>
</clipPath>
<clipPath id="clip15">
  <path d="M 0 140 L 347.761719 140 L 347.761719 142 L 0 142 Z M 0 140 "/>
</clipPath>
<clipPath id="clip16">
  <path d="M 345 121 L 347.761719 121 L 347.761719 136 L 345 136 Z M 345 121 "/>
</clipPath>
<clipPath id="clip17">
  <path d="M 0 171 L 347.761719 171 L 347.761719 172 L 0 172 Z M 0 171 "/>
</clipPath>
<clipPath id="clip18">
  <path d="M 0 179 L 347.761719 179 L 347.761719 180 L 0 180 Z M 0 179 "/>
</clipPath>
<clipPath id="clip19">
  <path d="M 0 187 L 347.761719 187 L 347.761719 188 L 0 188 Z M 0 187 "/>
</clipPath>
<clipPath id="clip20">
  <path d="M 0 195 L 347.761719 195 L 347.761719 196 L 0 196 Z M 0 195 "/>
</clipPath>
</defs>
<g id="surface1">
<g style="fill:rgb(0%,0%,0%);fill-opacity:1;">
  <use xlink:href="#glyph0-1" x="5.669" y="48.711"/>
</g>
<g clip-path="url(#clip1)" clip-rule="nonzero">
<path style="fill:none;stroke-width:0.388;stroke-linecap:butt;stroke-linejoin:miter;stroke:rgb(0%,0%,0%);stroke-opacity:1;stroke-miterlimit:10;" d="M 0.00153125 -0.0010625 L 322.993719 -0.0010625 " transform="matrix(1,0,0,-1,24.768,6.913)"/>
</g>
<g clip-path="url(#clip2)" clip-rule="nonzero">
<path style="fill:none;stroke-width:0.388;stroke-linecap:butt;stroke-linejoin:miter;stroke:rgb(0%,0%,0%);stroke-opacity:1;stroke-miterlimit:10;" d="M 0.00153125 -0.0006875 L 322.993719 -0.0006875 " transform="matrix(1,0,0,-1,24.768,15.054)"/>
</g>
<g clip-path="url(#clip3)" clip-rule="nonzero">
<path style="fill:none;stroke-width:0.388;stroke-linecap:butt;stroke-linejoin:miter;stroke:rgb(0%,0%,0%);stroke-opacity:1;stroke-miterlimit:10;" d="M 0.00153125 -0.0013125 L 322.993719 -0.0013125 " transform="matrix(1,0,0,-1,24.768,23.194)"/>
</g>
<g clip-path="url(#clip4)" clip-rule="nonzero">
<path style="fill:none;stroke-width:0.388;stroke-linecap:butt;stroke-linejoin:miter;stroke:rgb(0%,0%,0%);stroke-opacity:1;stroke-miterlimit:10;" d="M 0.00153125 -0.0009375 L 322.993719 -0.0009375 " transform="matrix(1,0,0,-1,24.768,31.335)"/>
</g>
<g style="fill:rgb(0%,0%,0%);fill-opacity:1;">
  <use xlink:href="#glyph1-1" x="24.768" y="12.792"/>
</g>
<g style="fill:rgb(0%,0%,0%);fill-opacity:1;">
  <use xlink:href="#glyph2-1" x="33.406" y="48.711"/>
  <use xlink:href="#glyph2-2" x="39.204256" y="48.711"/>
</g>
<g style="fill:rgb(0%,0%,0%);fill-opacity:1;">
  <use xlink:href="#glyph1-2" x="34.16" y="25.003"/>
</g>
<g style="fill:rgb(0%,0%,0%);fill-opacity:1;">
  <use xlink:href="#glyph2-3" x="45.843" y="48.711"/>
</g>
<g style="fill:rgb(0%,0%,0%);fill-opacity:1;">
  <use xlink:href="#glyph2-4" x="48.991194" y="48.711"/>
</g>
<g style="fill:rgb(0%,0%,0%);fill-opacity:1;">
  <use xlink:href="#glyph1-2" x="49.566" y="25.003"/>
</g>
<g style="fill:rgb(0%,0%,0%);fill-opacity:1;">
  <use xlink:href="#glyph2-5" x="62.57" y="48.711"/>
</g>
<g style="fill:rgb(0%,0%,0%);fill-opacity:1;">
  <use xlink:href="#glyph2-4" x="67.760535" y="48.711"/>
  <use xlink:href="#glyph2-6" x="73.200137" y="48.711"/>
  <use xlink:href="#glyph2-7" x="79.207609" y="48.711"/>
</g>
<g style="fill:rgb(0%,0%,0%);fill-opacity:1;">
  <use xlink:href="#glyph1-2" x="68.744" y="25.003"/>
</g>
<g style="fill:rgb(0%,0%,0%);fill-opacity:1;">
  <use xlink:href="#glyph2-8" x="91.282" y="48.711"/>
  <use xlink:href="#glyph2-9" x="97.080256" y="48.711"/>
  <use xlink:href="#glyph2-1" x="102.061576" y="48.711"/>
  <use xlink:href="#glyph2-10" x="107.859833" y="48.711"/>
  <use xlink:href="#glyph2-11" x="113.947006" y="48.711"/>
  <use xlink:href="#glyph2-12" x="118.171165" y="48.711"/>
</g>
<g style="fill:rgb(0%,0%,0%);fill-opacity:1;">
  <use xlink:href="#glyph1-3" x="97.426" y="20.933"/>
</g>
<g style="fill:rgb(0%,0%,0%);fill-opacity:1;">
  <use xlink:href="#glyph2-13" x="128.802" y="48.711"/>
  <use xlink:href="#glyph2-4" x="134.889173" y="48.711"/>
  <use xlink:href="#glyph2-7" x="140.328774" y="48.711"/>
</g>
<g style="fill:rgb(0%,0%,0%);fill-opacity:1;">
  <use xlink:href="#glyph2-10" x="144.114578" y="48.711"/>
  <use xlink:href="#glyph2-12" x="150.201751" y="48.711"/>
</g>
<g style="fill:rgb(0%,0%,0%);fill-opacity:1;">
  <use xlink:href="#glyph1-4" x="135.464" y="16.863"/>
</g>
<g style="fill:rgb(0%,0%,0%);fill-opacity:1;">
  <use xlink:href="#glyph1-5" x="152.288" y="20.933"/>
</g>
<g style="fill:rgb(0%,0%,0%);fill-opacity:1;">
  <use xlink:href="#glyph2-14" x="161.49" y="48.711"/>
</g>
<g style="fill:rgb(0%,0%,0%);fill-opacity:1;">
  <use xlink:href="#glyph1-2" x="161.024" y="25.003"/>
</g>
<g style="fill:rgb(0%,0%,0%);fill-opacity:1;">
  <use xlink:href="#glyph2-15" x="172.987" y="48.711"/>
  <use xlink:href="#glyph2-4" x="177.410412" y="48.711"/>
  <use xlink:href="#glyph2-16" x="182.850014" y="48.711"/>
</g>
<g style="fill:rgb(0%,0%,0%);fill-opacity:1;">
  <use xlink:href="#glyph1-3" x="177.986" y="20.933"/>
</g>
<g style="fill:rgb(0%,0%,0%);fill-opacity:1;">
  <use xlink:href="#glyph2-16" x="191.647" y="48.711"/>
  <use xlink:href="#glyph2-17" x="200.444011" y="48.711"/>
  <use xlink:href="#glyph2-1" x="205.216116" y="48.711"/>
  <use xlink:href="#glyph2-10" x="211.014372" y="48.711"/>
</g>
<g style="fill:rgb(0%,0%,0%);fill-opacity:1;">
  <use xlink:href="#glyph1-6" x="200.685" y="20.933"/>
</g>
<g style="fill:rgb(0%,0%,0%);fill-opacity:1;">
  <use xlink:href="#glyph1-7" x="206.957" y="25.003"/>
</g>
<g style="fill:rgb(0%,0%,0%);fill-opacity:1;">
  <use xlink:href="#glyph1-7" x="213.942" y="33.144"/>
</g>
<g style="fill:rgb(0%,0%,0%);fill-opacity:1;">
  <use xlink:href="#glyph2-16" x="225.785" y="48.711"/>
</g>
<g style="fill:rgb(0%,0%,0%);fill-opacity:1;">
  <use xlink:href="#glyph2-5" x="234.183506" y="48.711"/>
</g>
<g style="fill:rgb(0%,0%,0%);fill-opacity:1;">
  <use xlink:href="#glyph1-3" x="234.808" y="25.003"/>
</g>
<g style="fill:rgb(0%,0%,0%);fill-opacity:1;">
  <use xlink:href="#glyph2-11" x="247.862" y="48.711"/>
  <use xlink:href="#glyph2-18" x="252.086159" y="48.711"/>
  <use xlink:href="#glyph2-19" x="258.073706" y="48.711"/>
  <use xlink:href="#glyph2-2" x="260.972834" y="48.711"/>
</g>
<g style="fill:rgb(0%,0%,0%);fill-opacity:1;">
  <use xlink:href="#glyph1-2" x="257.378" y="20.933"/>
</g>
<g style="fill:rgb(0%,0%,0%);fill-opacity:1;">
  <use xlink:href="#glyph2-7" x="268.552" y="48.711"/>
  <use xlink:href="#glyph2-19" x="272.487243" y="48.711"/>
  <use xlink:href="#glyph2-3" x="275.386371" y="48.711"/>
  <use xlink:href="#glyph2-20" x="278.634192" y="48.711"/>
</g>
<g style="fill:rgb(0%,0%,0%);fill-opacity:1;">
  <use xlink:href="#glyph1-2" x="271.792" y="25.003"/>
</g>
<g style="fill:rgb(0%,0%,0%);fill-opacity:1;">
  <use xlink:href="#glyph3-1" x="291.374" y="48.711"/>
</g>
<g style="fill:rgb(0%,0%,0%);fill-opacity:1;">
  <use xlink:href="#glyph2-21" x="287.887" y="48.711"/>
</g>
<g style="fill:rgb(0%,0%,0%);fill-opacity:1;">
  <use xlink:href="#glyph1-8" x="286.418" y="20.933"/>
</g>
<g style="fill:rgb(0%,0%,0%);fill-opacity:1;">
  <use xlink:href="#glyph1-8" x="290.010181" y="20.933"/>
</g>
<g style="fill:rgb(0%,0%,0%);fill-opacity:1;">
  <use xlink:href="#glyph2-14" x="301.304" y="48.711"/>
  <use xlink:href="#glyph2-1" x="304.66141" y="48.711"/>
</g>
<g style="fill:rgb(0%,0%,0%);fill-opacity:1;">
  <use xlink:href="#glyph1-2" x="300.838" y="25.003"/>
</g>
<g style="fill:rgb(0%,0%,0%);fill-opacity:1;">
  <use xlink:href="#glyph2-3" x="310.46" y="48.711"/>
</g>
<g style="fill:rgb(0%,0%,0%);fill-opacity:1;">
  <use xlink:href="#glyph2-4" x="313.608194" y="48.711"/>
</g>
<g style="fill:rgb(0%,0%,0%);fill-opacity:1;">
  <use xlink:href="#glyph1-2" x="314.183" y="25.003"/>
</g>
<g style="fill:rgb(0%,0%,0%);fill-opacity:1;">
  <use xlink:href="#glyph2-5" x="327.187" y="48.711"/>
</g>
<g clip-path="url(#clip5)" clip-rule="nonzero">
<g style="fill:rgb(0%,0%,0%);fill-opacity:1;">
  <use xlink:href="#glyph2-4" x="332.377535" y="48.711"/>
  <use xlink:href="#glyph2-6" x="337.817137" y="48.711"/>
  <use xlink:href="#glyph2-7" x="343.824609" y="48.711"/>
</g>
</g>
<g style="fill:rgb(0%,0%,0%);fill-opacity:1;">
  <use xlink:href="#glyph1-2" x="333.361" y="25.003"/>
</g>
<g clip-path="url(#clip6)" clip-rule="nonzero">
<g style="fill:rgb(0%,0%,0%);fill-opacity:1;">
  <use xlink:href="#glyph1-9" x="345.848" y="20.933"/>
</g>
</g>
<g clip-path="url(#clip7)" clip-rule="nonzero">
<path style="fill:none;stroke-width:0.388;stroke-linecap:butt;stroke-linejoin:miter;stroke:rgb(0%,0%,0%);stroke-opacity:1;stroke-miterlimit:10;" d="M 0 0.00096875 L 347.761719 0.00096875 " transform="matrix(1,0,0,-1,0,61.708)"/>
</g>
<g clip-path="url(#clip8)" clip-rule="nonzero">
<path style="fill:none;stroke-width:0.388;stroke-linecap:butt;stroke-linejoin:miter;stroke:rgb(0%,0%,0%);stroke-opacity:1;stroke-miterlimit:10;" d="M 0 0.00034375 L 347.761719 0.00034375 " transform="matrix(1,0,0,-1,0,69.848)"/>
</g>
<g clip-path="url(#clip9)" clip-rule="nonzero">
<path style="fill:none;stroke-width:0.388;stroke-linecap:butt;stroke-linejoin:miter;stroke:rgb(0%,0%,0%);stroke-opacity:1;stroke-miterlimit:10;" d="M 0 0.00071875 L 347.761719 0.00071875 " transform="matrix(1,0,0,-1,0,77.989)"/>
</g>
<g clip-path="url(#clip10)" clip-rule="nonzero">
<path style="fill:none;stroke-width:0.388;stroke-linecap:butt;stroke-linejoin:miter;stroke:rgb(0%,0%,0%);stroke-opacity:1;stroke-miterlimit:10;" d="M 0 0.00009375 L 347.761719 0.00009375 " transform="matrix(1,0,0,-1,0,86.129)"/>
</g>
<g style="fill:rgb(0%,0%,0%);fill-opacity:1;">
  <use xlink:href="#glyph1-1" x="0" y="67.587"/>
</g>
<g style="fill:rgb(0%,0%,0%);fill-opacity:1;">
  <use xlink:href="#glyph2-8" x="4.666" y="103.506"/>
  <use xlink:href="#glyph2-9" x="10.464256" y="103.506"/>
  <use xlink:href="#glyph2-1" x="15.445576" y="103.506"/>
  <use xlink:href="#glyph2-10" x="21.243833" y="103.506"/>
  <use xlink:href="#glyph2-11" x="27.331006" y="103.506"/>
  <use xlink:href="#glyph2-20" x="31.555165" y="103.506"/>
  <use xlink:href="#glyph2-20" x="34.045825" y="103.506"/>
  <use xlink:href="#glyph2-20" x="36.536485" y="103.506"/>
</g>
<g style="fill:rgb(0%,0%,0%);fill-opacity:1;">
  <use xlink:href="#glyph1-3" x="10.81" y="75.727"/>
</g>
<g style="fill:rgb(0%,0%,0%);fill-opacity:1;">
  <use xlink:href="#glyph3-2" x="44.619" y="103.506"/>
</g>
<g style="fill:rgb(0%,0%,0%);fill-opacity:1;">
  <use xlink:href="#glyph2-22" x="43.622" y="103.506"/>
</g>
<g style="fill:rgb(0%,0%,0%);fill-opacity:1;">
  <use xlink:href="#glyph1-8" x="40.925" y="75.727"/>
</g>
<g style="fill:rgb(0%,0%,0%);fill-opacity:1;">
  <use xlink:href="#glyph1-8" x="44.517181" y="75.727"/>
</g>
<g style="fill:rgb(0%,0%,0%);fill-opacity:1;">
  <use xlink:href="#glyph2-23" x="55.411" y="103.506"/>
</g>
<g style="fill:rgb(0%,0%,0%);fill-opacity:1;">
  <use xlink:href="#glyph2-4" x="61.10963" y="103.506"/>
  <use xlink:href="#glyph2-6" x="66.549232" y="103.506"/>
</g>
<g style="fill:rgb(0%,0%,0%);fill-opacity:1;">
  <use xlink:href="#glyph1-2" x="61.839" y="71.657"/>
</g>
<g style="fill:rgb(0%,0%,0%);fill-opacity:1;">
  <use xlink:href="#glyph2-8" x="76.362" y="103.506"/>
  <use xlink:href="#glyph2-9" x="82.160256" y="103.506"/>
</g>
<g style="fill:rgb(0%,0%,0%);fill-opacity:1;">
  <use xlink:href="#glyph2-24" x="86.792884" y="103.506"/>
</g>
<g style="fill:rgb(0%,0%,0%);fill-opacity:1;">
  <use xlink:href="#glyph2-17" x="92.02327" y="103.506"/>
</g>
<g style="fill:rgb(0%,0%,0%);fill-opacity:1;">
  <use xlink:href="#glyph1-2" x="82.506" y="71.657"/>
</g>
<g style="fill:rgb(0%,0%,0%);fill-opacity:1;">
  <use xlink:href="#glyph2-7" x="100.601" y="103.506"/>
  <use xlink:href="#glyph2-17" x="104.536243" y="103.506"/>
  <use xlink:href="#glyph2-2" x="109.308347" y="103.506"/>
</g>
<g style="fill:rgb(0%,0%,0%);fill-opacity:1;">
  <use xlink:href="#glyph1-2" x="104.778" y="71.657"/>
</g>
<g style="fill:rgb(0%,0%,0%);fill-opacity:1;">
  <use xlink:href="#glyph2-10" x="112.626" y="103.506"/>
  <use xlink:href="#glyph2-17" x="118.713173" y="103.506"/>
  <use xlink:href="#glyph2-17" x="123.485278" y="103.506"/>
  <use xlink:href="#glyph2-16" x="128.257382" y="103.506"/>
  <use xlink:href="#glyph2-17" x="137.054393" y="103.506"/>
  <use xlink:href="#glyph2-10" x="141.826498" y="103.506"/>
</g>
<g style="fill:rgb(100%,100%,100%);fill-opacity:1;">
  <use xlink:href="#glyph1-10" x="114.958" y="67.587"/>
</g>
<g style="fill:rgb(0%,0%,0%);fill-opacity:1;">
  <use xlink:href="#glyph1-11" x="114.958" y="67.587"/>
</g>
<g style="fill:rgb(0%,0%,0%);fill-opacity:1;">
  <use xlink:href="#glyph1-3" x="121.34" y="71.657"/>
</g>
<g style="fill:rgb(0%,0%,0%);fill-opacity:1;">
  <use xlink:href="#glyph2-6" x="151.719" y="103.506"/>
  <use xlink:href="#glyph2-11" x="157.726472" y="103.506"/>
  <use xlink:href="#glyph2-12" x="161.950631" y="103.506"/>
</g>
<g style="fill:rgb(0%,0%,0%);fill-opacity:1;">
  <use xlink:href="#glyph1-2" x="152.578" y="75.727"/>
</g>
<g style="fill:rgb(0%,0%,0%);fill-opacity:1;">
  <use xlink:href="#glyph1-12" x="165.913003" y="75.727"/>
</g>
<g style="fill:rgb(0%,0%,0%);fill-opacity:1;">
  <use xlink:href="#glyph2-13" x="168.815" y="103.506"/>
  <use xlink:href="#glyph2-4" x="174.902173" y="103.506"/>
  <use xlink:href="#glyph2-7" x="180.341774" y="103.506"/>
</g>
<g style="fill:rgb(0%,0%,0%);fill-opacity:1;">
  <use xlink:href="#glyph2-10" x="184.127578" y="103.506"/>
</g>
<g style="fill:rgb(0%,0%,0%);fill-opacity:1;">
  <use xlink:href="#glyph1-2" x="175.477" y="79.798"/>
</g>
<g style="fill:rgb(0%,0%,0%);fill-opacity:1;">
  <use xlink:href="#glyph2-25" x="194.02" y="103.506"/>
  <use xlink:href="#glyph2-4" x="201.621494" y="103.506"/>
  <use xlink:href="#glyph2-10" x="207.061096" y="103.506"/>
</g>
<g style="fill:rgb(0%,0%,0%);fill-opacity:1;">
  <use xlink:href="#glyph1-3" x="202.196" y="75.727"/>
</g>
<g style="fill:rgb(0%,0%,0%);fill-opacity:1;">
  <use xlink:href="#glyph2-4" x="216.954" y="103.506"/>
  <use xlink:href="#glyph2-26" x="222.393601" y="103.506"/>
</g>
<g style="fill:rgb(0%,0%,0%);fill-opacity:1;">
  <use xlink:href="#glyph1-2" x="217.529" y="71.657"/>
</g>
<g style="fill:rgb(0%,0%,0%);fill-opacity:1;">
  <use xlink:href="#glyph2-3" x="229.517" y="103.506"/>
  <use xlink:href="#glyph2-7" x="232.764821" y="103.506"/>
</g>
<g style="fill:rgb(0%,0%,0%);fill-opacity:1;">
  <use xlink:href="#glyph2-6" x="236.79969" y="103.506"/>
  <use xlink:href="#glyph2-3" x="242.807162" y="103.506"/>
</g>
<g style="fill:rgb(0%,0%,0%);fill-opacity:1;">
  <use xlink:href="#glyph2-8" x="246.204422" y="103.506"/>
  <use xlink:href="#glyph2-20" x="252.002678" y="103.506"/>
</g>
<g style="fill:rgb(0%,0%,0%);fill-opacity:1;">
  <use xlink:href="#glyph1-2" x="237.658" y="75.727"/>
</g>
<g style="fill:rgb(0%,0%,0%);fill-opacity:1;">
  <use xlink:href="#glyph3-1" x="262.576" y="103.506"/>
</g>
<g style="fill:rgb(0%,0%,0%);fill-opacity:1;">
  <use xlink:href="#glyph2-21" x="259.089" y="103.506"/>
</g>
<g style="fill:rgb(0%,0%,0%);fill-opacity:1;">
  <use xlink:href="#glyph1-8" x="256.123" y="75.727"/>
</g>
<g style="fill:rgb(0%,0%,0%);fill-opacity:1;">
  <use xlink:href="#glyph1-8" x="259.715181" y="75.727"/>
</g>
<g style="fill:rgb(0%,0%,0%);fill-opacity:1;">
  <use xlink:href="#glyph2-14" x="270.339" y="103.506"/>
</g>
<g style="fill:rgb(0%,0%,0%);fill-opacity:1;">
  <use xlink:href="#glyph1-2" x="269.873" y="79.798"/>
</g>
<g style="fill:rgb(0%,0%,0%);fill-opacity:1;">
  <use xlink:href="#glyph2-15" x="277.502" y="103.506"/>
  <use xlink:href="#glyph2-4" x="281.925412" y="103.506"/>
  <use xlink:href="#glyph2-16" x="287.365014" y="103.506"/>
</g>
<g style="fill:rgb(0%,0%,0%);fill-opacity:1;">
  <use xlink:href="#glyph1-3" x="282.5" y="75.727"/>
</g>
<g style="fill:rgb(0%,0%,0%);fill-opacity:1;">
  <use xlink:href="#glyph2-16" x="296.162" y="103.506"/>
  <use xlink:href="#glyph2-17" x="304.959011" y="103.506"/>
  <use xlink:href="#glyph2-1" x="309.731116" y="103.506"/>
  <use xlink:href="#glyph2-10" x="315.529372" y="103.506"/>
  <use xlink:href="#glyph2-20" x="321.616545" y="103.506"/>
  <use xlink:href="#glyph2-20" x="324.107205" y="103.506"/>
  <use xlink:href="#glyph2-20" x="326.597865" y="103.506"/>
</g>
<g style="fill:rgb(0%,0%,0%);fill-opacity:1;">
  <use xlink:href="#glyph1-6" x="305.2" y="75.727"/>
</g>
<g style="fill:rgb(0%,0%,0%);fill-opacity:1;">
  <use xlink:href="#glyph1-7" x="310.896" y="79.798"/>
</g>
<g style="fill:rgb(0%,0%,0%);fill-opacity:1;">
  <use xlink:href="#glyph1-7" x="317.804" y="87.938"/>
</g>
<g style="fill:rgb(0%,0%,0%);fill-opacity:1;">
  <use xlink:href="#glyph3-2" x="334.57" y="103.506"/>
</g>
<g style="fill:rgb(0%,0%,0%);fill-opacity:1;">
  <use xlink:href="#glyph2-22" x="333.574" y="103.506"/>
</g>
<g style="fill:rgb(0%,0%,0%);fill-opacity:1;">
  <use xlink:href="#glyph1-8" x="335.271" y="75.727"/>
</g>
<g style="fill:rgb(0%,0%,0%);fill-opacity:1;">
  <use xlink:href="#glyph1-8" x="338.863181" y="75.727"/>
</g>
<g clip-path="url(#clip11)" clip-rule="nonzero">
<g style="fill:rgb(0%,0%,0%);fill-opacity:1;">
  <use xlink:href="#glyph1-13" x="345.874" y="71.657"/>
</g>
</g>
<g clip-path="url(#clip12)" clip-rule="nonzero">
<path style="fill:none;stroke-width:0.388;stroke-linecap:butt;stroke-linejoin:miter;stroke:rgb(0%,0%,0%);stroke-opacity:1;stroke-miterlimit:10;" d="M 0 -0.00190625 L 347.761719 -0.00190625 " transform="matrix(1,0,0,-1,0,116.502)"/>
</g>
<g clip-path="url(#clip13)" clip-rule="nonzero">
<path style="fill:none;stroke-width:0.388;stroke-linecap:butt;stroke-linejoin:miter;stroke:rgb(0%,0%,0%);stroke-opacity:1;stroke-miterlimit:10;" d="M 0 -0.00153125 L 347.761719 -0.00153125 " transform="matrix(1,0,0,-1,0,124.643)"/>
</g>
<g clip-path="url(#clip14)" clip-rule="nonzero">
<path style="fill:none;stroke-width:0.388;stroke-linecap:butt;stroke-linejoin:miter;stroke:rgb(0%,0%,0%);stroke-opacity:1;stroke-miterlimit:10;" d="M 0 0.00175 L 347.761719 0.00175 " transform="matrix(1,0,0,-1,0,132.783)"/>
</g>
<g clip-path="url(#clip15)" clip-rule="nonzero">
<path style="fill:none;stroke-width:0.388;stroke-linecap:butt;stroke-linejoin:miter;stroke:rgb(0%,0%,0%);stroke-opacity:1;stroke-miterlimit:10;" d="M 0 -0.00178125 L 347.761719 -0.00178125 " transform="matrix(1,0,0,-1,0,140.924)"/>
</g>
<g style="fill:rgb(0%,0%,0%);fill-opacity:1;">
  <use xlink:href="#glyph1-1" x="0" y="122.381"/>
</g>
<g style="fill:rgb(0%,0%,0%);fill-opacity:1;">
  <use xlink:href="#glyph2-25" x="2.432" y="158.3"/>
  <use xlink:href="#glyph2-27" x="10.033494" y="158.3"/>
  <use xlink:href="#glyph2-4" x="12.932623" y="158.3"/>
  <use xlink:href="#glyph2-2" x="18.372224" y="158.3"/>
</g>
<g style="fill:rgb(100%,100%,100%);fill-opacity:1;">
  <use xlink:href="#glyph1-10" x="7.125" y="122.381"/>
</g>
<g style="fill:rgb(0%,0%,0%);fill-opacity:1;">
  <use xlink:href="#glyph1-11" x="7.125" y="122.381"/>
</g>
<g style="fill:rgb(0%,0%,0%);fill-opacity:1;">
  <use xlink:href="#glyph1-3" x="13.507" y="126.452"/>
</g>
<g style="fill:rgb(0%,0%,0%);fill-opacity:1;">
  <use xlink:href="#glyph2-7" x="22.78" y="158.3"/>
</g>
<g style="fill:rgb(0%,0%,0%);fill-opacity:1;">
  <use xlink:href="#glyph2-5" x="26.864682" y="158.3"/>
</g>
<g style="fill:rgb(0%,0%,0%);fill-opacity:1;">
  <use xlink:href="#glyph1-2" x="27.489" y="126.452"/>
</g>
<g style="fill:rgb(0%,0%,0%);fill-opacity:1;">
  <use xlink:href="#glyph2-28" x="38.313" y="158.3"/>
  <use xlink:href="#glyph2-17" x="43.82234" y="158.3"/>
</g>
<g style="fill:rgb(0%,0%,0%);fill-opacity:1;">
  <use xlink:href="#glyph1-2" x="44.064" y="126.452"/>
</g>
<g style="fill:rgb(0%,0%,0%);fill-opacity:1;">
  <use xlink:href="#glyph2-3" x="54.504" y="158.3"/>
</g>
<g style="fill:rgb(0%,0%,0%);fill-opacity:1;">
  <use xlink:href="#glyph2-4" x="57.652194" y="158.3"/>
</g>
<g style="fill:rgb(0%,0%,0%);fill-opacity:1;">
  <use xlink:href="#glyph1-2" x="58.227" y="126.452"/>
</g>
<g style="fill:rgb(0%,0%,0%);fill-opacity:1;">
  <use xlink:href="#glyph2-3" x="69.001" y="158.3"/>
</g>
<g style="fill:rgb(0%,0%,0%);fill-opacity:1;">
  <use xlink:href="#glyph2-8" x="72.39826" y="158.3"/>
  <use xlink:href="#glyph2-17" x="78.196517" y="158.3"/>
</g>
<g style="fill:rgb(0%,0%,0%);fill-opacity:1;">
  <use xlink:href="#glyph1-2" x="78.437" y="126.452"/>
</g>
<g style="fill:rgb(0%,0%,0%);fill-opacity:1;">
  <use xlink:href="#glyph2-29" x="88.878" y="158.3"/>
</g>
<g style="fill:rgb(0%,0%,0%);fill-opacity:1;">
  <use xlink:href="#glyph2-9" x="94.018722" y="158.3"/>
</g>
<g style="fill:rgb(0%,0%,0%);fill-opacity:1;">
  <use xlink:href="#glyph1-2" x="94.364" y="126.452"/>
</g>
<g style="fill:rgb(0%,0%,0%);fill-opacity:1;">
  <use xlink:href="#glyph2-3" x="99" y="158.3"/>
</g>
<g style="fill:rgb(0%,0%,0%);fill-opacity:1;">
  <use xlink:href="#glyph2-8" x="102.39726" y="158.3"/>
  <use xlink:href="#glyph2-17" x="108.195517" y="158.3"/>
  <use xlink:href="#glyph2-7" x="112.967621" y="158.3"/>
  <use xlink:href="#glyph2-12" x="116.902864" y="158.3"/>
</g>
<g style="fill:rgb(0%,0%,0%);fill-opacity:1;">
  <use xlink:href="#glyph1-2" x="108.436" y="126.452"/>
</g>
<g style="fill:rgb(0%,0%,0%);fill-opacity:1;">
  <use xlink:href="#glyph2-9" x="125.302" y="158.3"/>
  <use xlink:href="#glyph2-1" x="130.28332" y="158.3"/>
  <use xlink:href="#glyph2-10" x="136.081576" y="158.3"/>
</g>
<g style="fill:rgb(0%,0%,0%);fill-opacity:1;">
  <use xlink:href="#glyph1-2" x="125.648" y="126.452"/>
</g>
<g style="fill:rgb(0%,0%,0%);fill-opacity:1;">
  <use xlink:href="#glyph2-3" x="148.078" y="158.3"/>
</g>
<g style="fill:rgb(0%,0%,0%);fill-opacity:1;">
  <use xlink:href="#glyph2-4" x="151.226194" y="158.3"/>
</g>
<g style="fill:rgb(0%,0%,0%);fill-opacity:1;">
  <use xlink:href="#glyph1-3" x="151.801" y="130.522"/>
</g>
<g style="fill:rgb(0%,0%,0%);fill-opacity:1;">
  <use xlink:href="#glyph2-3" x="162.575" y="158.3"/>
</g>
<g style="fill:rgb(0%,0%,0%);fill-opacity:1;">
  <use xlink:href="#glyph2-8" x="165.97226" y="158.3"/>
  <use xlink:href="#glyph2-17" x="171.770517" y="158.3"/>
</g>
<g style="fill:rgb(0%,0%,0%);fill-opacity:1;">
  <use xlink:href="#glyph1-2" x="172.012" y="130.522"/>
</g>
<g style="fill:rgb(0%,0%,0%);fill-opacity:1;">
  <use xlink:href="#glyph2-30" x="182.452" y="158.3"/>
  <use xlink:href="#glyph2-4" x="187.682386" y="158.3"/>
  <use xlink:href="#glyph2-1" x="193.121987" y="158.3"/>
  <use xlink:href="#glyph2-12" x="198.920244" y="158.3"/>
</g>
<g style="fill:rgb(0%,0%,0%);fill-opacity:1;">
  <use xlink:href="#glyph1-2" x="188.258" y="130.522"/>
</g>
<g style="fill:rgb(0%,0%,0%);fill-opacity:1;">
  <use xlink:href="#glyph1-12" x="200.145794" y="130.522"/>
</g>
<g style="fill:rgb(0%,0%,0%);fill-opacity:1;">
  <use xlink:href="#glyph2-9" x="207.887" y="158.3"/>
  <use xlink:href="#glyph2-1" x="212.86832" y="158.3"/>
  <use xlink:href="#glyph2-10" x="218.666576" y="158.3"/>
</g>
<g style="fill:rgb(0%,0%,0%);fill-opacity:1;">
  <use xlink:href="#glyph1-2" x="208.233" y="130.522"/>
</g>
<g style="fill:rgb(0%,0%,0%);fill-opacity:1;">
  <use xlink:href="#glyph2-3" x="230.663" y="158.3"/>
</g>
<g style="fill:rgb(0%,0%,0%);fill-opacity:1;">
  <use xlink:href="#glyph2-4" x="233.811194" y="158.3"/>
</g>
<g style="fill:rgb(0%,0%,0%);fill-opacity:1;">
  <use xlink:href="#glyph1-2" x="234.386" y="130.522"/>
</g>
<g style="fill:rgb(0%,0%,0%);fill-opacity:1;">
  <use xlink:href="#glyph2-3" x="245.16" y="158.3"/>
</g>
<g style="fill:rgb(0%,0%,0%);fill-opacity:1;">
  <use xlink:href="#glyph2-8" x="248.55726" y="158.3"/>
  <use xlink:href="#glyph2-17" x="254.355517" y="158.3"/>
</g>
<g style="fill:rgb(0%,0%,0%);fill-opacity:1;">
  <use xlink:href="#glyph1-2" x="254.597" y="126.452"/>
</g>
<g style="fill:rgb(0%,0%,0%);fill-opacity:1;">
  <use xlink:href="#glyph2-31" x="265.037" y="158.3"/>
  <use xlink:href="#glyph2-4" x="273.325916" y="158.3"/>
  <use xlink:href="#glyph2-2" x="278.765518" y="158.3"/>
</g>
<g style="fill:rgb(0%,0%,0%);fill-opacity:1;">
  <use xlink:href="#glyph1-14" x="271.756" y="130.522"/>
</g>
<g style="fill:rgb(0%,0%,0%);fill-opacity:1;">
  <use xlink:href="#glyph2-27" x="284.955" y="158.3"/>
</g>
<g style="fill:rgb(0%,0%,0%);fill-opacity:1;">
  <use xlink:href="#glyph2-5" x="287.605062" y="158.3"/>
</g>
<g style="fill:rgb(0%,0%,0%);fill-opacity:1;">
  <use xlink:href="#glyph1-2" x="288.229" y="130.522"/>
</g>
<g style="fill:rgb(0%,0%,0%);fill-opacity:1;">
  <use xlink:href="#glyph2-30" x="299.053" y="158.3"/>
  <use xlink:href="#glyph2-18" x="304.283386" y="158.3"/>
  <use xlink:href="#glyph2-19" x="310.270933" y="158.3"/>
  <use xlink:href="#glyph2-2" x="313.170061" y="158.3"/>
</g>
<g style="fill:rgb(0%,0%,0%);fill-opacity:1;">
  <use xlink:href="#glyph1-3" x="309.576" y="130.522"/>
</g>
<g style="fill:rgb(0%,0%,0%);fill-opacity:1;">
  <use xlink:href="#glyph2-7" x="318.52" y="158.3"/>
  <use xlink:href="#glyph2-19" x="322.455243" y="158.3"/>
  <use xlink:href="#glyph2-3" x="325.354371" y="158.3"/>
  <use xlink:href="#glyph2-20" x="328.602192" y="158.3"/>
</g>
<g style="fill:rgb(0%,0%,0%);fill-opacity:1;">
  <use xlink:href="#glyph1-2" x="321.759" y="126.452"/>
</g>
<g style="fill:rgb(0%,0%,0%);fill-opacity:1;">
  <use xlink:href="#glyph3-1" x="340.227" y="158.3"/>
</g>
<g style="fill:rgb(0%,0%,0%);fill-opacity:1;">
  <use xlink:href="#glyph2-21" x="336.74" y="158.3"/>
</g>
<g style="fill:rgb(0%,0%,0%);fill-opacity:1;">
  <use xlink:href="#glyph1-8" x="335.271" y="130.522"/>
</g>
<g style="fill:rgb(0%,0%,0%);fill-opacity:1;">
  <use xlink:href="#glyph1-8" x="338.863181" y="130.522"/>
</g>
<g clip-path="url(#clip16)" clip-rule="nonzero">
<g style="fill:rgb(0%,0%,0%);fill-opacity:1;">
  <use xlink:href="#glyph1-13" x="345.874" y="134.592"/>
</g>
</g>
<g clip-path="url(#clip17)" clip-rule="nonzero">
<path style="fill:none;stroke-width:0.388;stroke-linecap:butt;stroke-linejoin:miter;stroke:rgb(0%,0%,0%);stroke-opacity:1;stroke-miterlimit:10;" d="M 0 0.000125 L 347.761719 0.000125 " transform="matrix(1,0,0,-1,0,171.297)"/>
</g>
<g clip-path="url(#clip18)" clip-rule="nonzero">
<path style="fill:none;stroke-width:0.388;stroke-linecap:butt;stroke-linejoin:miter;stroke:rgb(0%,0%,0%);stroke-opacity:1;stroke-miterlimit:10;" d="M 0 -0.0005 L 347.761719 -0.0005 " transform="matrix(1,0,0,-1,0,179.437)"/>
</g>
<g clip-path="url(#clip19)" clip-rule="nonzero">
<path style="fill:none;stroke-width:0.388;stroke-linecap:butt;stroke-linejoin:miter;stroke:rgb(0%,0%,0%);stroke-opacity:1;stroke-miterlimit:10;" d="M 0 -0.000125 L 347.761719 -0.000125 " transform="matrix(1,0,0,-1,0,187.578)"/>
</g>
<g clip-path="url(#clip20)" clip-rule="nonzero">
<path style="fill:none;stroke-width:0.388;stroke-linecap:butt;stroke-linejoin:miter;stroke:rgb(0%,0%,0%);stroke-opacity:1;stroke-miterlimit:10;" d="M 0 -0.00075 L 347.761719 -0.00075 " transform="matrix(1,0,0,-1,0,195.718)"/>
</g>
<g style="fill:rgb(0%,0%,0%);fill-opacity:1;">
  <use xlink:href="#glyph1-1" x="0" y="177.176"/>
</g>
<g style="fill:rgb(0%,0%,0%);fill-opacity:1;">
  <use xlink:href="#glyph2-14" x="11.276" y="213.095"/>
  <use xlink:href="#glyph2-1" x="14.63341" y="213.095"/>
</g>
<g style="fill:rgb(0%,0%,0%);fill-opacity:1;">
  <use xlink:href="#glyph1-2" x="10.81" y="189.387"/>
</g>
<g style="fill:rgb(0%,0%,0%);fill-opacity:1;">
  <use xlink:href="#glyph2-3" x="20.431" y="213.095"/>
</g>
<g style="fill:rgb(0%,0%,0%);fill-opacity:1;">
  <use xlink:href="#glyph2-4" x="23.579194" y="213.095"/>
</g>
<g style="fill:rgb(0%,0%,0%);fill-opacity:1;">
  <use xlink:href="#glyph1-2" x="24.154" y="189.387"/>
</g>
<g style="fill:rgb(0%,0%,0%);fill-opacity:1;">
  <use xlink:href="#glyph2-5" x="33.838" y="213.095"/>
</g>
<g style="fill:rgb(0%,0%,0%);fill-opacity:1;">
  <use xlink:href="#glyph2-4" x="39.028535" y="213.095"/>
  <use xlink:href="#glyph2-6" x="44.468137" y="213.095"/>
  <use xlink:href="#glyph2-7" x="50.475609" y="213.095"/>
</g>
<g style="fill:rgb(0%,0%,0%);fill-opacity:1;">
  <use xlink:href="#glyph1-2" x="40.012" y="189.387"/>
</g>
<g style="fill:rgb(0%,0%,0%);fill-opacity:1;">
  <use xlink:href="#glyph2-8" x="59.23" y="213.095"/>
  <use xlink:href="#glyph2-9" x="65.028256" y="213.095"/>
  <use xlink:href="#glyph2-1" x="70.009576" y="213.095"/>
  <use xlink:href="#glyph2-10" x="75.807833" y="213.095"/>
  <use xlink:href="#glyph2-11" x="81.895006" y="213.095"/>
  <use xlink:href="#glyph2-20" x="86.119165" y="213.095"/>
  <use xlink:href="#glyph2-20" x="88.609825" y="213.095"/>
  <use xlink:href="#glyph2-20" x="91.100485" y="213.095"/>
</g>
<g style="fill:rgb(0%,0%,0%);fill-opacity:1;">
  <use xlink:href="#glyph1-3" x="65.374" y="185.316"/>
</g>
<g style="fill:rgb(0%,0%,0%);fill-opacity:1;">
  <use xlink:href="#glyph1-8" x="82.275342" y="185.316"/>
</g>
<g style="fill:rgb(0%,0%,0%);fill-opacity:1;">
  <use xlink:href="#glyph1-8" x="85.867523" y="185.316"/>
</g>
</g>
</svg>
