%!PS-Adobe-2.0 EPSF-2.0
%%Creator: LilyPond 2.18.2
%%BoundingBox: -9 -235 336 0
%%Orientation: Portrait
%%DocumentSuppliedResources: font Emmentaler-11
%%DocumentSuppliedResources: font Emmentaler-18
%%DocumentSuppliedResources: font TeXGyrePagella-Regular
%%EndComments
%%BeginProlog
/lilypond-datadir where {pop} {userdict /lilypond-datadir (/usr/share/lilypond/2.18.2) put } ifelse
%%BeginFont: Emmentaler-11
lilypond-datadir (/fonts/otf/emmentaler-11.otf) concatstrings (r) file .loadfont
%%EndFont

%%BeginFont: Emmentaler-11
lilypond-datadir (/fonts/otf/emmentaler-11.otf) concatstrings (r) file .loadfont
%%EndFont

%%BeginFont: Emmentaler-18
lilypond-datadir (/fonts/otf/emmentaler-18.otf) concatstrings (r) file .loadfont
%%EndFont

%%BeginFont: TeXGyrePagella-Regular
(/usr/share/texmf/fonts/opentype/public/tex-gyre/texgyrepagella-regular.otf) (r) file .loadfont
%%EndFont

/magfontemmentaler-18mDWo { /Emmentaler-18 6.3263 output-scale div selectfont } bind def
/magfontemmentaler-11mZGo { /Emmentaler-11 1.2553 output-scale div selectfont } bind def
/magfontemmentaler-11mDWo { /Emmentaler-11 3.9853 output-scale div selectfont } bind def
/lily-output-units 2.83464566929134 def %% millimeter
/staff-line-thickness 0.1 def
/line-width 67.3237795275591 def
/paper-size (a4) def
/staff-height 4.0 def
/output-scale 1.75729901757299 def
/page-height 169.00937007874 def
/page-width 119.50157480315 def
%%BeginResource: procset (music-drawing-routines.ps) 1 0
%!PS-Adobe-2.0
%
% Functions for direct and embedded PostScript

% Careful with double % as comment prefix.
% Any %%X comment is interpreted as DSC comments.

% TODO: use dicts or prefixes to prevent namespace pollution.

/pdfmark where
{pop} {userdict /pdfmark /cleartomark load put} ifelse


% llx lly urx ury URI
/mark_URI
{
    /uri exch def
    /ury exch def
    /urx exch def
    /lly exch def
    /llx exch def
    [
	/Rect [ llx lly urx ury ]
	
	/Border [ 0 0 0 ]

        /Action
	    <<
		/Subtype /URI
		/URI uri
	    >>
        /Subtype /Link
    /ANN
    pdfmark
}
bind def

% llx lly urx ury page
/mark_page_link
{
    /page exch def
    /ury exch def
    /urx exch def
    /lly exch def
    /llx exch def
    [
        /Rect [ llx lly urx ury ]
        /Border [ 0 0 0 ]
        /Page page
        /Subtype /Link
    /ANN
    pdfmark
}
bind def

% from adobe tech note 5002.
/BeginEPSF { %def
    /b4_Inc_state save def % Save state for cleanup
    /dict_count countdictstack def % Count objects on dict stack
    /op_count count 1 sub def % Count objects on operand stack
    userdict begin % Push userdict on dict stack
    /showpage { } def % Redefine showpage, { } = null proc
    0 setgray 0 setlinecap % Prepare graphics state
    1 setlinewidth 0 setlinejoin
    10 setmiterlimit [ ] 0 setdash newpath
    false setoverprint
} bind def

/EndEPSF { %def
  count op_count sub {pop} repeat % Clean up stacks
  countdictstack dict_count sub {end} repeat
  b4_Inc_state restore
} bind def

/stroke_and_fill? {
    {
	gsave
	    false setstrokeadjust
	    stroke
	grestore
	fill
    }
    {
	stroke
    }
    ifelse
} bind def

/vector_add { % x1 y1 x2 y2 vector_add x1+x2 y1+y2
	exch
	4 1 roll
	add
	3 1 roll
	add
	exch
} bind def

/draw_round_box % width height x y blot
{
    0 max setlinewidth
    matrix currentmatrix 5 1 roll
    currentpoint translate newpath translate
    2 copy 0 min exch 0 min exch translate
    abs exch abs exch
    currentlinewidth 0 eq
    { % straight corners
	2 copy 2 mul gt
	{ % horizontal
	    0 1 index 2 div moveto
	    setlinewidth
	    0 rlineto
	    0 setlinecap
	    stroke
	}
	{
	    2 copy exch 2 mul gt
	    { % vertical
		1 index 2 div 0 moveto
		exch setlinewidth
		0 exch rlineto
		0 setlinecap
		stroke
	    }
	    {
		0 0 4 2 roll rectfill
	    }
	    ifelse
	}
	ifelse
    }
    { % rounded corners
	2 copy 0 eq exch 0 eq or
	{ % line shape
	    0 0 moveto
	    rlineto
	    1 setlinecap
	    stroke
	    0 setlinecap
	}
	{ % full shape
	    currentstrokeadjust {
		currentlinewidth 2 div
		0 0 2 index 180 270 arc
		2 index 0 2 index 270 360 arc
		3 copy 0 90 arc
		0 2 index 3 -1 roll 90 180 arc
		closepath
		2 copy 2 mul gt
		{ % horizontal
		    2 copy add currentlinewidth add 10 add % large enough
		    0 1 index neg moveto
		    2 index 1 index neg lineto
		    2 index 1 index lineto
		    0 exch lineto closepath
		    gsave clip newpath
		    0 1 index 2 div moveto
		    currentlinewidth add setlinewidth
		    0 rlineto
		    2 setlinecap
		    stroke
		    grestore
		}
		{
		    2 copy exch 2 mul gt
		    { % vertical
			2 copy add currentlinewidth add 10 add % large enough
			dup neg 0 moveto
			dup 0 lineto
			dup 2 index lineto
			neg 1 index lineto closepath
			gsave clip newpath
			1 index 2 div 0 moveto
			exch currentlinewidth add setlinewidth
			0 exch rlineto
			2 setlinecap
			stroke
			grestore
		    }
		    {
			pop pop
			fill
		    }
		    ifelse
		}
		ifelse
		newpath
	    }
	    {
		1 setlinejoin
		0 0 4 2 roll 4 copy rectstroke rectfill
	    }
	    ifelse
	}
	ifelse
    }
    ifelse
    setmatrix
} bind def

/draw_polygon % fill? x(n) y(n) x(n-1) y(n-1) ... x(0) y(0) n blot
{
	setlinewidth %set to blot

	0 setlinecap
	1 setlinejoin

	3 1 roll
	/polygon_x
	currentpoint
	/polygon_y exch def
	def
	rmoveto % x(0) y(0)
	{ polygon_x polygon_y vector_add lineto } repeat % n times
	closepath
	stroke_and_fill?
} bind def

/draw_circle % filled? radius thickness draw_circle
{
	setlinewidth	% f? r
	currentpoint	% f? r x0 y0
	3 2 roll	% f? x0 y0 r
	dup 0 rmoveto
	0 360 arc closepath
	stroke_and_fill?
} bind def

/draw_ellipse % filled? x-radius y-radius thickness draw_ellipse
{
  setlinewidth % f? x-r y-r
  /savematrix matrix currentmatrix def
  scale % f?
  currentpoint
  1 0 rmoveto
  1 0 360  arc closepath
  savematrix setmatrix
  stroke_and_fill?
} bind def

/draw_partial_ellipse % filled connect x-radius y-radius startangle endangle thickness draw_partial_ellipse
% Note that filled is not boolean to permit for different graylevels (ie for trill keys)
{
  gsave
  currentpoint translate
  /thickness exch def
  /endangle exch def
  /startangle exch def
  /y_radius exch def
  /x_radius exch def
  /endrad x_radius y_radius mul
    x_radius x_radius mul
    endangle cos endangle cos mul mul
    y_radius y_radius mul
    endangle sin endangle sin mul mul add sqrt div def
  /endangle endangle sin endrad mul y_radius div
    endangle cos endrad mul x_radius div atan def
  /startrad x_radius y_radius mul
    x_radius x_radius mul
      startangle cos startangle cos mul mul
    y_radius y_radius mul
      startangle sin startangle sin mul mul add sqrt div def
  /startangle startangle sin startrad mul y_radius div
    startangle cos startrad mul x_radius div atan def
  /connect exch def
  /filled exch def
  /savematrix matrix currentmatrix def
  thickness setlinewidth
  x_radius y_radius scale
  startangle cos startangle sin moveto
  0 0 1 startangle
    startangle endangle eq { endangle 360 add } { endangle } ifelse
    arc
  connect {
    startangle cos startangle sin moveto endangle cos endangle sin lineto }
    if
  savematrix setmatrix filled stroke_and_fill?
  grestore
} bind def

/draw_line % dx dy x1 y1 thickness draw_line
{
	setlinewidth % dx dy x1 y1
	1 setlinecap
	rmoveto % dx dy
	rlineto
	stroke
} bind def

/draw_dashed_line % dx dy thickness dashpattern offset draw_dashed_line
{
	1 setlinecap
	setdash % dx dy thickness
	setlinewidth %dx dy
	rlineto
	stroke
	[] 0 setdash % reset dash pattern
} bind def

/print_glyphs % w dx dy glyph print_glyphs
{
	{
		currentpoint %w dx dy glyph x0 y0
		5 2 roll %w x0 y0 dx dy glyph
		3 1 roll %w x0 y0 glyph dx dy
		rmoveto %w x0 y0 glyph
		glyphshow %w x0 y0
		moveto %w
		0 rmoveto
	}repeat
}bind def
%end music-drawing-routines.ps

%%EndResource
%%BeginResource: procset (lilyponddefs.ps) 1 0
%!PS-Adobe-2.0: lilyponddefs.ps
%
% Functions for direct PostScript output

% /setgray { 1 add } bind def

/set-ps-scale-to-lily-scale {
	lily-output-units output-scale mul dup scale
} bind def


/init-paper {
	gsave
	clippath pathbbox newpath
	/paper-height exch def
	/paper-width exch def pop pop pop
	% FIXME
	/top-margin 2 def
	paper-width line-width sub 2 div /left-margin exch def
	grestore
} bind def

/init-lilypond-parameters {
	staff-line-thickness setlinewidth
	staff-height init-paper
} bind def


% end lilyponddefs.ps

%%EndResource
%%EndProlog
%%BeginSetup
init-lilypond-parameters
%%EndSetup

/mark_page_link { pop pop pop pop pop } bind def
gsave set-ps-scale-to-lily-scale
0.0000 -6.5097 moveto 67.2238 0.0000 0.0500 0.0000 0.1000 draw_line
0.0000 -5.5097 moveto 67.2238 0.0000 0.0500 0.0000 0.1000 draw_line
0.0000 -4.5097 moveto 67.2238 0.0000 0.0500 0.0000 0.1000 draw_line
0.0000 -3.5097 moveto 67.2238 0.0000 0.0500 0.0000 0.1000 draw_line
0.0000 -2.5097 moveto 67.2238 0.0000 0.0500 0.0000 0.1000 draw_line
0.0000 -7.5097 moveto 1.5761 0.0000 10.4501 0.0000 0.2000 draw_round_box
0.0000 -7.5097 moveto 1.5761 0.0000 17.1372 0.0000 0.2000 draw_round_box
0.0000 -7.5097 moveto 1.5761 0.0000 21.2028 0.0000 0.2000 draw_round_box
0.0000 -7.5097 moveto 1.5761 0.0000 25.9428 0.0000 0.2000 draw_round_box
0.0000 -7.5097 moveto 1.5761 0.0000 29.8122 0.0000 0.2000 draw_round_box
0.0000 -7.5097 moveto 1.6821 0.0000 36.1632 0.0000 0.2000 draw_round_box
0.0000 -7.5097 moveto 1.5761 0.0000 44.8873 0.0000 0.2000 draw_round_box
0.0000 -7.5097 moveto 1.5761 0.0000 50.4629 0.0000 0.2000 draw_round_box
0.0000 -7.5097 moveto 1.5761 0.0000 54.5286 0.0000 0.2000 draw_round_box
0.0000 -7.5097 moveto 1.5761 0.0000 59.2686 0.0000 0.2000 draw_round_box
0.0000 -7.5097 moveto 1.5761 0.0000 63.1380 0.0000 0.2000 draw_round_box
49.3731 -4.5097 moveto 0.1900 4.0000 0.0000 -2.0000 0.0000 draw_round_box
48.8831 -4.5097 moveto 0.1900 4.0000 0.0000 -2.0000 0.0000 draw_round_box
34.8223 -4.5097 moveto 0.1900 4.0000 0.0000 -2.0000 0.0000 draw_round_box
67.1338 -4.5097 moveto 0.1900 4.0000 0.0000 -2.0000 0.0000 draw_round_box
15.8359 -4.0097 moveto magfontemmentaler-18mDWo /dots.dot glyphshow 
15.8359 -5.0097 moveto magfontemmentaler-18mDWo /dots.dot glyphshow 
15.3459 -4.5097 moveto 0.1900 4.0000 0.0000 -2.0000 0.0000 draw_round_box
14.4459 -4.5097 moveto 0.6000 4.0000 0.0000 -2.0000 0.0000 draw_round_box
54.7246 -7.5097 moveto magfontemmentaler-18mDWo /noteheads.s2 glyphshow 
53.3193 -10.1417 moveto /TeXGyrePagella-Regular 3.90625000 output-scale div selectfont
1.9462 0.0000 0.0000 /m
1.0584 0.0000 0.0000 /e
0.9902 0.0000 0.0000 /c
3 print_glyphs
55.8437 -4.5097 moveto 0.0500 3.2570 -0.0250 -2.7970 0.0800 draw_round_box
44.2584 -10.1417 moveto /TeXGyrePagella-Regular 3.90625000 output-scale div selectfont
1.1267 0.0000 0.0000 /a
1.7072 0.0000 0.0000 /D
2 print_glyphs
41.7911 -4.5097 moveto magfontemmentaler-18mDWo /rests.2 glyphshow 
45.0833 -7.5097 moveto magfontemmentaler-18mDWo /noteheads.s2 glyphshow 
51.7780 -4.5097 moveto 0.0500 3.2570 -0.0250 -2.7970 0.0800 draw_round_box
43.3877 -12.9417 moveto /TeXGyrePagella-Regular 3.90625000 output-scale div selectfont
1.0584 0.0000 0.0000 /e
1.1609 0.0000 0.0000 /v
0.6487 0.0000 0.0000 /i
1.7072 0.0000 0.0000 /G
4 print_glyphs
46.2024 -4.5097 moveto 0.0500 3.2570 -0.0250 -2.7970 0.0800 draw_round_box
50.6590 -7.5097 moveto magfontemmentaler-18mDWo /noteheads.s2 glyphshow 
50.0218 -10.1417 moveto /TeXGyrePagella-Regular 3.90625000 output-scale div selectfont
1.1267 0.0000 0.0000 /a
1.3316 0.0000 0.0000 /p
2 print_glyphs
50.6590 -12.9417 moveto /TeXGyrePagella-Regular 3.90625000 output-scale div selectfont
1.0584 0.0000 0.0000 /e
0.9902 0.0000 0.0000 /c
1.1267 0.0000 0.0000 /a
1.0584 0.0000 0.0000 /e
1.3316 0.0000 0.0000 /p
5 print_glyphs
61.9345 -10.1417 moveto 0.5800 0.0500 0.0400 0.4600 0.0800 draw_round_box
52.5697 -10.1417 moveto 0.5800 0.0500 0.0400 0.4600 0.0800 draw_round_box
33.0199 -10.1417 moveto 0.5800 0.0500 0.0400 0.4600 0.0800 draw_round_box
28.6087 -10.1417 moveto 0.5800 0.0500 0.0400 0.4600 0.0800 draw_round_box
19.2439 -10.1417 moveto 0.5800 0.0500 0.0400 0.4600 0.0800 draw_round_box
64.4531 -4.5097 moveto 0.0500 3.2570 -0.0250 -2.7970 0.0800 draw_round_box
58.5031 -10.1417 moveto /TeXGyrePagella-Regular 3.90625000 output-scale div selectfont
0.8877 0.0000 0.0000 /r
1.2292 0.0000 0.0000 /o
0.9902 0.0000 0.0000 /c
3 print_glyphs
59.1006 -12.9417 moveto /TeXGyrePagella-Regular 3.90625000 output-scale div selectfont
1.2292 0.0000 0.0000 /o
0.6829 0.0000 0.0000 /t
2 print_glyphs
60.5837 -4.5097 moveto 0.0500 3.2570 -0.0250 -2.7970 0.0800 draw_round_box
63.3340 -7.5097 moveto magfontemmentaler-18mDWo /noteheads.s2 glyphshow 
62.9188 -10.1417 moveto /TeXGyrePagella-Regular 3.90625000 output-scale div selectfont
0.6487 0.0000 0.0000 /i
1.3657 0.0000 0.0000 /d
2 print_glyphs
62.2018 -12.9417 moveto /TeXGyrePagella-Regular 3.90625000 output-scale div selectfont
0.8877 0.0000 0.0000 /r
1.3316 0.0000 0.0000 /u
1.2292 0.0000 0.0000 /o
3 print_glyphs
59.4646 -7.5097 moveto magfontemmentaler-18mDWo /noteheads.s2 glyphshow 
17.3332 -7.5097 moveto magfontemmentaler-18mDWo /noteheads.s2 glyphshow 
17.3332 -1.5900 moveto /TeXGyrePagella-Regular 3.47851562 output-scale div selectfont
0.6487 0.0000 0.0000 /parenright
0.9902 0.0000 0.0000 /one
0.6487 0.0000 0.0000 /parenleft
3 print_glyphs
16.6961 -10.1417 moveto /TeXGyrePagella-Regular 3.90625000 output-scale div selectfont
1.1267 0.0000 0.0000 /a
1.3316 0.0000 0.0000 /p
2 print_glyphs
17.3332 -12.9417 moveto /TeXGyrePagella-Regular 3.90625000 output-scale div selectfont
1.0584 0.0000 0.0000 /e
0.9902 0.0000 0.0000 /c
1.1267 0.0000 0.0000 /a
1.0584 0.0000 0.0000 /e
1.3316 0.0000 0.0000 /p
5 print_glyphs
18.4523 -4.5097 moveto 0.0500 3.2570 -0.0250 -2.7970 0.0800 draw_round_box
4.4167 -4.5097 moveto magfontemmentaler-18mDWo /accidentals.flat glyphshow 
5.2534 -3.0097 moveto magfontemmentaler-18mDWo /accidentals.flat glyphshow 
65.7035 -10.1417 moveto 0.5800 0.0500 0.0400 0.4600 0.0800 draw_round_box
10.6461 -7.5097 moveto magfontemmentaler-18mDWo /noteheads.s2 glyphshow 
0.8000 -5.5097 moveto magfontemmentaler-18mDWo /clefs.G glyphshow 
7.1234 -4.5097 moveto magfontemmentaler-18mDWo /timesig.C22 glyphshow 
9.8212 -10.1417 moveto /TeXGyrePagella-Regular 3.90625000 output-scale div selectfont
1.1267 0.0000 0.0000 /a
1.7072 0.0000 0.0000 /D
2 print_glyphs
8.5750 -12.9417 moveto /TeXGyrePagella-Regular 3.90625000 output-scale div selectfont
1.0584 0.0000 0.0000 /e
1.1609 0.0000 0.0000 /v
0.6487 0.0000 0.0000 /i
1.7072 0.0000 0.0000 /G
0.7512 0.0000 0.0000 /parenleft
5 print_glyphs
11.7652 -4.5097 moveto 0.0500 3.2570 -0.0250 -2.7970 0.0800 draw_round_box
30.0082 -7.5097 moveto magfontemmentaler-18mDWo /noteheads.s2 glyphshow 
29.5930 -10.1417 moveto /TeXGyrePagella-Regular 3.90625000 output-scale div selectfont
0.6487 0.0000 0.0000 /i
1.3657 0.0000 0.0000 /d
2 print_glyphs
31.1273 -4.5097 moveto 0.0500 3.2570 -0.0250 -2.7970 0.0800 draw_round_box
36.3769 -7.5097 moveto magfontemmentaler-18mDWo /noteheads.s1 glyphshow 
35.0923 -10.1417 moveto /TeXGyrePagella-Regular 3.90625000 output-scale div selectfont
0.5463 0.0000 0.0000 /period
1.9462 0.0000 0.0000 /m
1.3316 0.0000 0.0000 /u
3 print_glyphs
33.7095 -12.9417 moveto /TeXGyrePagella-Regular 3.90625000 output-scale div selectfont
0.5463 0.0000 0.0000 /period
0.9560 0.0000 0.0000 /s
0.7170 0.0000 0.0000 /t
0.8877 0.0000 0.0000 /r
1.1267 0.0000 0.0000 /a
1.0584 0.0000 0.0000 /e
1.2974 0.0000 0.0000 /h
7 print_glyphs
28.8760 -12.9417 moveto /TeXGyrePagella-Regular 3.90625000 output-scale div selectfont
0.8877 0.0000 0.0000 /r
1.3316 0.0000 0.0000 /u
1.2292 0.0000 0.0000 /o
3 print_glyphs
37.5667 -4.5097 moveto 0.0500 3.1901 -0.0250 -2.7301 0.0800 draw_round_box
22.5179 -4.5097 moveto 0.0500 3.2570 -0.0250 -2.7970 0.0800 draw_round_box
26.1388 -7.5097 moveto magfontemmentaler-18mDWo /noteheads.s2 glyphshow 
25.1774 -10.1417 moveto /TeXGyrePagella-Regular 3.90625000 output-scale div selectfont
0.8877 0.0000 0.0000 /r
1.2292 0.0000 0.0000 /o
0.9902 0.0000 0.0000 /c
3 print_glyphs
25.7749 -12.9417 moveto /TeXGyrePagella-Regular 3.90625000 output-scale div selectfont
1.2292 0.0000 0.0000 /o
0.6829 0.0000 0.0000 /t
2 print_glyphs
27.2579 -4.5097 moveto 0.0500 3.2570 -0.0250 -2.7970 0.0800 draw_round_box
19.9935 -10.1417 moveto /TeXGyrePagella-Regular 3.90625000 output-scale div selectfont
1.9462 0.0000 0.0000 /m
1.0584 0.0000 0.0000 /e
0.9902 0.0000 0.0000 /c
3 print_glyphs
21.3988 -7.5097 moveto magfontemmentaler-18mDWo /noteheads.s2 glyphshow 
0.0000 -22.1746 moveto 67.2238 0.0000 0.0500 0.0000 0.1000 draw_line
0.0000 -21.1746 moveto 67.2238 0.0000 0.0500 0.0000 0.1000 draw_line
0.0000 -20.1746 moveto 67.2238 0.0000 0.0500 0.0000 0.1000 draw_line
0.0000 -19.1746 moveto 67.2238 0.0000 0.0500 0.0000 0.1000 draw_line
0.0000 -18.1746 moveto 67.2238 0.0000 0.0500 0.0000 0.1000 draw_line
35.5753 -20.1746 moveto 0.1900 4.0000 0.0000 -2.0000 0.0000 draw_round_box
20.3949 -20.1746 moveto 0.1900 4.0000 0.0000 -2.0000 0.0000 draw_round_box
19.9049 -20.1746 moveto 0.1900 4.0000 0.0000 -2.0000 0.0000 draw_round_box
45.9612 -20.1746 moveto 0.1900 4.0000 0.0000 -2.0000 0.0000 draw_round_box
55.2077 -20.1746 moveto 0.1900 4.0000 0.0000 -2.0000 0.0000 draw_round_box
67.1338 -20.1746 moveto 0.1900 4.0000 0.0000 -2.0000 0.0000 draw_round_box
66.6438 -20.1746 moveto 0.1900 4.0000 0.0000 -2.0000 0.0000 draw_round_box
0.0000 -23.1746 moveto 1.6821 0.0000 8.2597 0.0000 0.2000 draw_round_box
0.0000 -23.1746 moveto 1.5761 0.0000 15.3663 0.0000 0.2000 draw_round_box
0.0000 -23.1746 moveto 0.9112 0.0000 17.6994 0.0000 0.2000 draw_round_box
0.0000 -23.1746 moveto 0.9112 0.0000 21.5273 0.0000 0.2000 draw_round_box
0.0000 -23.1746 moveto 0.9112 0.0000 24.4478 0.0000 0.2000 draw_round_box
0.0000 -23.1746 moveto 1.5761 0.0000 42.2229 0.0000 0.2000 draw_round_box
0.0000 -23.1746 moveto 1.6821 0.0000 56.2116 0.0000 0.2000 draw_round_box
0.0000 -23.1746 moveto 1.5761 0.0000 62.1052 0.0000 0.2000 draw_round_box
0.0000 -23.1746 moveto 0.9112 0.0000 64.4383 0.0000 0.2000 draw_round_box
48.1789 -22.1746 moveto magfontemmentaler-18mDWo /noteheads.s0 glyphshow 
56.4253 -23.1746 moveto magfontemmentaler-18mDWo /noteheads.s1 glyphshow 
54.7822 -26.3360 moveto /TeXGyrePagella-Regular 3.90625000 output-scale div selectfont
0.5463 0.0000 0.0000 /period
1.9462 0.0000 0.0000 /m
1.0584 0.0000 0.0000 /e
0.9902 0.0000 0.0000 /c
4 print_glyphs
58.0814 -22.6746 moveto magfontemmentaler-18mDWo /dots.dot glyphshow 
57.6151 -20.1746 moveto 0.0500 3.1901 -0.0250 -2.7301 0.0800 draw_round_box
38.4491 -21.6746 moveto magfontemmentaler-18mDWo /dots.dot glyphshow 
37.9827 -20.1746 moveto 0.0500 3.1901 -0.0250 -1.2301 0.0800 draw_round_box
42.4189 -23.1746 moveto magfontemmentaler-18mDWo /noteheads.s2 glyphshow 
43.5379 -20.1746 moveto 0.0500 3.2570 -0.0250 -2.7970 0.0800 draw_round_box
64.5885 -20.1746 moveto 0.0500 1.4164 -0.0250 -4.5349 0.0800 draw_round_box
64.3235 -23.1746 moveto magfontemmentaler-11mZGo /accidentals.leftparen glyphshow 
65.4643 -23.1746 moveto magfontemmentaler-11mZGo /accidentals.rightparen glyphshow 
27.8042 -29.1360 moveto 29.8119 0.0160 0.0320 0.0320 0.0640 draw_round_box
49.0965 -26.3360 moveto 0.5800 0.0500 0.0400 0.4600 0.0800 draw_round_box
39.0965 -26.3360 moveto 0.5800 0.0500 0.0400 0.4600 0.0800 draw_round_box
29.0965 -26.3360 moveto 0.5800 0.0500 0.0400 0.4600 0.0800 draw_round_box
21.6125 -20.1746 moveto gsave currentpoint translate
1 setlinecap 1 setlinejoin 0.08000000 setlinewidth
1.55475556 1.64862020 moveto  4.29459854 3.40897601 24.79200341 3.01338208 27.46188267 1.14862020 curveto  24.78968787 2.89340442 4.29228300 3.28899836 1.55475556 1.64862020 curveto   closepath  gsave stroke grestore fill grestore
62.3012 -23.1746 moveto magfontemmentaler-18mDWo /noteheads.s2 glyphshow 
64.5235 -23.1746 moveto magfontemmentaler-11mDWo /noteheads.s2 glyphshow 
61.4763 -26.3360 moveto /TeXGyrePagella-Regular 3.90625000 output-scale div selectfont
1.1267 0.0000 0.0000 /a
1.7072 0.0000 0.0000 /D
2 print_glyphs
60.6057 -29.1360 moveto /TeXGyrePagella-Regular 3.90625000 output-scale div selectfont
1.0584 0.0000 0.0000 /e
1.1609 0.0000 0.0000 /v
0.6487 0.0000 0.0000 /i
1.7072 0.0000 0.0000 /G
4 print_glyphs
63.4203 -20.1746 moveto 0.0500 3.2570 -0.0250 -2.7970 0.0800 draw_round_box
16.6814 -20.1746 moveto 0.0500 3.2570 -0.0250 -2.7970 0.0800 draw_round_box
5.8059 -29.1360 moveto /TeXGyrePagella-Regular 3.90625000 output-scale div selectfont
0.5463 0.0000 0.0000 /period
0.9560 0.0000 0.0000 /s
0.7170 0.0000 0.0000 /t
0.8877 0.0000 0.0000 /r
1.1267 0.0000 0.0000 /a
1.0584 0.0000 0.0000 /e
1.2974 0.0000 0.0000 /h
7 print_glyphs
10.1295 -22.6746 moveto magfontemmentaler-18mDWo /dots.dot glyphshow 
9.6631 -20.1746 moveto 0.0500 3.1901 -0.0250 -2.7301 0.0800 draw_round_box
15.5623 -23.1746 moveto magfontemmentaler-18mDWo /noteheads.s2 glyphshow 
17.7846 -23.1746 moveto magfontemmentaler-11mDWo /noteheads.s2 glyphshow 
14.7374 -26.3360 moveto /TeXGyrePagella-Regular 3.90625000 output-scale div selectfont
1.1267 0.0000 0.0000 /a
1.7072 0.0000 0.0000 /D
2 print_glyphs
13.8667 -29.1360 moveto /TeXGyrePagella-Regular 3.90625000 output-scale div selectfont
1.0584 0.0000 0.0000 /e
1.1609 0.0000 0.0000 /v
0.6487 0.0000 0.0000 /i
1.7072 0.0000 0.0000 /G
4 print_glyphs
7.1887 -26.3360 moveto /TeXGyrePagella-Regular 3.90625000 output-scale div selectfont
0.5463 0.0000 0.0000 /period
1.9462 0.0000 0.0000 /m
1.3316 0.0000 0.0000 /u
3 print_glyphs
17.8496 -20.1746 moveto 0.0500 1.4164 -0.0250 -4.5349 0.0800 draw_round_box
21.6125 -21.1746 moveto magfontemmentaler-18mDWo /noteheads.s1 glyphshow 
-0.7853 -17.0904 moveto /TeXGyrePagella-Regular 2.76074219 output-scale div selectfont
0.7853 0.0000 0.0000 /four
1 print_glyphs
17.5846 -23.1746 moveto magfontemmentaler-11mZGo /accidentals.leftparen glyphshow 
18.7254 -23.1746 moveto magfontemmentaler-11mZGo /accidentals.rightparen glyphshow 
0.8000 -21.1746 moveto magfontemmentaler-18mDWo /clefs.G glyphshow 
4.4167 -20.1746 moveto magfontemmentaler-18mDWo /accidentals.flat glyphshow 
5.2534 -18.6746 moveto magfontemmentaler-18mDWo /accidentals.flat glyphshow 
8.4734 -23.1746 moveto magfontemmentaler-18mDWo /noteheads.s1 glyphshow 
33.0922 -20.1746 moveto 0.0500 3.2570 -0.0250 -1.7970 0.0800 draw_round_box
21.6125 -17.1804 moveto /TeXGyrePagella-Regular 3.47851562 output-scale div selectfont
0.6487 0.0000 0.0000 /parenright
0.9902 0.0000 0.0000 /two
0.6487 0.0000 0.0000 /parenleft
3 print_glyphs
31.9732 -22.1746 moveto magfontemmentaler-18mDWo /noteheads.s2 glyphshow 
24.5330 -23.1746 moveto magfontemmentaler-11mDWo /noteheads.s2 glyphshow 
24.5980 -20.1746 moveto 0.0500 1.4164 -0.0250 -4.5349 0.0800 draw_round_box
23.2687 -20.6746 moveto magfontemmentaler-18mDWo /dots.dot glyphshow 
36.7930 -21.6746 moveto magfontemmentaler-18mDWo /noteheads.s1 glyphshow 
21.6125 -23.1746 moveto magfontemmentaler-11mDWo /noteheads.s2 glyphshow 
21.6125 -26.3360 moveto /TeXGyrePagella-Regular 3.90625000 output-scale div selectfont
1.1267 0.0000 0.0000 /a
1.3316 0.0000 0.0000 /p
2 print_glyphs
21.6125 -29.1360 moveto /TeXGyrePagella-Regular 3.90625000 output-scale div selectfont
0.5463 0.0000 0.0000 /period
1.0584 0.0000 0.0000 /e
0.9902 0.0000 0.0000 /c
1.1267 0.0000 0.0000 /a
1.0584 0.0000 0.0000 /e
1.3316 0.0000 0.0000 /p
6 print_glyphs
22.8023 -20.1746 moveto 0.0500 3.1901 -0.0250 -0.7301 0.0800 draw_round_box
21.6775 -20.1746 moveto 0.0500 1.4164 -0.0250 -4.5349 0.0800 draw_round_box
0.0000 -38.9914 moveto 67.2238 0.0000 0.0500 0.0000 0.1000 draw_line
0.0000 -37.9914 moveto 67.2238 0.0000 0.0500 0.0000 0.1000 draw_line
0.0000 -36.9914 moveto 67.2238 0.0000 0.0500 0.0000 0.1000 draw_line
0.0000 -35.9914 moveto 67.2238 0.0000 0.0500 0.0000 0.1000 draw_line
0.0000 -34.9914 moveto 67.2238 0.0000 0.0500 0.0000 0.1000 draw_line
50.9353 -36.9914 moveto 0.1900 4.0000 0.0000 -2.0000 0.0000 draw_round_box
40.3359 -36.9914 moveto 0.1900 4.0000 0.0000 -2.0000 0.0000 draw_round_box
65.5324 -36.4914 moveto magfontemmentaler-18mDWo /dots.dot glyphshow 
65.5324 -37.4914 moveto magfontemmentaler-18mDWo /dots.dot glyphshow 
66.7238 -36.9914 moveto 0.6000 4.0000 0.0000 -2.0000 0.0000 draw_round_box
66.2338 -36.9914 moveto 0.1900 4.0000 0.0000 -2.0000 0.0000 draw_round_box
25.1714 -36.9914 moveto 0.1900 4.0000 0.0000 -2.0000 0.0000 draw_round_box
0.0000 -39.9914 moveto 0.9112 0.0000 8.7586 0.0000 0.2000 draw_round_box
0.0000 -39.9914 moveto 0.9112 0.0000 12.1842 0.0000 0.2000 draw_round_box
0.0000 -39.9914 moveto 1.5761 0.0000 61.4675 0.0000 0.2000 draw_round_box
50.6436 -43.6369 moveto /TeXGyrePagella-Regular 3.90625000 output-scale div selectfont
0.5463 0.0000 0.0000 /period
1.9462 0.0000 0.0000 /m
1.0584 0.0000 0.0000 /e
0.9902 0.0000 0.0000 /c
4 print_glyphs
52.2868 -38.4914 moveto magfontemmentaler-18mDWo /noteheads.s1 glyphshow 
53.4765 -36.9914 moveto 0.0500 3.1901 -0.0250 -1.2301 0.0800 draw_round_box
8.4734 -36.9914 moveto gsave currentpoint translate
1 setlinecap 1 setlinejoin 0.08000000 setlinewidth
0.64374545 1.49862020 moveto  3.71859221 4.82051917 32.31559251 3.70077694 35.12127921 0.14862020 curveto  32.31089740 3.58086883 3.71389710 4.70061106 0.64374545 1.49862020 curveto   closepath  gsave stroke grestore fill grestore
42.6874 -37.9914 moveto magfontemmentaler-18mDWo /noteheads.s0 glyphshow 
37.3478 -36.9914 moveto 0.0500 3.2570 -0.0250 -1.2970 0.0800 draw_round_box
36.2287 -38.4914 moveto magfontemmentaler-18mDWo /noteheads.s2 glyphshow 
14.6650 -46.4369 moveto 38.8125 0.0160 0.0320 0.0320 0.0640 draw_round_box
45.4064 -43.6369 moveto 0.5800 0.0500 0.0400 0.4600 0.0800 draw_round_box
35.4064 -43.6369 moveto 0.5800 0.0500 0.0400 0.4600 0.0800 draw_round_box
25.4064 -43.6369 moveto 0.5800 0.0500 0.0400 0.4600 0.0800 draw_round_box
15.4064 -43.6369 moveto 0.5800 0.0500 0.0400 0.4600 0.0800 draw_round_box
58.1237 -36.9914 moveto magfontemmentaler-18mDWo /rests.2 glyphshow 
61.6635 -39.9914 moveto magfontemmentaler-18mDWo /noteheads.s2 glyphshow 
60.8386 -43.6369 moveto /TeXGyrePagella-Regular 3.90625000 output-scale div selectfont
1.1267 0.0000 0.0000 /a
1.7072 0.0000 0.0000 /D
2 print_glyphs
59.5924 -46.4369 moveto /TeXGyrePagella-Regular 3.90625000 output-scale div selectfont
0.7512 0.0000 0.0000 /parenright
1.0584 0.0000 0.0000 /e
1.1609 0.0000 0.0000 /v
0.6487 0.0000 0.0000 /i
1.7072 0.0000 0.0000 /G
5 print_glyphs
62.7826 -36.9914 moveto 0.0500 3.2570 -0.0250 -2.7970 0.0800 draw_round_box
8.4734 -36.4914 moveto magfontemmentaler-18mDWo /noteheads.s1 glyphshow 
8.4734 -33.3748 moveto /TeXGyrePagella-Regular 3.47851562 output-scale div selectfont
0.6487 0.0000 0.0000 /parenright
0.9902 0.0000 0.0000 /three
0.6487 0.0000 0.0000 /parenleft
3 print_glyphs
8.8438 -39.9914 moveto magfontemmentaler-11mDWo /noteheads.s2 glyphshow 
8.4734 -43.6369 moveto /TeXGyrePagella-Regular 3.90625000 output-scale div selectfont
1.1267 0.0000 0.0000 /a
1.2292 0.0000 0.0000 /P
2 print_glyphs
8.4734 -46.4369 moveto /TeXGyrePagella-Regular 3.90625000 output-scale div selectfont
0.5463 0.0000 0.0000 /period
1.0584 0.0000 0.0000 /e
0.9902 0.0000 0.0000 /c
1.1267 0.0000 0.0000 /a
1.0584 0.0000 0.0000 /e
1.3316 0.0000 0.0000 /p
6 print_glyphs
10.1295 -36.4914 moveto magfontemmentaler-18mDWo /dots.dot glyphshow 
8.5384 -36.9914 moveto 0.0500 3.1901 -0.0250 -2.9600 0.0800 draw_round_box
8.9088 -36.9914 moveto 0.0500 1.4164 -0.0250 -4.5349 0.0800 draw_round_box
33.4789 -36.9914 moveto 0.0500 3.2570 -0.0250 -0.7970 0.0800 draw_round_box
8.6438 -39.9914 moveto magfontemmentaler-11mZGo /accidentals.leftparen glyphshow 
9.7845 -39.9914 moveto magfontemmentaler-11mZGo /accidentals.rightparen glyphshow 
-0.7853 -33.9072 moveto /TeXGyrePagella-Regular 2.76074219 output-scale div selectfont
0.7853 0.0000 0.0000 /nine
1 print_glyphs
0.8000 -37.9914 moveto magfontemmentaler-18mDWo /clefs.G glyphshow 
4.4167 -36.9914 moveto magfontemmentaler-18mDWo /accidentals.flat glyphshow 
5.2534 -35.4914 moveto magfontemmentaler-18mDWo /accidentals.flat glyphshow 
32.3598 -37.9914 moveto magfontemmentaler-18mDWo /noteheads.s2 glyphshow 
27.7126 -36.9914 moveto 0.0500 3.1901 -0.0250 -0.2301 0.0800 draw_round_box
26.5229 -37.4914 moveto magfontemmentaler-18mDWo /noteheads.s1 glyphshow 
12.2693 -39.9914 moveto magfontemmentaler-11mDWo /noteheads.s2 glyphshow 
12.3343 -36.9914 moveto 0.0500 1.4164 -0.0250 -4.5349 0.0800 draw_round_box
21.4987 -36.9914 moveto 0.0500 3.0903 -0.0250 -3.2933 0.0800 draw_round_box
21.4337 -36.9914 moveto magfontemmentaler-18mDWo /noteheads.s2 glyphshow 
stroke grestore
%%Trailer
%%EOF
