
#(define version-seen #t)
#(define output-empty-score-list #f)
#(ly:add-file-name-alist '(("3d/lily-4d0a7cfe.ly" . "taize-pew.lytex")

("e0/lily-6a4e2d92.ly" . "taize-pew.lytex")

("04/lily-e6f93d1d.ly" . "taize-pew.lytex")

("31/lily-07dbc2b4.ly" . "taize-pew.lytex")

("7b/lily-09209f6a.ly" . "taize-pew.lytex")

("97/lily-252cc486.ly" . "taize-pew.lytex")

("72/lily-c1372103.ly" . "taize-pew.lytex")

("f5/lily-7ce91e6d.ly" . "taize-pew.lytex")

    ))

