
%% LilyPond file generated by Denemo version 2.0.8

%%http://www.gnu.org/software/denemo/

\version "2.18.0"

CompactChordSymbols = {}
#(define DenemoTransposeStep 0)
#(define DenemoTransposeAccidental 0)
DenemoGlobalTranspose = \void #0
titledPiece = {}
AutoBarline = {}
AutoEndMovementBarline = \bar "|."
smallerFontsize = { \set fontSize = #-2 }

MvmntIVoiceI = {
  \partial 256*64  c'4\AutoBarline
  \bar ".|:" c'4^"(1)" c' c' c'\AutoBarline
  c'2 r4 c'\AutoBarline
  \bar "||" c'4 c' c' c'\AutoBarline
				%5
  c'2. 
  <<
    {c'4\AutoBarline}
    \new CueVoice {
      \stemDown  \once \override NoteColumn.force-hshift = 3 \parenthesize c'4 %\addlyrics{ Da }
    }
  >>
  \bar "||"
  <<
    \slurUp
    {g'2.^"(2)"(}
    \new CueVoice {
      \stemDown c'4 c'4
    }
  >>
  ees'4\AutoBarline
  f'2. c'4\AutoBarline
  ees'1)\AutoBarline
  c'2.
  <<
    {c'4\AutoBarline}
    \new CueVoice {
      \stemDown  \once \override NoteColumn.force-hshift = 3 \parenthesize c'4 %\addlyrics{ Da }
    }
  >>
  
				%10
  \bar "||"
  <<
    {c''2.^"(3)"(}
    \new CueVoice {\voiceTwo
		   \stemDown \once \override NoteColumn.horizontal-shift = -10 \parenthesize c'4 c'4 
		 }
  >>

  bes'4\AutoBarline
  a'2 g'4 f'\AutoBarline
  g'1)\AutoBarline
  f'2 r4 c' \bar ":|."}


MvmntIVoiceILyricsVerseI = \lyricmode { 
  Da pa -- cem cor -- di -- um. Da pa -- cem cor -- di -- um. Da pa -- cem. Da Pa -- cem. Da 
}
EnglishLyrics = \lyricmode{
  (Give peace _ to our hearts. Give peace _ to our hearts. Give  peace. __ _ Give peace. __ _ Give)
}


MvmntIVoiceIVerseIContext = \context Lyrics = MvmntIVoiceIVerseI \lyricsto VoiceIMvmntI \MvmntIVoiceILyricsVerseI

#(set-global-staff-size 20)
\paper {
 myStaffSize = #18
    #(define fonts
    (make-pango-font-tree "TeX Gyre Pagella"
                          "TeX Gyre Pagella"
     "TeX Gyre Pagella"
     (/ myStaffSize 20)
                           ))
   indent = 0\cm} 



\score { %Start of Movement
  <<

				%Start of Staff
    \new Staff = "Part 1"  << 
      \new Voice = "VoiceIMvmntI"  { 
	\clef treble    \key bes \major    \time 2/2   \MvmntIVoiceI
      } %End of voice
				% \new Lyrics = "CueLyrics"
				%       \lyricsto "cue" {
				%        \smallerFontsize
				%        Da pa -- cem
				%      }

    >> %End of Staff

    \new Lyrics = MvmntIVoiceIVerseI

    \MvmntIVoiceIVerseIContext
        \new Lyrics = EnglishLyrics \lyricsto VoiceIMvmntI \EnglishLyrics


  >>


} %End of Movement


