<?xml version="1.0" encoding="UTF-8"?>
<svg xmlns="http://www.w3.org/2000/svg" xmlns:xlink="http://www.w3.org/1999/xlink" width="348pt" height="153pt" viewBox="0 0 348 153" version="1.1">
<defs>
<g>
<symbol overflow="visible" id="glyph0-0">
<path style="stroke:none;" d="M 2 0 L 17.9375 0 L 17.9375 -19.28125 L 2 -19.28125 Z M 3.984375 -2 L 3.984375 -17.296875 L 15.9375 -17.296875 L 15.9375 -2 Z M 3.984375 -2 "/>
</symbol>
<symbol overflow="visible" id="glyph0-1">
<path style="stroke:none;" d="M 0.671875 0.125 C 2.234375 0.046875 3.75 0 5.296875 0 C 6.890625 0 8.484375 0.046875 10.078125 0.125 L 10.078125 -1.078125 L 8.328125 -1.203125 C 6.5 -1.3125 6.296875 -1.671875 6.296875 -4.78125 L 6.296875 -23.234375 L 25.140625 0.15625 L 28.734375 0.796875 C 28.734375 0.40625 28.609375 -0.28125 28.609375 -0.671875 L 28.609375 -22.671875 C 28.609375 -25.78125 28.8125 -26.140625 30.640625 -26.25 L 32.390625 -26.375 L 32.390625 -27.578125 C 30.796875 -27.5 29.203125 -27.453125 27.609375 -27.453125 C 26.0625 -27.453125 24.546875 -27.5 22.984375 -27.578125 L 22.984375 -26.375 L 24.75 -26.25 C 26.578125 -26.140625 26.78125 -25.78125 26.78125 -22.671875 L 26.78125 -3.90625 L 7.609375 -27.578125 C 7.609375 -27.578125 6.296875 -27.453125 5.453125 -27.453125 C 3.59375 -27.453125 0.671875 -27.578125 0.671875 -27.578125 L 0.671875 -26.375 L 2.4375 -26.25 C 4.265625 -26.140625 4.46875 -25.78125 4.46875 -22.671875 L 4.46875 -4.78125 C 4.46875 -1.671875 4.265625 -1.3125 2.4375 -1.203125 L 0.671875 -1.078125 Z M 0.671875 0.125 "/>
</symbol>
<symbol overflow="visible" id="glyph1-0">
<path style="stroke:none;" d="M 0.5 0 L 4.484375 0 L 4.484375 -4.828125 L 0.5 -4.828125 Z M 1 -0.5 L 1 -4.328125 L 3.984375 -4.328125 L 3.984375 -0.5 Z M 1 -0.5 "/>
</symbol>
<symbol overflow="visible" id="glyph1-1">
<path style="stroke:none;" d="M 0.078125 -6.59375 L 0.4375 -6.5625 C 0.640625 -6.546875 0.75 -6.453125 0.875 -6.15625 L 2.75 -1.5625 C 3.0625 -0.796875 3.1875 -0.453125 3.328125 0.09375 L 3.828125 0.09375 C 4.015625 -0.53125 4.140625 -0.859375 4.46875 -1.65625 L 6.203125 -5.859375 C 6.4375 -6.40625 6.5625 -6.546875 6.734375 -6.5625 L 7.03125 -6.59375 L 7.03125 -6.890625 C 6.671875 -6.875 6.3125 -6.875 5.96875 -6.875 C 5.609375 -6.875 5.25 -6.875 4.890625 -6.890625 L 4.890625 -6.59375 L 5.40625 -6.5625 C 5.765625 -6.546875 5.796875 -6.265625 5.65625 -5.921875 L 3.84375 -1.203125 L 1.875 -6.265625 C 1.828125 -6.40625 1.90625 -6.5625 2.171875 -6.5625 L 2.734375 -6.59375 L 2.734375 -6.890625 C 2.296875 -6.875 1.84375 -6.875 1.40625 -6.875 C 0.96875 -6.875 0.515625 -6.875 0.078125 -6.890625 Z M 0.078125 -6.59375 "/>
</symbol>
<symbol overflow="visible" id="glyph1-2">
<path style="stroke:none;" d="M 0.21875 0.03125 C 0.703125 0.015625 1.1875 0 1.671875 0 C 2.15625 0 2.65625 0.015625 3.140625 0.03125 L 3.140625 -0.265625 L 2.65625 -0.296875 C 2.203125 -0.328125 2.15625 -0.40625 2.15625 -1.203125 L 2.15625 -5.671875 C 2.15625 -6.453125 2.203125 -6.546875 2.65625 -6.5625 L 3.140625 -6.59375 L 3.140625 -6.890625 C 2.65625 -6.875 2.15625 -6.875 1.671875 -6.875 C 1.1875 -6.875 0.703125 -6.875 0.21875 -6.890625 L 0.21875 -6.59375 L 0.703125 -6.5625 C 1.15625 -6.546875 1.203125 -6.453125 1.203125 -5.671875 L 1.203125 -1.203125 C 1.203125 -0.40625 1.15625 -0.328125 0.703125 -0.296875 L 0.21875 -0.265625 Z M 0.21875 0.03125 "/>
</symbol>
<symbol overflow="visible" id="glyph1-3">
<path style="stroke:none;" d="M 0.3125 -2.15625 C 0.3125 -0.75 1.203125 0.203125 2.5 0.203125 C 4.03125 0.203125 5.125 -0.875 5.125 -2.359375 C 5.125 -3.703125 4.140625 -4.671875 2.78125 -4.671875 C 1.328125 -4.671875 0.3125 -3.65625 0.3125 -2.15625 Z M 1.25 -2.5 C 1.25 -3.703125 1.71875 -4.34375 2.609375 -4.34375 C 3.515625 -4.34375 4.203125 -3.34375 4.203125 -2 C 4.203125 -0.84375 3.6875 -0.125 2.875 -0.125 C 1.90625 -0.125 1.25 -1.09375 1.25 -2.5 Z M 1.25 -2.5 "/>
</symbol>
<symbol overflow="visible" id="glyph1-4">
<path style="stroke:none;" d="M 0.0625 -4.296875 L 0.34375 -4.28125 C 0.625 -4.25 0.75 -4.09375 1 -3.28125 L 2.015625 0.0625 L 2.484375 0.0625 L 3.453125 -2.21875 C 3.640625 -2.640625 3.984375 -3.34375 3.984375 -3.34375 L 5.328125 0.0625 L 5.796875 0.0625 L 7.15625 -3.40625 C 7.4375 -4.109375 7.578125 -4.25 7.796875 -4.28125 L 8.0625 -4.296875 L 8.0625 -4.578125 C 7.71875 -4.5625 7.40625 -4.546875 7.078125 -4.546875 C 6.75 -4.546875 6.4375 -4.5625 6.09375 -4.578125 L 6.09375 -4.296875 L 6.4375 -4.28125 C 6.84375 -4.25 6.890625 -4 6.765625 -3.609375 L 6.265625 -2.21875 L 5.78125 -0.984375 L 4.640625 -3.875 C 4.5 -4.203125 4.421875 -4.40625 4.34375 -4.671875 L 4.109375 -4.671875 L 2.53125 -1.03125 L 1.6875 -3.78125 C 1.609375 -4.09375 1.65625 -4.25 2.03125 -4.28125 L 2.4375 -4.296875 L 2.4375 -4.578125 C 2.03125 -4.5625 1.640625 -4.546875 1.25 -4.546875 C 0.84375 -4.546875 0.453125 -4.5625 0.0625 -4.578125 Z M 0.0625 -4.296875 "/>
</symbol>
<symbol overflow="visible" id="glyph1-5">
<path style="stroke:none;" d="M 0.15625 1.4375 L 0.296875 1.546875 L 0.703125 1.359375 C 1.515625 0.3125 1.890625 -0.3125 2.171875 -1.09375 L 2.03125 -1.21875 C 1.765625 -1.140625 1.578125 -1.078125 1.0625 -0.921875 C 0.984375 -0.171875 0.734375 0.484375 0.15625 1.4375 Z M 0.15625 1.4375 "/>
</symbol>
<symbol overflow="visible" id="glyph1-6">
<path style="stroke:none;" d="M 0.203125 0.03125 C 0.625 0.015625 1.03125 0 1.453125 0 C 1.875 0 2.28125 0.015625 2.703125 0.03125 L 2.703125 -0.265625 L 2.25 -0.296875 C 1.90625 -0.3125 1.875 -0.390625 1.875 -1.015625 L 1.875 -4.640625 L 1.78125 -4.671875 C 1.28125 -4.46875 0.75 -4.328125 0.234375 -4.265625 L 0.234375 -3.984375 L 0.59375 -3.984375 C 1 -3.984375 1.03125 -3.921875 1.03125 -3.265625 L 1.03125 -1.015625 C 1.03125 -0.390625 1 -0.3125 0.671875 -0.296875 L 0.203125 -0.265625 Z M 0.953125 -5.90625 C 0.953125 -5.609375 1.15625 -5.40625 1.453125 -5.40625 C 1.75 -5.40625 1.953125 -5.609375 1.953125 -5.90625 C 1.953125 -6.1875 1.75 -6.40625 1.46875 -6.40625 C 1.15625 -6.40625 0.953125 -6.203125 0.953125 -5.90625 Z M 0.953125 -5.90625 "/>
</symbol>
<symbol overflow="visible" id="glyph1-7">
<path style="stroke:none;" d="M 0.21875 -3.765625 L 0.984375 -3.8125 L 0.984375 -0.9375 C 0.984375 -0.203125 1.3125 0.125 2.078125 0.125 C 2.296875 0.125 2.546875 0.0625 2.609375 0 L 3.078125 -0.53125 L 2.953125 -0.703125 C 2.703125 -0.5625 2.546875 -0.515625 2.359375 -0.515625 C 1.96875 -0.515625 1.8125 -0.703125 1.8125 -1.203125 L 1.8125 -3.8125 L 3.09375 -3.8125 L 3.1875 -4.34375 L 1.8125 -4.28125 L 1.8125 -4.671875 C 1.8125 -5.078125 1.84375 -5.4375 1.921875 -6.078125 L 1.796875 -6.1875 C 1.5625 -6.046875 1.265625 -5.90625 0.953125 -5.8125 C 0.984375 -5.515625 1 -5.328125 1 -5.03125 L 1 -4.328125 L 0.21875 -3.984375 Z M 0.21875 -3.765625 "/>
</symbol>
<symbol overflow="visible" id="glyph1-8">
<path style="stroke:none;" d="M 0.0625 0.03125 C 0.46875 0.015625 0.890625 0 1.296875 0 C 1.703125 0 2.125 0.015625 2.53125 0.03125 L 2.53125 -0.265625 L 2.078125 -0.296875 C 1.75 -0.3125 1.71875 -0.390625 1.71875 -1.015625 L 1.71875 -3.125 C 1.71875 -3.578125 2.375 -4.0625 2.984375 -4.0625 C 3.65625 -4.0625 4.09375 -3.5625 4.09375 -2.796875 L 4.09375 0.03125 C 4.34375 0.015625 4.609375 0 4.875 0 C 5.15625 0 5.421875 0.015625 5.703125 0.03125 L 5.703125 -0.265625 L 5.296875 -0.296875 C 4.953125 -0.3125 4.921875 -0.375 4.921875 -1.015625 L 4.921875 -2.9375 C 4.921875 -4.109375 4.375 -4.671875 3.265625 -4.671875 C 2.890625 -4.671875 2.6875 -4.609375 2.46875 -4.421875 L 1.71875 -3.765625 L 1.71875 -7.15625 L 1.625 -7.234375 C 1.1875 -7.0625 0.859375 -6.984375 0.0625 -6.875 L 0.0625 -6.59375 L 0.625 -6.59375 C 0.8125 -6.59375 0.875 -6.484375 0.875 -6.1875 L 0.875 -1.015625 C 0.875 -0.390625 0.84375 -0.3125 0.515625 -0.296875 L 0.0625 -0.265625 Z M 0.0625 0.03125 "/>
</symbol>
<symbol overflow="visible" id="glyph1-9">
<path style="stroke:none;" d="M 0.265625 -2.1875 C 0.265625 -1.5625 0.40625 -1.015625 0.671875 -0.640625 C 1.0625 -0.109375 1.75 0.203125 2.5 0.203125 C 2.859375 0.203125 3.234375 0.125 3.640625 -0.0625 C 3.90625 -0.171875 4.109375 -0.296875 4.15625 -0.359375 L 4.359375 -0.703125 L 4.234375 -0.796875 C 3.59375 -0.421875 3.359375 -0.328125 2.9375 -0.328125 C 2.28125 -0.328125 1.75 -0.625 1.46875 -1.109375 C 1.28125 -1.4375 1.203125 -1.71875 1.1875 -2.296875 L 2.640625 -2.296875 C 3.328125 -2.296875 3.765625 -2.328125 4.453125 -2.4375 C 4.453125 -2.578125 4.46875 -2.65625 4.46875 -2.78125 C 4.46875 -3.921875 3.734375 -4.671875 2.609375 -4.671875 C 2.25 -4.671875 1.8125 -4.546875 1.40625 -4.3125 C 0.59375 -3.84375 0.265625 -3.21875 0.265625 -2.1875 Z M 1.203125 -2.6875 C 1.203125 -3.15625 1.25 -3.375 1.375 -3.640625 C 1.578125 -4.078125 2.015625 -4.34375 2.5 -4.34375 C 2.828125 -4.34375 3.078125 -4.21875 3.265625 -3.953125 C 3.484375 -3.625 3.578125 -3.328125 3.578125 -2.65625 L 2.46875 -2.625 C 2 -2.625 1.75 -2.640625 1.203125 -2.6875 Z M 1.203125 -2.6875 "/>
</symbol>
<symbol overflow="visible" id="glyph1-10">
<path style="stroke:none;" d="M 0.234375 0.03125 C 0.640625 0.015625 1.0625 0 1.46875 0 C 1.890625 0 2.296875 0.015625 2.71875 0.03125 L 2.71875 -0.265625 L 2.265625 -0.296875 C 1.921875 -0.3125 1.890625 -0.390625 1.890625 -1.015625 L 1.890625 -3.84375 L 3.125 -3.84375 L 3.203125 -4.359375 C 2.765625 -4.34375 2.328125 -4.328125 1.890625 -4.328125 L 1.890625 -5.171875 C 1.890625 -6.3125 2.03125 -6.59375 2.59375 -6.59375 C 2.859375 -6.59375 3.046875 -6.53125 3.28125 -6.3125 L 3.40625 -6.375 L 3.40625 -7.140625 C 3.1875 -7.234375 3.078125 -7.25 2.9375 -7.25 C 2.625 -7.25 2.265625 -7.09375 2.046875 -6.84375 L 1.46875 -6.1875 C 1.1875 -5.859375 1.0625 -5.40625 1.0625 -4.75 L 1.0625 -4.328125 L 0.375 -4.015625 L 0.375 -3.796875 L 1.0625 -3.84375 L 1.0625 -1.015625 C 1.0625 -0.390625 1.03125 -0.3125 0.6875 -0.296875 L 0.234375 -0.265625 Z M 0.234375 0.03125 "/>
</symbol>
<symbol overflow="visible" id="glyph1-11">
<path style="stroke:none;" d="M 0.3125 -1.109375 C 0.3125 -0.328125 0.78125 0.125 1.578125 0.125 C 1.75 0.125 1.921875 0.09375 2 0.046875 L 3.234375 -0.8125 L 3.1875 0.03125 C 3.4375 0.015625 3.703125 0 3.953125 0 C 4.203125 0 4.453125 0.015625 4.6875 0.03125 L 4.6875 -0.265625 L 4.3125 -0.296875 C 4.0625 -0.296875 4.03125 -0.375 4.03125 -0.875 L 4.03125 -2.6875 C 4.03125 -4.140625 3.609375 -4.671875 2.453125 -4.671875 C 2.03125 -4.671875 1.625 -4.5625 1.25 -4.34375 L 0.71875 -4.015625 L 0.71875 -3.375 L 0.984375 -3.296875 L 1.109375 -3.609375 C 1.3125 -4.078125 1.421875 -4.140625 1.875 -4.140625 C 2.8125 -4.140625 3.203125 -3.78125 3.234375 -2.875 L 2.25 -2.6875 C 0.890625 -2.4375 0.3125 -1.96875 0.3125 -1.109375 Z M 1.171875 -1.25 C 1.171875 -1.609375 1.375 -1.96875 1.671875 -2.15625 C 1.921875 -2.296875 2.46875 -2.4375 3.234375 -2.546875 L 3.234375 -1.234375 C 2.9375 -0.828125 2.3125 -0.453125 1.921875 -0.453125 C 1.53125 -0.453125 1.171875 -0.8125 1.171875 -1.25 Z M 1.171875 -1.25 "/>
</symbol>
<symbol overflow="visible" id="glyph1-12">
<path style="stroke:none;" d="M 0.296875 -0.046875 C 0.8125 0.125 1.203125 0.203125 1.671875 0.203125 C 2.96875 0.203125 3.890625 -0.5 3.890625 -1.46875 C 3.890625 -1.78125 3.8125 -2.015625 3.625 -2.21875 C 3.359375 -2.46875 3.03125 -2.578125 2.15625 -2.75 C 1.328125 -2.90625 1.0625 -3.109375 1.0625 -3.5625 C 1.0625 -4.0625 1.421875 -4.34375 2.03125 -4.34375 C 2.6875 -4.34375 3.203125 -4 3.203125 -3.53125 L 3.203125 -3.296875 L 3.484375 -3.296875 C 3.484375 -3.875 3.5 -4.109375 3.53125 -4.421875 C 3 -4.609375 2.640625 -4.671875 2.234375 -4.671875 C 1.078125 -4.671875 0.375 -4.125 0.375 -3.234375 C 0.375 -2.75 0.59375 -2.40625 1.046875 -2.203125 C 1.3125 -2.078125 1.84375 -1.921875 2.515625 -1.78125 C 2.96875 -1.671875 3.15625 -1.46875 3.15625 -1.09375 C 3.15625 -0.546875 2.65625 -0.171875 1.953125 -0.171875 C 1.21875 -0.171875 0.703125 -0.515625 0.703125 -1.015625 L 0.703125 -1.421875 L 0.40625 -1.421875 C 0.40625 -0.734375 0.375 -0.4375 0.296875 -0.046875 Z M 0.296875 -0.046875 "/>
</symbol>
<symbol overflow="visible" id="glyph1-13">
<path style="stroke:none;" d="M 0.34375 -2.15625 C 0.34375 -1.359375 0.625 -0.703125 1.109375 -0.296875 C 1.453125 -0.015625 1.90625 0.125 2.5625 0.125 C 2.765625 0.125 2.984375 0.078125 3.046875 0.046875 L 4.140625 -0.890625 L 4.09375 0.03125 C 4.359375 0.015625 4.609375 0 4.859375 0 C 5.15625 0 5.46875 0.015625 5.765625 0.03125 L 5.765625 -0.265625 L 5.3125 -0.296875 C 4.96875 -0.3125 4.9375 -0.390625 4.9375 -1.015625 L 4.9375 -7.15625 L 4.859375 -7.234375 C 4.421875 -7.0625 4.09375 -6.984375 3.296875 -6.875 L 3.296875 -6.59375 L 3.859375 -6.59375 C 4.03125 -6.59375 4.109375 -6.484375 4.109375 -6.1875 L 4.109375 -4.359375 C 3.546875 -4.59375 3.265625 -4.671875 2.921875 -4.671875 C 2.65625 -4.671875 2.40625 -4.609375 2.15625 -4.484375 L 1.28125 -4.03125 C 0.71875 -3.734375 0.34375 -3 0.34375 -2.15625 Z M 1.21875 -2.484375 C 1.21875 -3.5625 1.75 -4.203125 2.65625 -4.203125 C 3.03125 -4.203125 3.421875 -4.078125 3.78125 -3.84375 C 3.984375 -3.703125 4.109375 -3.5625 4.109375 -3.484375 L 4.109375 -2.203125 C 4.109375 -1.5625 4.09375 -1.453125 3.953125 -1.21875 C 3.671875 -0.75 3.1875 -0.453125 2.71875 -0.453125 C 1.84375 -0.453125 1.21875 -1.296875 1.21875 -2.484375 Z M 1.21875 -2.484375 "/>
</symbol>
<symbol overflow="visible" id="glyph1-14">
<path style="stroke:none;" d="M 0.078125 2.5 L 0.078125 2.796875 C 0.5 2.78125 0.90625 2.765625 1.328125 2.765625 C 1.75 2.765625 2.15625 2.78125 2.578125 2.796875 L 2.578125 2.5 L 2.109375 2.46875 C 1.78125 2.453125 1.75 2.375 1.75 1.75 L 1.75 -0.125 C 2.046875 0.046875 2.359375 0.125 2.8125 0.125 C 3.09375 0.125 3.359375 0.0625 3.515625 -0.046875 L 4.65625 -0.78125 C 5.046875 -1.03125 5.515625 -2.0625 5.515625 -2.703125 C 5.515625 -3.8125 4.609375 -4.671875 3.453125 -4.671875 C 3.078125 -4.671875 2.71875 -4.578125 2.5625 -4.421875 L 1.75 -3.671875 L 1.75 -4.640625 L 1.65625 -4.671875 C 1.140625 -4.46875 0.625 -4.328125 0.09375 -4.265625 L 0.09375 -3.984375 L 0.46875 -3.984375 C 0.875 -3.984375 0.90625 -3.921875 0.90625 -3.265625 L 0.90625 1.75 C 0.90625 2.375 0.875 2.453125 0.53125 2.46875 Z M 1.75 -0.984375 L 1.75 -3.046875 C 1.75 -3.1875 1.796875 -3.296875 1.921875 -3.46875 C 2.21875 -3.84375 2.625 -4.03125 3.125 -4.03125 C 4.0625 -4.03125 4.65625 -3.375 4.65625 -2.328125 C 4.65625 -1.21875 3.984375 -0.390625 3.09375 -0.390625 C 2.546875 -0.390625 2.140625 -0.5625 1.75 -0.984375 Z M 1.75 -0.984375 "/>
</symbol>
<symbol overflow="visible" id="glyph1-15">
<path style="stroke:none;" d="M 0.203125 0.03125 C 0.625 0.015625 1.03125 0 1.4375 0 C 1.90625 0 2.375 0.015625 2.859375 0.03125 L 2.859375 -0.265625 L 2.34375 -0.296875 C 1.890625 -0.328125 1.875 -0.359375 1.875 -1.015625 L 1.875 -2.734375 C 1.875 -3.328125 2.265625 -3.828125 2.765625 -3.828125 C 3.0625 -3.828125 3.265625 -3.6875 3.421875 -3.375 L 3.640625 -3.375 L 3.734375 -4.5625 C 3.625 -4.640625 3.4375 -4.671875 3.265625 -4.671875 C 2.953125 -4.671875 2.640625 -4.515625 2.4375 -4.265625 L 1.875 -3.609375 L 1.875 -4.640625 L 1.78125 -4.671875 C 1.28125 -4.46875 0.75 -4.328125 0.234375 -4.265625 L 0.234375 -3.984375 L 0.59375 -3.984375 C 1 -3.984375 1.03125 -3.921875 1.03125 -3.265625 L 1.03125 -1.015625 C 1.03125 -0.390625 1 -0.3125 0.671875 -0.296875 L 0.203125 -0.265625 Z M 0.203125 0.03125 "/>
</symbol>
<symbol overflow="visible" id="glyph1-16">
<path style="stroke:none;" d="M 0.0625 0.03125 C 0.46875 0.015625 0.890625 0 1.296875 0 C 1.703125 0 2.125 0.015625 2.53125 0.03125 L 2.53125 -0.265625 L 2.078125 -0.296875 C 1.75 -0.3125 1.71875 -0.390625 1.71875 -1.015625 L 1.71875 -3.125 C 1.71875 -3.578125 2.375 -4.0625 2.984375 -4.0625 C 3.65625 -4.0625 4.09375 -3.5625 4.09375 -2.796875 L 4.09375 0.03125 C 4.34375 0.015625 4.609375 0 4.875 0 C 5.15625 0 5.421875 0.015625 5.703125 0.03125 L 5.703125 -0.265625 L 5.296875 -0.296875 C 4.953125 -0.3125 4.921875 -0.375 4.921875 -1.015625 L 4.921875 -2.9375 C 4.921875 -4.109375 4.375 -4.671875 3.265625 -4.671875 C 2.890625 -4.671875 2.6875 -4.609375 2.46875 -4.421875 L 1.71875 -3.765625 L 1.71875 -4.640625 L 1.625 -4.671875 C 1.109375 -4.46875 0.59375 -4.328125 0.0625 -4.265625 L 0.0625 -3.984375 L 0.4375 -3.984375 C 0.84375 -3.984375 0.875 -3.921875 0.875 -3.265625 L 0.875 -1.015625 C 0.875 -0.390625 0.84375 -0.3125 0.515625 -0.296875 L 0.0625 -0.265625 Z M 0.0625 0.03125 "/>
</symbol>
<symbol overflow="visible" id="glyph1-17">
<path style="stroke:none;" d="M 0.3125 1.28125 C 0.3125 2.1875 1.203125 2.828125 2.46875 2.828125 C 3.984375 2.828125 5.15625 1.875 5.15625 0.65625 C 5.15625 -0.0625 4.6875 -0.5625 3.984375 -0.5625 L 2.390625 -0.5625 C 1.875 -0.5625 1.640625 -0.671875 1.640625 -0.953125 C 1.640625 -1.078125 1.71875 -1.1875 1.96875 -1.40625 C 2.03125 -1.453125 2.046875 -1.46875 2.09375 -1.515625 C 2.1875 -1.5 2.25 -1.5 2.328125 -1.5 C 2.765625 -1.5 3.296875 -1.6875 3.703125 -1.96875 C 4.140625 -2.296875 4.359375 -2.703125 4.359375 -3.234375 C 4.359375 -3.421875 4.34375 -3.5625 4.25 -3.765625 L 5.171875 -3.765625 L 5.421875 -4.171875 L 5.390625 -4.296875 L 3.96875 -4.25 C 3.59375 -4.5625 3.234375 -4.671875 2.75 -4.671875 C 2.3125 -4.671875 1.796875 -4.53125 1.390625 -4.296875 C 0.84375 -3.984375 0.546875 -3.484375 0.546875 -2.875 C 0.546875 -2.140625 1 -1.640625 1.75 -1.5625 L 0.953125 -0.953125 C 0.859375 -0.796875 0.8125 -0.671875 0.8125 -0.515625 C 0.8125 -0.234375 0.984375 -0.078125 1.46875 0.0625 L 0.59375 0.53125 C 0.453125 0.609375 0.3125 0.984375 0.3125 1.28125 Z M 1.078125 1.265625 C 1.078125 0.8125 1.328125 0.421875 1.734375 0.234375 C 1.890625 0.171875 2.171875 0.140625 2.859375 0.140625 C 3.984375 0.140625 4.375 0.375 4.375 1.015625 C 4.375 1.875 3.59375 2.515625 2.546875 2.515625 C 1.671875 2.515625 1.078125 2 1.078125 1.265625 Z M 1.390625 -3.125 C 1.390625 -3.890625 1.75 -4.34375 2.390625 -4.34375 C 3.078125 -4.34375 3.53125 -3.78125 3.53125 -2.9375 C 3.53125 -2.28125 3.109375 -1.828125 2.5 -1.828125 C 1.828125 -1.828125 1.390625 -2.359375 1.390625 -3.125 Z M 1.390625 -3.125 "/>
</symbol>
<symbol overflow="visible" id="glyph1-18">
<path style="stroke:none;" d="M 0.203125 0.03125 C 0.625 0.015625 1.03125 0 1.453125 0 C 1.875 0 2.28125 0.015625 2.703125 0.03125 L 2.703125 -0.265625 L 2.25 -0.296875 C 1.90625 -0.3125 1.875 -0.390625 1.875 -1.015625 L 1.875 -7.15625 L 1.78125 -7.234375 C 1.34375 -7.0625 1.015625 -6.984375 0.234375 -6.875 L 0.234375 -6.59375 L 0.78125 -6.59375 C 0.96875 -6.59375 1.03125 -6.484375 1.03125 -6.1875 L 1.03125 -1.015625 C 1.03125 -0.390625 1 -0.3125 0.671875 -0.296875 L 0.203125 -0.265625 Z M 0.203125 0.03125 "/>
</symbol>
<symbol overflow="visible" id="glyph1-19">
<path style="stroke:none;" d="M 0.15625 0.03125 C 0.578125 0.015625 1 0 1.421875 0 C 1.828125 0 2.21875 0.015625 2.609375 0.03125 L 2.609375 -0.265625 L 2.1875 -0.296875 C 1.859375 -0.3125 1.828125 -0.390625 1.828125 -1.015625 L 1.828125 -3.125 C 1.828125 -3.578125 2.484375 -4.0625 3.078125 -4.0625 C 3.625 -4.0625 3.984375 -3.5625 3.984375 -2.796875 L 3.984375 -1.015625 C 3.984375 -0.390625 3.953125 -0.3125 3.625 -0.296875 L 3.15625 -0.265625 L 3.15625 0.03125 C 3.578125 0.015625 3.984375 0 4.40625 0 C 4.828125 0 5.234375 0.015625 5.65625 0.03125 L 5.65625 -0.265625 L 5.1875 -0.296875 C 4.859375 -0.3125 4.828125 -0.390625 4.828125 -1.015625 L 4.828125 -3.125 C 4.828125 -3.578125 5.484375 -4.0625 6.078125 -4.0625 C 6.625 -4.0625 6.984375 -3.5625 6.984375 -2.796875 L 6.984375 0.03125 C 7.25 0.015625 7.515625 0 7.78125 0 C 8.078125 0 8.359375 0.015625 8.65625 0.03125 L 8.65625 -0.265625 L 8.1875 -0.296875 C 7.859375 -0.3125 7.828125 -0.390625 7.828125 -1.015625 L 7.828125 -3.078125 C 7.828125 -4.0625 7.25 -4.671875 6.328125 -4.671875 C 5.984375 -4.671875 5.6875 -4.578125 5.515625 -4.421875 L 4.75 -3.75 C 4.4375 -4.40625 4.03125 -4.671875 3.34375 -4.671875 C 2.96875 -4.671875 2.6875 -4.578125 2.515625 -4.421875 L 1.828125 -3.78125 L 1.828125 -4.640625 L 1.734375 -4.671875 C 1.21875 -4.46875 0.703125 -4.328125 0.171875 -4.265625 L 0.171875 -3.984375 L 0.546875 -3.984375 C 0.953125 -3.984375 0.984375 -3.921875 0.984375 -3.265625 L 0.984375 -1.015625 C 0.984375 -0.390625 0.953125 -0.3125 0.625 -0.296875 L 0.15625 -0.265625 Z M 0.15625 0.03125 "/>
</symbol>
<symbol overflow="visible" id="glyph1-20">
<path style="stroke:none;" d="M 0.203125 0.03125 C 0.625 0.015625 1.046875 0 1.46875 0 C 1.875 0 2.265625 0.015625 2.6875 0.03125 L 2.6875 -0.265625 L 2.25 -0.296875 C 1.90625 -0.3125 1.875 -0.390625 1.875 -1.015625 L 1.875 -2.390625 L 4.515625 0.125 L 5.46875 -0.171875 L 5.46875 -0.40625 C 5.234375 -0.40625 4.9375 -0.5625 4.625 -0.875 L 3.375 -2.125 C 3.015625 -2.46875 2.90625 -2.609375 2.734375 -2.796875 L 4.015625 -3.8125 C 4.484375 -4.171875 4.75 -4.28125 5.09375 -4.28125 L 5.09375 -4.578125 L 4.09375 -4.578125 C 3.453125 -3.9375 2.984375 -3.5 2.609375 -3.1875 L 1.875 -2.609375 L 1.875 -7.15625 L 1.78125 -7.234375 C 1.34375 -7.0625 1.015625 -6.984375 0.234375 -6.875 L 0.234375 -6.59375 L 0.78125 -6.59375 C 0.96875 -6.59375 1.03125 -6.484375 1.03125 -6.1875 L 1.03125 -1.015625 C 1.03125 -0.390625 1 -0.3125 0.671875 -0.296875 L 0.203125 -0.265625 Z M 0.203125 0.03125 "/>
</symbol>
<symbol overflow="visible" id="glyph1-21">
<path style="stroke:none;" d="M 0.125 -4.296875 L 0.296875 -4.28125 C 0.546875 -4.25 0.671875 -4.140625 0.8125 -3.78125 L 2.46875 0.234375 L 2.234375 0.84375 C 1.90625 1.6875 1.53125 2.15625 1.140625 2.15625 C 0.984375 2.15625 0.8125 2.078125 0.640625 1.921875 L 0.515625 1.921875 L 0.265625 2.671875 C 0.453125 2.765625 0.625 2.828125 0.8125 2.828125 C 1.46875 2.828125 1.90625 2.46875 2.28125 1.59375 L 4.3125 -3.078125 C 4.703125 -3.984375 4.890625 -4.25 5.140625 -4.28125 L 5.421875 -4.296875 L 5.421875 -4.578125 C 5.109375 -4.5625 4.796875 -4.546875 4.46875 -4.546875 C 4.15625 -4.546875 3.84375 -4.5625 3.53125 -4.578125 L 3.53125 -4.296875 L 3.78125 -4.28125 C 4.203125 -4.25 4.296875 -4.125 4.140625 -3.765625 L 2.953125 -0.859375 C 2.734375 -1.234375 2.640625 -1.46875 2.453125 -1.953125 L 1.8125 -3.625 C 1.640625 -4.0625 1.671875 -4.25 2.046875 -4.28125 L 2.4375 -4.296875 L 2.4375 -4.578125 C 2.046875 -4.5625 1.671875 -4.546875 1.28125 -4.546875 C 0.890625 -4.546875 0.515625 -4.5625 0.125 -4.578125 Z M 0.125 -4.296875 "/>
</symbol>
<symbol overflow="visible" id="glyph1-22">
<path style="stroke:none;" d="M 0.265625 -2.09375 C 0.265625 -0.75 1.203125 0.203125 2.546875 0.203125 C 3.0625 0.203125 3.8125 0.015625 3.90625 -0.140625 L 4.109375 -0.453125 L 4.015625 -0.609375 C 3.65625 -0.40625 3.328125 -0.3125 2.96875 -0.3125 C 1.859375 -0.3125 1.140625 -1.171875 1.140625 -2.5 C 1.140625 -3.5625 1.640625 -4.15625 2.53125 -4.15625 C 2.96875 -4.15625 3.453125 -3.953125 3.625 -3.703125 L 3.703125 -3.09375 L 3.984375 -3.09375 C 3.984375 -3.5625 4.03125 -3.96875 4.109375 -4.328125 C 3.71875 -4.5625 3.375 -4.671875 2.953125 -4.671875 C 2.484375 -4.671875 1.921875 -4.484375 1.328125 -4.109375 C 0.625 -3.671875 0.265625 -2.96875 0.265625 -2.09375 Z M 0.265625 -2.09375 "/>
</symbol>
<symbol overflow="visible" id="glyph1-23">
<path style="stroke:none;" d="M 0.171875 -3.984375 L 0.546875 -3.984375 C 0.953125 -3.984375 0.984375 -3.921875 0.984375 -3.265625 L 0.984375 -1.578125 C 0.984375 -0.890625 1.046875 -0.578125 1.21875 -0.328125 C 1.453125 -0.03125 1.828125 0.125 2.390625 0.125 C 2.84375 0.125 3.234375 -0.015625 3.515625 -0.265625 L 4.171875 -0.890625 C 4.171875 -0.59375 4.171875 -0.4375 4.140625 0.03125 C 4.421875 0.015625 4.6875 0 4.96875 0 C 5.25 0 5.515625 0.015625 5.796875 0.03125 L 5.796875 -0.265625 L 5.390625 -0.296875 C 5.046875 -0.3125 5.015625 -0.375 5.015625 -1.015625 L 5.015625 -4.640625 L 4.921875 -4.671875 C 4.421875 -4.46875 3.890625 -4.328125 3.375 -4.265625 L 3.375 -3.984375 L 3.734375 -3.984375 C 4.140625 -3.984375 4.171875 -3.921875 4.171875 -3.265625 L 4.171875 -1.640625 C 4.171875 -1.421875 4.03125 -1.140625 3.8125 -0.90625 C 3.53125 -0.625 3.203125 -0.484375 2.828125 -0.484375 C 2.46875 -0.484375 2.1875 -0.59375 2.03125 -0.78125 C 1.890625 -0.953125 1.828125 -1.25 1.828125 -1.6875 L 1.828125 -4.640625 L 1.734375 -4.671875 C 1.21875 -4.46875 0.703125 -4.328125 0.171875 -4.265625 Z M 0.171875 -3.984375 "/>
</symbol>
<symbol overflow="visible" id="glyph1-24">
<path style="stroke:none;" d="M -0.15625 -6.59375 L 0.40625 -6.59375 C 0.59375 -6.59375 0.65625 -6.484375 0.65625 -6.1875 L 0.65625 -1.53125 C 0.65625 -0.90625 0.640625 -0.640625 0.578125 0.0625 L 0.734375 0.125 L 1.140625 -0.234375 C 1.53125 0.015625 1.890625 0.125 2.421875 0.125 C 2.8125 0.125 3.078125 0.046875 3.28125 -0.09375 L 4.28125 -0.8125 C 4.71875 -1.140625 5.0625 -1.96875 5.0625 -2.6875 C 5.0625 -3.84375 4.3125 -4.671875 3.265625 -4.671875 C 2.796875 -4.671875 2.296875 -4.5 2.046875 -4.234375 L 1.5 -3.671875 L 1.5 -7.15625 L 1.40625 -7.234375 C 0.96875 -7.0625 0.640625 -6.984375 -0.15625 -6.875 Z M 1.5 -0.921875 L 1.5 -3.078125 C 1.5 -3.203125 1.59375 -3.390625 1.75 -3.5625 C 2.03125 -3.859375 2.421875 -4.03125 2.828125 -4.03125 C 3.671875 -4.03125 4.203125 -3.34375 4.203125 -2.28125 C 4.203125 -1.171875 3.59375 -0.390625 2.75 -0.390625 C 2.234375 -0.390625 1.5 -0.703125 1.5 -0.921875 Z M 1.5 -0.921875 "/>
</symbol>
<symbol overflow="visible" id="glyph1-25">
<path style="stroke:none;" d="M 0.671875 -0.53125 C 0.671875 -0.234375 0.9375 0.046875 1.21875 0.046875 C 1.546875 0.046875 1.828125 -0.21875 1.828125 -0.53125 C 1.828125 -0.828125 1.546875 -1.109375 1.234375 -1.109375 C 0.9375 -1.109375 0.671875 -0.828125 0.671875 -0.53125 Z M 0.671875 -0.53125 "/>
</symbol>
<symbol overflow="visible" id="glyph2-0">
<path style="stroke:none;" d="M 0.859375 0 L 0.859375 -17.21875 L 7.703125 -17.21875 L 7.703125 0 Z M 1.703125 -0.859375 L 6.84375 -0.859375 L 6.84375 -16.359375 L 1.703125 -16.359375 Z M 1.703125 -0.859375 "/>
</symbol>
<symbol overflow="visible" id="glyph2-1">
<path style="stroke:none;" d="M 0 -1.703125 L 0 -10.125 C 0 -10.988281 0.25 -11.648438 0.75 -12.109375 C 1.25 -12.566406 1.929688 -12.796875 2.796875 -12.796875 C 3.273438 -12.773438 3.644531 -12.644531 3.90625 -12.40625 C 4.164062 -12.175781 4.296875 -11.882812 4.296875 -11.53125 L 4.296875 -6.984375 L 4.03125 -7.203125 C 3.53125 -7.648438 2.894531 -7.875 2.125 -7.875 C 1.601562 -7.875 1.160156 -7.6875 0.796875 -7.3125 C 0.441406 -6.9375 0.265625 -6.472656 0.265625 -5.921875 C 0.265625 -5.367188 0.441406 -4.898438 0.796875 -4.515625 C 1.160156 -4.140625 1.601562 -3.953125 2.125 -3.953125 C 2.914062 -3.953125 3.550781 -4.160156 4.03125 -4.578125 L 4.296875 -4.828125 L 4.296875 -0.265625 C 4.296875 0.148438 4.144531 0.46875 3.84375 0.6875 C 3.550781 0.914062 3.203125 1.03125 2.796875 1.03125 C 1.929688 1.019531 1.25 0.773438 0.75 0.296875 C 0.25 -0.171875 0 -0.835938 0 -1.703125 Z M 0 -1.703125 "/>
</symbol>
<symbol overflow="visible" id="glyph2-2">
<path style="stroke:none;" d="M 2.125 -4.375 C 3.570312 -4.375 4.296875 -3.96875 4.296875 -3.15625 L 4.296875 0.9375 C 3.828125 0.445312 3.109375 0.203125 2.140625 0.203125 C 1.179688 0.203125 0.46875 0.445312 0 0.9375 L 0 -3.15625 C 0 -3.96875 0.707031 -4.375 2.125 -4.375 Z M 2.125 -4.375 "/>
</symbol>
<symbol overflow="visible" id="glyph2-3">
<path style="stroke:none;" d="M 0.484375 -9.96875 L 0.484375 7.578125 C 0.234375 7.585938 0.0703125 7.613281 0 7.65625 L 0 -9.890625 C 0.0820312 -9.941406 0.242188 -9.96875 0.484375 -9.96875 Z M 0.484375 -9.96875 "/>
</symbol>
<symbol overflow="visible" id="glyph2-4">
<path style="stroke:none;" d="M 0 -14.234375 L 0.484375 -14.234375 L 0.484375 10.5625 L 0 10.5625 Z M 0 -14.234375 "/>
</symbol>
<symbol overflow="visible" id="glyph2-5">
<path style="stroke:none;" d="M 0 0 L 0 -4.625 C 0.238281 -4.414062 0.453125 -4.273438 0.640625 -4.203125 C 0.835938 -4.140625 1.113281 -4.109375 1.46875 -4.109375 L 1.46875 -9.828125 C 1.46875 -10.148438 1.53125 -10.3125 1.65625 -10.3125 L 1.6875 -10.3125 C 1.820312 -10.289062 1.890625 -10.015625 1.890625 -9.484375 L 1.890625 1.265625 C 0.628906 1.078125 0 0.65625 0 0 Z M 0 0 "/>
</symbol>
<symbol overflow="visible" id="glyph2-6">
<path style="stroke:none;" d="M 0 -3.15625 C 0 -3.96875 0.707031 -4.375 2.125 -4.375 C 3.570312 -4.375 4.296875 -3.96875 4.296875 -3.15625 L 4.296875 0.9375 C 3.828125 0.445312 3.109375 0.203125 2.140625 0.203125 C 1.179688 0.203125 0.46875 0.445312 0 0.9375 Z M 4.296875 -7.203125 C 4.296875 -8.015625 5 -8.421875 6.40625 -8.421875 C 7.851562 -8.421875 8.578125 -8.015625 8.578125 -7.203125 L 8.578125 -3.15625 C 8.109375 -3.613281 7.390625 -3.84375 6.421875 -3.84375 C 5.460938 -3.84375 4.753906 -3.613281 4.296875 -3.15625 Z M 8.578125 -3.15625 C 8.578125 -3.96875 9.285156 -4.375 10.703125 -4.375 C 12.148438 -4.375 12.875 -3.96875 12.875 -3.15625 L 12.875 0.9375 C 12.40625 0.445312 11.6875 0.203125 10.71875 0.203125 C 9.757812 0.203125 9.046875 0.445312 8.578125 0.9375 Z M 8.578125 -3.15625 "/>
</symbol>
<symbol overflow="visible" id="glyph2-7">
<path style="stroke:none;" d="M 3.3125 0.703125 C 3.21875 0.703125 3.035156 0.695312 2.765625 0.6875 C 2.492188 0.675781 2.25 0.671875 2.03125 0.671875 C 1.8125 0.671875 1.5625 0.675781 1.28125 0.6875 C 1 0.695312 0.8125 0.703125 0.71875 0.703125 C 0.414062 0.703125 0.21875 0.6875 0.125 0.65625 C 0.0390625 0.632812 0 0.570312 0 0.46875 L 0 -3 C 0 -3.15625 0.0507812 -3.234375 0.15625 -3.234375 L 0.265625 -3.234375 C 0.378906 -3.210938 0.9375 -3.203125 1.9375 -3.203125 L 2.796875 -3.203125 C 3.097656 -3.203125 3.304688 -3.207031 3.421875 -3.21875 C 3.535156 -3.226562 3.628906 -3.257812 3.703125 -3.3125 C 3.785156 -3.375 3.828125 -3.484375 3.828125 -3.640625 C 3.828125 -4.421875 3.316406 -4.8125 2.296875 -4.8125 C 1.472656 -4.8125 0.800781 -4.628906 0.28125 -4.265625 L 0.28125 -7.59375 C 0.28125 -8.457031 0.953125 -8.890625 2.296875 -8.890625 C 2.828125 -8.890625 3.289062 -8.789062 3.6875 -8.59375 C 4.09375 -8.394531 4.296875 -8.0625 4.296875 -7.59375 L 4.296875 0.4375 C 4.296875 0.539062 4.226562 0.609375 4.09375 0.640625 C 3.96875 0.679688 3.707031 0.703125 3.3125 0.703125 Z M 3.3125 0.703125 "/>
</symbol>
<symbol overflow="visible" id="glyph2-8">
<path style="stroke:none;" d="M 1.546875 -1.484375 C 1.359375 -1.316406 1.144531 -1.234375 0.90625 -1.234375 C 0.675781 -1.234375 0.46875 -1.316406 0.28125 -1.484375 C 0.09375 -1.660156 0 -1.882812 0 -2.15625 C 0 -2.425781 0.09375 -2.644531 0.28125 -2.8125 C 0.46875 -2.988281 0.675781 -3.078125 0.90625 -3.078125 C 1.144531 -3.078125 1.359375 -2.988281 1.546875 -2.8125 C 1.734375 -2.644531 1.828125 -2.425781 1.828125 -2.15625 C 1.828125 -1.882812 1.734375 -1.660156 1.546875 -1.484375 Z M 1.546875 -1.484375 "/>
</symbol>
<symbol overflow="visible" id="glyph3-0">
<path style="stroke:none;" d="M 0.5 0 L 4.484375 0 L 4.484375 -4.828125 L 0.5 -4.828125 Z M 1 -0.5 L 1 -4.328125 L 3.984375 -4.328125 L 3.984375 -0.5 Z M 1 -0.5 "/>
</symbol>
<symbol overflow="visible" id="glyph3-1">
<path style="stroke:none;" d="M 0.234375 0.03125 C 0.625 0.015625 0.984375 0 1.359375 0 C 1.75 0 2.109375 0.015625 2.5 0.03125 L 2.5 -0.34375 L 2 -0.375 C 1.6875 -0.390625 1.671875 -0.71875 1.75 -0.9375 L 2.171875 -2.046875 L 4.671875 -2.046875 L 5.125 -0.921875 C 5.1875 -0.75 5.25 -0.390625 4.984375 -0.375 L 4.453125 -0.34375 L 4.453125 0.03125 C 4.96875 0.015625 5.46875 0 5.96875 0 C 6.5 0 7.015625 0.015625 7.546875 0.03125 L 7.546875 -0.34375 L 7.3125 -0.375 C 7.03125 -0.40625 6.890625 -0.515625 6.765625 -0.8125 L 4.171875 -6.84375 L 3.46875 -6.84375 L 2.90625 -5.328125 L 1.09375 -0.96875 C 0.9375 -0.578125 0.75 -0.390625 0.53125 -0.375 L 0.234375 -0.34375 Z M 2.40625 -2.609375 L 3.40625 -5.140625 L 4.453125 -2.609375 Z M 2.40625 -2.609375 "/>
</symbol>
<symbol overflow="visible" id="glyph3-2">
<path style="stroke:none;" d="M 0.234375 0.03125 C 0.671875 0.015625 1.09375 0 1.53125 0 C 1.9375 0 2.375 0.015625 2.796875 0.03125 L 2.796875 -0.34375 L 2.515625 -0.359375 C 2.203125 -0.375 2.15625 -0.453125 2.15625 -1 L 2.15625 -3.15625 C 2.15625 -3.484375 2.578125 -3.84375 2.96875 -3.84375 C 3.546875 -3.84375 3.828125 -3.453125 3.828125 -2.6875 L 3.828125 -1 C 3.828125 -0.453125 3.78125 -0.375 3.46875 -0.359375 L 3.15625 -0.34375 L 3.15625 0.03125 C 3.59375 0.015625 4.015625 0 4.453125 0 C 4.890625 0 5.3125 0.015625 5.75 0.03125 L 5.75 -0.34375 L 5.40625 -0.359375 C 5.09375 -0.375 5.046875 -0.453125 5.046875 -1 L 5.046875 -3.15625 C 5.046875 -3.484375 5.453125 -3.84375 5.859375 -3.84375 C 6.4375 -3.84375 6.703125 -3.453125 6.703125 -2.6875 L 6.703125 0.03125 C 7.015625 0.015625 7.328125 0 7.640625 0 C 7.96875 0 8.28125 0.015625 8.609375 0.03125 L 8.609375 -0.34375 L 8.28125 -0.359375 C 7.96875 -0.375 7.921875 -0.453125 7.921875 -1 L 7.921875 -2.84375 C 7.921875 -4.234375 7.5625 -4.6875 6.5 -4.6875 C 6.171875 -4.6875 5.953125 -4.640625 5.78125 -4.5 L 4.984375 -3.890625 C 4.75 -4.453125 4.359375 -4.6875 3.671875 -4.6875 C 3.34375 -4.6875 3.125 -4.640625 2.953125 -4.5 L 2.15625 -3.890625 L 2.15625 -4.640625 L 2.109375 -4.6875 C 1.0625 -4.359375 0.78125 -4.296875 0.234375 -4.265625 L 0.234375 -3.90625 L 0.6875 -3.875 C 0.921875 -3.859375 0.953125 -3.765625 0.953125 -3.1875 L 0.953125 -1 C 0.953125 -0.453125 0.890625 -0.375 0.59375 -0.359375 L 0.234375 -0.34375 Z M 0.234375 0.03125 "/>
</symbol>
<symbol overflow="visible" id="glyph3-3">
<path style="stroke:none;" d="M 0.421875 -2.25 C 0.421875 -0.671875 1.203125 0.171875 2.703125 0.171875 C 3.28125 0.171875 3.625 0.0625 4.28125 -0.265625 L 4.5 -0.734375 L 4.375 -0.890625 C 3.90625 -0.625 3.609375 -0.53125 3.203125 -0.53125 C 2.703125 -0.53125 2.21875 -0.8125 1.96875 -1.21875 C 1.796875 -1.5 1.734375 -1.75 1.71875 -2.21875 L 3.015625 -2.21875 C 3.59375 -2.21875 4.03125 -2.28125 4.59375 -2.421875 L 4.59375 -2.9375 C 4.59375 -4 3.859375 -4.6875 2.703125 -4.6875 C 2.359375 -4.6875 2.109375 -4.625 1.828125 -4.46875 L 1.359375 -4.1875 C 0.703125 -3.796875 0.421875 -3.203125 0.421875 -2.25 Z M 1.65625 -2.75 C 1.65625 -3.734375 1.921875 -4.140625 2.5 -4.140625 C 3.078125 -4.140625 3.328125 -3.734375 3.328125 -2.75 C 3.328125 -2.75 2.828125 -2.71875 2.5 -2.71875 C 2.296875 -2.71875 2.546875 -2.71875 1.96875 -2.734375 Z M 1.65625 -2.75 "/>
</symbol>
<symbol overflow="visible" id="glyph3-4">
<path style="stroke:none;" d="M 0.234375 0.03125 C 0.671875 0.015625 1.09375 0 1.53125 0 C 1.96875 0 2.421875 0.015625 2.875 0.03125 L 2.875 -0.34375 L 2.515625 -0.359375 C 2.21875 -0.375 2.15625 -0.453125 2.15625 -1 L 2.15625 -3.15625 C 2.15625 -3.515625 2.578125 -3.84375 3.015625 -3.84375 C 3.671875 -3.84375 3.953125 -3.484375 3.953125 -2.6875 L 3.953125 0.03125 C 4.25 0.015625 4.546875 0 4.84375 0 C 5.1875 0 5.515625 0.015625 5.859375 0.03125 L 5.859375 -0.34375 L 5.515625 -0.359375 C 5.21875 -0.375 5.15625 -0.453125 5.15625 -1 L 5.15625 -2.84375 C 5.15625 -3.625 5.078125 -4 4.8125 -4.28125 C 4.5625 -4.546875 4.140625 -4.6875 3.65625 -4.6875 C 3.359375 -4.6875 3.125 -4.640625 2.953125 -4.5 L 2.15625 -3.890625 L 2.15625 -4.640625 L 2.109375 -4.6875 C 1.0625 -4.359375 0.78125 -4.296875 0.234375 -4.265625 L 0.234375 -3.90625 L 0.6875 -3.875 C 0.921875 -3.859375 0.953125 -3.765625 0.953125 -3.1875 L 0.953125 -1 C 0.953125 -0.453125 0.890625 -0.375 0.59375 -0.359375 L 0.234375 -0.34375 Z M 0.234375 0.03125 "/>
</symbol>
<symbol overflow="visible" id="glyph3-5">
<path style="stroke:none;" d="M 0.46875 -0.640625 C 0.46875 -0.234375 0.828125 0.125 1.234375 0.125 C 1.65625 0.125 2.03125 -0.234375 2.03125 -0.640625 C 2.03125 -1.0625 1.65625 -1.4375 1.25 -1.4375 C 0.84375 -1.4375 0.46875 -1.0625 0.46875 -0.640625 Z M 0.46875 -0.640625 "/>
</symbol>
</g>
<clipPath id="clip1">
  <path d="M 44 1 L 347.761719 1 L 347.761719 2 L 44 2 Z M 44 1 "/>
</clipPath>
<clipPath id="clip2">
  <path d="M 44 9 L 347.761719 9 L 347.761719 10 L 44 10 Z M 44 9 "/>
</clipPath>
<clipPath id="clip3">
  <path d="M 44 17 L 347.761719 17 L 347.761719 18 L 44 18 Z M 44 17 "/>
</clipPath>
<clipPath id="clip4">
  <path d="M 44 25 L 347.761719 25 L 347.761719 27 L 44 27 Z M 44 25 "/>
</clipPath>
<clipPath id="clip5">
  <path d="M 345 5 L 347.761719 5 L 347.761719 17 L 345 17 Z M 345 5 "/>
</clipPath>
<clipPath id="clip6">
  <path d="M 0 56 L 347.761719 56 L 347.761719 57 L 0 57 Z M 0 56 "/>
</clipPath>
<clipPath id="clip7">
  <path d="M 0 64 L 347.761719 64 L 347.761719 65 L 0 65 Z M 0 64 "/>
</clipPath>
<clipPath id="clip8">
  <path d="M 0 72 L 347.761719 72 L 347.761719 73 L 0 73 Z M 0 72 "/>
</clipPath>
<clipPath id="clip9">
  <path d="M 0 80 L 347.761719 80 L 347.761719 81 L 0 81 Z M 0 80 "/>
</clipPath>
<clipPath id="clip10">
  <path d="M 345 68 L 347.761719 68 L 347.761719 80 L 345 80 Z M 345 68 "/>
</clipPath>
<clipPath id="clip11">
  <path d="M 0 110 L 347.761719 110 L 347.761719 112 L 0 112 Z M 0 110 "/>
</clipPath>
<clipPath id="clip12">
  <path d="M 0 118 L 347.761719 118 L 347.761719 120 L 0 120 Z M 0 118 "/>
</clipPath>
<clipPath id="clip13">
  <path d="M 0 127 L 347.761719 127 L 347.761719 128 L 0 128 Z M 0 127 "/>
</clipPath>
<clipPath id="clip14">
  <path d="M 0 135 L 347.761719 135 L 347.761719 136 L 0 136 Z M 0 135 "/>
</clipPath>
</defs>
<g id="surface1">
<g style="fill:rgb(0%,0%,0%);fill-opacity:1;">
  <use xlink:href="#glyph0-1" x="5.669" y="43.217"/>
</g>
<g style="fill:rgb(0%,0%,0%);fill-opacity:1;">
  <use xlink:href="#glyph1-1" x="13.594" y="6.894"/>
  <use xlink:href="#glyph1-2" x="20.787026" y="6.894"/>
  <use xlink:href="#glyph1-2" x="24.144436" y="6.894"/>
  <use xlink:href="#glyph1-2" x="27.501845" y="6.894"/>
</g>
<g clip-path="url(#clip1)" clip-rule="nonzero">
<path style="fill:none;stroke-width:0.388;stroke-linecap:butt;stroke-linejoin:miter;stroke:rgb(0%,0%,0%);stroke-opacity:1;stroke-miterlimit:10;" d="M -0.000875 0.00103125 L 303.307719 0.00103125 " transform="matrix(1,0,0,-1,44.454,1.419)"/>
</g>
<g clip-path="url(#clip2)" clip-rule="nonzero">
<path style="fill:none;stroke-width:0.388;stroke-linecap:butt;stroke-linejoin:miter;stroke:rgb(0%,0%,0%);stroke-opacity:1;stroke-miterlimit:10;" d="M -0.000875 0.00040625 L 303.307719 0.00040625 " transform="matrix(1,0,0,-1,44.454,9.559)"/>
</g>
<g clip-path="url(#clip3)" clip-rule="nonzero">
<path style="fill:none;stroke-width:0.388;stroke-linecap:butt;stroke-linejoin:miter;stroke:rgb(0%,0%,0%);stroke-opacity:1;stroke-miterlimit:10;" d="M -0.000875 0.00078125 L 303.307719 0.00078125 " transform="matrix(1,0,0,-1,44.454,17.7)"/>
</g>
<g clip-path="url(#clip4)" clip-rule="nonzero">
<path style="fill:none;stroke-width:0.388;stroke-linecap:butt;stroke-linejoin:miter;stroke:rgb(0%,0%,0%);stroke-opacity:1;stroke-miterlimit:10;" d="M -0.000875 0.00015625 L 303.307719 0.00015625 " transform="matrix(1,0,0,-1,44.454,25.84)"/>
</g>
<g style="fill:rgb(0%,0%,0%);fill-opacity:1;">
  <use xlink:href="#glyph2-1" x="44.454" y="15.439"/>
</g>
<g style="fill:rgb(0%,0%,0%);fill-opacity:1;">
  <use xlink:href="#glyph1-3" x="49.305" y="43.217"/>
</g>
<g style="fill:rgb(0%,0%,0%);fill-opacity:1;">
  <use xlink:href="#glyph1-4" x="54.495535" y="43.217"/>
  <use xlink:href="#glyph1-5" x="62.804377" y="43.217"/>
</g>
<g style="fill:rgb(0%,0%,0%);fill-opacity:1;">
  <use xlink:href="#glyph2-2" x="55.155" y="19.509"/>
</g>
<g style="fill:rgb(0%,0%,0%);fill-opacity:1;">
  <use xlink:href="#glyph1-4" x="69.718" y="43.217"/>
  <use xlink:href="#glyph1-6" x="78.026842" y="43.217"/>
  <use xlink:href="#glyph1-7" x="80.886119" y="43.217"/>
</g>
<g style="fill:rgb(0%,0%,0%);fill-opacity:1;">
  <use xlink:href="#glyph1-8" x="84.28338" y="43.217"/>
</g>
<g style="fill:rgb(0%,0%,0%);fill-opacity:1;">
  <use xlink:href="#glyph2-2" x="77.755" y="11.368"/>
</g>
<g style="fill:rgb(0%,0%,0%);fill-opacity:1;">
  <use xlink:href="#glyph1-7" x="94.504" y="43.217"/>
</g>
<g style="fill:rgb(0%,0%,0%);fill-opacity:1;">
  <use xlink:href="#glyph1-8" x="97.90126" y="43.217"/>
  <use xlink:href="#glyph1-9" x="103.699517" y="43.217"/>
</g>
<g style="fill:rgb(0%,0%,0%);fill-opacity:1;">
  <use xlink:href="#glyph2-2" x="99.343" y="11.368"/>
</g>
<g style="fill:rgb(0%,0%,0%);fill-opacity:1;">
  <use xlink:href="#glyph1-10" x="112.894" y="43.217"/>
</g>
<g style="fill:rgb(0%,0%,0%);fill-opacity:1;">
  <use xlink:href="#glyph1-11" x="116.111933" y="43.217"/>
  <use xlink:href="#glyph1-12" x="121.093253" y="43.217"/>
</g>
<g style="fill:rgb(0%,0%,0%);fill-opacity:1;">
  <use xlink:href="#glyph1-7" x="125.167972" y="43.217"/>
</g>
<g style="fill:rgb(0%,0%,0%);fill-opacity:1;">
  <use xlink:href="#glyph2-2" x="118.51" y="11.368"/>
</g>
<g style="fill:rgb(0%,0%,0%);fill-opacity:1;">
  <use xlink:href="#glyph1-13" x="132.839" y="43.217"/>
  <use xlink:href="#glyph1-9" x="138.926173" y="43.217"/>
</g>
<g style="fill:rgb(0%,0%,0%);fill-opacity:1;">
  <use xlink:href="#glyph2-2" x="136.124" y="11.368"/>
</g>
<g style="fill:rgb(0%,0%,0%);fill-opacity:1;">
  <use xlink:href="#glyph1-14" x="143.698" y="43.217"/>
  <use xlink:href="#glyph1-11" x="149.685547" y="43.217"/>
  <use xlink:href="#glyph1-15" x="154.666867" y="43.217"/>
</g>
<g style="fill:rgb(0%,0%,0%);fill-opacity:1;">
  <use xlink:href="#glyph2-2" x="149.005" y="7.298"/>
</g>
<g style="fill:rgb(0%,0%,0%);fill-opacity:1;">
  <use xlink:href="#glyph1-7" x="158.602" y="43.217"/>
  <use xlink:href="#glyph1-6" x="161.849821" y="43.217"/>
  <use xlink:href="#glyph1-16" x="164.709098" y="43.217"/>
  <use xlink:href="#glyph1-17" x="170.507355" y="43.217"/>
</g>
<g style="fill:rgb(0%,0%,0%);fill-opacity:1;">
  <use xlink:href="#glyph2-2" x="165.18" y="11.368"/>
</g>
<g style="fill:rgb(0%,0%,0%);fill-opacity:1;">
  <use xlink:href="#glyph1-18" x="180.469" y="43.217"/>
  <use xlink:href="#glyph1-6" x="183.368128" y="43.217"/>
  <use xlink:href="#glyph1-17" x="186.227406" y="43.217"/>
  <use xlink:href="#glyph1-8" x="191.766634" y="43.217"/>
  <use xlink:href="#glyph1-7" x="197.56489" y="43.217"/>
  <use xlink:href="#glyph1-5" x="200.812711" y="43.217"/>
</g>
<g style="fill:rgb(0%,0%,0%);fill-opacity:1;">
  <use xlink:href="#glyph2-2" x="189.742" y="15.439"/>
</g>
<g style="fill:rgb(0%,0%,0%);fill-opacity:1;">
  <use xlink:href="#glyph2-3" x="203.283748" y="15.439"/>
</g>
<g style="fill:rgb(0%,0%,0%);fill-opacity:1;">
  <use xlink:href="#glyph1-19" x="208.294" y="43.217"/>
  <use xlink:href="#glyph1-11" x="217.091011" y="43.217"/>
</g>
<g style="fill:rgb(0%,0%,0%);fill-opacity:1;">
  <use xlink:href="#glyph2-2" x="213.038" y="19.509"/>
</g>
<g style="fill:rgb(0%,0%,0%);fill-opacity:1;">
  <use xlink:href="#glyph1-20" x="222.072" y="43.217"/>
</g>
<g style="fill:rgb(0%,0%,0%);fill-opacity:1;">
  <use xlink:href="#glyph1-9" x="227.511601" y="43.217"/>
  <use xlink:href="#glyph1-15" x="232.283706" y="43.217"/>
</g>
<g style="fill:rgb(0%,0%,0%);fill-opacity:1;">
  <use xlink:href="#glyph2-2" x="227" y="19.509"/>
</g>
<g style="fill:rgb(0%,0%,0%);fill-opacity:1;">
  <use xlink:href="#glyph1-3" x="240.642" y="43.217"/>
  <use xlink:href="#glyph1-10" x="246.081601" y="43.217"/>
</g>
<g style="fill:rgb(0%,0%,0%);fill-opacity:1;">
  <use xlink:href="#glyph2-2" x="242.875" y="19.509"/>
</g>
<g style="fill:rgb(0%,0%,0%);fill-opacity:1;">
  <use xlink:href="#glyph1-11" x="253.821" y="43.217"/>
  <use xlink:href="#glyph1-18" x="258.80232" y="43.217"/>
  <use xlink:href="#glyph1-18" x="261.701448" y="43.217"/>
</g>
<g style="fill:rgb(0%,0%,0%);fill-opacity:1;">
  <use xlink:href="#glyph2-2" x="257.066" y="19.509"/>
</g>
<g style="fill:rgb(0%,0%,0%);fill-opacity:1;">
  <use xlink:href="#glyph1-4" x="269.024" y="43.217"/>
</g>
<g style="fill:rgb(0%,0%,0%);fill-opacity:1;">
  <use xlink:href="#glyph1-9" x="276.934336" y="43.217"/>
</g>
<g style="fill:rgb(0%,0%,0%);fill-opacity:1;">
  <use xlink:href="#glyph2-2" x="273.22" y="19.509"/>
</g>
<g style="fill:rgb(0%,0%,0%);fill-opacity:1;">
  <use xlink:href="#glyph1-11" x="286.129" y="43.217"/>
  <use xlink:href="#glyph1-12" x="291.11032" y="43.217"/>
  <use xlink:href="#glyph1-20" x="295.334479" y="43.217"/>
</g>
<g style="fill:rgb(0%,0%,0%);fill-opacity:1;">
  <use xlink:href="#glyph2-2" x="291.356" y="15.439"/>
</g>
<g style="fill:rgb(0%,0%,0%);fill-opacity:1;">
  <use xlink:href="#glyph1-3" x="305.296" y="43.217"/>
  <use xlink:href="#glyph1-10" x="310.735601" y="43.217"/>
</g>
<g style="fill:rgb(0%,0%,0%);fill-opacity:1;">
  <use xlink:href="#glyph2-2" x="307.53" y="19.509"/>
</g>
<g style="fill:rgb(0%,0%,0%);fill-opacity:1;">
  <use xlink:href="#glyph1-7" x="318.476" y="43.217"/>
</g>
<g style="fill:rgb(0%,0%,0%);fill-opacity:1;">
  <use xlink:href="#glyph1-8" x="321.87326" y="43.217"/>
  <use xlink:href="#glyph1-9" x="327.671517" y="43.217"/>
  <use xlink:href="#glyph1-9" x="332.443621" y="43.217"/>
  <use xlink:href="#glyph1-5" x="337.215726" y="43.217"/>
</g>
<g style="fill:rgb(0%,0%,0%);fill-opacity:1;">
  <use xlink:href="#glyph2-2" x="326.946" y="23.579"/>
</g>
<g style="fill:rgb(0%,0%,0%);fill-opacity:1;">
  <use xlink:href="#glyph2-4" x="338.837" y="15.439"/>
</g>
<g clip-path="url(#clip5)" clip-rule="nonzero">
<g style="fill:rgb(0%,0%,0%);fill-opacity:1;">
  <use xlink:href="#glyph2-5" x="345.840461" y="15.439"/>
</g>
</g>
<g clip-path="url(#clip6)" clip-rule="nonzero">
<path style="fill:none;stroke-width:0.388;stroke-linecap:butt;stroke-linejoin:miter;stroke:rgb(0%,0%,0%);stroke-opacity:1;stroke-miterlimit:10;" d="M 0 -0.00184375 L 347.761719 -0.00184375 " transform="matrix(1,0,0,-1,0,56.213)"/>
</g>
<g clip-path="url(#clip7)" clip-rule="nonzero">
<path style="fill:none;stroke-width:0.388;stroke-linecap:butt;stroke-linejoin:miter;stroke:rgb(0%,0%,0%);stroke-opacity:1;stroke-miterlimit:10;" d="M 0 -0.00146875 L 347.761719 -0.00146875 " transform="matrix(1,0,0,-1,0,64.354)"/>
</g>
<g clip-path="url(#clip8)" clip-rule="nonzero">
<path style="fill:none;stroke-width:0.388;stroke-linecap:butt;stroke-linejoin:miter;stroke:rgb(0%,0%,0%);stroke-opacity:1;stroke-miterlimit:10;" d="M 0 0.0018125 L 347.761719 0.0018125 " transform="matrix(1,0,0,-1,0,72.494)"/>
</g>
<g clip-path="url(#clip9)" clip-rule="nonzero">
<path style="fill:none;stroke-width:0.388;stroke-linecap:butt;stroke-linejoin:miter;stroke:rgb(0%,0%,0%);stroke-opacity:1;stroke-miterlimit:10;" d="M 0 -0.00171875 L 347.761719 -0.00171875 " transform="matrix(1,0,0,-1,0,80.635)"/>
</g>
<g style="fill:rgb(0%,0%,0%);fill-opacity:1;">
  <use xlink:href="#glyph2-1" x="0" y="70.233"/>
</g>
<g style="fill:rgb(0%,0%,0%);fill-opacity:1;">
  <use xlink:href="#glyph1-3" x="8.576" y="98.012"/>
  <use xlink:href="#glyph1-10" x="14.015601" y="98.012"/>
</g>
<g style="fill:rgb(0%,0%,0%);fill-opacity:1;">
  <use xlink:href="#glyph2-2" x="10.81" y="70.233"/>
</g>
<g style="fill:rgb(0%,0%,0%);fill-opacity:1;">
  <use xlink:href="#glyph1-7" x="21.323" y="98.012"/>
</g>
<g style="fill:rgb(0%,0%,0%);fill-opacity:1;">
  <use xlink:href="#glyph1-8" x="24.72026" y="98.012"/>
</g>
<g style="fill:rgb(0%,0%,0%);fill-opacity:1;">
  <use xlink:href="#glyph1-21" x="30.169824" y="98.012"/>
</g>
<g style="fill:rgb(0%,0%,0%);fill-opacity:1;">
  <use xlink:href="#glyph2-2" x="26.371" y="70.233"/>
</g>
<g style="fill:rgb(0%,0%,0%);fill-opacity:1;">
  <use xlink:href="#glyph1-17" x="39.699" y="98.012"/>
</g>
<g style="fill:rgb(0%,0%,0%);fill-opacity:1;">
  <use xlink:href="#glyph1-15" x="45.387667" y="98.012"/>
  <use xlink:href="#glyph1-9" x="49.32291" y="98.012"/>
  <use xlink:href="#glyph1-11" x="54.095015" y="98.012"/>
  <use xlink:href="#glyph1-7" x="59.076335" y="98.012"/>
</g>
<g style="fill:rgb(0%,0%,0%);fill-opacity:1;">
  <use xlink:href="#glyph2-2" x="48.866" y="74.303"/>
</g>
<g style="fill:rgb(0%,0%,0%);fill-opacity:1;">
  <use xlink:href="#glyph1-19" x="66.314" y="98.012"/>
  <use xlink:href="#glyph1-9" x="75.111011" y="98.012"/>
  <use xlink:href="#glyph1-15" x="79.883116" y="98.012"/>
</g>
<g style="fill:rgb(0%,0%,0%);fill-opacity:1;">
  <use xlink:href="#glyph2-2" x="72.921" y="78.374"/>
</g>
<g style="fill:rgb(0%,0%,0%);fill-opacity:1;">
  <use xlink:href="#glyph1-22" x="83.818" y="98.012"/>
  <use xlink:href="#glyph1-21" x="88.241412" y="98.012"/>
</g>
<g style="fill:rgb(0%,0%,0%);fill-opacity:1;">
  <use xlink:href="#glyph2-2" x="86.655" y="82.444"/>
</g>
<g style="fill:rgb(0%,0%,0%);fill-opacity:1;">
  <use xlink:href="#glyph1-7" x="97.771" y="98.012"/>
</g>
<g style="fill:rgb(0%,0%,0%);fill-opacity:1;">
  <use xlink:href="#glyph1-8" x="101.16826" y="98.012"/>
  <use xlink:href="#glyph1-15" x="106.966517" y="98.012"/>
  <use xlink:href="#glyph1-3" x="110.90176" y="98.012"/>
  <use xlink:href="#glyph1-23" x="116.341361" y="98.012"/>
  <use xlink:href="#glyph1-17" x="122.348833" y="98.012"/>
  <use xlink:href="#glyph1-8" x="127.888061" y="98.012"/>
</g>
<g style="fill:rgb(0%,0%,0%);fill-opacity:1;">
  <use xlink:href="#glyph2-2" x="113.583" y="78.374"/>
</g>
<g style="fill:rgb(0%,0%,0%);fill-opacity:1;">
  <use xlink:href="#glyph1-7" x="137.676" y="98.012"/>
</g>
<g style="fill:rgb(0%,0%,0%);fill-opacity:1;">
  <use xlink:href="#glyph1-8" x="141.07326" y="98.012"/>
  <use xlink:href="#glyph1-9" x="146.871517" y="98.012"/>
</g>
<g style="fill:rgb(0%,0%,0%);fill-opacity:1;">
  <use xlink:href="#glyph2-2" x="142.515" y="74.303"/>
</g>
<g style="fill:rgb(0%,0%,0%);fill-opacity:1;">
  <use xlink:href="#glyph1-16" x="155.633" y="98.012"/>
  <use xlink:href="#glyph1-6" x="161.431256" y="98.012"/>
  <use xlink:href="#glyph1-17" x="164.290534" y="98.012"/>
  <use xlink:href="#glyph1-8" x="169.829762" y="98.012"/>
  <use xlink:href="#glyph1-7" x="175.628018" y="98.012"/>
  <use xlink:href="#glyph1-5" x="178.875839" y="98.012"/>
</g>
<g style="fill:rgb(0%,0%,0%);fill-opacity:1;">
  <use xlink:href="#glyph2-2" x="166.355" y="74.303"/>
</g>
<g style="fill:rgb(0%,0%,0%);fill-opacity:1;">
  <use xlink:href="#glyph2-3" x="180.812" y="70.233"/>
</g>
<g style="fill:rgb(0%,0%,0%);fill-opacity:1;">
  <use xlink:href="#glyph1-3" x="185.924" y="98.012"/>
  <use xlink:href="#glyph1-23" x="191.363601" y="98.012"/>
  <use xlink:href="#glyph1-15" x="197.371073" y="98.012"/>
</g>
<g style="fill:rgb(0%,0%,0%);fill-opacity:1;">
  <use xlink:href="#glyph2-2" x="191.47" y="74.303"/>
</g>
<g style="fill:rgb(0%,0%,0%);fill-opacity:1;">
  <use xlink:href="#glyph1-17" x="205.296" y="98.012"/>
  <use xlink:href="#glyph1-23" x="210.835228" y="98.012"/>
  <use xlink:href="#glyph1-11" x="216.8427" y="98.012"/>
  <use xlink:href="#glyph1-15" x="221.82402" y="98.012"/>
</g>
<g style="fill:rgb(0%,0%,0%);fill-opacity:1;">
  <use xlink:href="#glyph1-13" x="225.609823" y="98.012"/>
</g>
<g style="fill:rgb(0%,0%,0%);fill-opacity:1;">
  <use xlink:href="#glyph2-2" x="216.352" y="66.163"/>
</g>
<g style="fill:rgb(0%,0%,0%);fill-opacity:1;">
  <use xlink:href="#glyph1-6" x="231.697" y="98.012"/>
  <use xlink:href="#glyph1-11" x="234.556278" y="98.012"/>
  <use xlink:href="#glyph1-16" x="239.537598" y="98.012"/>
</g>
<g style="fill:rgb(0%,0%,0%);fill-opacity:1;">
  <use xlink:href="#glyph2-2" x="236.372" y="66.163"/>
</g>
<g style="fill:rgb(0%,0%,0%);fill-opacity:1;">
  <use xlink:href="#glyph1-11" x="249.326" y="98.012"/>
  <use xlink:href="#glyph1-16" x="254.30732" y="98.012"/>
  <use xlink:href="#glyph1-13" x="260.105576" y="98.012"/>
</g>
<g style="fill:rgb(0%,0%,0%);fill-opacity:1;">
  <use xlink:href="#glyph2-2" x="255.614" y="70.233"/>
</g>
<g style="fill:rgb(0%,0%,0%);fill-opacity:1;">
  <use xlink:href="#glyph1-13" x="270.183" y="98.012"/>
  <use xlink:href="#glyph1-9" x="276.270173" y="98.012"/>
</g>
<g style="fill:rgb(0%,0%,0%);fill-opacity:1;">
  <use xlink:href="#glyph2-2" x="273.467" y="74.303"/>
</g>
<g style="fill:rgb(0%,0%,0%);fill-opacity:1;">
  <use xlink:href="#glyph1-10" x="281.042" y="98.012"/>
</g>
<g style="fill:rgb(0%,0%,0%);fill-opacity:1;">
  <use xlink:href="#glyph1-9" x="284.21012" y="98.012"/>
  <use xlink:href="#glyph1-16" x="288.982224" y="98.012"/>
  <use xlink:href="#glyph1-22" x="294.780481" y="98.012"/>
  <use xlink:href="#glyph1-9" x="299.203893" y="98.012"/>
</g>
<g style="fill:rgb(0%,0%,0%);fill-opacity:1;">
  <use xlink:href="#glyph2-2" x="290.364" y="70.233"/>
</g>
<g style="fill:rgb(0%,0%,0%);fill-opacity:1;">
  <use xlink:href="#glyph1-7" x="307.966" y="98.012"/>
</g>
<g style="fill:rgb(0%,0%,0%);fill-opacity:1;">
  <use xlink:href="#glyph1-3" x="311.114194" y="98.012"/>
</g>
<g style="fill:rgb(0%,0%,0%);fill-opacity:1;">
  <use xlink:href="#glyph2-2" x="310.115" y="74.303"/>
</g>
<g style="fill:rgb(0%,0%,0%);fill-opacity:1;">
  <use xlink:href="#glyph1-24" x="320.543" y="98.012"/>
  <use xlink:href="#glyph1-9" x="326.05234" y="98.012"/>
  <use xlink:href="#glyph1-25" x="330.824444" y="98.012"/>
</g>
<g style="fill:rgb(0%,0%,0%);fill-opacity:1;">
  <use xlink:href="#glyph2-2" x="324.784" y="78.374"/>
</g>
<g style="fill:rgb(0%,0%,0%);fill-opacity:1;">
  <use xlink:href="#glyph2-4" x="335.245" y="70.233"/>
</g>
<g style="fill:rgb(0%,0%,0%);fill-opacity:1;">
  <use xlink:href="#glyph2-4" x="338.837181" y="70.233"/>
</g>
<g clip-path="url(#clip10)" clip-rule="nonzero">
<g style="fill:rgb(0%,0%,0%);fill-opacity:1;">
  <use xlink:href="#glyph2-5" x="345.848" y="78.374"/>
</g>
</g>
<g clip-path="url(#clip11)" clip-rule="nonzero">
<path style="fill:none;stroke-width:0.388;stroke-linecap:butt;stroke-linejoin:miter;stroke:rgb(0%,0%,0%);stroke-opacity:1;stroke-miterlimit:10;" d="M 0 0.0001875 L 347.761719 0.0001875 " transform="matrix(1,0,0,-1,0,111.008)"/>
</g>
<g clip-path="url(#clip12)" clip-rule="nonzero">
<path style="fill:none;stroke-width:0.388;stroke-linecap:butt;stroke-linejoin:miter;stroke:rgb(0%,0%,0%);stroke-opacity:1;stroke-miterlimit:10;" d="M 0 -0.0004375 L 347.761719 -0.0004375 " transform="matrix(1,0,0,-1,0,119.148)"/>
</g>
<g clip-path="url(#clip13)" clip-rule="nonzero">
<path style="fill:none;stroke-width:0.388;stroke-linecap:butt;stroke-linejoin:miter;stroke:rgb(0%,0%,0%);stroke-opacity:1;stroke-miterlimit:10;" d="M 0 -0.0000625 L 347.761719 -0.0000625 " transform="matrix(1,0,0,-1,0,127.289)"/>
</g>
<g clip-path="url(#clip14)" clip-rule="nonzero">
<path style="fill:none;stroke-width:0.388;stroke-linecap:butt;stroke-linejoin:miter;stroke:rgb(0%,0%,0%);stroke-opacity:1;stroke-miterlimit:10;" d="M 0 -0.0006875 L 347.761719 -0.0006875 " transform="matrix(1,0,0,-1,0,135.429)"/>
</g>
<g style="fill:rgb(0%,0%,0%);fill-opacity:1;">
  <use xlink:href="#glyph2-1" x="0" y="125.028"/>
</g>
<g style="fill:rgb(0%,0%,0%);fill-opacity:1;">
  <use xlink:href="#glyph3-1" x="9.079" y="152.806"/>
</g>
<g style="fill:rgb(0%,0%,0%);fill-opacity:1;">
  <use xlink:href="#glyph2-6" x="10.81" y="133.168"/>
</g>
<g style="fill:rgb(0%,0%,0%);fill-opacity:1;">
  <use xlink:href="#glyph3-2" x="16.83" y="152.806"/>
  <use xlink:href="#glyph3-3" x="25.686787" y="152.806"/>
  <use xlink:href="#glyph3-4" x="30.668107" y="152.806"/>
  <use xlink:href="#glyph3-5" x="36.75528" y="152.806"/>
</g>
<g style="fill:rgb(0%,0%,0%);fill-opacity:1;">
  <use xlink:href="#glyph2-7" x="31.567" y="137.238"/>
</g>
<g style="fill:rgb(0%,0%,0%);fill-opacity:1;">
  <use xlink:href="#glyph2-8" x="37.274" y="140.012"/>
</g>
<g style="fill:rgb(0%,0%,0%);fill-opacity:1;">
  <use xlink:href="#glyph2-8" x="37.274" y="133.739"/>
</g>
<g style="fill:rgb(0%,0%,0%);fill-opacity:1;">
  <use xlink:href="#glyph2-4" x="45.542" y="125.028"/>
</g>
<g style="fill:rgb(0%,0%,0%);fill-opacity:1;">
  <use xlink:href="#glyph2-4" x="49.134181" y="125.028"/>
</g>
</g>
</svg>
