<?xml version="1.0" encoding="UTF-8"?>
<svg xmlns="http://www.w3.org/2000/svg" xmlns:xlink="http://www.w3.org/1999/xlink" width="348pt" height="214pt" viewBox="0 0 348 214" version="1.1">
<defs>
<g>
<symbol overflow="visible" id="glyph0-0">
<path style="stroke:none;" d="M 2 0 L 17.9375 0 L 17.9375 -19.28125 L 2 -19.28125 Z M 3.984375 -2 L 3.984375 -17.296875 L 15.9375 -17.296875 L 15.9375 -2 Z M 3.984375 -2 "/>
</symbol>
<symbol overflow="visible" id="glyph0-1">
<path style="stroke:none;" d="M 0.875 -13.59375 C 0.875 -5.21875 6.6875 0.796875 14.75 0.796875 C 23.671875 0.796875 30.4375 -5.859375 30.4375 -14.625 C 30.4375 -22.984375 24.859375 -28.25 16.015625 -28.25 C 6.9375 -28.25 0.875 -22.359375 0.875 -13.59375 Z M 5.140625 -15.0625 C 5.140625 -22.4375 8.8125 -26.578125 15.34375 -26.578125 C 22.15625 -26.578125 26.171875 -21.71875 26.171875 -13.421875 C 26.171875 -5.53125 22.515625 -0.875 16.34375 -0.875 C 9.640625 -0.875 5.140625 -6.53125 5.140625 -15.0625 Z M 5.140625 -15.0625 "/>
</symbol>
<symbol overflow="visible" id="glyph1-0">
<path style="stroke:none;" d="M 0.5 0 L 4.484375 0 L 4.484375 -4.828125 L 0.5 -4.828125 Z M 1 -0.5 L 1 -4.328125 L 3.984375 -4.328125 L 3.984375 -0.5 Z M 1 -0.5 "/>
</symbol>
<symbol overflow="visible" id="glyph1-1">
<path style="stroke:none;" d="M 0.21875 0.03125 C 0.703125 0.015625 1.1875 0 1.671875 0 C 2.15625 0 2.65625 0.015625 3.140625 0.03125 L 3.140625 -0.265625 L 2.65625 -0.296875 C 2.203125 -0.328125 2.15625 -0.40625 2.15625 -1.203125 L 2.15625 -5.671875 C 2.15625 -6.453125 2.203125 -6.546875 2.65625 -6.5625 L 3.140625 -6.59375 L 3.140625 -6.890625 C 2.65625 -6.875 2.15625 -6.875 1.671875 -6.875 C 1.1875 -6.875 0.703125 -6.875 0.21875 -6.890625 L 0.21875 -6.59375 L 0.703125 -6.5625 C 1.15625 -6.546875 1.203125 -6.453125 1.203125 -5.671875 L 1.203125 -1.203125 C 1.203125 -0.40625 1.15625 -0.328125 0.703125 -0.296875 L 0.21875 -0.265625 Z M 0.21875 0.03125 "/>
</symbol>
<symbol overflow="visible" id="glyph1-2">
<path style="stroke:none;" d="M 0.234375 0.03125 C 0.640625 0.015625 1.0625 0 1.46875 0 C 1.890625 0 2.296875 0.015625 2.71875 0.03125 L 2.71875 -0.265625 L 2.265625 -0.296875 C 1.921875 -0.3125 1.890625 -0.390625 1.890625 -1.015625 L 1.890625 -3.84375 L 3.125 -3.84375 L 3.203125 -4.359375 C 2.765625 -4.34375 2.328125 -4.328125 1.890625 -4.328125 L 1.890625 -5.171875 C 1.890625 -6.3125 2.03125 -6.59375 2.59375 -6.59375 C 2.859375 -6.59375 3.046875 -6.53125 3.28125 -6.3125 L 3.40625 -6.375 L 3.40625 -7.140625 C 3.1875 -7.234375 3.078125 -7.25 2.9375 -7.25 C 2.625 -7.25 2.265625 -7.09375 2.046875 -6.84375 L 1.46875 -6.1875 C 1.1875 -5.859375 1.0625 -5.40625 1.0625 -4.75 L 1.0625 -4.328125 L 0.375 -4.015625 L 0.375 -3.796875 L 1.0625 -3.84375 L 1.0625 -1.015625 C 1.0625 -0.390625 1.03125 -0.3125 0.6875 -0.296875 L 0.234375 -0.265625 Z M 0.234375 0.03125 "/>
</symbol>
<symbol overflow="visible" id="glyph1-3">
<path style="stroke:none;" d="M 0.21875 -3.765625 L 0.984375 -3.8125 L 0.984375 -0.9375 C 0.984375 -0.203125 1.3125 0.125 2.078125 0.125 C 2.296875 0.125 2.546875 0.0625 2.609375 0 L 3.078125 -0.53125 L 2.953125 -0.703125 C 2.703125 -0.5625 2.546875 -0.515625 2.359375 -0.515625 C 1.96875 -0.515625 1.8125 -0.703125 1.8125 -1.203125 L 1.8125 -3.8125 L 3.09375 -3.8125 L 3.1875 -4.34375 L 1.8125 -4.28125 L 1.8125 -4.671875 C 1.8125 -5.078125 1.84375 -5.4375 1.921875 -6.078125 L 1.796875 -6.1875 C 1.5625 -6.046875 1.265625 -5.90625 0.953125 -5.8125 C 0.984375 -5.515625 1 -5.328125 1 -5.03125 L 1 -4.328125 L 0.21875 -3.984375 Z M 0.21875 -3.765625 "/>
</symbol>
<symbol overflow="visible" id="glyph1-4">
<path style="stroke:none;" d="M 0.0625 0.03125 C 0.46875 0.015625 0.890625 0 1.296875 0 C 1.703125 0 2.125 0.015625 2.53125 0.03125 L 2.53125 -0.265625 L 2.078125 -0.296875 C 1.75 -0.3125 1.71875 -0.390625 1.71875 -1.015625 L 1.71875 -3.125 C 1.71875 -3.578125 2.375 -4.0625 2.984375 -4.0625 C 3.65625 -4.0625 4.09375 -3.5625 4.09375 -2.796875 L 4.09375 0.03125 C 4.34375 0.015625 4.609375 0 4.875 0 C 5.15625 0 5.421875 0.015625 5.703125 0.03125 L 5.703125 -0.265625 L 5.296875 -0.296875 C 4.953125 -0.3125 4.921875 -0.375 4.921875 -1.015625 L 4.921875 -2.9375 C 4.921875 -4.109375 4.375 -4.671875 3.265625 -4.671875 C 2.890625 -4.671875 2.6875 -4.609375 2.46875 -4.421875 L 1.71875 -3.765625 L 1.71875 -7.15625 L 1.625 -7.234375 C 1.1875 -7.0625 0.859375 -6.984375 0.0625 -6.875 L 0.0625 -6.59375 L 0.625 -6.59375 C 0.8125 -6.59375 0.875 -6.484375 0.875 -6.1875 L 0.875 -1.015625 C 0.875 -0.390625 0.84375 -0.3125 0.515625 -0.296875 L 0.0625 -0.265625 Z M 0.0625 0.03125 "/>
</symbol>
<symbol overflow="visible" id="glyph1-5">
<path style="stroke:none;" d="M 0.265625 -2.1875 C 0.265625 -1.5625 0.40625 -1.015625 0.671875 -0.640625 C 1.0625 -0.109375 1.75 0.203125 2.5 0.203125 C 2.859375 0.203125 3.234375 0.125 3.640625 -0.0625 C 3.90625 -0.171875 4.109375 -0.296875 4.15625 -0.359375 L 4.359375 -0.703125 L 4.234375 -0.796875 C 3.59375 -0.421875 3.359375 -0.328125 2.9375 -0.328125 C 2.28125 -0.328125 1.75 -0.625 1.46875 -1.109375 C 1.28125 -1.4375 1.203125 -1.71875 1.1875 -2.296875 L 2.640625 -2.296875 C 3.328125 -2.296875 3.765625 -2.328125 4.453125 -2.4375 C 4.453125 -2.578125 4.46875 -2.65625 4.46875 -2.78125 C 4.46875 -3.921875 3.734375 -4.671875 2.609375 -4.671875 C 2.25 -4.671875 1.8125 -4.546875 1.40625 -4.3125 C 0.59375 -3.84375 0.265625 -3.21875 0.265625 -2.1875 Z M 1.203125 -2.6875 C 1.203125 -3.15625 1.25 -3.375 1.375 -3.640625 C 1.578125 -4.078125 2.015625 -4.34375 2.5 -4.34375 C 2.828125 -4.34375 3.078125 -4.21875 3.265625 -3.953125 C 3.484375 -3.625 3.578125 -3.328125 3.578125 -2.65625 L 2.46875 -2.625 C 2 -2.625 1.75 -2.640625 1.203125 -2.6875 Z M 1.203125 -2.6875 "/>
</symbol>
<symbol overflow="visible" id="glyph1-6">
<path style="stroke:none;" d="M 0.21875 0.03125 C 0.703125 0.015625 1.1875 0 1.671875 0 C 2.15625 0 2.65625 0.015625 3.140625 0.03125 L 3.140625 -0.265625 L 2.65625 -0.296875 C 2.203125 -0.328125 2.15625 -0.40625 2.15625 -1.203125 L 2.15625 -3.265625 L 3.75 -3.296875 C 4.1875 -3.296875 4.375 -3.25 4.453125 -2.921875 C 4.484375 -2.703125 4.5 -2.328125 4.5 -2.328125 L 4.796875 -2.328125 C 4.78125 -2.703125 4.765625 -3.078125 4.765625 -3.4375 C 4.765625 -3.828125 4.78125 -4.203125 4.796875 -4.59375 L 4.5 -4.59375 L 4.453125 -4.078125 C 4.421875 -3.734375 4.171875 -3.703125 3.734375 -3.703125 C 3.1875 -3.703125 2.59375 -3.703125 2.15625 -3.734375 L 2.15625 -6.40625 C 2.453125 -6.46875 2.625 -6.484375 3.21875 -6.484375 C 3.703125 -6.484375 4.25 -6.421875 4.5625 -6.34375 C 4.8125 -6.28125 4.828125 -6.234375 4.828125 -6 L 4.828125 -5.359375 L 5.1875 -5.359375 C 5.1875 -5.953125 5.234375 -6.4375 5.34375 -6.875 L 4.125 -6.890625 C 3.40625 -6.875 2.6875 -6.875 1.96875 -6.875 C 1.390625 -6.875 0.8125 -6.875 0.21875 -6.890625 L 0.21875 -6.59375 L 0.703125 -6.5625 C 1.15625 -6.546875 1.203125 -6.453125 1.203125 -5.671875 L 1.203125 -1.203125 C 1.203125 -0.40625 1.15625 -0.328125 0.703125 -0.296875 L 0.21875 -0.265625 Z M 0.21875 0.03125 "/>
</symbol>
<symbol overflow="visible" id="glyph1-7">
<path style="stroke:none;" d="M 0.3125 -1.109375 C 0.3125 -0.328125 0.78125 0.125 1.578125 0.125 C 1.75 0.125 1.921875 0.09375 2 0.046875 L 3.234375 -0.8125 L 3.1875 0.03125 C 3.4375 0.015625 3.703125 0 3.953125 0 C 4.203125 0 4.453125 0.015625 4.6875 0.03125 L 4.6875 -0.265625 L 4.3125 -0.296875 C 4.0625 -0.296875 4.03125 -0.375 4.03125 -0.875 L 4.03125 -2.6875 C 4.03125 -4.140625 3.609375 -4.671875 2.453125 -4.671875 C 2.03125 -4.671875 1.625 -4.5625 1.25 -4.34375 L 0.71875 -4.015625 L 0.71875 -3.375 L 0.984375 -3.296875 L 1.109375 -3.609375 C 1.3125 -4.078125 1.421875 -4.140625 1.875 -4.140625 C 2.8125 -4.140625 3.203125 -3.78125 3.234375 -2.875 L 2.25 -2.6875 C 0.890625 -2.4375 0.3125 -1.96875 0.3125 -1.109375 Z M 1.171875 -1.25 C 1.171875 -1.609375 1.375 -1.96875 1.671875 -2.15625 C 1.921875 -2.296875 2.46875 -2.4375 3.234375 -2.546875 L 3.234375 -1.234375 C 2.9375 -0.828125 2.3125 -0.453125 1.921875 -0.453125 C 1.53125 -0.453125 1.171875 -0.8125 1.171875 -1.25 Z M 1.171875 -1.25 "/>
</symbol>
<symbol overflow="visible" id="glyph1-8">
<path style="stroke:none;" d="M 0.203125 0.03125 C 0.625 0.015625 1.03125 0 1.4375 0 C 1.90625 0 2.375 0.015625 2.859375 0.03125 L 2.859375 -0.265625 L 2.34375 -0.296875 C 1.890625 -0.328125 1.875 -0.359375 1.875 -1.015625 L 1.875 -2.734375 C 1.875 -3.328125 2.265625 -3.828125 2.765625 -3.828125 C 3.0625 -3.828125 3.265625 -3.6875 3.421875 -3.375 L 3.640625 -3.375 L 3.734375 -4.5625 C 3.625 -4.640625 3.4375 -4.671875 3.265625 -4.671875 C 2.953125 -4.671875 2.640625 -4.515625 2.4375 -4.265625 L 1.875 -3.609375 L 1.875 -4.640625 L 1.78125 -4.671875 C 1.28125 -4.46875 0.75 -4.328125 0.234375 -4.265625 L 0.234375 -3.984375 L 0.59375 -3.984375 C 1 -3.984375 1.03125 -3.921875 1.03125 -3.265625 L 1.03125 -1.015625 C 1.03125 -0.390625 1 -0.3125 0.671875 -0.296875 L 0.203125 -0.265625 Z M 0.203125 0.03125 "/>
</symbol>
<symbol overflow="visible" id="glyph1-9">
<path style="stroke:none;" d="M 0.453125 -4.546875 L 0.59375 -4.453125 L 1.03125 -4.6875 C 1.609375 -5.40625 1.984375 -6.078125 2.328125 -6.9375 L 2.1875 -7.0625 L 1.21875 -6.765625 C 1.171875 -5.96875 0.921875 -5.3125 0.453125 -4.546875 Z M 0.453125 -4.546875 "/>
</symbol>
<symbol overflow="visible" id="glyph1-10">
<path style="stroke:none;" d="M 0.296875 -0.046875 C 0.8125 0.125 1.203125 0.203125 1.671875 0.203125 C 2.96875 0.203125 3.890625 -0.5 3.890625 -1.46875 C 3.890625 -1.78125 3.8125 -2.015625 3.625 -2.21875 C 3.359375 -2.46875 3.03125 -2.578125 2.15625 -2.75 C 1.328125 -2.90625 1.0625 -3.109375 1.0625 -3.5625 C 1.0625 -4.0625 1.421875 -4.34375 2.03125 -4.34375 C 2.6875 -4.34375 3.203125 -4 3.203125 -3.53125 L 3.203125 -3.296875 L 3.484375 -3.296875 C 3.484375 -3.875 3.5 -4.109375 3.53125 -4.421875 C 3 -4.609375 2.640625 -4.671875 2.234375 -4.671875 C 1.078125 -4.671875 0.375 -4.125 0.375 -3.234375 C 0.375 -2.75 0.59375 -2.40625 1.046875 -2.203125 C 1.3125 -2.078125 1.84375 -1.921875 2.515625 -1.78125 C 2.96875 -1.671875 3.15625 -1.46875 3.15625 -1.09375 C 3.15625 -0.546875 2.65625 -0.171875 1.953125 -0.171875 C 1.21875 -0.171875 0.703125 -0.515625 0.703125 -1.015625 L 0.703125 -1.421875 L 0.40625 -1.421875 C 0.40625 -0.734375 0.375 -0.4375 0.296875 -0.046875 Z M 0.296875 -0.046875 "/>
</symbol>
<symbol overflow="visible" id="glyph1-11">
<path style="stroke:none;" d="M 0.203125 0.03125 C 0.625 0.015625 1.03125 0 1.453125 0 C 1.875 0 2.28125 0.015625 2.703125 0.03125 L 2.703125 -0.265625 L 2.25 -0.296875 C 1.90625 -0.3125 1.875 -0.390625 1.875 -1.015625 L 1.875 -7.15625 L 1.78125 -7.234375 C 1.34375 -7.0625 1.015625 -6.984375 0.234375 -6.875 L 0.234375 -6.59375 L 0.78125 -6.59375 C 0.96875 -6.59375 1.03125 -6.484375 1.03125 -6.1875 L 1.03125 -1.015625 C 1.03125 -0.390625 1 -0.3125 0.671875 -0.296875 L 0.203125 -0.265625 Z M 0.203125 0.03125 "/>
</symbol>
<symbol overflow="visible" id="glyph1-12">
<path style="stroke:none;" d="M 0.3125 -2.15625 C 0.3125 -0.75 1.203125 0.203125 2.5 0.203125 C 4.03125 0.203125 5.125 -0.875 5.125 -2.359375 C 5.125 -3.703125 4.140625 -4.671875 2.78125 -4.671875 C 1.328125 -4.671875 0.3125 -3.65625 0.3125 -2.15625 Z M 1.25 -2.5 C 1.25 -3.703125 1.71875 -4.34375 2.609375 -4.34375 C 3.515625 -4.34375 4.203125 -3.34375 4.203125 -2 C 4.203125 -0.84375 3.6875 -0.125 2.875 -0.125 C 1.90625 -0.125 1.25 -1.09375 1.25 -2.5 Z M 1.25 -2.5 "/>
</symbol>
<symbol overflow="visible" id="glyph1-13">
<path style="stroke:none;" d="M 0.0625 -4.296875 L 0.40625 -4.28125 C 0.578125 -4.265625 0.609375 -4.171875 0.703125 -3.953125 L 2.421875 0.0625 L 2.921875 0.0625 C 2.984375 -0.265625 3.125 -0.5625 3.328125 -1.015625 L 4.5 -3.609375 C 4.734375 -4.109375 4.859375 -4.265625 5.0625 -4.28125 L 5.375 -4.296875 L 5.375 -4.578125 C 5.0625 -4.5625 4.75 -4.546875 4.4375 -4.546875 C 4.125 -4.546875 3.8125 -4.5625 3.5 -4.578125 L 3.5 -4.296875 L 3.90625 -4.28125 C 4.234375 -4.25 4.234375 -3.96875 3.953125 -3.296875 L 3.53125 -2.234375 L 2.921875 -0.84375 L 1.734375 -3.703125 C 1.625 -3.984375 1.578125 -4.265625 1.890625 -4.28125 L 2.375 -4.296875 L 2.375 -4.578125 C 2 -4.5625 1.609375 -4.546875 1.21875 -4.546875 C 0.828125 -4.546875 0.453125 -4.5625 0.0625 -4.578125 Z M 0.0625 -4.296875 "/>
</symbol>
<symbol overflow="visible" id="glyph1-14">
<path style="stroke:none;" d="M -0.15625 -6.59375 L 0.40625 -6.59375 C 0.59375 -6.59375 0.65625 -6.484375 0.65625 -6.1875 L 0.65625 -1.53125 C 0.65625 -0.90625 0.640625 -0.640625 0.578125 0.0625 L 0.734375 0.125 L 1.140625 -0.234375 C 1.53125 0.015625 1.890625 0.125 2.421875 0.125 C 2.8125 0.125 3.078125 0.046875 3.28125 -0.09375 L 4.28125 -0.8125 C 4.71875 -1.140625 5.0625 -1.96875 5.0625 -2.6875 C 5.0625 -3.84375 4.3125 -4.671875 3.265625 -4.671875 C 2.796875 -4.671875 2.296875 -4.5 2.046875 -4.234375 L 1.5 -3.671875 L 1.5 -7.15625 L 1.40625 -7.234375 C 0.96875 -7.0625 0.640625 -6.984375 -0.15625 -6.875 Z M 1.5 -0.921875 L 1.5 -3.078125 C 1.5 -3.203125 1.59375 -3.390625 1.75 -3.5625 C 2.03125 -3.859375 2.421875 -4.03125 2.828125 -4.03125 C 3.671875 -4.03125 4.203125 -3.34375 4.203125 -2.28125 C 4.203125 -1.171875 3.59375 -0.390625 2.75 -0.390625 C 2.234375 -0.390625 1.5 -0.703125 1.5 -0.921875 Z M 1.5 -0.921875 "/>
</symbol>
<symbol overflow="visible" id="glyph1-15">
<path style="stroke:none;" d="M 0.3125 1.28125 C 0.3125 2.1875 1.203125 2.828125 2.46875 2.828125 C 3.984375 2.828125 5.15625 1.875 5.15625 0.65625 C 5.15625 -0.0625 4.6875 -0.5625 3.984375 -0.5625 L 2.390625 -0.5625 C 1.875 -0.5625 1.640625 -0.671875 1.640625 -0.953125 C 1.640625 -1.078125 1.71875 -1.1875 1.96875 -1.40625 C 2.03125 -1.453125 2.046875 -1.46875 2.09375 -1.515625 C 2.1875 -1.5 2.25 -1.5 2.328125 -1.5 C 2.765625 -1.5 3.296875 -1.6875 3.703125 -1.96875 C 4.140625 -2.296875 4.359375 -2.703125 4.359375 -3.234375 C 4.359375 -3.421875 4.34375 -3.5625 4.25 -3.765625 L 5.171875 -3.765625 L 5.421875 -4.171875 L 5.390625 -4.296875 L 3.96875 -4.25 C 3.59375 -4.5625 3.234375 -4.671875 2.75 -4.671875 C 2.3125 -4.671875 1.796875 -4.53125 1.390625 -4.296875 C 0.84375 -3.984375 0.546875 -3.484375 0.546875 -2.875 C 0.546875 -2.140625 1 -1.640625 1.75 -1.5625 L 0.953125 -0.953125 C 0.859375 -0.796875 0.8125 -0.671875 0.8125 -0.515625 C 0.8125 -0.234375 0.984375 -0.078125 1.46875 0.0625 L 0.59375 0.53125 C 0.453125 0.609375 0.3125 0.984375 0.3125 1.28125 Z M 1.078125 1.265625 C 1.078125 0.8125 1.328125 0.421875 1.734375 0.234375 C 1.890625 0.171875 2.171875 0.140625 2.859375 0.140625 C 3.984375 0.140625 4.375 0.375 4.375 1.015625 C 4.375 1.875 3.59375 2.515625 2.546875 2.515625 C 1.671875 2.515625 1.078125 2 1.078125 1.265625 Z M 1.390625 -3.125 C 1.390625 -3.890625 1.75 -4.34375 2.390625 -4.34375 C 3.078125 -4.34375 3.53125 -3.78125 3.53125 -2.9375 C 3.53125 -2.28125 3.109375 -1.828125 2.5 -1.828125 C 1.828125 -1.828125 1.390625 -2.359375 1.390625 -3.125 Z M 1.390625 -3.125 "/>
</symbol>
<symbol overflow="visible" id="glyph1-16">
<path style="stroke:none;" d="M 0.0625 0.03125 C 0.46875 0.015625 0.890625 0 1.296875 0 C 1.703125 0 2.125 0.015625 2.53125 0.03125 L 2.53125 -0.265625 L 2.078125 -0.296875 C 1.75 -0.3125 1.71875 -0.390625 1.71875 -1.015625 L 1.71875 -3.125 C 1.71875 -3.578125 2.375 -4.0625 2.984375 -4.0625 C 3.65625 -4.0625 4.09375 -3.5625 4.09375 -2.796875 L 4.09375 0.03125 C 4.34375 0.015625 4.609375 0 4.875 0 C 5.15625 0 5.421875 0.015625 5.703125 0.03125 L 5.703125 -0.265625 L 5.296875 -0.296875 C 4.953125 -0.3125 4.921875 -0.375 4.921875 -1.015625 L 4.921875 -2.9375 C 4.921875 -4.109375 4.375 -4.671875 3.265625 -4.671875 C 2.890625 -4.671875 2.6875 -4.609375 2.46875 -4.421875 L 1.71875 -3.765625 L 1.71875 -4.640625 L 1.625 -4.671875 C 1.109375 -4.46875 0.59375 -4.328125 0.0625 -4.265625 L 0.0625 -3.984375 L 0.4375 -3.984375 C 0.84375 -3.984375 0.875 -3.921875 0.875 -3.265625 L 0.875 -1.015625 C 0.875 -0.390625 0.84375 -0.3125 0.515625 -0.296875 L 0.0625 -0.265625 Z M 0.0625 0.03125 "/>
</symbol>
<symbol overflow="visible" id="glyph1-17">
<path style="stroke:none;" d="M 0.15625 1.4375 L 0.296875 1.546875 L 0.703125 1.359375 C 1.515625 0.3125 1.890625 -0.3125 2.171875 -1.09375 L 2.03125 -1.21875 C 1.765625 -1.140625 1.578125 -1.078125 1.0625 -0.921875 C 0.984375 -0.171875 0.734375 0.484375 0.15625 1.4375 Z M 0.15625 1.4375 "/>
</symbol>
<symbol overflow="visible" id="glyph1-18">
<path style="stroke:none;" d="M 0.21875 -6.59375 L 0.703125 -6.5625 C 1.15625 -6.546875 1.203125 -6.453125 1.203125 -5.671875 L 1.203125 -1.203125 C 1.203125 -0.40625 1.171875 -0.34375 0.703125 -0.296875 L 0.34375 -0.265625 L 0.34375 0.03125 C 0.75 0.015625 1.15625 0 1.5625 0 C 2.328125 0 3.109375 0.015625 3.875 0.03125 L 5.546875 0 C 5.546875 -0.578125 5.609375 -1.109375 5.703125 -1.640625 L 5.359375 -1.640625 L 5.296875 -1.296875 C 5.25 -0.875 5.109375 -0.5625 4.96875 -0.515625 C 4.765625 -0.4375 4.03125 -0.390625 3.140625 -0.390625 C 2.625 -0.390625 2.4375 -0.40625 2.15625 -0.46875 L 2.15625 -3.265625 L 3.75 -3.296875 C 4.1875 -3.296875 4.375 -3.25 4.453125 -2.921875 C 4.484375 -2.703125 4.5 -2.328125 4.5 -2.328125 L 4.796875 -2.328125 C 4.78125 -2.703125 4.765625 -3.078125 4.765625 -3.4375 C 4.765625 -3.828125 4.78125 -4.203125 4.796875 -4.59375 L 4.5 -4.59375 C 4.5 -4.59375 4.5 -4.265625 4.453125 -4.078125 C 4.359375 -3.734375 4.171875 -3.703125 3.75 -3.703125 C 3.25 -3.703125 2.59375 -3.703125 2.15625 -3.734375 L 2.15625 -6.40625 C 2.46875 -6.46875 2.625 -6.484375 3.3125 -6.484375 C 3.890625 -6.484375 4.453125 -6.4375 4.765625 -6.34375 C 5 -6.265625 5.03125 -6.234375 5.03125 -6 L 5.03125 -5.359375 L 5.390625 -5.359375 C 5.390625 -5.953125 5.4375 -6.4375 5.546875 -6.875 L 4.3125 -6.890625 C 3.53125 -6.875 2.765625 -6.875 2 -6.875 C 1.40625 -6.875 0.8125 -6.875 0.21875 -6.890625 Z M 0.21875 -6.59375 "/>
</symbol>
<symbol overflow="visible" id="glyph1-19">
<path style="stroke:none;" d="M 0.0625 -4.296875 L 0.34375 -4.28125 C 0.625 -4.25 0.75 -4.09375 1 -3.28125 L 2.015625 0.0625 L 2.484375 0.0625 L 3.453125 -2.21875 C 3.640625 -2.640625 3.984375 -3.34375 3.984375 -3.34375 L 5.328125 0.0625 L 5.796875 0.0625 L 7.15625 -3.40625 C 7.4375 -4.109375 7.578125 -4.25 7.796875 -4.28125 L 8.0625 -4.296875 L 8.0625 -4.578125 C 7.71875 -4.5625 7.40625 -4.546875 7.078125 -4.546875 C 6.75 -4.546875 6.4375 -4.5625 6.09375 -4.578125 L 6.09375 -4.296875 L 6.4375 -4.28125 C 6.84375 -4.25 6.890625 -4 6.765625 -3.609375 L 6.265625 -2.21875 L 5.78125 -0.984375 L 4.640625 -3.875 C 4.5 -4.203125 4.421875 -4.40625 4.34375 -4.671875 L 4.109375 -4.671875 L 2.53125 -1.03125 L 1.6875 -3.78125 C 1.609375 -4.09375 1.65625 -4.25 2.03125 -4.28125 L 2.4375 -4.296875 L 2.4375 -4.578125 C 2.03125 -4.5625 1.640625 -4.546875 1.25 -4.546875 C 0.84375 -4.546875 0.453125 -4.5625 0.0625 -4.578125 Z M 0.0625 -4.296875 "/>
</symbol>
<symbol overflow="visible" id="glyph1-20">
<path style="stroke:none;" d="M 0.34375 -2.15625 C 0.34375 -1.359375 0.625 -0.703125 1.109375 -0.296875 C 1.453125 -0.015625 1.90625 0.125 2.5625 0.125 C 2.765625 0.125 2.984375 0.078125 3.046875 0.046875 L 4.140625 -0.890625 L 4.09375 0.03125 C 4.359375 0.015625 4.609375 0 4.859375 0 C 5.15625 0 5.46875 0.015625 5.765625 0.03125 L 5.765625 -0.265625 L 5.3125 -0.296875 C 4.96875 -0.3125 4.9375 -0.390625 4.9375 -1.015625 L 4.9375 -7.15625 L 4.859375 -7.234375 C 4.421875 -7.0625 4.09375 -6.984375 3.296875 -6.875 L 3.296875 -6.59375 L 3.859375 -6.59375 C 4.03125 -6.59375 4.109375 -6.484375 4.109375 -6.1875 L 4.109375 -4.359375 C 3.546875 -4.59375 3.265625 -4.671875 2.921875 -4.671875 C 2.65625 -4.671875 2.40625 -4.609375 2.15625 -4.484375 L 1.28125 -4.03125 C 0.71875 -3.734375 0.34375 -3 0.34375 -2.15625 Z M 1.21875 -2.484375 C 1.21875 -3.5625 1.75 -4.203125 2.65625 -4.203125 C 3.03125 -4.203125 3.421875 -4.078125 3.78125 -3.84375 C 3.984375 -3.703125 4.109375 -3.5625 4.109375 -3.484375 L 4.109375 -2.203125 C 4.109375 -1.5625 4.09375 -1.453125 3.953125 -1.21875 C 3.671875 -0.75 3.1875 -0.453125 2.71875 -0.453125 C 1.84375 -0.453125 1.21875 -1.296875 1.21875 -2.484375 Z M 1.21875 -2.484375 "/>
</symbol>
<symbol overflow="visible" id="glyph1-21">
<path style="stroke:none;" d="M 0.21875 0.03125 C 0.703125 0.015625 1.1875 0 1.671875 0 C 2.15625 0 2.65625 0.015625 3.140625 0.03125 L 3.140625 -0.265625 L 2.65625 -0.296875 C 2.203125 -0.328125 2.15625 -0.40625 2.15625 -1.203125 L 2.15625 -3.421875 C 2.421875 -3.4375 2.578125 -3.4375 2.984375 -3.4375 L 5.3125 -3.4375 C 5.71875 -3.4375 5.875 -3.4375 6.140625 -3.421875 L 6.140625 -1.203125 C 6.140625 -0.40625 6.09375 -0.328125 5.625 -0.296875 L 5.15625 -0.265625 L 5.15625 0.03125 C 5.640625 0.015625 6.125 0 6.609375 0 C 7.09375 0 7.59375 0.015625 8.078125 0.03125 L 8.078125 -0.265625 L 7.59375 -0.296875 C 7.140625 -0.328125 7.09375 -0.40625 7.09375 -1.203125 L 7.09375 -5.671875 C 7.09375 -6.453125 7.140625 -6.546875 7.59375 -6.5625 L 8.078125 -6.59375 L 8.078125 -6.890625 C 7.59375 -6.875 7.09375 -6.875 6.609375 -6.875 C 6.125 -6.875 5.640625 -6.875 5.15625 -6.890625 L 5.15625 -6.59375 L 5.625 -6.5625 C 6.09375 -6.546875 6.140625 -6.453125 6.140625 -5.671875 L 6.140625 -3.890625 C 5.9375 -3.890625 5.71875 -3.875 5.3125 -3.875 L 2.984375 -3.875 C 2.578125 -3.875 2.359375 -3.890625 2.15625 -3.890625 L 2.15625 -5.671875 C 2.15625 -6.453125 2.203125 -6.546875 2.65625 -6.5625 L 3.140625 -6.59375 L 3.140625 -6.890625 C 2.65625 -6.875 2.15625 -6.875 1.671875 -6.875 C 1.1875 -6.875 0.703125 -6.875 0.21875 -6.890625 L 0.21875 -6.59375 L 0.703125 -6.5625 C 1.15625 -6.546875 1.203125 -6.453125 1.203125 -5.671875 L 1.203125 -1.203125 C 1.203125 -0.40625 1.15625 -0.328125 0.703125 -0.296875 L 0.21875 -0.265625 Z M 0.21875 0.03125 "/>
</symbol>
<symbol overflow="visible" id="glyph1-22">
<path style="stroke:none;" d="M 0.203125 0.03125 C 0.625 0.015625 1.03125 0 1.453125 0 C 1.875 0 2.28125 0.015625 2.703125 0.03125 L 2.703125 -0.265625 L 2.25 -0.296875 C 1.90625 -0.3125 1.875 -0.390625 1.875 -1.015625 L 1.875 -4.640625 L 1.78125 -4.671875 C 1.28125 -4.46875 0.75 -4.328125 0.234375 -4.265625 L 0.234375 -3.984375 L 0.59375 -3.984375 C 1 -3.984375 1.03125 -3.921875 1.03125 -3.265625 L 1.03125 -1.015625 C 1.03125 -0.390625 1 -0.3125 0.671875 -0.296875 L 0.203125 -0.265625 Z M 0.953125 -5.90625 C 0.953125 -5.609375 1.15625 -5.40625 1.453125 -5.40625 C 1.75 -5.40625 1.953125 -5.609375 1.953125 -5.90625 C 1.953125 -6.1875 1.75 -6.40625 1.46875 -6.40625 C 1.15625 -6.40625 0.953125 -6.203125 0.953125 -5.90625 Z M 0.953125 -5.90625 "/>
</symbol>
<symbol overflow="visible" id="glyph1-23">
<path style="stroke:none;" d="M 0.15625 0.03125 C 0.515625 0.015625 0.875 0 1.234375 0 C 1.640625 0 2.046875 0.015625 2.4375 0.03125 L 2.4375 -0.265625 L 2.078125 -0.296875 C 1.71875 -0.328125 1.59375 -0.40625 1.59375 -0.5625 C 1.59375 -0.6875 1.734375 -1.109375 1.9375 -1.609375 L 2.21875 -2.28125 L 5.09375 -2.28125 L 5.546875 -1.140625 C 5.71875 -0.71875 5.765625 -0.59375 5.765625 -0.5 C 5.765625 -0.390625 5.609375 -0.3125 5.359375 -0.296875 L 4.890625 -0.265625 L 4.890625 0.03125 C 5.34375 0.015625 5.8125 0 6.265625 0 C 6.6875 0 7.125 0.015625 7.53125 0.03125 L 7.53125 -0.265625 L 7.203125 -0.296875 C 6.9375 -0.3125 6.828125 -0.515625 6.484375 -1.3125 L 4.0625 -6.984375 L 3.75 -6.984375 C 3.75 -6.984375 3.640625 -6.640625 3.265625 -5.796875 L 1.0625 -0.78125 C 0.921875 -0.5 0.734375 -0.3125 0.515625 -0.296875 L 0.15625 -0.265625 Z M 2.390625 -2.6875 L 3.65625 -5.65625 L 4.921875 -2.6875 Z M 2.390625 -2.6875 "/>
</symbol>
<symbol overflow="visible" id="glyph1-24">
<path style="stroke:none;" d="M 0.078125 2.5 L 0.078125 2.796875 C 0.5 2.78125 0.90625 2.765625 1.328125 2.765625 C 1.75 2.765625 2.15625 2.78125 2.578125 2.796875 L 2.578125 2.5 L 2.109375 2.46875 C 1.78125 2.453125 1.75 2.375 1.75 1.75 L 1.75 -0.125 C 2.046875 0.046875 2.359375 0.125 2.8125 0.125 C 3.09375 0.125 3.359375 0.0625 3.515625 -0.046875 L 4.65625 -0.78125 C 5.046875 -1.03125 5.515625 -2.0625 5.515625 -2.703125 C 5.515625 -3.8125 4.609375 -4.671875 3.453125 -4.671875 C 3.078125 -4.671875 2.71875 -4.578125 2.5625 -4.421875 L 1.75 -3.671875 L 1.75 -4.640625 L 1.65625 -4.671875 C 1.140625 -4.46875 0.625 -4.328125 0.09375 -4.265625 L 0.09375 -3.984375 L 0.46875 -3.984375 C 0.875 -3.984375 0.90625 -3.921875 0.90625 -3.265625 L 0.90625 1.75 C 0.90625 2.375 0.875 2.453125 0.53125 2.46875 Z M 1.75 -0.984375 L 1.75 -3.046875 C 1.75 -3.1875 1.796875 -3.296875 1.921875 -3.46875 C 2.21875 -3.84375 2.625 -4.03125 3.125 -4.03125 C 4.0625 -4.03125 4.65625 -3.375 4.65625 -2.328125 C 4.65625 -1.21875 3.984375 -0.390625 3.09375 -0.390625 C 2.546875 -0.390625 2.140625 -0.5625 1.75 -0.984375 Z M 1.75 -0.984375 "/>
</symbol>
<symbol overflow="visible" id="glyph1-25">
<path style="stroke:none;" d="M 0.21875 -3.40625 C 0.21875 -1.3125 1.671875 0.203125 3.6875 0.203125 C 5.921875 0.203125 7.609375 -1.46875 7.609375 -3.65625 C 7.609375 -5.75 6.21875 -7.0625 4 -7.0625 C 1.734375 -7.0625 0.21875 -5.59375 0.21875 -3.40625 Z M 1.28125 -3.765625 C 1.28125 -5.609375 2.203125 -6.65625 3.84375 -6.65625 C 5.546875 -6.65625 6.546875 -5.4375 6.546875 -3.359375 C 6.546875 -1.390625 5.625 -0.21875 4.09375 -0.21875 C 2.40625 -0.21875 1.28125 -1.640625 1.28125 -3.765625 Z M 1.28125 -3.765625 "/>
</symbol>
<symbol overflow="visible" id="glyph1-26">
<path style="stroke:none;" d="M 0.171875 -2.1875 L 0.21875 -2.140625 L 2.8125 -2.140625 L 3.109375 -2.8125 L 3.0625 -2.859375 L 0.4375 -2.859375 Z M 0.171875 -2.1875 "/>
</symbol>
<symbol overflow="visible" id="glyph1-27">
<path style="stroke:none;" d="M 0.15625 0.03125 C 0.578125 0.015625 1 0 1.421875 0 C 1.828125 0 2.21875 0.015625 2.609375 0.03125 L 2.609375 -0.265625 L 2.1875 -0.296875 C 1.859375 -0.3125 1.828125 -0.390625 1.828125 -1.015625 L 1.828125 -3.125 C 1.828125 -3.578125 2.484375 -4.0625 3.078125 -4.0625 C 3.625 -4.0625 3.984375 -3.5625 3.984375 -2.796875 L 3.984375 -1.015625 C 3.984375 -0.390625 3.953125 -0.3125 3.625 -0.296875 L 3.15625 -0.265625 L 3.15625 0.03125 C 3.578125 0.015625 3.984375 0 4.40625 0 C 4.828125 0 5.234375 0.015625 5.65625 0.03125 L 5.65625 -0.265625 L 5.1875 -0.296875 C 4.859375 -0.3125 4.828125 -0.390625 4.828125 -1.015625 L 4.828125 -3.125 C 4.828125 -3.578125 5.484375 -4.0625 6.078125 -4.0625 C 6.625 -4.0625 6.984375 -3.5625 6.984375 -2.796875 L 6.984375 0.03125 C 7.25 0.015625 7.515625 0 7.78125 0 C 8.078125 0 8.359375 0.015625 8.65625 0.03125 L 8.65625 -0.265625 L 8.1875 -0.296875 C 7.859375 -0.3125 7.828125 -0.390625 7.828125 -1.015625 L 7.828125 -3.078125 C 7.828125 -4.0625 7.25 -4.671875 6.328125 -4.671875 C 5.984375 -4.671875 5.6875 -4.578125 5.515625 -4.421875 L 4.75 -3.75 C 4.4375 -4.40625 4.03125 -4.671875 3.34375 -4.671875 C 2.96875 -4.671875 2.6875 -4.578125 2.515625 -4.421875 L 1.828125 -3.78125 L 1.828125 -4.640625 L 1.734375 -4.671875 C 1.21875 -4.46875 0.703125 -4.328125 0.171875 -4.265625 L 0.171875 -3.984375 L 0.546875 -3.984375 C 0.953125 -3.984375 0.984375 -3.921875 0.984375 -3.265625 L 0.984375 -1.015625 C 0.984375 -0.390625 0.953125 -0.3125 0.625 -0.296875 L 0.15625 -0.265625 Z M 0.15625 0.03125 "/>
</symbol>
<symbol overflow="visible" id="glyph1-28">
<path style="stroke:none;" d="M 0.171875 -3.984375 L 0.546875 -3.984375 C 0.953125 -3.984375 0.984375 -3.921875 0.984375 -3.265625 L 0.984375 -1.578125 C 0.984375 -0.890625 1.046875 -0.578125 1.21875 -0.328125 C 1.453125 -0.03125 1.828125 0.125 2.390625 0.125 C 2.84375 0.125 3.234375 -0.015625 3.515625 -0.265625 L 4.171875 -0.890625 C 4.171875 -0.59375 4.171875 -0.4375 4.140625 0.03125 C 4.421875 0.015625 4.6875 0 4.96875 0 C 5.25 0 5.515625 0.015625 5.796875 0.03125 L 5.796875 -0.265625 L 5.390625 -0.296875 C 5.046875 -0.3125 5.015625 -0.375 5.015625 -1.015625 L 5.015625 -4.640625 L 4.921875 -4.671875 C 4.421875 -4.46875 3.890625 -4.328125 3.375 -4.265625 L 3.375 -3.984375 L 3.734375 -3.984375 C 4.140625 -3.984375 4.171875 -3.921875 4.171875 -3.265625 L 4.171875 -1.640625 C 4.171875 -1.421875 4.03125 -1.140625 3.8125 -0.90625 C 3.53125 -0.625 3.203125 -0.484375 2.828125 -0.484375 C 2.46875 -0.484375 2.1875 -0.59375 2.03125 -0.78125 C 1.890625 -0.953125 1.828125 -1.25 1.828125 -1.6875 L 1.828125 -4.640625 L 1.734375 -4.671875 C 1.21875 -4.46875 0.703125 -4.328125 0.171875 -4.265625 Z M 0.171875 -3.984375 "/>
</symbol>
<symbol overflow="visible" id="glyph1-29">
<path style="stroke:none;" d="M 0.265625 -2.09375 C 0.265625 -0.75 1.203125 0.203125 2.546875 0.203125 C 3.0625 0.203125 3.8125 0.015625 3.90625 -0.140625 L 4.109375 -0.453125 L 4.015625 -0.609375 C 3.65625 -0.40625 3.328125 -0.3125 2.96875 -0.3125 C 1.859375 -0.3125 1.140625 -1.171875 1.140625 -2.5 C 1.140625 -3.5625 1.640625 -4.15625 2.53125 -4.15625 C 2.96875 -4.15625 3.453125 -3.953125 3.625 -3.703125 L 3.703125 -3.09375 L 3.984375 -3.09375 C 3.984375 -3.5625 4.03125 -3.96875 4.109375 -4.328125 C 3.71875 -4.5625 3.375 -4.671875 2.953125 -4.671875 C 2.484375 -4.671875 1.921875 -4.484375 1.328125 -4.109375 C 0.625 -3.671875 0.265625 -2.96875 0.265625 -2.09375 Z M 0.265625 -2.09375 "/>
</symbol>
<symbol overflow="visible" id="glyph1-30">
<path style="stroke:none;" d="M 0.125 -4.296875 L 0.296875 -4.28125 C 0.546875 -4.25 0.671875 -4.140625 0.8125 -3.78125 L 2.46875 0.234375 L 2.234375 0.84375 C 1.90625 1.6875 1.53125 2.15625 1.140625 2.15625 C 0.984375 2.15625 0.8125 2.078125 0.640625 1.921875 L 0.515625 1.921875 L 0.265625 2.671875 C 0.453125 2.765625 0.625 2.828125 0.8125 2.828125 C 1.46875 2.828125 1.90625 2.46875 2.28125 1.59375 L 4.3125 -3.078125 C 4.703125 -3.984375 4.890625 -4.25 5.140625 -4.28125 L 5.421875 -4.296875 L 5.421875 -4.578125 C 5.109375 -4.5625 4.796875 -4.546875 4.46875 -4.546875 C 4.15625 -4.546875 3.84375 -4.5625 3.53125 -4.578125 L 3.53125 -4.296875 L 3.78125 -4.28125 C 4.203125 -4.25 4.296875 -4.125 4.140625 -3.765625 L 2.953125 -0.859375 C 2.734375 -1.234375 2.640625 -1.46875 2.453125 -1.953125 L 1.8125 -3.625 C 1.640625 -4.0625 1.671875 -4.25 2.046875 -4.28125 L 2.4375 -4.296875 L 2.4375 -4.578125 C 2.046875 -4.5625 1.671875 -4.546875 1.28125 -4.546875 C 0.890625 -4.546875 0.515625 -4.5625 0.125 -4.578125 Z M 0.125 -4.296875 "/>
</symbol>
<symbol overflow="visible" id="glyph1-31">
<path style="stroke:none;" d="M 0.8125 -0.53125 C 0.8125 -0.234375 1.078125 0.046875 1.359375 0.046875 C 1.6875 0.046875 1.96875 -0.21875 1.96875 -0.53125 C 1.96875 -0.828125 1.6875 -1.109375 1.375 -1.109375 C 1.078125 -1.109375 0.8125 -0.828125 0.8125 -0.53125 Z M 0.84375 -6.546875 L 1.171875 -2.4375 L 1.203125 -2.046875 L 1.296875 -2 L 1.578125 -2.21875 L 1.578125 -2.46875 L 1.859375 -5.71875 C 1.90625 -6.125 1.9375 -6.453125 1.9375 -6.671875 L 1.9375 -6.921875 L 1.59375 -6.921875 Z M 0.84375 -6.546875 "/>
</symbol>
<symbol overflow="visible" id="glyph2-0">
<path style="stroke:none;" d="M 0.859375 0 L 0.859375 -17.21875 L 7.703125 -17.21875 L 7.703125 0 Z M 1.703125 -0.859375 L 6.84375 -0.859375 L 6.84375 -16.359375 L 1.703125 -16.359375 Z M 1.703125 -0.859375 "/>
</symbol>
<symbol overflow="visible" id="glyph2-1">
<path style="stroke:none;" d="M 0 -1.703125 L 0 -10.125 C 0 -10.988281 0.25 -11.648438 0.75 -12.109375 C 1.25 -12.566406 1.929688 -12.796875 2.796875 -12.796875 C 3.273438 -12.773438 3.644531 -12.644531 3.90625 -12.40625 C 4.164062 -12.175781 4.296875 -11.882812 4.296875 -11.53125 L 4.296875 -6.984375 L 4.03125 -7.203125 C 3.53125 -7.648438 2.894531 -7.875 2.125 -7.875 C 1.601562 -7.875 1.160156 -7.6875 0.796875 -7.3125 C 0.441406 -6.9375 0.265625 -6.472656 0.265625 -5.921875 C 0.265625 -5.367188 0.441406 -4.898438 0.796875 -4.515625 C 1.160156 -4.140625 1.601562 -3.953125 2.125 -3.953125 C 2.914062 -3.953125 3.550781 -4.160156 4.03125 -4.578125 L 4.296875 -4.828125 L 4.296875 -0.265625 C 4.296875 0.148438 4.144531 0.46875 3.84375 0.6875 C 3.550781 0.914062 3.203125 1.03125 2.796875 1.03125 C 1.929688 1.019531 1.25 0.773438 0.75 0.296875 C 0.25 -0.171875 0 -0.835938 0 -1.703125 Z M 0 -1.703125 "/>
</symbol>
<symbol overflow="visible" id="glyph2-2">
<path style="stroke:none;" d="M 2.125 -4.375 C 3.570312 -4.375 4.296875 -3.96875 4.296875 -3.15625 L 4.296875 0.9375 C 3.828125 0.445312 3.109375 0.203125 2.140625 0.203125 C 1.179688 0.203125 0.46875 0.445312 0 0.9375 L 0 -3.15625 C 0 -3.96875 0.707031 -4.375 2.125 -4.375 Z M 2.125 -4.375 "/>
</symbol>
<symbol overflow="visible" id="glyph2-3">
<path style="stroke:none;" d="M 0 -17.65625 L 0.484375 -17.65625 L 0.484375 -9.40625 C 0.242188 -9.425781 0.0820312 -9.488281 0 -9.59375 Z M 0 -17.65625 "/>
</symbol>
<symbol overflow="visible" id="glyph2-4">
<path style="stroke:none;" d="M 0.484375 -9.96875 L 0.484375 7.578125 C 0.234375 7.585938 0.0703125 7.613281 0 7.65625 L 0 -9.890625 C 0.0820312 -9.941406 0.242188 -9.96875 0.484375 -9.96875 Z M 0.484375 -9.96875 "/>
</symbol>
<symbol overflow="visible" id="glyph2-5">
<path style="stroke:none;" d="M 1.46875 0.640625 C 1.09375 0.640625 0.8125 0.675781 0.625 0.75 C 0.4375 0.820312 0.226562 0.96875 0 1.1875 L 0 -3.4375 C 0 -3.800781 0.175781 -4.085938 0.53125 -4.296875 C 0.882812 -4.515625 1.335938 -4.660156 1.890625 -4.734375 L 1.890625 6.015625 C 1.890625 6.453125 1.820312 6.738281 1.6875 6.875 C 1.664062 6.875 1.644531 6.875 1.625 6.875 C 1.519531 6.875 1.46875 6.703125 1.46875 6.359375 Z M 1.46875 0.640625 "/>
</symbol>
<symbol overflow="visible" id="glyph2-6">
<path style="stroke:none;" d="M 0 8.625 L 0 -3.234375 C 0 -4.054688 0.722656 -4.46875 2.171875 -4.46875 C 3.585938 -4.46875 4.296875 -4.054688 4.296875 -3.234375 L 4.296875 0.75 C 4.390625 0.0625 5.09375 -0.28125 6.40625 -0.28125 C 7.851562 -0.28125 8.578125 0.125 8.578125 0.9375 L 8.578125 4.984375 C 8.109375 4.523438 7.390625 4.296875 6.421875 4.296875 C 5.460938 4.296875 4.753906 4.523438 4.296875 4.984375 L 4.296875 0.828125 C 3.847656 0.378906 3.128906 0.15625 2.140625 0.15625 C 1.453125 0.15625 0.894531 0.34375 0.46875 0.71875 L 0.46875 7.953125 C 0.46875 8.265625 0.460938 8.5 0.453125 8.65625 C 0.441406 8.8125 0.429688 8.925781 0.421875 9 C 0.410156 9.082031 0.394531 9.128906 0.375 9.140625 C 0.363281 9.160156 0.332031 9.171875 0.28125 9.171875 C 0.09375 9.117188 0 8.9375 0 8.625 Z M 0 8.625 "/>
</symbol>
<symbol overflow="visible" id="glyph2-7">
<path style="stroke:none;" d="M 0 0.109375 L 0 -3.84375 C 0 -4 0.0507812 -4.078125 0.15625 -4.078125 L 0.265625 -4.078125 C 0.804688 -3.972656 1.3125 -3.921875 1.78125 -3.921875 C 1.90625 -3.921875 2.0625 -3.925781 2.25 -3.9375 C 2.4375 -3.945312 2.566406 -3.953125 2.640625 -3.953125 C 3.015625 -3.953125 3.304688 -4.015625 3.515625 -4.140625 C 3.722656 -4.273438 3.828125 -4.460938 3.828125 -4.703125 L 3.828125 -6.953125 C 3.828125 -7.347656 3.695312 -7.675781 3.4375 -7.9375 C 3.175781 -8.207031 2.796875 -8.34375 2.296875 -8.34375 C 1.472656 -8.34375 0.800781 -8.164062 0.28125 -7.8125 L 0.28125 -11.140625 C 0.28125 -11.984375 0.953125 -12.40625 2.296875 -12.40625 C 2.828125 -12.40625 3.289062 -12.3125 3.6875 -12.125 C 4.09375 -11.9375 4.296875 -11.609375 4.296875 -11.140625 L 4.296875 0.078125 C 4.296875 0.179688 4.132812 0.28125 3.8125 0.375 C 3.488281 0.46875 3.140625 0.515625 2.765625 0.515625 C 2.679688 0.515625 2.566406 0.507812 2.421875 0.5 C 2.285156 0.488281 2.113281 0.484375 1.90625 0.484375 C 1.34375 0.484375 0.941406 0.46875 0.703125 0.4375 C 0.234375 0.351562 0 0.242188 0 0.109375 Z M 0 0.109375 "/>
</symbol>
<symbol overflow="visible" id="glyph2-8">
<path style="stroke:none;" d="M 3.3125 0.703125 C 3.21875 0.703125 3.035156 0.695312 2.765625 0.6875 C 2.492188 0.675781 2.25 0.671875 2.03125 0.671875 C 1.8125 0.671875 1.5625 0.675781 1.28125 0.6875 C 1 0.695312 0.8125 0.703125 0.71875 0.703125 C 0.414062 0.703125 0.21875 0.6875 0.125 0.65625 C 0.0390625 0.632812 0 0.570312 0 0.46875 L 0 -3 C 0 -3.15625 0.0507812 -3.234375 0.15625 -3.234375 L 0.265625 -3.234375 C 0.378906 -3.210938 0.9375 -3.203125 1.9375 -3.203125 L 2.796875 -3.203125 C 3.097656 -3.203125 3.304688 -3.207031 3.421875 -3.21875 C 3.535156 -3.226562 3.628906 -3.257812 3.703125 -3.3125 C 3.785156 -3.375 3.828125 -3.484375 3.828125 -3.640625 C 3.828125 -4.421875 3.316406 -4.8125 2.296875 -4.8125 C 1.472656 -4.8125 0.800781 -4.628906 0.28125 -4.265625 L 0.28125 -7.59375 C 0.28125 -8.457031 0.953125 -8.890625 2.296875 -8.890625 C 2.828125 -8.890625 3.289062 -8.789062 3.6875 -8.59375 C 4.09375 -8.394531 4.296875 -8.0625 4.296875 -7.59375 L 4.296875 0.4375 C 4.296875 0.539062 4.226562 0.609375 4.09375 0.640625 C 3.96875 0.679688 3.707031 0.703125 3.3125 0.703125 Z M 3.3125 0.703125 "/>
</symbol>
<symbol overflow="visible" id="glyph2-9">
<path style="stroke:none;" d="M 0 0 L 0 -4.625 C 0.238281 -4.414062 0.453125 -4.273438 0.640625 -4.203125 C 0.835938 -4.140625 1.113281 -4.109375 1.46875 -4.109375 L 1.46875 -12.5625 C 1.46875 -13.0625 1.539062 -13.3125 1.6875 -13.3125 L 1.703125 -13.3125 C 1.859375 -13.3125 1.9375 -13.171875 1.9375 -12.890625 C 1.9375 -12.773438 1.921875 -12.625 1.890625 -12.4375 L 1.890625 1.265625 C 0.628906 1.078125 0 0.65625 0 0 Z M 0 0 "/>
</symbol>
<symbol overflow="visible" id="glyph2-10">
<path style="stroke:none;" d="M 0 -14.234375 L 0.484375 -14.234375 L 0.484375 10.5625 L 0 10.5625 Z M 0 -14.234375 "/>
</symbol>
<symbol overflow="visible" id="glyph2-11">
<path style="stroke:none;" d="M 11.015625 -0.203125 C 10.179688 -0.203125 9.507812 -0.0195312 9 0.34375 L 9 -3 C 9 -3.863281 9.671875 -4.296875 11.015625 -4.296875 C 11.546875 -4.296875 12.007812 -4.195312 12.40625 -4 C 12.800781 -3.800781 13 -3.46875 13 -3 L 13 4.703125 C 13 5.015625 12.734375 5.171875 12.203125 5.171875 C 7.921875 5.171875 4.007812 3.695312 0.46875 0.75 L 0.46875 4.1875 C 0.46875 4.5 0.460938 4.726562 0.453125 4.875 C 0.441406 5.03125 0.429688 5.144531 0.421875 5.21875 C 0.410156 5.300781 0.394531 5.351562 0.375 5.375 C 0.363281 5.394531 0.332031 5.40625 0.28125 5.40625 C 0.09375 5.351562 0 5.171875 0 4.859375 L 0 -4.75 C 1.875 -2.90625 3.851562 -1.4375 5.9375 -0.34375 C 7.75 0.601562 9.351562 1.070312 10.75 1.0625 C 11.664062 1.0625 12.21875 0.890625 12.40625 0.546875 C 12.164062 0.046875 11.703125 -0.203125 11.015625 -0.203125 Z M 11.015625 -0.203125 "/>
</symbol>
<symbol overflow="visible" id="glyph3-0">
<path style="stroke:none;" d="M 0.5 0 L 4.484375 0 L 4.484375 -4.828125 L 0.5 -4.828125 Z M 1 -0.5 L 1 -4.328125 L 3.984375 -4.328125 L 3.984375 -0.5 Z M 1 -0.5 "/>
</symbol>
<symbol overflow="visible" id="glyph3-1">
<path style="stroke:none;" d="M 0.234375 0.03125 C 0.625 0.015625 0.984375 0 1.359375 0 C 1.75 0 2.109375 0.015625 2.5 0.03125 L 2.5 -0.34375 L 2 -0.375 C 1.6875 -0.390625 1.671875 -0.71875 1.75 -0.9375 L 2.171875 -2.046875 L 4.671875 -2.046875 L 5.125 -0.921875 C 5.1875 -0.75 5.25 -0.390625 4.984375 -0.375 L 4.453125 -0.34375 L 4.453125 0.03125 C 4.96875 0.015625 5.46875 0 5.96875 0 C 6.5 0 7.015625 0.015625 7.546875 0.03125 L 7.546875 -0.34375 L 7.3125 -0.375 C 7.03125 -0.40625 6.890625 -0.515625 6.765625 -0.8125 L 4.171875 -6.84375 L 3.46875 -6.84375 L 2.90625 -5.328125 L 1.09375 -0.96875 C 0.9375 -0.578125 0.75 -0.390625 0.53125 -0.375 L 0.234375 -0.34375 Z M 2.40625 -2.609375 L 3.40625 -5.140625 L 4.453125 -2.609375 Z M 2.40625 -2.609375 "/>
</symbol>
<symbol overflow="visible" id="glyph3-2">
<path style="stroke:none;" d="M 0.234375 0.03125 C 0.671875 0.015625 1.09375 0 1.53125 0 C 1.9375 0 2.375 0.015625 2.796875 0.03125 L 2.796875 -0.34375 L 2.515625 -0.359375 C 2.203125 -0.375 2.15625 -0.453125 2.15625 -1 L 2.15625 -3.15625 C 2.15625 -3.484375 2.578125 -3.84375 2.96875 -3.84375 C 3.546875 -3.84375 3.828125 -3.453125 3.828125 -2.6875 L 3.828125 -1 C 3.828125 -0.453125 3.78125 -0.375 3.46875 -0.359375 L 3.15625 -0.34375 L 3.15625 0.03125 C 3.59375 0.015625 4.015625 0 4.453125 0 C 4.890625 0 5.3125 0.015625 5.75 0.03125 L 5.75 -0.34375 L 5.40625 -0.359375 C 5.09375 -0.375 5.046875 -0.453125 5.046875 -1 L 5.046875 -3.15625 C 5.046875 -3.484375 5.453125 -3.84375 5.859375 -3.84375 C 6.4375 -3.84375 6.703125 -3.453125 6.703125 -2.6875 L 6.703125 0.03125 C 7.015625 0.015625 7.328125 0 7.640625 0 C 7.96875 0 8.28125 0.015625 8.609375 0.03125 L 8.609375 -0.34375 L 8.28125 -0.359375 C 7.96875 -0.375 7.921875 -0.453125 7.921875 -1 L 7.921875 -2.84375 C 7.921875 -4.234375 7.5625 -4.6875 6.5 -4.6875 C 6.171875 -4.6875 5.953125 -4.640625 5.78125 -4.5 L 4.984375 -3.890625 C 4.75 -4.453125 4.359375 -4.6875 3.671875 -4.6875 C 3.34375 -4.6875 3.125 -4.640625 2.953125 -4.5 L 2.15625 -3.890625 L 2.15625 -4.640625 L 2.109375 -4.6875 C 1.0625 -4.359375 0.78125 -4.296875 0.234375 -4.265625 L 0.234375 -3.90625 L 0.6875 -3.875 C 0.921875 -3.859375 0.953125 -3.765625 0.953125 -3.1875 L 0.953125 -1 C 0.953125 -0.453125 0.890625 -0.375 0.59375 -0.359375 L 0.234375 -0.34375 Z M 0.234375 0.03125 "/>
</symbol>
<symbol overflow="visible" id="glyph3-3">
<path style="stroke:none;" d="M 0.421875 -2.25 C 0.421875 -0.671875 1.203125 0.171875 2.703125 0.171875 C 3.28125 0.171875 3.625 0.0625 4.28125 -0.265625 L 4.5 -0.734375 L 4.375 -0.890625 C 3.90625 -0.625 3.609375 -0.53125 3.203125 -0.53125 C 2.703125 -0.53125 2.21875 -0.8125 1.96875 -1.21875 C 1.796875 -1.5 1.734375 -1.75 1.71875 -2.21875 L 3.015625 -2.21875 C 3.59375 -2.21875 4.03125 -2.28125 4.59375 -2.421875 L 4.59375 -2.9375 C 4.59375 -4 3.859375 -4.6875 2.703125 -4.6875 C 2.359375 -4.6875 2.109375 -4.625 1.828125 -4.46875 L 1.359375 -4.1875 C 0.703125 -3.796875 0.421875 -3.203125 0.421875 -2.25 Z M 1.65625 -2.75 C 1.65625 -3.734375 1.921875 -4.140625 2.5 -4.140625 C 3.078125 -4.140625 3.328125 -3.734375 3.328125 -2.75 C 3.328125 -2.75 2.828125 -2.71875 2.5 -2.71875 C 2.296875 -2.71875 2.546875 -2.71875 1.96875 -2.734375 Z M 1.65625 -2.75 "/>
</symbol>
<symbol overflow="visible" id="glyph3-4">
<path style="stroke:none;" d="M 0.234375 0.03125 C 0.671875 0.015625 1.09375 0 1.53125 0 C 1.96875 0 2.421875 0.015625 2.875 0.03125 L 2.875 -0.34375 L 2.515625 -0.359375 C 2.21875 -0.375 2.15625 -0.453125 2.15625 -1 L 2.15625 -3.15625 C 2.15625 -3.515625 2.578125 -3.84375 3.015625 -3.84375 C 3.671875 -3.84375 3.953125 -3.484375 3.953125 -2.6875 L 3.953125 0.03125 C 4.25 0.015625 4.546875 0 4.84375 0 C 5.1875 0 5.515625 0.015625 5.859375 0.03125 L 5.859375 -0.34375 L 5.515625 -0.359375 C 5.21875 -0.375 5.15625 -0.453125 5.15625 -1 L 5.15625 -2.84375 C 5.15625 -3.625 5.078125 -4 4.8125 -4.28125 C 4.5625 -4.546875 4.140625 -4.6875 3.65625 -4.6875 C 3.359375 -4.6875 3.125 -4.640625 2.953125 -4.5 L 2.15625 -3.890625 L 2.15625 -4.640625 L 2.109375 -4.6875 C 1.0625 -4.359375 0.78125 -4.296875 0.234375 -4.265625 L 0.234375 -3.90625 L 0.6875 -3.875 C 0.921875 -3.859375 0.953125 -3.765625 0.953125 -3.1875 L 0.953125 -1 C 0.953125 -0.453125 0.890625 -0.375 0.59375 -0.359375 L 0.234375 -0.34375 Z M 0.234375 0.03125 "/>
</symbol>
<symbol overflow="visible" id="glyph3-5">
<path style="stroke:none;" d="M 0.46875 -0.640625 C 0.46875 -0.234375 0.828125 0.125 1.234375 0.125 C 1.65625 0.125 2.03125 -0.234375 2.03125 -0.640625 C 2.03125 -1.0625 1.65625 -1.4375 1.25 -1.4375 C 0.84375 -1.4375 0.46875 -1.0625 0.46875 -0.640625 Z M 0.46875 -0.640625 "/>
</symbol>
</g>
<clipPath id="clip1">
  <path d="M 42 6 L 347.761719 6 L 347.761719 8 L 42 8 Z M 42 6 "/>
</clipPath>
<clipPath id="clip2">
  <path d="M 42 14 L 347.761719 14 L 347.761719 16 L 42 16 Z M 42 14 "/>
</clipPath>
<clipPath id="clip3">
  <path d="M 42 23 L 347.761719 23 L 347.761719 24 L 42 24 Z M 42 23 "/>
</clipPath>
<clipPath id="clip4">
  <path d="M 42 31 L 347.761719 31 L 347.761719 32 L 42 32 Z M 42 31 "/>
</clipPath>
<clipPath id="clip5">
  <path d="M 345 0 L 347.761719 0 L 347.761719 12 L 345 12 Z M 345 0 "/>
</clipPath>
<clipPath id="clip6">
  <path d="M 0 61 L 347.761719 61 L 347.761719 62 L 0 62 Z M 0 61 "/>
</clipPath>
<clipPath id="clip7">
  <path d="M 0 69 L 347.761719 69 L 347.761719 71 L 0 71 Z M 0 69 "/>
</clipPath>
<clipPath id="clip8">
  <path d="M 0 77 L 347.761719 77 L 347.761719 79 L 0 79 Z M 0 77 "/>
</clipPath>
<clipPath id="clip9">
  <path d="M 0 86 L 347.761719 86 L 347.761719 87 L 0 87 Z M 0 86 "/>
</clipPath>
<clipPath id="clip10">
  <path d="M 323 96 L 347.761719 96 L 347.761719 107 L 323 107 Z M 323 96 "/>
</clipPath>
<clipPath id="clip11">
  <path d="M 345 74 L 347.761719 74 L 347.761719 90 L 345 90 Z M 345 74 "/>
</clipPath>
<clipPath id="clip12">
  <path d="M 0 116 L 347.761719 116 L 347.761719 117 L 0 117 Z M 0 116 "/>
</clipPath>
<clipPath id="clip13">
  <path d="M 0 124 L 347.761719 124 L 347.761719 125 L 0 125 Z M 0 124 "/>
</clipPath>
<clipPath id="clip14">
  <path d="M 0 132 L 347.761719 132 L 347.761719 134 L 0 134 Z M 0 132 "/>
</clipPath>
<clipPath id="clip15">
  <path d="M 0 140 L 347.761719 140 L 347.761719 142 L 0 142 Z M 0 140 "/>
</clipPath>
<clipPath id="clip16">
  <path d="M 345 121 L 347.761719 121 L 347.761719 136 L 345 136 Z M 345 121 "/>
</clipPath>
<clipPath id="clip17">
  <path d="M 0 171 L 347.761719 171 L 347.761719 172 L 0 172 Z M 0 171 "/>
</clipPath>
<clipPath id="clip18">
  <path d="M 0 179 L 347.761719 179 L 347.761719 180 L 0 180 Z M 0 179 "/>
</clipPath>
<clipPath id="clip19">
  <path d="M 0 187 L 347.761719 187 L 347.761719 188 L 0 188 Z M 0 187 "/>
</clipPath>
<clipPath id="clip20">
  <path d="M 0 195 L 347.761719 195 L 347.761719 196 L 0 196 Z M 0 195 "/>
</clipPath>
</defs>
<g id="surface1">
<g style="fill:rgb(0%,0%,0%);fill-opacity:1;">
  <use xlink:href="#glyph0-1" x="5.669" y="48.789"/>
</g>
<g style="fill:rgb(0%,0%,0%);fill-opacity:1;">
  <use xlink:href="#glyph1-1" x="16.294" y="12.466"/>
  <use xlink:href="#glyph1-1" x="19.65141" y="12.466"/>
  <use xlink:href="#glyph1-1" x="23.008819" y="12.466"/>
</g>
<g clip-path="url(#clip1)" clip-rule="nonzero">
<path style="fill:none;stroke-width:0.388;stroke-linecap:butt;stroke-linejoin:miter;stroke:rgb(0%,0%,0%);stroke-opacity:1;stroke-miterlimit:10;" d="M -0.00084375 -0.0011875 L 305.100719 -0.0011875 " transform="matrix(1,0,0,-1,42.661,6.991)"/>
</g>
<g clip-path="url(#clip2)" clip-rule="nonzero">
<path style="fill:none;stroke-width:0.388;stroke-linecap:butt;stroke-linejoin:miter;stroke:rgb(0%,0%,0%);stroke-opacity:1;stroke-miterlimit:10;" d="M -0.00084375 -0.0018125 L 305.100719 -0.0018125 " transform="matrix(1,0,0,-1,42.661,15.131)"/>
</g>
<g clip-path="url(#clip3)" clip-rule="nonzero">
<path style="fill:none;stroke-width:0.388;stroke-linecap:butt;stroke-linejoin:miter;stroke:rgb(0%,0%,0%);stroke-opacity:1;stroke-miterlimit:10;" d="M -0.00084375 -0.0014375 L 305.100719 -0.0014375 " transform="matrix(1,0,0,-1,42.661,23.272)"/>
</g>
<g clip-path="url(#clip4)" clip-rule="nonzero">
<path style="fill:none;stroke-width:0.388;stroke-linecap:butt;stroke-linejoin:miter;stroke:rgb(0%,0%,0%);stroke-opacity:1;stroke-miterlimit:10;" d="M -0.00084375 0.00184375 L 305.100719 0.00184375 " transform="matrix(1,0,0,-1,42.661,31.412)"/>
</g>
<g style="fill:rgb(0%,0%,0%);fill-opacity:1;">
  <use xlink:href="#glyph2-1" x="42.661" y="12.87"/>
</g>
<g style="fill:rgb(0%,0%,0%);fill-opacity:1;">
  <use xlink:href="#glyph1-2" x="52.539" y="48.789"/>
</g>
<g style="fill:rgb(0%,0%,0%);fill-opacity:1;">
  <use xlink:href="#glyph2-2" x="52.053" y="29.151"/>
</g>
<g style="fill:rgb(0%,0%,0%);fill-opacity:1;">
  <use xlink:href="#glyph1-3" x="61.259" y="48.789"/>
</g>
<g style="fill:rgb(0%,0%,0%);fill-opacity:1;">
  <use xlink:href="#glyph1-4" x="64.65626" y="48.789"/>
  <use xlink:href="#glyph1-5" x="70.454517" y="48.789"/>
</g>
<g style="fill:rgb(0%,0%,0%);fill-opacity:1;">
  <use xlink:href="#glyph2-2" x="66.098" y="25.081"/>
</g>
<g style="fill:rgb(0%,0%,0%);fill-opacity:1;">
  <use xlink:href="#glyph1-6" x="80.628" y="48.789"/>
</g>
<g style="fill:rgb(0%,0%,0%);fill-opacity:1;">
  <use xlink:href="#glyph1-7" x="85.768722" y="48.789"/>
</g>
<g style="fill:rgb(0%,0%,0%);fill-opacity:1;">
  <use xlink:href="#glyph2-2" x="83.544" y="29.151"/>
</g>
<g style="fill:rgb(0%,0%,0%);fill-opacity:1;">
  <use xlink:href="#glyph1-3" x="90.75" y="48.789"/>
</g>
<g style="fill:rgb(0%,0%,0%);fill-opacity:1;">
  <use xlink:href="#glyph1-4" x="94.14726" y="48.789"/>
  <use xlink:href="#glyph1-5" x="99.945517" y="48.789"/>
  <use xlink:href="#glyph1-8" x="104.717621" y="48.789"/>
  <use xlink:href="#glyph1-9" x="108.652864" y="48.789"/>
</g>
<g style="fill:rgb(0%,0%,0%);fill-opacity:1;">
  <use xlink:href="#glyph1-10" x="111.173412" y="48.789"/>
</g>
<g style="fill:rgb(0%,0%,0%);fill-opacity:1;">
  <use xlink:href="#glyph2-2" x="100.929" y="33.221"/>
</g>
<g style="fill:rgb(0%,0%,0%);fill-opacity:1;">
  <use xlink:href="#glyph1-11" x="120.8" y="48.789"/>
  <use xlink:href="#glyph1-12" x="123.699128" y="48.789"/>
</g>
<g style="fill:rgb(0%,0%,0%);fill-opacity:1;">
  <use xlink:href="#glyph1-13" x="128.889664" y="48.789"/>
</g>
<g style="fill:rgb(0%,0%,0%);fill-opacity:1;">
  <use xlink:href="#glyph1-5" x="134.12005" y="48.789"/>
</g>
<g style="fill:rgb(0%,0%,0%);fill-opacity:1;">
  <use xlink:href="#glyph2-2" x="127.701" y="21.01"/>
</g>
<g style="fill:rgb(0%,0%,0%);fill-opacity:1;">
  <use xlink:href="#glyph1-14" x="144.294" y="48.789"/>
  <use xlink:href="#glyph1-5" x="149.80334" y="48.789"/>
</g>
<g style="fill:rgb(0%,0%,0%);fill-opacity:1;">
  <use xlink:href="#glyph2-2" x="147.29" y="16.94"/>
</g>
<g style="fill:rgb(0%,0%,0%);fill-opacity:1;">
  <use xlink:href="#glyph1-15" x="154.575" y="48.789"/>
  <use xlink:href="#glyph1-12" x="160.114228" y="48.789"/>
</g>
<g style="fill:rgb(0%,0%,0%);fill-opacity:1;">
  <use xlink:href="#glyph1-3" x="165.40439" y="48.789"/>
</g>
<g style="fill:rgb(0%,0%,0%);fill-opacity:1;">
  <use xlink:href="#glyph2-2" x="159.469" y="16.94"/>
</g>
<g style="fill:rgb(0%,0%,0%);fill-opacity:1;">
  <use xlink:href="#glyph1-3" x="168.653" y="48.789"/>
  <use xlink:href="#glyph1-5" x="171.900821" y="48.789"/>
  <use xlink:href="#glyph1-16" x="176.672925" y="48.789"/>
  <use xlink:href="#glyph1-17" x="182.471182" y="48.789"/>
</g>
<g style="fill:rgb(0%,0%,0%);fill-opacity:1;">
  <use xlink:href="#glyph2-2" x="174.662" y="21.01"/>
</g>
<g style="fill:rgb(0%,0%,0%);fill-opacity:1;">
  <use xlink:href="#glyph2-3" x="187.299242" y="21.01"/>
</g>
<g style="fill:rgb(0%,0%,0%);fill-opacity:1;">
  <use xlink:href="#glyph1-18" x="190.93" y="48.789"/>
  <use xlink:href="#glyph1-8" x="197.017173" y="48.789"/>
  <use xlink:href="#glyph1-5" x="200.952416" y="48.789"/>
</g>
<g style="fill:rgb(0%,0%,0%);fill-opacity:1;">
  <use xlink:href="#glyph2-2" x="196.183" y="16.94"/>
</g>
<g style="fill:rgb(0%,0%,0%);fill-opacity:1;">
  <use xlink:href="#glyph1-3" x="211.127" y="48.789"/>
</g>
<g style="fill:rgb(0%,0%,0%);fill-opacity:1;">
  <use xlink:href="#glyph1-4" x="214.52426" y="48.789"/>
  <use xlink:href="#glyph1-5" x="220.322517" y="48.789"/>
</g>
<g style="fill:rgb(0%,0%,0%);fill-opacity:1;">
  <use xlink:href="#glyph2-2" x="215.966" y="12.87"/>
</g>
<g style="fill:rgb(0%,0%,0%);fill-opacity:1;">
  <use xlink:href="#glyph1-19" x="230.496" y="48.789"/>
</g>
<g style="fill:rgb(0%,0%,0%);fill-opacity:1;">
  <use xlink:href="#glyph1-12" x="238.406336" y="48.789"/>
  <use xlink:href="#glyph1-8" x="243.845938" y="48.789"/>
</g>
<g style="fill:rgb(0%,0%,0%);fill-opacity:1;">
  <use xlink:href="#glyph1-11" x="247.482301" y="48.789"/>
  <use xlink:href="#glyph1-20" x="250.381429" y="48.789"/>
  <use xlink:href="#glyph1-10" x="256.468602" y="48.789"/>
</g>
<g style="fill:rgb(0%,0%,0%);fill-opacity:1;">
  <use xlink:href="#glyph2-2" x="243.45" y="8.8"/>
</g>
<g style="fill:rgb(0%,0%,0%);fill-opacity:1;">
  <use xlink:href="#glyph1-14" x="266.095" y="48.789"/>
  <use xlink:href="#glyph1-5" x="271.60434" y="48.789"/>
</g>
<g style="fill:rgb(0%,0%,0%);fill-opacity:1;">
  <use xlink:href="#glyph2-2" x="269.091" y="16.94"/>
</g>
<g style="fill:rgb(0%,0%,0%);fill-opacity:1;">
  <use xlink:href="#glyph1-15" x="276.377" y="48.789"/>
</g>
<g style="fill:rgb(0%,0%,0%);fill-opacity:1;">
  <use xlink:href="#glyph1-7" x="281.766788" y="48.789"/>
  <use xlink:href="#glyph1-16" x="286.748108" y="48.789"/>
</g>
<g style="fill:rgb(0%,0%,0%);fill-opacity:1;">
  <use xlink:href="#glyph2-2" x="282.316" y="21.01"/>
</g>
<g style="fill:rgb(0%,0%,0%);fill-opacity:1;">
  <use xlink:href="#glyph1-3" x="297.948" y="48.789"/>
</g>
<g style="fill:rgb(0%,0%,0%);fill-opacity:1;">
  <use xlink:href="#glyph1-12" x="301.096194" y="48.789"/>
</g>
<g style="fill:rgb(0%,0%,0%);fill-opacity:1;">
  <use xlink:href="#glyph2-2" x="300.097" y="16.94"/>
</g>
<g style="fill:rgb(0%,0%,0%);fill-opacity:1;">
  <use xlink:href="#glyph1-14" x="311.938" y="48.789"/>
  <use xlink:href="#glyph1-5" x="317.44734" y="48.789"/>
  <use xlink:href="#glyph1-17" x="322.219444" y="48.789"/>
</g>
<g style="fill:rgb(0%,0%,0%);fill-opacity:1;">
  <use xlink:href="#glyph2-2" x="316.179" y="8.8"/>
</g>
<g style="fill:rgb(0%,0%,0%);fill-opacity:1;">
  <use xlink:href="#glyph2-4" x="327.521" y="21.01"/>
</g>
<g style="fill:rgb(0%,0%,0%);fill-opacity:1;">
  <use xlink:href="#glyph1-21" x="330.679" y="48.789"/>
  <use xlink:href="#glyph1-5" x="338.967916" y="48.789"/>
</g>
<g style="fill:rgb(0%,0%,0%);fill-opacity:1;">
  <use xlink:href="#glyph2-2" x="335.064" y="8.8"/>
</g>
<g clip-path="url(#clip5)" clip-rule="nonzero">
<g style="fill:rgb(0%,0%,0%);fill-opacity:1;">
  <use xlink:href="#glyph2-5" x="345.874" y="4.729"/>
</g>
</g>
<g clip-path="url(#clip6)" clip-rule="nonzero">
<path style="fill:none;stroke-width:0.388;stroke-linecap:butt;stroke-linejoin:miter;stroke:rgb(0%,0%,0%);stroke-opacity:1;stroke-miterlimit:10;" d="M 0 -0.00015625 L 347.761719 -0.00015625 " transform="matrix(1,0,0,-1,0,61.785)"/>
</g>
<g clip-path="url(#clip7)" clip-rule="nonzero">
<path style="fill:none;stroke-width:0.388;stroke-linecap:butt;stroke-linejoin:miter;stroke:rgb(0%,0%,0%);stroke-opacity:1;stroke-miterlimit:10;" d="M 0 0.00021875 L 347.761719 0.00021875 " transform="matrix(1,0,0,-1,0,69.926)"/>
</g>
<g clip-path="url(#clip8)" clip-rule="nonzero">
<path style="fill:none;stroke-width:0.388;stroke-linecap:butt;stroke-linejoin:miter;stroke:rgb(0%,0%,0%);stroke-opacity:1;stroke-miterlimit:10;" d="M 0 -0.00040625 L 347.761719 -0.00040625 " transform="matrix(1,0,0,-1,0,78.066)"/>
</g>
<g clip-path="url(#clip9)" clip-rule="nonzero">
<path style="fill:none;stroke-width:0.388;stroke-linecap:butt;stroke-linejoin:miter;stroke:rgb(0%,0%,0%);stroke-opacity:1;stroke-miterlimit:10;" d="M 0 -0.00003125 L 347.761719 -0.00003125 " transform="matrix(1,0,0,-1,0,86.207)"/>
</g>
<g style="fill:rgb(0%,0%,0%);fill-opacity:1;">
  <use xlink:href="#glyph2-1" x="0" y="67.664"/>
</g>
<g style="fill:rgb(0%,0%,0%);fill-opacity:1;">
  <use xlink:href="#glyph1-22" x="9.413" y="103.583"/>
  <use xlink:href="#glyph1-10" x="12.272278" y="103.583"/>
</g>
<g style="fill:rgb(0%,0%,0%);fill-opacity:1;">
  <use xlink:href="#glyph2-2" x="10.81" y="59.524"/>
</g>
<g style="fill:rgb(0%,0%,0%);fill-opacity:1;">
  <use xlink:href="#glyph1-23" x="23.338" y="103.583"/>
  <use xlink:href="#glyph1-11" x="31.088934" y="103.583"/>
</g>
<g style="fill:rgb(0%,0%,0%);fill-opacity:1;">
  <use xlink:href="#glyph2-6" x="24.373" y="63.594"/>
</g>
<g style="fill:rgb(0%,0%,0%);fill-opacity:1;">
  <use xlink:href="#glyph1-24" x="33.988" y="103.583"/>
  <use xlink:href="#glyph1-4" x="39.975547" y="103.583"/>
  <use xlink:href="#glyph1-7" x="45.773803" y="103.583"/>
</g>
<g style="fill:rgb(0%,0%,0%);fill-opacity:1;">
  <use xlink:href="#glyph2-2" x="40.227" y="71.735"/>
</g>
<g style="fill:rgb(0%,0%,0%);fill-opacity:1;">
  <use xlink:href="#glyph1-7" x="56.628" y="103.583"/>
  <use xlink:href="#glyph1-16" x="61.60932" y="103.583"/>
  <use xlink:href="#glyph1-20" x="67.407576" y="103.583"/>
</g>
<g style="fill:rgb(0%,0%,0%);fill-opacity:1;">
  <use xlink:href="#glyph2-2" x="62.917" y="67.664"/>
</g>
<g style="fill:rgb(0%,0%,0%);fill-opacity:1;">
  <use xlink:href="#glyph1-25" x="79.368" y="103.583"/>
  <use xlink:href="#glyph1-26" x="87.198635" y="103.583"/>
</g>
<g style="fill:rgb(0%,0%,0%);fill-opacity:1;">
  <use xlink:href="#glyph2-2" x="81.138" y="71.735"/>
</g>
<g style="fill:rgb(0%,0%,0%);fill-opacity:1;">
  <use xlink:href="#glyph1-27" x="91.57" y="103.583"/>
  <use xlink:href="#glyph1-5" x="100.367011" y="103.583"/>
  <use xlink:href="#glyph1-26" x="105.139116" y="103.583"/>
</g>
<g style="fill:rgb(0%,0%,0%);fill-opacity:1;">
  <use xlink:href="#glyph2-2" x="96.209" y="75.805"/>
</g>
<g style="fill:rgb(0%,0%,0%);fill-opacity:1;">
  <use xlink:href="#glyph2-7" x="100.499" y="71.735"/>
</g>
<g style="fill:rgb(0%,0%,0%);fill-opacity:1;">
  <use xlink:href="#glyph1-15" x="109.51" y="103.583"/>
</g>
<g style="fill:rgb(0%,0%,0%);fill-opacity:1;">
  <use xlink:href="#glyph1-7" x="114.899788" y="103.583"/>
  <use xlink:href="#glyph1-17" x="119.881108" y="103.583"/>
</g>
<g style="fill:rgb(0%,0%,0%);fill-opacity:1;">
  <use xlink:href="#glyph2-2" x="113.796" y="63.594"/>
</g>
<g style="fill:rgb(0%,0%,0%);fill-opacity:1;">
  <use xlink:href="#glyph2-3" x="125.396" y="75.805"/>
</g>
<g style="fill:rgb(0%,0%,0%);fill-opacity:1;">
  <use xlink:href="#glyph1-21" x="128.811" y="103.583"/>
  <use xlink:href="#glyph1-5" x="137.099916" y="103.583"/>
</g>
<g style="fill:rgb(0%,0%,0%);fill-opacity:1;">
  <use xlink:href="#glyph2-2" x="133.197" y="63.594"/>
</g>
<g style="fill:rgb(0%,0%,0%);fill-opacity:1;">
  <use xlink:href="#glyph1-3" x="147.745" y="103.583"/>
</g>
<g style="fill:rgb(0%,0%,0%);fill-opacity:1;">
  <use xlink:href="#glyph1-4" x="151.14226" y="103.583"/>
  <use xlink:href="#glyph1-5" x="156.940517" y="103.583"/>
</g>
<g style="fill:rgb(0%,0%,0%);fill-opacity:1;">
  <use xlink:href="#glyph2-2" x="152.584" y="63.594"/>
</g>
<g style="fill:rgb(0%,0%,0%);fill-opacity:1;">
  <use xlink:href="#glyph1-10" x="167.585" y="103.583"/>
  <use xlink:href="#glyph1-12" x="171.809159" y="103.583"/>
  <use xlink:href="#glyph1-28" x="177.248761" y="103.583"/>
  <use xlink:href="#glyph1-8" x="183.256233" y="103.583"/>
  <use xlink:href="#glyph1-29" x="187.191476" y="103.583"/>
  <use xlink:href="#glyph1-5" x="191.614888" y="103.583"/>
  <use xlink:href="#glyph1-17" x="196.386992" y="103.583"/>
</g>
<g style="fill:rgb(0%,0%,0%);fill-opacity:1;">
  <use xlink:href="#glyph2-2" x="181.086" y="63.594"/>
</g>
<g style="fill:rgb(0%,0%,0%);fill-opacity:1;">
  <use xlink:href="#glyph1-3" x="204.75" y="103.583"/>
</g>
<g style="fill:rgb(0%,0%,0%);fill-opacity:1;">
  <use xlink:href="#glyph1-4" x="208.14726" y="103.583"/>
  <use xlink:href="#glyph1-5" x="213.945517" y="103.583"/>
</g>
<g style="fill:rgb(0%,0%,0%);fill-opacity:1;">
  <use xlink:href="#glyph2-2" x="209.589" y="75.805"/>
</g>
<g style="fill:rgb(0%,0%,0%);fill-opacity:1;">
  <use xlink:href="#glyph1-5" x="224.591" y="103.583"/>
  <use xlink:href="#glyph1-16" x="229.363105" y="103.583"/>
  <use xlink:href="#glyph1-20" x="235.161361" y="103.583"/>
</g>
<g style="fill:rgb(0%,0%,0%);fill-opacity:1;">
  <use xlink:href="#glyph2-2" x="230.774" y="71.735"/>
</g>
<g style="fill:rgb(0%,0%,0%);fill-opacity:1;">
  <use xlink:href="#glyph1-22" x="241.248" y="103.583"/>
  <use xlink:href="#glyph1-16" x="244.107278" y="103.583"/>
  <use xlink:href="#glyph1-15" x="249.905534" y="103.583"/>
</g>
<g style="fill:rgb(0%,0%,0%);fill-opacity:1;">
  <use xlink:href="#glyph2-2" x="246.201" y="79.875"/>
</g>
<g style="fill:rgb(0%,0%,0%);fill-opacity:1;">
  <use xlink:href="#glyph1-21" x="261.317" y="103.583"/>
  <use xlink:href="#glyph1-5" x="269.605916" y="103.583"/>
  <use xlink:href="#glyph1-17" x="274.378021" y="103.583"/>
</g>
<g style="fill:rgb(0%,0%,0%);fill-opacity:1;">
  <use xlink:href="#glyph2-8" x="266.948" y="83.945"/>
</g>
<g style="fill:rgb(0%,0%,0%);fill-opacity:1;">
  <use xlink:href="#glyph2-4" x="278.742" y="75.805"/>
</g>
<g style="fill:rgb(0%,0%,0%);fill-opacity:1;">
  <use xlink:href="#glyph1-25" x="283.308" y="103.583"/>
  <use xlink:href="#glyph1-2" x="291.138635" y="103.583"/>
</g>
<g style="fill:rgb(0%,0%,0%);fill-opacity:1;">
  <use xlink:href="#glyph2-2" x="286.738" y="71.735"/>
</g>
<g style="fill:rgb(0%,0%,0%);fill-opacity:1;">
  <use xlink:href="#glyph1-3" x="300.329" y="103.583"/>
</g>
<g style="fill:rgb(0%,0%,0%);fill-opacity:1;">
  <use xlink:href="#glyph1-4" x="303.72626" y="103.583"/>
  <use xlink:href="#glyph1-5" x="309.524517" y="103.583"/>
</g>
<g style="fill:rgb(0%,0%,0%);fill-opacity:1;">
  <use xlink:href="#glyph2-2" x="305.168" y="75.805"/>
</g>
<g style="fill:rgb(0%,0%,0%);fill-opacity:1;">
  <use xlink:href="#glyph1-3" x="320.17" y="103.583"/>
</g>
<g clip-path="url(#clip10)" clip-rule="nonzero">
<g style="fill:rgb(0%,0%,0%);fill-opacity:1;">
  <use xlink:href="#glyph1-4" x="323.56726" y="103.583"/>
  <use xlink:href="#glyph1-22" x="329.365517" y="103.583"/>
  <use xlink:href="#glyph1-16" x="332.224794" y="103.583"/>
  <use xlink:href="#glyph1-15" x="338.023051" y="103.583"/>
  <use xlink:href="#glyph1-10" x="343.562279" y="103.583"/>
</g>
</g>
<g style="fill:rgb(0%,0%,0%);fill-opacity:1;">
  <use xlink:href="#glyph2-2" x="331.833" y="79.875"/>
</g>
<g clip-path="url(#clip11)" clip-rule="nonzero">
<g style="fill:rgb(0%,0%,0%);fill-opacity:1;">
  <use xlink:href="#glyph2-9" x="345.874" y="88.016"/>
</g>
</g>
<g clip-path="url(#clip12)" clip-rule="nonzero">
<path style="fill:none;stroke-width:0.388;stroke-linecap:butt;stroke-linejoin:miter;stroke:rgb(0%,0%,0%);stroke-opacity:1;stroke-miterlimit:10;" d="M 0 0.001875 L 347.761719 0.001875 " transform="matrix(1,0,0,-1,0,116.58)"/>
</g>
<g clip-path="url(#clip13)" clip-rule="nonzero">
<path style="fill:none;stroke-width:0.388;stroke-linecap:butt;stroke-linejoin:miter;stroke:rgb(0%,0%,0%);stroke-opacity:1;stroke-miterlimit:10;" d="M 0 0.00125 L 347.761719 0.00125 " transform="matrix(1,0,0,-1,0,124.72)"/>
</g>
<g clip-path="url(#clip14)" clip-rule="nonzero">
<path style="fill:none;stroke-width:0.388;stroke-linecap:butt;stroke-linejoin:miter;stroke:rgb(0%,0%,0%);stroke-opacity:1;stroke-miterlimit:10;" d="M 0 0.001625 L 347.761719 0.001625 " transform="matrix(1,0,0,-1,0,132.861)"/>
</g>
<g clip-path="url(#clip15)" clip-rule="nonzero">
<path style="fill:none;stroke-width:0.388;stroke-linecap:butt;stroke-linejoin:miter;stroke:rgb(0%,0%,0%);stroke-opacity:1;stroke-miterlimit:10;" d="M 0 0.001 L 347.761719 0.001 " transform="matrix(1,0,0,-1,0,141.001)"/>
</g>
<g style="fill:rgb(0%,0%,0%);fill-opacity:1;">
  <use xlink:href="#glyph2-1" x="0" y="122.459"/>
</g>
<g style="fill:rgb(0%,0%,0%);fill-opacity:1;">
  <use xlink:href="#glyph1-3" x="4.242" y="158.378"/>
</g>
<g style="fill:rgb(0%,0%,0%);fill-opacity:1;">
  <use xlink:href="#glyph1-4" x="7.63926" y="158.378"/>
  <use xlink:href="#glyph1-7" x="13.437517" y="158.378"/>
  <use xlink:href="#glyph1-3" x="18.418837" y="158.378"/>
</g>
<g style="fill:rgb(0%,0%,0%);fill-opacity:1;">
  <use xlink:href="#glyph2-2" x="10.81" y="142.81"/>
</g>
<g style="fill:rgb(0%,0%,0%);fill-opacity:1;">
  <use xlink:href="#glyph1-7" x="26.367" y="158.378"/>
  <use xlink:href="#glyph1-8" x="31.34832" y="158.378"/>
  <use xlink:href="#glyph1-5" x="35.283563" y="158.378"/>
  <use xlink:href="#glyph1-17" x="40.055667" y="158.378"/>
</g>
<g style="fill:rgb(0%,0%,0%);fill-opacity:1;">
  <use xlink:href="#glyph2-2" x="32.312" y="138.74"/>
</g>
<g style="fill:rgb(0%,0%,0%);fill-opacity:1;">
  <use xlink:href="#glyph1-3" x="47.247" y="158.378"/>
</g>
<g style="fill:rgb(0%,0%,0%);fill-opacity:1;">
  <use xlink:href="#glyph1-4" x="50.64426" y="158.378"/>
  <use xlink:href="#glyph1-7" x="56.442517" y="158.378"/>
  <use xlink:href="#glyph1-3" x="61.423837" y="158.378"/>
</g>
<g style="fill:rgb(0%,0%,0%);fill-opacity:1;">
  <use xlink:href="#glyph2-2" x="53.814" y="142.81"/>
</g>
<g style="fill:rgb(0%,0%,0%);fill-opacity:1;">
  <use xlink:href="#glyph1-4" x="69.372" y="158.378"/>
  <use xlink:href="#glyph1-7" x="75.170256" y="158.378"/>
</g>
<g style="fill:rgb(0%,0%,0%);fill-opacity:1;">
  <use xlink:href="#glyph1-13" x="79.802884" y="158.378"/>
</g>
<g style="fill:rgb(0%,0%,0%);fill-opacity:1;">
  <use xlink:href="#glyph1-5" x="85.03327" y="158.378"/>
</g>
<g style="fill:rgb(0%,0%,0%);fill-opacity:1;">
  <use xlink:href="#glyph2-2" x="77.443" y="146.881"/>
</g>
<g style="fill:rgb(0%,0%,0%);fill-opacity:1;">
  <use xlink:href="#glyph2-7" x="81.733" y="142.81"/>
</g>
<g style="fill:rgb(0%,0%,0%);fill-opacity:1;">
  <use xlink:href="#glyph1-14" x="94.505" y="158.378"/>
  <use xlink:href="#glyph1-5" x="100.01434" y="158.378"/>
  <use xlink:href="#glyph1-5" x="104.786444" y="158.378"/>
  <use xlink:href="#glyph1-16" x="109.558549" y="158.378"/>
  <use xlink:href="#glyph1-17" x="115.356806" y="158.378"/>
</g>
<g style="fill:rgb(0%,0%,0%);fill-opacity:1;">
  <use xlink:href="#glyph2-2" x="104.032" y="134.67"/>
</g>
<g style="fill:rgb(0%,0%,0%);fill-opacity:1;">
  <use xlink:href="#glyph2-3" x="119.31" y="130.599"/>
</g>
<g style="fill:rgb(0%,0%,0%);fill-opacity:1;">
  <use xlink:href="#glyph1-23" x="123.115" y="158.378"/>
  <use xlink:href="#glyph1-16" x="130.865934" y="158.378"/>
  <use xlink:href="#glyph1-20" x="136.66419" y="158.378"/>
</g>
<g style="fill:rgb(0%,0%,0%);fill-opacity:1;">
  <use xlink:href="#glyph2-2" x="130.788" y="134.67"/>
</g>
<g style="fill:rgb(0%,0%,0%);fill-opacity:1;">
  <use xlink:href="#glyph1-3" x="147.452" y="158.378"/>
</g>
<g style="fill:rgb(0%,0%,0%);fill-opacity:1;">
  <use xlink:href="#glyph1-4" x="150.84926" y="158.378"/>
  <use xlink:href="#glyph1-7" x="156.647517" y="158.378"/>
  <use xlink:href="#glyph1-3" x="161.628837" y="158.378"/>
</g>
<g style="fill:rgb(0%,0%,0%);fill-opacity:1;">
  <use xlink:href="#glyph2-2" x="154.019" y="134.67"/>
</g>
<g style="fill:rgb(0%,0%,0%);fill-opacity:1;">
  <use xlink:href="#glyph1-2" x="169.577" y="158.378"/>
  <use xlink:href="#glyph1-28" x="172.894559" y="158.378"/>
</g>
<g style="fill:rgb(0%,0%,0%);fill-opacity:1;">
  <use xlink:href="#glyph2-2" x="172.094" y="138.74"/>
</g>
<g style="fill:rgb(0%,0%,0%);fill-opacity:1;">
  <use xlink:href="#glyph1-3" x="178.902" y="158.378"/>
  <use xlink:href="#glyph1-28" x="182.149821" y="158.378"/>
  <use xlink:href="#glyph1-8" x="188.157293" y="158.378"/>
  <use xlink:href="#glyph1-5" x="192.092535" y="158.378"/>
</g>
<g style="fill:rgb(0%,0%,0%);fill-opacity:1;">
  <use xlink:href="#glyph2-2" x="185.738" y="142.81"/>
</g>
<g style="fill:rgb(0%,0%,0%);fill-opacity:1;">
  <use xlink:href="#glyph1-30" x="201.565" y="158.378"/>
</g>
<g style="fill:rgb(0%,0%,0%);fill-opacity:1;">
  <use xlink:href="#glyph1-5" x="206.755535" y="158.378"/>
  <use xlink:href="#glyph1-7" x="211.52764" y="158.378"/>
  <use xlink:href="#glyph1-8" x="216.50896" y="158.378"/>
  <use xlink:href="#glyph1-10" x="220.444203" y="158.378"/>
</g>
<g style="fill:rgb(0%,0%,0%);fill-opacity:1;">
  <use xlink:href="#glyph2-2" x="210.972" y="138.74"/>
</g>
<g style="fill:rgb(0%,0%,0%);fill-opacity:1;">
  <use xlink:href="#glyph1-10" x="229.369" y="158.378"/>
  <use xlink:href="#glyph1-4" x="233.593159" y="158.378"/>
  <use xlink:href="#glyph1-7" x="239.391416" y="158.378"/>
  <use xlink:href="#glyph1-11" x="244.372736" y="158.378"/>
  <use xlink:href="#glyph1-11" x="247.271864" y="158.378"/>
</g>
<g style="fill:rgb(0%,0%,0%);fill-opacity:1;">
  <use xlink:href="#glyph2-2" x="237.625" y="134.67"/>
</g>
<g style="fill:rgb(0%,0%,0%);fill-opacity:1;">
  <use xlink:href="#glyph1-10" x="254.871" y="158.378"/>
  <use xlink:href="#glyph1-5" x="259.095159" y="158.378"/>
  <use xlink:href="#glyph1-5" x="263.867264" y="158.378"/>
  <use xlink:href="#glyph1-17" x="268.639368" y="158.378"/>
</g>
<g style="fill:rgb(0%,0%,0%);fill-opacity:1;">
  <use xlink:href="#glyph2-2" x="260.855" y="130.599"/>
</g>
<g style="fill:rgb(0%,0%,0%);fill-opacity:1;">
  <use xlink:href="#glyph2-4" x="271.657387" y="130.599"/>
</g>
<g style="fill:rgb(0%,0%,0%);fill-opacity:1;">
  <use xlink:href="#glyph1-18" x="277.789" y="158.378"/>
  <use xlink:href="#glyph1-26" x="283.876173" y="158.378"/>
</g>
<g style="fill:rgb(0%,0%,0%);fill-opacity:1;">
  <use xlink:href="#glyph2-2" x="278.688" y="126.529"/>
</g>
<g style="fill:rgb(0%,0%,0%);fill-opacity:1;">
  <use xlink:href="#glyph1-13" x="287.194" y="158.378"/>
</g>
<g style="fill:rgb(0%,0%,0%);fill-opacity:1;">
  <use xlink:href="#glyph1-5" x="292.424386" y="158.378"/>
  <use xlink:href="#glyph1-8" x="297.196491" y="158.378"/>
</g>
<g style="fill:rgb(0%,0%,0%);fill-opacity:1;">
  <use xlink:href="#glyph2-2" x="292.018" y="130.599"/>
</g>
<g style="fill:rgb(0%,0%,0%);fill-opacity:1;">
  <use xlink:href="#glyph1-27" x="301.131" y="158.378"/>
  <use xlink:href="#glyph1-12" x="309.928011" y="158.378"/>
  <use xlink:href="#glyph1-8" x="315.367613" y="158.378"/>
  <use xlink:href="#glyph1-5" x="319.302855" y="158.378"/>
</g>
<g style="fill:rgb(0%,0%,0%);fill-opacity:1;">
  <use xlink:href="#glyph2-2" x="310.458" y="134.67"/>
</g>
<g style="fill:rgb(0%,0%,0%);fill-opacity:1;">
  <use xlink:href="#glyph1-7" x="328.776" y="158.378"/>
  <use xlink:href="#glyph1-16" x="333.75732" y="158.378"/>
  <use xlink:href="#glyph1-20" x="339.555576" y="158.378"/>
</g>
<g style="fill:rgb(0%,0%,0%);fill-opacity:1;">
  <use xlink:href="#glyph2-2" x="335.064" y="142.81"/>
</g>
<g clip-path="url(#clip16)" clip-rule="nonzero">
<g style="fill:rgb(0%,0%,0%);fill-opacity:1;">
  <use xlink:href="#glyph2-9" x="345.874" y="134.67"/>
</g>
</g>
<g clip-path="url(#clip17)" clip-rule="nonzero">
<path style="fill:none;stroke-width:0.388;stroke-linecap:butt;stroke-linejoin:miter;stroke:rgb(0%,0%,0%);stroke-opacity:1;stroke-miterlimit:10;" d="M 0 -0.001 L 347.761719 -0.001 " transform="matrix(1,0,0,-1,0,171.374)"/>
</g>
<g clip-path="url(#clip18)" clip-rule="nonzero">
<path style="fill:none;stroke-width:0.388;stroke-linecap:butt;stroke-linejoin:miter;stroke:rgb(0%,0%,0%);stroke-opacity:1;stroke-miterlimit:10;" d="M 0 -0.000625 L 347.761719 -0.000625 " transform="matrix(1,0,0,-1,0,179.515)"/>
</g>
<g clip-path="url(#clip19)" clip-rule="nonzero">
<path style="fill:none;stroke-width:0.388;stroke-linecap:butt;stroke-linejoin:miter;stroke:rgb(0%,0%,0%);stroke-opacity:1;stroke-miterlimit:10;" d="M 0 -0.00125 L 347.761719 -0.00125 " transform="matrix(1,0,0,-1,0,187.655)"/>
</g>
<g clip-path="url(#clip20)" clip-rule="nonzero">
<path style="fill:none;stroke-width:0.388;stroke-linecap:butt;stroke-linejoin:miter;stroke:rgb(0%,0%,0%);stroke-opacity:1;stroke-miterlimit:10;" d="M 0 -0.000875 L 347.761719 -0.000875 " transform="matrix(1,0,0,-1,0,195.796)"/>
</g>
<g style="fill:rgb(0%,0%,0%);fill-opacity:1;">
  <use xlink:href="#glyph2-1" x="0" y="177.253"/>
</g>
<g style="fill:rgb(0%,0%,0%);fill-opacity:1;">
  <use xlink:href="#glyph1-5" x="10.568" y="213.172"/>
  <use xlink:href="#glyph1-26" x="15.340105" y="213.172"/>
</g>
<g style="fill:rgb(0%,0%,0%);fill-opacity:1;">
  <use xlink:href="#glyph2-2" x="10.81" y="189.464"/>
</g>
<g style="fill:rgb(0%,0%,0%);fill-opacity:1;">
  <use xlink:href="#glyph1-13" x="18.658" y="213.172"/>
</g>
<g style="fill:rgb(0%,0%,0%);fill-opacity:1;">
  <use xlink:href="#glyph1-5" x="23.888386" y="213.172"/>
  <use xlink:href="#glyph1-8" x="28.660491" y="213.172"/>
</g>
<g style="fill:rgb(0%,0%,0%);fill-opacity:1;">
  <use xlink:href="#glyph2-2" x="23.482" y="189.464"/>
</g>
<g style="fill:rgb(0%,0%,0%);fill-opacity:1;">
  <use xlink:href="#glyph1-27" x="32.596" y="213.172"/>
  <use xlink:href="#glyph1-12" x="41.393011" y="213.172"/>
  <use xlink:href="#glyph1-8" x="46.832613" y="213.172"/>
  <use xlink:href="#glyph1-5" x="50.767855" y="213.172"/>
  <use xlink:href="#glyph1-31" x="55.53996" y="213.172"/>
</g>
<g style="fill:rgb(0%,0%,0%);fill-opacity:1;">
  <use xlink:href="#glyph2-2" x="43.308" y="193.534"/>
</g>
<g style="fill:rgb(0%,0%,0%);fill-opacity:1;">
  <use xlink:href="#glyph2-10" x="54.47" y="185.394"/>
</g>
<g style="fill:rgb(0%,0%,0%);fill-opacity:1;">
  <use xlink:href="#glyph2-10" x="58.062181" y="185.394"/>
</g>
<g style="fill:rgb(0%,0%,0%);fill-opacity:1;">
  <use xlink:href="#glyph3-1" x="63.695" y="213.172"/>
</g>
<g style="fill:rgb(0%,0%,0%);fill-opacity:1;">
  <use xlink:href="#glyph2-8" x="65.426" y="193.534"/>
</g>
<g style="fill:rgb(0%,0%,0%);fill-opacity:1;">
  <use xlink:href="#glyph3-2" x="71.446" y="213.172"/>
  <use xlink:href="#glyph3-3" x="80.302787" y="213.172"/>
  <use xlink:href="#glyph3-4" x="85.284107" y="213.172"/>
  <use xlink:href="#glyph3-5" x="91.37128" y="213.172"/>
</g>
<g style="fill:rgb(0%,0%,0%);fill-opacity:1;">
  <use xlink:href="#glyph2-11" x="80.509" y="193.534"/>
</g>
<g style="fill:rgb(0%,0%,0%);fill-opacity:1;">
  <use xlink:href="#glyph2-10" x="101.777" y="185.394"/>
</g>
<g style="fill:rgb(0%,0%,0%);fill-opacity:1;">
  <use xlink:href="#glyph2-10" x="105.369181" y="185.394"/>
</g>
</g>
</svg>
