<?xml version="1.0" encoding="UTF-8"?>
<svg xmlns="http://www.w3.org/2000/svg" xmlns:xlink="http://www.w3.org/1999/xlink" width="348pt" height="162pt" viewBox="0 0 348 162" version="1.1">
<defs>
<g>
<symbol overflow="visible" id="glyph0-0">
<path style="stroke:none;" d="M 2 0 L 17.9375 0 L 17.9375 -19.28125 L 2 -19.28125 Z M 3.984375 -2 L 3.984375 -17.296875 L 15.9375 -17.296875 L 15.9375 -2 Z M 3.984375 -2 "/>
</symbol>
<symbol overflow="visible" id="glyph0-1">
<path style="stroke:none;" d="M 0.953125 -19.28125 C 0.953125 -17.328125 1.46875 -15.890625 2.625 -14.828125 C 3.984375 -13.59375 5.8125 -12.953125 9.6875 -12.4375 C 12.75 -12 14.140625 -11.515625 15.1875 -10.640625 C 16.21875 -9.765625 16.6875 -8.640625 16.6875 -7.125 C 16.6875 -3.546875 13.703125 -0.953125 9.5625 -0.953125 C 6.375 -0.953125 3.265625 -2.515625 3.0625 -4.140625 L 2.75 -6.8125 L 1.46875 -6.8125 C 1.515625 -6.09375 1.515625 -5.453125 1.515625 -5.21875 C 1.515625 -3.390625 1.4375 -2.515625 1.203125 -0.71875 C 3.46875 0.28125 5.78125 0.796875 8.09375 0.796875 C 15.015625 0.796875 20.046875 -3.390625 20.046875 -9.171875 C 20.046875 -11.03125 19.53125 -12.359375 18.40625 -13.390625 C 17.015625 -14.703125 15.34375 -15.21875 10.875 -15.8125 C 6.015625 -16.453125 4.296875 -17.765625 4.296875 -20.84375 C 4.296875 -24.1875 6.8125 -26.578125 10.3125 -26.578125 C 11.875 -26.578125 13.34375 -26.25 14.421875 -25.65625 C 15.734375 -24.984375 16.171875 -24.390625 16.296875 -23.234375 L 16.53125 -20.953125 L 17.8125 -20.953125 C 17.8125 -23.0625 17.96875 -24.421875 18.375 -26.578125 C 15.1875 -27.84375 13.390625 -28.25 11.203125 -28.25 C 5.265625 -28.25 0.953125 -24.5 0.953125 -19.28125 Z M 0.953125 -19.28125 "/>
</symbol>
<symbol overflow="visible" id="glyph1-0">
<path style="stroke:none;" d="M 0.5 0 L 4.484375 0 L 4.484375 -4.828125 L 0.5 -4.828125 Z M 1 -0.5 L 1 -4.328125 L 3.984375 -4.328125 L 3.984375 -0.5 Z M 1 -0.5 "/>
</symbol>
<symbol overflow="visible" id="glyph1-1">
<path style="stroke:none;" d="M 0.40625 0.03125 C 0.78125 0.015625 1.171875 0 1.546875 0 C 1.921875 0 2.3125 0.015625 2.6875 0.03125 L 2.6875 -0.34375 L 2.40625 -0.359375 C 2.171875 -0.375 2.15625 -0.671875 2.15625 -0.921875 L 2.15625 -3.59375 C 2.15625 -3.859375 2.171875 -4.140625 2.40625 -4.171875 L 2.6875 -4.1875 L 2.6875 -4.5625 C 2.3125 -4.53125 1.921875 -4.53125 1.546875 -4.53125 C 1.171875 -4.53125 0.78125 -4.53125 0.40625 -4.5625 L 0.40625 -4.1875 L 0.6875 -4.171875 C 0.921875 -4.140625 0.9375 -3.859375 0.9375 -3.59375 L 0.9375 -0.921875 C 0.9375 -0.671875 0.921875 -0.375 0.6875 -0.359375 L 0.40625 -0.34375 Z M 0.40625 0.03125 "/>
</symbol>
<symbol overflow="visible" id="glyph1-2">
<path style="stroke:none;" d="M 0.265625 -4.203125 L 0.59375 -4.1875 C 0.75 -4.171875 0.84375 -3.953125 0.9375 -3.765625 L 2.671875 0.015625 L 3.328125 0.015625 C 3.421875 -0.203125 3.515625 -0.4375 3.625 -0.65625 L 5.109375 -3.90625 C 5.171875 -4.046875 5.265625 -4.171875 5.40625 -4.1875 L 5.65625 -4.203125 L 5.65625 -4.5625 C 5.375 -4.53125 5.078125 -4.53125 4.796875 -4.53125 C 4.515625 -4.53125 4.234375 -4.53125 3.953125 -4.5625 L 3.953125 -4.203125 L 4.296875 -4.1875 C 4.40625 -4.171875 4.515625 -4.15625 4.515625 -4.0625 C 4.515625 -3.9375 4.390625 -3.65625 4.296875 -3.4375 L 3.34375 -1.296875 L 2.296875 -3.65625 C 2.21875 -3.796875 2.140625 -3.984375 2.140625 -4.109375 C 2.140625 -4.15625 2.1875 -4.1875 2.234375 -4.1875 L 2.625 -4.203125 L 2.625 -4.5625 C 2.21875 -4.53125 1.828125 -4.53125 1.421875 -4.53125 C 1.03125 -4.53125 0.65625 -4.53125 0.265625 -4.5625 Z M 0.265625 -4.203125 "/>
</symbol>
<symbol overflow="visible" id="glyph1-3">
<path style="stroke:none;" d="M 0.234375 0.03125 C 0.625 0.015625 0.984375 0 1.359375 0 C 1.75 0 2.109375 0.015625 2.5 0.03125 L 2.5 -0.34375 L 2 -0.375 C 1.6875 -0.390625 1.671875 -0.71875 1.75 -0.9375 L 2.171875 -2.046875 L 4.671875 -2.046875 L 5.125 -0.921875 C 5.1875 -0.75 5.25 -0.390625 4.984375 -0.375 L 4.453125 -0.34375 L 4.453125 0.03125 C 4.96875 0.015625 5.46875 0 5.96875 0 C 6.5 0 7.015625 0.015625 7.546875 0.03125 L 7.546875 -0.34375 L 7.3125 -0.375 C 7.03125 -0.40625 6.890625 -0.515625 6.765625 -0.8125 L 4.171875 -6.84375 L 3.46875 -6.84375 L 2.90625 -5.328125 L 1.09375 -0.96875 C 0.9375 -0.578125 0.75 -0.390625 0.53125 -0.375 L 0.234375 -0.34375 Z M 2.40625 -2.609375 L 3.40625 -5.140625 L 4.453125 -2.609375 Z M 2.40625 -2.609375 "/>
</symbol>
<symbol overflow="visible" id="glyph1-4">
<path style="stroke:none;" d="M 0.234375 0.03125 C 0.671875 0.015625 1.09375 0 1.53125 0 C 1.9375 0 2.375 0.015625 2.796875 0.03125 L 2.796875 -0.34375 L 2.515625 -0.359375 C 2.203125 -0.375 2.15625 -0.453125 2.15625 -1 L 2.15625 -3.15625 C 2.15625 -3.484375 2.578125 -3.84375 2.96875 -3.84375 C 3.546875 -3.84375 3.828125 -3.453125 3.828125 -2.6875 L 3.828125 -1 C 3.828125 -0.453125 3.78125 -0.375 3.46875 -0.359375 L 3.15625 -0.34375 L 3.15625 0.03125 C 3.59375 0.015625 4.015625 0 4.453125 0 C 4.890625 0 5.3125 0.015625 5.75 0.03125 L 5.75 -0.34375 L 5.40625 -0.359375 C 5.09375 -0.375 5.046875 -0.453125 5.046875 -1 L 5.046875 -3.15625 C 5.046875 -3.484375 5.453125 -3.84375 5.859375 -3.84375 C 6.4375 -3.84375 6.703125 -3.453125 6.703125 -2.6875 L 6.703125 0.03125 C 7.015625 0.015625 7.328125 0 7.640625 0 C 7.96875 0 8.28125 0.015625 8.609375 0.03125 L 8.609375 -0.34375 L 8.28125 -0.359375 C 7.96875 -0.375 7.921875 -0.453125 7.921875 -1 L 7.921875 -2.84375 C 7.921875 -4.234375 7.5625 -4.6875 6.5 -4.6875 C 6.171875 -4.6875 5.953125 -4.640625 5.78125 -4.5 L 4.984375 -3.890625 C 4.75 -4.453125 4.359375 -4.6875 3.671875 -4.6875 C 3.34375 -4.6875 3.125 -4.640625 2.953125 -4.5 L 2.15625 -3.890625 L 2.15625 -4.640625 L 2.109375 -4.6875 C 1.0625 -4.359375 0.78125 -4.296875 0.234375 -4.265625 L 0.234375 -3.90625 L 0.6875 -3.875 C 0.921875 -3.859375 0.953125 -3.765625 0.953125 -3.1875 L 0.953125 -1 C 0.953125 -0.453125 0.890625 -0.375 0.59375 -0.359375 L 0.234375 -0.34375 Z M 0.234375 0.03125 "/>
</symbol>
<symbol overflow="visible" id="glyph1-5">
<path style="stroke:none;" d="M 0.421875 -2.25 C 0.421875 -0.671875 1.203125 0.171875 2.703125 0.171875 C 3.28125 0.171875 3.625 0.0625 4.28125 -0.265625 L 4.5 -0.734375 L 4.375 -0.890625 C 3.90625 -0.625 3.609375 -0.53125 3.203125 -0.53125 C 2.703125 -0.53125 2.21875 -0.8125 1.96875 -1.21875 C 1.796875 -1.5 1.734375 -1.75 1.71875 -2.21875 L 3.015625 -2.21875 C 3.59375 -2.21875 4.03125 -2.28125 4.59375 -2.421875 L 4.59375 -2.9375 C 4.59375 -4 3.859375 -4.6875 2.703125 -4.6875 C 2.359375 -4.6875 2.109375 -4.625 1.828125 -4.46875 L 1.359375 -4.1875 C 0.703125 -3.796875 0.421875 -3.203125 0.421875 -2.25 Z M 1.65625 -2.75 C 1.65625 -3.734375 1.921875 -4.140625 2.5 -4.140625 C 3.078125 -4.140625 3.328125 -3.734375 3.328125 -2.75 C 3.328125 -2.75 2.828125 -2.71875 2.5 -2.71875 C 2.296875 -2.71875 2.546875 -2.71875 1.96875 -2.734375 Z M 1.65625 -2.75 "/>
</symbol>
<symbol overflow="visible" id="glyph1-6">
<path style="stroke:none;" d="M 0.234375 0.03125 C 0.671875 0.015625 1.09375 0 1.53125 0 C 1.96875 0 2.421875 0.015625 2.875 0.03125 L 2.875 -0.34375 L 2.515625 -0.359375 C 2.21875 -0.375 2.15625 -0.453125 2.15625 -1 L 2.15625 -3.15625 C 2.15625 -3.515625 2.578125 -3.84375 3.015625 -3.84375 C 3.671875 -3.84375 3.953125 -3.484375 3.953125 -2.6875 L 3.953125 0.03125 C 4.25 0.015625 4.546875 0 4.84375 0 C 5.1875 0 5.515625 0.015625 5.859375 0.03125 L 5.859375 -0.34375 L 5.515625 -0.359375 C 5.21875 -0.375 5.15625 -0.453125 5.15625 -1 L 5.15625 -2.84375 C 5.15625 -3.625 5.078125 -4 4.8125 -4.28125 C 4.5625 -4.546875 4.140625 -4.6875 3.65625 -4.6875 C 3.359375 -4.6875 3.125 -4.640625 2.953125 -4.5 L 2.15625 -3.890625 L 2.15625 -4.640625 L 2.109375 -4.6875 C 1.0625 -4.359375 0.78125 -4.296875 0.234375 -4.265625 L 0.234375 -3.90625 L 0.6875 -3.875 C 0.921875 -3.859375 0.953125 -3.765625 0.953125 -3.1875 L 0.953125 -1 C 0.953125 -0.453125 0.890625 -0.375 0.59375 -0.359375 L 0.234375 -0.34375 Z M 0.234375 0.03125 "/>
</symbol>
<symbol overflow="visible" id="glyph1-7">
<path style="stroke:none;" d="M 0.46875 -0.640625 C 0.46875 -0.234375 0.828125 0.125 1.234375 0.125 C 1.65625 0.125 2.03125 -0.234375 2.03125 -0.640625 C 2.03125 -1.0625 1.65625 -1.4375 1.25 -1.4375 C 0.84375 -1.4375 0.46875 -1.0625 0.46875 -0.640625 Z M 0.46875 -0.640625 "/>
</symbol>
<symbol overflow="visible" id="glyph2-0">
<path style="stroke:none;" d="M 0.859375 0 L 0.859375 -17.21875 L 7.703125 -17.21875 L 7.703125 0 Z M 1.703125 -0.859375 L 6.84375 -0.859375 L 6.84375 -16.359375 L 1.703125 -16.359375 Z M 1.703125 -0.859375 "/>
</symbol>
<symbol overflow="visible" id="glyph2-1">
<path style="stroke:none;" d="M 0 -1.703125 L 0 -10.125 C 0 -10.988281 0.25 -11.648438 0.75 -12.109375 C 1.25 -12.566406 1.929688 -12.796875 2.796875 -12.796875 C 3.273438 -12.773438 3.644531 -12.644531 3.90625 -12.40625 C 4.164062 -12.175781 4.296875 -11.882812 4.296875 -11.53125 L 4.296875 -6.984375 L 4.03125 -7.203125 C 3.53125 -7.648438 2.894531 -7.875 2.125 -7.875 C 1.601562 -7.875 1.160156 -7.6875 0.796875 -7.3125 C 0.441406 -6.9375 0.265625 -6.472656 0.265625 -5.921875 C 0.265625 -5.367188 0.441406 -4.898438 0.796875 -4.515625 C 1.160156 -4.140625 1.601562 -3.953125 2.125 -3.953125 C 2.914062 -3.953125 3.550781 -4.160156 4.03125 -4.578125 L 4.296875 -4.828125 L 4.296875 -0.265625 C 4.296875 0.148438 4.144531 0.46875 3.84375 0.6875 C 3.550781 0.914062 3.203125 1.03125 2.796875 1.03125 C 1.929688 1.019531 1.25 0.773438 0.75 0.296875 C 0.25 -0.171875 0 -0.835938 0 -1.703125 Z M 0 -1.703125 "/>
</symbol>
<symbol overflow="visible" id="glyph2-2">
<path style="stroke:none;" d="M 2.125 -4.375 C 3.570312 -4.375 4.296875 -3.96875 4.296875 -3.15625 L 4.296875 0.9375 C 3.828125 0.445312 3.109375 0.203125 2.140625 0.203125 C 1.179688 0.203125 0.46875 0.445312 0 0.9375 L 0 -3.15625 C 0 -3.96875 0.707031 -4.375 2.125 -4.375 Z M 2.125 -4.375 "/>
</symbol>
<symbol overflow="visible" id="glyph2-3">
<path style="stroke:none;" d="M 3.3125 0.703125 C 3.21875 0.703125 3.035156 0.695312 2.765625 0.6875 C 2.492188 0.675781 2.25 0.671875 2.03125 0.671875 C 1.8125 0.671875 1.5625 0.675781 1.28125 0.6875 C 1 0.695312 0.8125 0.703125 0.71875 0.703125 C 0.414062 0.703125 0.21875 0.6875 0.125 0.65625 C 0.0390625 0.632812 0 0.570312 0 0.46875 L 0 -3 C 0 -3.15625 0.0507812 -3.234375 0.15625 -3.234375 L 0.265625 -3.234375 C 0.378906 -3.210938 0.9375 -3.203125 1.9375 -3.203125 L 2.796875 -3.203125 C 3.097656 -3.203125 3.304688 -3.207031 3.421875 -3.21875 C 3.535156 -3.226562 3.628906 -3.257812 3.703125 -3.3125 C 3.785156 -3.375 3.828125 -3.484375 3.828125 -3.640625 C 3.828125 -4.421875 3.316406 -4.8125 2.296875 -4.8125 C 1.472656 -4.8125 0.800781 -4.628906 0.28125 -4.265625 L 0.28125 -7.59375 C 0.28125 -8.457031 0.953125 -8.890625 2.296875 -8.890625 C 2.828125 -8.890625 3.289062 -8.789062 3.6875 -8.59375 C 4.09375 -8.394531 4.296875 -8.0625 4.296875 -7.59375 L 4.296875 0.4375 C 4.296875 0.539062 4.226562 0.609375 4.09375 0.640625 C 3.96875 0.679688 3.707031 0.703125 3.3125 0.703125 Z M 3.3125 0.703125 "/>
</symbol>
<symbol overflow="visible" id="glyph2-4">
<path style="stroke:none;" d="M 0 -17.65625 L 0.484375 -17.65625 L 0.484375 -9.40625 C 0.242188 -9.425781 0.0820312 -9.488281 0 -9.59375 Z M 0 -17.65625 "/>
</symbol>
<symbol overflow="visible" id="glyph2-5">
<path style="stroke:none;" d="M 0 -14.234375 L 0.484375 -14.234375 L 0.484375 10.5625 L 0 10.5625 Z M 0 -14.234375 "/>
</symbol>
<symbol overflow="visible" id="glyph2-6">
<path style="stroke:none;" d="M 0 4.578125 L 0 -3.234375 C 0 -4.054688 0.722656 -4.46875 2.171875 -4.46875 C 3.585938 -4.46875 4.296875 -4.054688 4.296875 -3.234375 L 4.296875 0.75 C 4.390625 0.0625 5.09375 -0.28125 6.40625 -0.28125 C 7.851562 -0.28125 8.578125 0.125 8.578125 0.9375 L 8.578125 4.984375 C 8.109375 4.523438 7.390625 4.296875 6.421875 4.296875 C 5.460938 4.296875 4.753906 4.523438 4.296875 4.984375 L 4.296875 0.828125 C 3.847656 0.378906 3.128906 0.15625 2.140625 0.15625 C 1.453125 0.15625 0.894531 0.34375 0.46875 0.71875 L 0.46875 3.90625 C 0.46875 4.195312 0.460938 4.421875 0.453125 4.578125 C 0.441406 4.734375 0.429688 4.851562 0.421875 4.9375 C 0.410156 5.019531 0.394531 5.066406 0.375 5.078125 C 0.363281 5.097656 0.332031 5.109375 0.28125 5.109375 C 0.09375 5.066406 0 4.890625 0 4.578125 Z M 0 4.578125 "/>
</symbol>
<symbol overflow="visible" id="glyph2-7">
<path style="stroke:none;" d="M 0 0 L 0 -4.625 C 0.238281 -4.414062 0.453125 -4.273438 0.640625 -4.203125 C 0.835938 -4.140625 1.113281 -4.109375 1.46875 -4.109375 L 1.46875 -9.828125 C 1.46875 -10.148438 1.53125 -10.3125 1.65625 -10.3125 L 1.6875 -10.3125 C 1.820312 -10.289062 1.890625 -10.015625 1.890625 -9.484375 L 1.890625 1.265625 C 0.628906 1.078125 0 0.65625 0 0 Z M 0 0 "/>
</symbol>
<symbol overflow="visible" id="glyph2-8">
<path style="stroke:none;" d="M 0 -3.15625 C 0 -3.96875 0.707031 -4.375 2.125 -4.375 C 3.570312 -4.375 4.296875 -3.96875 4.296875 -3.15625 L 4.296875 0.9375 C 3.828125 0.445312 3.109375 0.203125 2.140625 0.203125 C 1.179688 0.203125 0.46875 0.445312 0 0.9375 Z M 4.296875 -7.203125 C 4.296875 -8.015625 5 -8.421875 6.40625 -8.421875 C 7.851562 -8.421875 8.578125 -8.015625 8.578125 -7.203125 L 8.578125 -3.15625 C 8.109375 -3.613281 7.390625 -3.84375 6.421875 -3.84375 C 5.460938 -3.84375 4.753906 -3.613281 4.296875 -3.15625 Z M 8.578125 -3.15625 C 8.578125 -3.96875 9.285156 -4.375 10.703125 -4.375 C 12.148438 -4.375 12.875 -3.96875 12.875 -3.15625 L 12.875 0.9375 C 12.40625 0.445312 11.6875 0.203125 10.71875 0.203125 C 9.757812 0.203125 9.046875 0.445312 8.578125 0.9375 Z M 8.578125 -3.15625 "/>
</symbol>
<symbol overflow="visible" id="glyph2-9">
<path style="stroke:none;" d="M 0.484375 -9.96875 L 0.484375 7.578125 C 0.234375 7.585938 0.0703125 7.613281 0 7.65625 L 0 -9.890625 C 0.0820312 -9.941406 0.242188 -9.96875 0.484375 -9.96875 Z M 0.484375 -9.96875 "/>
</symbol>
<symbol overflow="visible" id="glyph2-10">
<path style="stroke:none;" d="M 1.546875 -1.484375 C 1.359375 -1.316406 1.144531 -1.234375 0.90625 -1.234375 C 0.675781 -1.234375 0.46875 -1.316406 0.28125 -1.484375 C 0.09375 -1.660156 0 -1.882812 0 -2.15625 C 0 -2.425781 0.09375 -2.644531 0.28125 -2.8125 C 0.46875 -2.988281 0.675781 -3.078125 0.90625 -3.078125 C 1.144531 -3.078125 1.359375 -2.988281 1.546875 -2.8125 C 1.734375 -2.644531 1.828125 -2.425781 1.828125 -2.15625 C 1.828125 -1.882812 1.734375 -1.660156 1.546875 -1.484375 Z M 1.546875 -1.484375 "/>
</symbol>
<symbol overflow="visible" id="glyph3-0">
<path style="stroke:none;" d="M 0.5 0 L 4.484375 0 L 4.484375 -4.828125 L 0.5 -4.828125 Z M 1 -0.5 L 1 -4.328125 L 3.984375 -4.328125 L 3.984375 -0.5 Z M 1 -0.5 "/>
</symbol>
<symbol overflow="visible" id="glyph3-1">
<path style="stroke:none;" d="M 0.265625 -2.1875 C 0.265625 -1.5625 0.40625 -1.015625 0.671875 -0.640625 C 1.0625 -0.109375 1.75 0.203125 2.5 0.203125 C 2.859375 0.203125 3.234375 0.125 3.640625 -0.0625 C 3.90625 -0.171875 4.109375 -0.296875 4.15625 -0.359375 L 4.359375 -0.703125 L 4.234375 -0.796875 C 3.59375 -0.421875 3.359375 -0.328125 2.9375 -0.328125 C 2.28125 -0.328125 1.75 -0.625 1.46875 -1.109375 C 1.28125 -1.4375 1.203125 -1.71875 1.1875 -2.296875 L 2.640625 -2.296875 C 3.328125 -2.296875 3.765625 -2.328125 4.453125 -2.4375 C 4.453125 -2.578125 4.46875 -2.65625 4.46875 -2.78125 C 4.46875 -3.921875 3.734375 -4.671875 2.609375 -4.671875 C 2.25 -4.671875 1.8125 -4.546875 1.40625 -4.3125 C 0.59375 -3.84375 0.265625 -3.21875 0.265625 -2.1875 Z M 1.203125 -2.6875 C 1.203125 -3.15625 1.25 -3.375 1.375 -3.640625 C 1.578125 -4.078125 2.015625 -4.34375 2.5 -4.34375 C 2.828125 -4.34375 3.078125 -4.21875 3.265625 -3.953125 C 3.484375 -3.625 3.578125 -3.328125 3.578125 -2.65625 L 2.46875 -2.625 C 2 -2.625 1.75 -2.640625 1.203125 -2.6875 Z M 1.203125 -2.6875 "/>
</symbol>
<symbol overflow="visible" id="glyph3-2">
<path style="stroke:none;" d="M 0.21875 -3.765625 L 0.984375 -3.8125 L 0.984375 -0.9375 C 0.984375 -0.203125 1.3125 0.125 2.078125 0.125 C 2.296875 0.125 2.546875 0.0625 2.609375 0 L 3.078125 -0.53125 L 2.953125 -0.703125 C 2.703125 -0.5625 2.546875 -0.515625 2.359375 -0.515625 C 1.96875 -0.515625 1.8125 -0.703125 1.8125 -1.203125 L 1.8125 -3.8125 L 3.09375 -3.8125 L 3.1875 -4.34375 L 1.8125 -4.28125 L 1.8125 -4.671875 C 1.8125 -5.078125 1.84375 -5.4375 1.921875 -6.078125 L 1.796875 -6.1875 C 1.5625 -6.046875 1.265625 -5.90625 0.953125 -5.8125 C 0.984375 -5.515625 1 -5.328125 1 -5.03125 L 1 -4.328125 L 0.21875 -3.984375 Z M 0.21875 -3.765625 "/>
</symbol>
<symbol overflow="visible" id="glyph3-3">
<path style="stroke:none;" d="M 0.0625 0.03125 C 0.46875 0.015625 0.890625 0 1.296875 0 C 1.703125 0 2.125 0.015625 2.53125 0.03125 L 2.53125 -0.265625 L 2.078125 -0.296875 C 1.75 -0.3125 1.71875 -0.390625 1.71875 -1.015625 L 1.71875 -3.125 C 1.71875 -3.578125 2.375 -4.0625 2.984375 -4.0625 C 3.65625 -4.0625 4.09375 -3.5625 4.09375 -2.796875 L 4.09375 0.03125 C 4.34375 0.015625 4.609375 0 4.875 0 C 5.15625 0 5.421875 0.015625 5.703125 0.03125 L 5.703125 -0.265625 L 5.296875 -0.296875 C 4.953125 -0.3125 4.921875 -0.375 4.921875 -1.015625 L 4.921875 -2.9375 C 4.921875 -4.109375 4.375 -4.671875 3.265625 -4.671875 C 2.890625 -4.671875 2.6875 -4.609375 2.46875 -4.421875 L 1.71875 -3.765625 L 1.71875 -7.15625 L 1.625 -7.234375 C 1.1875 -7.0625 0.859375 -6.984375 0.0625 -6.875 L 0.0625 -6.59375 L 0.625 -6.59375 C 0.8125 -6.59375 0.875 -6.484375 0.875 -6.1875 L 0.875 -1.015625 C 0.875 -0.390625 0.84375 -0.3125 0.515625 -0.296875 L 0.0625 -0.265625 Z M 0.0625 0.03125 "/>
</symbol>
<symbol overflow="visible" id="glyph3-4">
<path style="stroke:none;" d="M 0.34375 -2.15625 C 0.34375 -1.359375 0.625 -0.703125 1.109375 -0.296875 C 1.453125 -0.015625 1.90625 0.125 2.5625 0.125 C 2.765625 0.125 2.984375 0.078125 3.046875 0.046875 L 4.140625 -0.890625 L 4.09375 0.03125 C 4.359375 0.015625 4.609375 0 4.859375 0 C 5.15625 0 5.46875 0.015625 5.765625 0.03125 L 5.765625 -0.265625 L 5.3125 -0.296875 C 4.96875 -0.3125 4.9375 -0.390625 4.9375 -1.015625 L 4.9375 -7.15625 L 4.859375 -7.234375 C 4.421875 -7.0625 4.09375 -6.984375 3.296875 -6.875 L 3.296875 -6.59375 L 3.859375 -6.59375 C 4.03125 -6.59375 4.109375 -6.484375 4.109375 -6.1875 L 4.109375 -4.359375 C 3.546875 -4.59375 3.265625 -4.671875 2.921875 -4.671875 C 2.65625 -4.671875 2.40625 -4.609375 2.15625 -4.484375 L 1.28125 -4.03125 C 0.71875 -3.734375 0.34375 -3 0.34375 -2.15625 Z M 1.21875 -2.484375 C 1.21875 -3.5625 1.75 -4.203125 2.65625 -4.203125 C 3.03125 -4.203125 3.421875 -4.078125 3.78125 -3.84375 C 3.984375 -3.703125 4.109375 -3.5625 4.109375 -3.484375 L 4.109375 -2.203125 C 4.109375 -1.5625 4.09375 -1.453125 3.953125 -1.21875 C 3.671875 -0.75 3.1875 -0.453125 2.71875 -0.453125 C 1.84375 -0.453125 1.21875 -1.296875 1.21875 -2.484375 Z M 1.21875 -2.484375 "/>
</symbol>
<symbol overflow="visible" id="glyph3-5">
<path style="stroke:none;" d="M 0.203125 0.03125 C 0.625 0.015625 1.03125 0 1.453125 0 C 1.875 0 2.28125 0.015625 2.703125 0.03125 L 2.703125 -0.265625 L 2.25 -0.296875 C 1.90625 -0.3125 1.875 -0.390625 1.875 -1.015625 L 1.875 -4.640625 L 1.78125 -4.671875 C 1.28125 -4.46875 0.75 -4.328125 0.234375 -4.265625 L 0.234375 -3.984375 L 0.59375 -3.984375 C 1 -3.984375 1.03125 -3.921875 1.03125 -3.265625 L 1.03125 -1.015625 C 1.03125 -0.390625 1 -0.3125 0.671875 -0.296875 L 0.203125 -0.265625 Z M 0.953125 -5.90625 C 0.953125 -5.609375 1.15625 -5.40625 1.453125 -5.40625 C 1.75 -5.40625 1.953125 -5.609375 1.953125 -5.90625 C 1.953125 -6.1875 1.75 -6.40625 1.46875 -6.40625 C 1.15625 -6.40625 0.953125 -6.203125 0.953125 -5.90625 Z M 0.953125 -5.90625 "/>
</symbol>
<symbol overflow="visible" id="glyph3-6">
<path style="stroke:none;" d="M 0.15625 0.03125 C 0.578125 0.015625 1 0 1.421875 0 C 1.828125 0 2.21875 0.015625 2.609375 0.03125 L 2.609375 -0.265625 L 2.1875 -0.296875 C 1.859375 -0.3125 1.828125 -0.390625 1.828125 -1.015625 L 1.828125 -3.125 C 1.828125 -3.578125 2.484375 -4.0625 3.078125 -4.0625 C 3.625 -4.0625 3.984375 -3.5625 3.984375 -2.796875 L 3.984375 -1.015625 C 3.984375 -0.390625 3.953125 -0.3125 3.625 -0.296875 L 3.15625 -0.265625 L 3.15625 0.03125 C 3.578125 0.015625 3.984375 0 4.40625 0 C 4.828125 0 5.234375 0.015625 5.65625 0.03125 L 5.65625 -0.265625 L 5.1875 -0.296875 C 4.859375 -0.3125 4.828125 -0.390625 4.828125 -1.015625 L 4.828125 -3.125 C 4.828125 -3.578125 5.484375 -4.0625 6.078125 -4.0625 C 6.625 -4.0625 6.984375 -3.5625 6.984375 -2.796875 L 6.984375 0.03125 C 7.25 0.015625 7.515625 0 7.78125 0 C 8.078125 0 8.359375 0.015625 8.65625 0.03125 L 8.65625 -0.265625 L 8.1875 -0.296875 C 7.859375 -0.3125 7.828125 -0.390625 7.828125 -1.015625 L 7.828125 -3.078125 C 7.828125 -4.0625 7.25 -4.671875 6.328125 -4.671875 C 5.984375 -4.671875 5.6875 -4.578125 5.515625 -4.421875 L 4.75 -3.75 C 4.4375 -4.40625 4.03125 -4.671875 3.34375 -4.671875 C 2.96875 -4.671875 2.6875 -4.578125 2.515625 -4.421875 L 1.828125 -3.78125 L 1.828125 -4.640625 L 1.734375 -4.671875 C 1.21875 -4.46875 0.703125 -4.328125 0.171875 -4.265625 L 0.171875 -3.984375 L 0.546875 -3.984375 C 0.953125 -3.984375 0.984375 -3.921875 0.984375 -3.265625 L 0.984375 -1.015625 C 0.984375 -0.390625 0.953125 -0.3125 0.625 -0.296875 L 0.15625 -0.265625 Z M 0.15625 0.03125 "/>
</symbol>
<symbol overflow="visible" id="glyph3-7">
<path style="stroke:none;" d="M 0.296875 -0.046875 C 0.8125 0.125 1.203125 0.203125 1.671875 0.203125 C 2.96875 0.203125 3.890625 -0.5 3.890625 -1.46875 C 3.890625 -1.78125 3.8125 -2.015625 3.625 -2.21875 C 3.359375 -2.46875 3.03125 -2.578125 2.15625 -2.75 C 1.328125 -2.90625 1.0625 -3.109375 1.0625 -3.5625 C 1.0625 -4.0625 1.421875 -4.34375 2.03125 -4.34375 C 2.6875 -4.34375 3.203125 -4 3.203125 -3.53125 L 3.203125 -3.296875 L 3.484375 -3.296875 C 3.484375 -3.875 3.5 -4.109375 3.53125 -4.421875 C 3 -4.609375 2.640625 -4.671875 2.234375 -4.671875 C 1.078125 -4.671875 0.375 -4.125 0.375 -3.234375 C 0.375 -2.75 0.59375 -2.40625 1.046875 -2.203125 C 1.3125 -2.078125 1.84375 -1.921875 2.515625 -1.78125 C 2.96875 -1.671875 3.15625 -1.46875 3.15625 -1.09375 C 3.15625 -0.546875 2.65625 -0.171875 1.953125 -0.171875 C 1.21875 -0.171875 0.703125 -0.515625 0.703125 -1.015625 L 0.703125 -1.421875 L 0.40625 -1.421875 C 0.40625 -0.734375 0.375 -0.4375 0.296875 -0.046875 Z M 0.296875 -0.046875 "/>
</symbol>
<symbol overflow="visible" id="glyph3-8">
<path style="stroke:none;" d="M 0.3125 -1.109375 C 0.3125 -0.328125 0.78125 0.125 1.578125 0.125 C 1.75 0.125 1.921875 0.09375 2 0.046875 L 3.234375 -0.8125 L 3.1875 0.03125 C 3.4375 0.015625 3.703125 0 3.953125 0 C 4.203125 0 4.453125 0.015625 4.6875 0.03125 L 4.6875 -0.265625 L 4.3125 -0.296875 C 4.0625 -0.296875 4.03125 -0.375 4.03125 -0.875 L 4.03125 -2.6875 C 4.03125 -4.140625 3.609375 -4.671875 2.453125 -4.671875 C 2.03125 -4.671875 1.625 -4.5625 1.25 -4.34375 L 0.71875 -4.015625 L 0.71875 -3.375 L 0.984375 -3.296875 L 1.109375 -3.609375 C 1.3125 -4.078125 1.421875 -4.140625 1.875 -4.140625 C 2.8125 -4.140625 3.203125 -3.78125 3.234375 -2.875 L 2.25 -2.6875 C 0.890625 -2.4375 0.3125 -1.96875 0.3125 -1.109375 Z M 1.171875 -1.25 C 1.171875 -1.609375 1.375 -1.96875 1.671875 -2.15625 C 1.921875 -2.296875 2.46875 -2.4375 3.234375 -2.546875 L 3.234375 -1.234375 C 2.9375 -0.828125 2.3125 -0.453125 1.921875 -0.453125 C 1.53125 -0.453125 1.171875 -0.8125 1.171875 -1.25 Z M 1.171875 -1.25 "/>
</symbol>
<symbol overflow="visible" id="glyph3-9">
<path style="stroke:none;" d="M 0.3125 -2.15625 C 0.3125 -0.75 1.203125 0.203125 2.5 0.203125 C 4.03125 0.203125 5.125 -0.875 5.125 -2.359375 C 5.125 -3.703125 4.140625 -4.671875 2.78125 -4.671875 C 1.328125 -4.671875 0.3125 -3.65625 0.3125 -2.15625 Z M 1.25 -2.5 C 1.25 -3.703125 1.71875 -4.34375 2.609375 -4.34375 C 3.515625 -4.34375 4.203125 -3.34375 4.203125 -2 C 4.203125 -0.84375 3.6875 -0.125 2.875 -0.125 C 1.90625 -0.125 1.25 -1.09375 1.25 -2.5 Z M 1.25 -2.5 "/>
</symbol>
<symbol overflow="visible" id="glyph3-10">
<path style="stroke:none;" d="M 0.0625 -4.296875 L 0.34375 -4.28125 C 0.625 -4.25 0.75 -4.09375 1 -3.28125 L 2.015625 0.0625 L 2.484375 0.0625 L 3.453125 -2.21875 C 3.640625 -2.640625 3.984375 -3.34375 3.984375 -3.34375 L 5.328125 0.0625 L 5.796875 0.0625 L 7.15625 -3.40625 C 7.4375 -4.109375 7.578125 -4.25 7.796875 -4.28125 L 8.0625 -4.296875 L 8.0625 -4.578125 C 7.71875 -4.5625 7.40625 -4.546875 7.078125 -4.546875 C 6.75 -4.546875 6.4375 -4.5625 6.09375 -4.578125 L 6.09375 -4.296875 L 6.4375 -4.28125 C 6.84375 -4.25 6.890625 -4 6.765625 -3.609375 L 6.265625 -2.21875 L 5.78125 -0.984375 L 4.640625 -3.875 C 4.5 -4.203125 4.421875 -4.40625 4.34375 -4.671875 L 4.109375 -4.671875 L 2.53125 -1.03125 L 1.6875 -3.78125 C 1.609375 -4.09375 1.65625 -4.25 2.03125 -4.28125 L 2.4375 -4.296875 L 2.4375 -4.578125 C 2.03125 -4.5625 1.640625 -4.546875 1.25 -4.546875 C 0.84375 -4.546875 0.453125 -4.5625 0.0625 -4.578125 Z M 0.0625 -4.296875 "/>
</symbol>
<symbol overflow="visible" id="glyph3-11">
<path style="stroke:none;" d="M 0.234375 0.03125 C 0.640625 0.015625 1.0625 0 1.46875 0 C 1.890625 0 2.296875 0.015625 2.71875 0.03125 L 2.71875 -0.265625 L 2.265625 -0.296875 C 1.921875 -0.3125 1.890625 -0.390625 1.890625 -1.015625 L 1.890625 -3.84375 L 3.125 -3.84375 L 3.203125 -4.359375 C 2.765625 -4.34375 2.328125 -4.328125 1.890625 -4.328125 L 1.890625 -5.171875 C 1.890625 -6.3125 2.03125 -6.59375 2.59375 -6.59375 C 2.859375 -6.59375 3.046875 -6.53125 3.28125 -6.3125 L 3.40625 -6.375 L 3.40625 -7.140625 C 3.1875 -7.234375 3.078125 -7.25 2.9375 -7.25 C 2.625 -7.25 2.265625 -7.09375 2.046875 -6.84375 L 1.46875 -6.1875 C 1.1875 -5.859375 1.0625 -5.40625 1.0625 -4.75 L 1.0625 -4.328125 L 0.375 -4.015625 L 0.375 -3.796875 L 1.0625 -3.84375 L 1.0625 -1.015625 C 1.0625 -0.390625 1.03125 -0.3125 0.6875 -0.296875 L 0.234375 -0.265625 Z M 0.234375 0.03125 "/>
</symbol>
<symbol overflow="visible" id="glyph3-12">
<path style="stroke:none;" d="M 0.0625 0.03125 C 0.46875 0.015625 0.890625 0 1.296875 0 C 1.703125 0 2.125 0.015625 2.53125 0.03125 L 2.53125 -0.265625 L 2.078125 -0.296875 C 1.75 -0.3125 1.71875 -0.390625 1.71875 -1.015625 L 1.71875 -3.125 C 1.71875 -3.578125 2.375 -4.0625 2.984375 -4.0625 C 3.65625 -4.0625 4.09375 -3.5625 4.09375 -2.796875 L 4.09375 0.03125 C 4.34375 0.015625 4.609375 0 4.875 0 C 5.15625 0 5.421875 0.015625 5.703125 0.03125 L 5.703125 -0.265625 L 5.296875 -0.296875 C 4.953125 -0.3125 4.921875 -0.375 4.921875 -1.015625 L 4.921875 -2.9375 C 4.921875 -4.109375 4.375 -4.671875 3.265625 -4.671875 C 2.890625 -4.671875 2.6875 -4.609375 2.46875 -4.421875 L 1.71875 -3.765625 L 1.71875 -4.640625 L 1.625 -4.671875 C 1.109375 -4.46875 0.59375 -4.328125 0.0625 -4.265625 L 0.0625 -3.984375 L 0.4375 -3.984375 C 0.84375 -3.984375 0.875 -3.921875 0.875 -3.265625 L 0.875 -1.015625 C 0.875 -0.390625 0.84375 -0.3125 0.515625 -0.296875 L 0.0625 -0.265625 Z M 0.0625 0.03125 "/>
</symbol>
<symbol overflow="visible" id="glyph3-13">
<path style="stroke:none;" d="M 0.3125 1.28125 C 0.3125 2.1875 1.203125 2.828125 2.46875 2.828125 C 3.984375 2.828125 5.15625 1.875 5.15625 0.65625 C 5.15625 -0.0625 4.6875 -0.5625 3.984375 -0.5625 L 2.390625 -0.5625 C 1.875 -0.5625 1.640625 -0.671875 1.640625 -0.953125 C 1.640625 -1.078125 1.71875 -1.1875 1.96875 -1.40625 C 2.03125 -1.453125 2.046875 -1.46875 2.09375 -1.515625 C 2.1875 -1.5 2.25 -1.5 2.328125 -1.5 C 2.765625 -1.5 3.296875 -1.6875 3.703125 -1.96875 C 4.140625 -2.296875 4.359375 -2.703125 4.359375 -3.234375 C 4.359375 -3.421875 4.34375 -3.5625 4.25 -3.765625 L 5.171875 -3.765625 L 5.421875 -4.171875 L 5.390625 -4.296875 L 3.96875 -4.25 C 3.59375 -4.5625 3.234375 -4.671875 2.75 -4.671875 C 2.3125 -4.671875 1.796875 -4.53125 1.390625 -4.296875 C 0.84375 -3.984375 0.546875 -3.484375 0.546875 -2.875 C 0.546875 -2.140625 1 -1.640625 1.75 -1.5625 L 0.953125 -0.953125 C 0.859375 -0.796875 0.8125 -0.671875 0.8125 -0.515625 C 0.8125 -0.234375 0.984375 -0.078125 1.46875 0.0625 L 0.59375 0.53125 C 0.453125 0.609375 0.3125 0.984375 0.3125 1.28125 Z M 1.078125 1.265625 C 1.078125 0.8125 1.328125 0.421875 1.734375 0.234375 C 1.890625 0.171875 2.171875 0.140625 2.859375 0.140625 C 3.984375 0.140625 4.375 0.375 4.375 1.015625 C 4.375 1.875 3.59375 2.515625 2.546875 2.515625 C 1.671875 2.515625 1.078125 2 1.078125 1.265625 Z M 1.390625 -3.125 C 1.390625 -3.890625 1.75 -4.34375 2.390625 -4.34375 C 3.078125 -4.34375 3.53125 -3.78125 3.53125 -2.9375 C 3.53125 -2.28125 3.109375 -1.828125 2.5 -1.828125 C 1.828125 -1.828125 1.390625 -2.359375 1.390625 -3.125 Z M 1.390625 -3.125 "/>
</symbol>
<symbol overflow="visible" id="glyph3-14">
<path style="stroke:none;" d="M 0.203125 0.03125 C 0.625 0.015625 1.03125 0 1.4375 0 C 1.90625 0 2.375 0.015625 2.859375 0.03125 L 2.859375 -0.265625 L 2.34375 -0.296875 C 1.890625 -0.328125 1.875 -0.359375 1.875 -1.015625 L 1.875 -2.734375 C 1.875 -3.328125 2.265625 -3.828125 2.765625 -3.828125 C 3.0625 -3.828125 3.265625 -3.6875 3.421875 -3.375 L 3.640625 -3.375 L 3.734375 -4.5625 C 3.625 -4.640625 3.4375 -4.671875 3.265625 -4.671875 C 2.953125 -4.671875 2.640625 -4.515625 2.4375 -4.265625 L 1.875 -3.609375 L 1.875 -4.640625 L 1.78125 -4.671875 C 1.28125 -4.46875 0.75 -4.328125 0.234375 -4.265625 L 0.234375 -3.984375 L 0.59375 -3.984375 C 1 -3.984375 1.03125 -3.921875 1.03125 -3.265625 L 1.03125 -1.015625 C 1.03125 -0.390625 1 -0.3125 0.671875 -0.296875 L 0.203125 -0.265625 Z M 0.203125 0.03125 "/>
</symbol>
<symbol overflow="visible" id="glyph3-15">
<path style="stroke:none;" d="M 0.15625 1.421875 L 0.296875 1.53125 L 0.703125 1.328125 C 1.515625 0.296875 1.890625 -0.34375 2.171875 -1.109375 L 2.03125 -1.25 C 1.765625 -1.15625 1.578125 -1.09375 1.0625 -0.953125 C 0.984375 -0.1875 0.734375 0.453125 0.15625 1.421875 Z M 0.921875 -3.96875 C 0.921875 -3.671875 1.203125 -3.390625 1.484375 -3.390625 C 1.796875 -3.390625 2.078125 -3.65625 2.078125 -3.953125 C 2.078125 -4.265625 1.796875 -4.546875 1.5 -4.546875 C 1.203125 -4.546875 0.921875 -4.265625 0.921875 -3.96875 Z M 0.921875 -3.96875 "/>
</symbol>
<symbol overflow="visible" id="glyph3-16">
<path style="stroke:none;" d="M 0.15625 1.4375 L 0.296875 1.546875 L 0.703125 1.359375 C 1.515625 0.3125 1.890625 -0.3125 2.171875 -1.09375 L 2.03125 -1.21875 C 1.765625 -1.140625 1.578125 -1.078125 1.0625 -0.921875 C 0.984375 -0.171875 0.734375 0.484375 0.15625 1.4375 Z M 0.15625 1.4375 "/>
</symbol>
<symbol overflow="visible" id="glyph3-17">
<path style="stroke:none;" d="M 0.453125 -4.546875 L 0.59375 -4.453125 L 1.03125 -4.6875 C 1.609375 -5.40625 1.984375 -6.078125 2.328125 -6.9375 L 2.1875 -7.0625 L 1.21875 -6.765625 C 1.171875 -5.96875 0.921875 -5.3125 0.453125 -4.546875 Z M 0.453125 -4.546875 "/>
</symbol>
<symbol overflow="visible" id="glyph3-18">
<path style="stroke:none;" d="M -0.15625 -6.59375 L 0.40625 -6.59375 C 0.59375 -6.59375 0.65625 -6.484375 0.65625 -6.1875 L 0.65625 -1.53125 C 0.65625 -0.90625 0.640625 -0.640625 0.578125 0.0625 L 0.734375 0.125 L 1.140625 -0.234375 C 1.53125 0.015625 1.890625 0.125 2.421875 0.125 C 2.8125 0.125 3.078125 0.046875 3.28125 -0.09375 L 4.28125 -0.8125 C 4.71875 -1.140625 5.0625 -1.96875 5.0625 -2.6875 C 5.0625 -3.84375 4.3125 -4.671875 3.265625 -4.671875 C 2.796875 -4.671875 2.296875 -4.5 2.046875 -4.234375 L 1.5 -3.671875 L 1.5 -7.15625 L 1.40625 -7.234375 C 0.96875 -7.0625 0.640625 -6.984375 -0.15625 -6.875 Z M 1.5 -0.921875 L 1.5 -3.078125 C 1.5 -3.203125 1.59375 -3.390625 1.75 -3.5625 C 2.03125 -3.859375 2.421875 -4.03125 2.828125 -4.03125 C 3.671875 -4.03125 4.203125 -3.34375 4.203125 -2.28125 C 4.203125 -1.171875 3.59375 -0.390625 2.75 -0.390625 C 2.234375 -0.390625 1.5 -0.703125 1.5 -0.921875 Z M 1.5 -0.921875 "/>
</symbol>
<symbol overflow="visible" id="glyph3-19">
<path style="stroke:none;" d="M 0.171875 -2.1875 L 0.21875 -2.140625 L 2.8125 -2.140625 L 3.109375 -2.8125 L 3.0625 -2.859375 L 0.4375 -2.859375 Z M 0.171875 -2.1875 "/>
</symbol>
<symbol overflow="visible" id="glyph3-20">
<path style="stroke:none;" d="M 0.203125 0.03125 C 0.625 0.015625 1.03125 0 1.453125 0 C 1.875 0 2.28125 0.015625 2.703125 0.03125 L 2.703125 -0.265625 L 2.25 -0.296875 C 1.90625 -0.3125 1.875 -0.390625 1.875 -1.015625 L 1.875 -7.15625 L 1.78125 -7.234375 C 1.34375 -7.0625 1.015625 -6.984375 0.234375 -6.875 L 0.234375 -6.59375 L 0.78125 -6.59375 C 0.96875 -6.59375 1.03125 -6.484375 1.03125 -6.1875 L 1.03125 -1.015625 C 1.03125 -0.390625 1 -0.3125 0.671875 -0.296875 L 0.203125 -0.265625 Z M 0.203125 0.03125 "/>
</symbol>
<symbol overflow="visible" id="glyph3-21">
<path style="stroke:none;" d="M 0.125 -4.296875 L 0.296875 -4.28125 C 0.546875 -4.25 0.671875 -4.140625 0.8125 -3.78125 L 2.46875 0.234375 L 2.234375 0.84375 C 1.90625 1.6875 1.53125 2.15625 1.140625 2.15625 C 0.984375 2.15625 0.8125 2.078125 0.640625 1.921875 L 0.515625 1.921875 L 0.265625 2.671875 C 0.453125 2.765625 0.625 2.828125 0.8125 2.828125 C 1.46875 2.828125 1.90625 2.46875 2.28125 1.59375 L 4.3125 -3.078125 C 4.703125 -3.984375 4.890625 -4.25 5.140625 -4.28125 L 5.421875 -4.296875 L 5.421875 -4.578125 C 5.109375 -4.5625 4.796875 -4.546875 4.46875 -4.546875 C 4.15625 -4.546875 3.84375 -4.5625 3.53125 -4.578125 L 3.53125 -4.296875 L 3.78125 -4.28125 C 4.203125 -4.25 4.296875 -4.125 4.140625 -3.765625 L 2.953125 -0.859375 C 2.734375 -1.234375 2.640625 -1.46875 2.453125 -1.953125 L 1.8125 -3.625 C 1.640625 -4.0625 1.671875 -4.25 2.046875 -4.28125 L 2.4375 -4.296875 L 2.4375 -4.578125 C 2.046875 -4.5625 1.671875 -4.546875 1.28125 -4.546875 C 0.890625 -4.546875 0.515625 -4.5625 0.125 -4.578125 Z M 0.125 -4.296875 "/>
</symbol>
<symbol overflow="visible" id="glyph3-22">
<path style="stroke:none;" d="M 0.171875 -3.984375 L 0.546875 -3.984375 C 0.953125 -3.984375 0.984375 -3.921875 0.984375 -3.265625 L 0.984375 -1.578125 C 0.984375 -0.890625 1.046875 -0.578125 1.21875 -0.328125 C 1.453125 -0.03125 1.828125 0.125 2.390625 0.125 C 2.84375 0.125 3.234375 -0.015625 3.515625 -0.265625 L 4.171875 -0.890625 C 4.171875 -0.59375 4.171875 -0.4375 4.140625 0.03125 C 4.421875 0.015625 4.6875 0 4.96875 0 C 5.25 0 5.515625 0.015625 5.796875 0.03125 L 5.796875 -0.265625 L 5.390625 -0.296875 C 5.046875 -0.3125 5.015625 -0.375 5.015625 -1.015625 L 5.015625 -4.640625 L 4.921875 -4.671875 C 4.421875 -4.46875 3.890625 -4.328125 3.375 -4.265625 L 3.375 -3.984375 L 3.734375 -3.984375 C 4.140625 -3.984375 4.171875 -3.921875 4.171875 -3.265625 L 4.171875 -1.640625 C 4.171875 -1.421875 4.03125 -1.140625 3.8125 -0.90625 C 3.53125 -0.625 3.203125 -0.484375 2.828125 -0.484375 C 2.46875 -0.484375 2.1875 -0.59375 2.03125 -0.78125 C 1.890625 -0.953125 1.828125 -1.25 1.828125 -1.6875 L 1.828125 -4.640625 L 1.734375 -4.671875 C 1.21875 -4.46875 0.703125 -4.328125 0.171875 -4.265625 Z M 0.171875 -3.984375 "/>
</symbol>
<symbol overflow="visible" id="glyph3-23">
<path style="stroke:none;" d="M 0.8125 -0.53125 C 0.8125 -0.234375 1.078125 0.046875 1.359375 0.046875 C 1.6875 0.046875 1.96875 -0.21875 1.96875 -0.53125 C 1.96875 -0.828125 1.6875 -1.109375 1.375 -1.109375 C 1.078125 -1.109375 0.8125 -0.828125 0.8125 -0.53125 Z M 0.84375 -6.546875 L 1.171875 -2.4375 L 1.203125 -2.046875 L 1.296875 -2 L 1.578125 -2.21875 L 1.578125 -2.46875 L 1.859375 -5.71875 C 1.90625 -6.125 1.9375 -6.453125 1.9375 -6.671875 L 1.9375 -6.921875 L 1.59375 -6.921875 Z M 0.84375 -6.546875 "/>
</symbol>
<symbol overflow="visible" id="glyph3-24">
<path style="stroke:none;" d="M 0.078125 -6.59375 L 0.359375 -6.5625 C 0.640625 -6.546875 0.78125 -6.40625 0.859375 -6.078125 L 2.265625 0.09375 L 2.765625 0.09375 C 2.859375 -0.234375 2.9375 -0.46875 3.125 -0.9375 L 4.859375 -5.34375 L 6.109375 -1.96875 C 6.4375 -1.078125 6.46875 -1 6.8125 0.09375 L 7.3125 0.09375 L 7.59375 -0.921875 L 9.109375 -6.28125 C 9.15625 -6.453125 9.265625 -6.546875 9.484375 -6.5625 L 9.8125 -6.59375 L 9.8125 -6.890625 C 9.453125 -6.875 9.109375 -6.875 8.765625 -6.875 C 8.40625 -6.875 8.0625 -6.875 7.71875 -6.890625 L 7.71875 -6.59375 L 8.109375 -6.5625 C 8.53125 -6.546875 8.625 -6.4375 8.578125 -6.234375 L 7.25 -1.359375 L 5.625 -5.96875 C 5.40625 -6.5625 5.375 -6.640625 5.296875 -6.984375 L 4.96875 -6.984375 C 4.765625 -6.359375 4.609375 -5.90625 4.078125 -4.578125 L 2.84375 -1.4375 L 1.84375 -5.90625 C 1.765625 -6.296875 1.78125 -6.546875 2.171875 -6.5625 L 2.59375 -6.59375 L 2.59375 -6.890625 C 2.171875 -6.875 1.75 -6.875 1.328125 -6.875 C 0.921875 -6.875 0.5 -6.875 0.078125 -6.890625 Z M 0.078125 -6.59375 "/>
</symbol>
<symbol overflow="visible" id="glyph3-25">
<path style="stroke:none;" d="M 0.078125 2.5 L 0.078125 2.796875 C 0.5 2.78125 0.90625 2.765625 1.328125 2.765625 C 1.75 2.765625 2.15625 2.78125 2.578125 2.796875 L 2.578125 2.5 L 2.109375 2.46875 C 1.78125 2.453125 1.75 2.375 1.75 1.75 L 1.75 -0.125 C 2.046875 0.046875 2.359375 0.125 2.8125 0.125 C 3.09375 0.125 3.359375 0.0625 3.515625 -0.046875 L 4.65625 -0.78125 C 5.046875 -1.03125 5.515625 -2.0625 5.515625 -2.703125 C 5.515625 -3.8125 4.609375 -4.671875 3.453125 -4.671875 C 3.078125 -4.671875 2.71875 -4.578125 2.5625 -4.421875 L 1.75 -3.671875 L 1.75 -4.640625 L 1.65625 -4.671875 C 1.140625 -4.46875 0.625 -4.328125 0.09375 -4.265625 L 0.09375 -3.984375 L 0.46875 -3.984375 C 0.875 -3.984375 0.90625 -3.921875 0.90625 -3.265625 L 0.90625 1.75 C 0.90625 2.375 0.875 2.453125 0.53125 2.46875 Z M 1.75 -0.984375 L 1.75 -3.046875 C 1.75 -3.1875 1.796875 -3.296875 1.921875 -3.46875 C 2.21875 -3.84375 2.625 -4.03125 3.125 -4.03125 C 4.0625 -4.03125 4.65625 -3.375 4.65625 -2.328125 C 4.65625 -1.21875 3.984375 -0.390625 3.09375 -0.390625 C 2.546875 -0.390625 2.140625 -0.5625 1.75 -0.984375 Z M 1.75 -0.984375 "/>
</symbol>
<symbol overflow="visible" id="glyph3-26">
<path style="stroke:none;" d="M 0.15625 0.03125 C 0.515625 0.015625 0.875 0 1.234375 0 C 1.640625 0 2.046875 0.015625 2.4375 0.03125 L 2.4375 -0.265625 L 2.078125 -0.296875 C 1.71875 -0.328125 1.59375 -0.40625 1.59375 -0.5625 C 1.59375 -0.6875 1.734375 -1.109375 1.9375 -1.609375 L 2.21875 -2.28125 L 5.09375 -2.28125 L 5.546875 -1.140625 C 5.71875 -0.71875 5.765625 -0.59375 5.765625 -0.5 C 5.765625 -0.390625 5.609375 -0.3125 5.359375 -0.296875 L 4.890625 -0.265625 L 4.890625 0.03125 C 5.34375 0.015625 5.8125 0 6.265625 0 C 6.6875 0 7.125 0.015625 7.53125 0.03125 L 7.53125 -0.265625 L 7.203125 -0.296875 C 6.9375 -0.3125 6.828125 -0.515625 6.484375 -1.3125 L 4.0625 -6.984375 L 3.75 -6.984375 C 3.75 -6.984375 3.640625 -6.640625 3.265625 -5.796875 L 1.0625 -0.78125 C 0.921875 -0.5 0.734375 -0.3125 0.515625 -0.296875 L 0.15625 -0.265625 Z M 2.390625 -2.6875 L 3.65625 -5.65625 L 4.921875 -2.6875 Z M 2.390625 -2.6875 "/>
</symbol>
<symbol overflow="visible" id="glyph3-27">
<path style="stroke:none;" d="M 0.0625 -4.296875 L 0.40625 -4.28125 C 0.578125 -4.265625 0.609375 -4.171875 0.703125 -3.953125 L 2.421875 0.0625 L 2.921875 0.0625 C 2.984375 -0.265625 3.125 -0.5625 3.328125 -1.015625 L 4.5 -3.609375 C 4.734375 -4.109375 4.859375 -4.265625 5.0625 -4.28125 L 5.375 -4.296875 L 5.375 -4.578125 C 5.0625 -4.5625 4.75 -4.546875 4.4375 -4.546875 C 4.125 -4.546875 3.8125 -4.5625 3.5 -4.578125 L 3.5 -4.296875 L 3.90625 -4.28125 C 4.234375 -4.25 4.234375 -3.96875 3.953125 -3.296875 L 3.53125 -2.234375 L 2.921875 -0.84375 L 1.734375 -3.703125 C 1.625 -3.984375 1.578125 -4.265625 1.890625 -4.28125 L 2.375 -4.296875 L 2.375 -4.578125 C 2 -4.5625 1.609375 -4.546875 1.21875 -4.546875 C 0.828125 -4.546875 0.453125 -4.5625 0.0625 -4.578125 Z M 0.0625 -4.296875 "/>
</symbol>
<symbol overflow="visible" id="glyph3-28">
<path style="stroke:none;" d="M 0.65625 -0.53125 C 0.65625 -0.234375 0.921875 0.046875 1.21875 0.046875 C 1.53125 0.046875 1.8125 -0.21875 1.8125 -0.53125 C 1.8125 -0.828125 1.53125 -1.109375 1.21875 -1.109375 C 0.921875 -1.109375 0.65625 -0.828125 0.65625 -0.53125 Z M 0.65625 -3.96875 C 0.65625 -3.671875 0.921875 -3.390625 1.21875 -3.390625 C 1.53125 -3.390625 1.8125 -3.65625 1.8125 -3.953125 C 1.8125 -4.265625 1.53125 -4.546875 1.21875 -4.546875 C 0.921875 -4.546875 0.65625 -4.265625 0.65625 -3.96875 Z M 0.65625 -3.96875 "/>
</symbol>
</g>
<clipPath id="clip1">
  <path d="M 32 6 L 347.761719 6 L 347.761719 8 L 32 8 Z M 32 6 "/>
</clipPath>
<clipPath id="clip2">
  <path d="M 32 14 L 347.761719 14 L 347.761719 16 L 32 16 Z M 32 14 "/>
</clipPath>
<clipPath id="clip3">
  <path d="M 32 23 L 347.761719 23 L 347.761719 24 L 32 24 Z M 32 23 "/>
</clipPath>
<clipPath id="clip4">
  <path d="M 32 31 L 347.761719 31 L 347.761719 32 L 32 32 Z M 32 31 "/>
</clipPath>
<clipPath id="clip5">
  <path d="M 317 41 L 347.761719 41 L 347.761719 52 L 317 52 Z M 317 41 "/>
</clipPath>
<clipPath id="clip6">
  <path d="M 345 10 L 347.761719 10 L 347.761719 23 L 345 23 Z M 345 10 "/>
</clipPath>
<clipPath id="clip7">
  <path d="M 0 61 L 347.761719 61 L 347.761719 62 L 0 62 Z M 0 61 "/>
</clipPath>
<clipPath id="clip8">
  <path d="M 0 69 L 347.761719 69 L 347.761719 71 L 0 71 Z M 0 69 "/>
</clipPath>
<clipPath id="clip9">
  <path d="M 0 77 L 347.761719 77 L 347.761719 79 L 0 79 Z M 0 77 "/>
</clipPath>
<clipPath id="clip10">
  <path d="M 0 85 L 347.761719 85 L 347.761719 87 L 0 87 Z M 0 85 "/>
</clipPath>
<clipPath id="clip11">
  <path d="M 345 73 L 347.761719 73 L 347.761719 86 L 345 86 Z M 345 73 "/>
</clipPath>
<clipPath id="clip12">
  <path d="M 0 116 L 347.761719 116 L 347.761719 117 L 0 117 Z M 0 116 "/>
</clipPath>
<clipPath id="clip13">
  <path d="M 0 124 L 347.761719 124 L 347.761719 125 L 0 125 Z M 0 124 "/>
</clipPath>
<clipPath id="clip14">
  <path d="M 0 132 L 347.761719 132 L 347.761719 133 L 0 133 Z M 0 132 "/>
</clipPath>
<clipPath id="clip15">
  <path d="M 0 140 L 347.761719 140 L 347.761719 142 L 0 142 Z M 0 140 "/>
</clipPath>
</defs>
<g id="surface1">
<g style="fill:rgb(0%,0%,0%);fill-opacity:1;">
  <use xlink:href="#glyph0-1" x="5.669" y="48.711"/>
</g>
<g style="fill:rgb(0%,0%,0%);fill-opacity:1;">
  <use xlink:href="#glyph1-1" x="11.642" y="12.388"/>
  <use xlink:href="#glyph1-2" x="14.730418" y="12.388"/>
</g>
<g clip-path="url(#clip1)" clip-rule="nonzero">
<path style="fill:none;stroke-width:0.388;stroke-linecap:butt;stroke-linejoin:miter;stroke:rgb(0%,0%,0%);stroke-opacity:1;stroke-miterlimit:10;" d="M 0.00171875 -0.0010625 L 315.501719 -0.0010625 " transform="matrix(1,0,0,-1,32.26,6.913)"/>
</g>
<g clip-path="url(#clip2)" clip-rule="nonzero">
<path style="fill:none;stroke-width:0.388;stroke-linecap:butt;stroke-linejoin:miter;stroke:rgb(0%,0%,0%);stroke-opacity:1;stroke-miterlimit:10;" d="M 0.00171875 -0.0006875 L 315.501719 -0.0006875 " transform="matrix(1,0,0,-1,32.26,15.054)"/>
</g>
<g clip-path="url(#clip3)" clip-rule="nonzero">
<path style="fill:none;stroke-width:0.388;stroke-linecap:butt;stroke-linejoin:miter;stroke:rgb(0%,0%,0%);stroke-opacity:1;stroke-miterlimit:10;" d="M 0.00171875 -0.0013125 L 315.501719 -0.0013125 " transform="matrix(1,0,0,-1,32.26,23.194)"/>
</g>
<g clip-path="url(#clip4)" clip-rule="nonzero">
<path style="fill:none;stroke-width:0.388;stroke-linecap:butt;stroke-linejoin:miter;stroke:rgb(0%,0%,0%);stroke-opacity:1;stroke-miterlimit:10;" d="M 0.00171875 -0.0009375 L 315.501719 -0.0009375 " transform="matrix(1,0,0,-1,32.26,31.335)"/>
</g>
<g style="fill:rgb(0%,0%,0%);fill-opacity:1;">
  <use xlink:href="#glyph2-1" x="32.26" y="12.792"/>
</g>
<g style="fill:rgb(0%,0%,0%);fill-opacity:1;">
  <use xlink:href="#glyph3-1" x="38.765" y="48.711"/>
  <use xlink:href="#glyph3-1" x="43.537105" y="48.711"/>
</g>
<g style="fill:rgb(0%,0%,0%);fill-opacity:1;">
  <use xlink:href="#glyph2-2" x="41.392" y="29.073"/>
</g>
<g style="fill:rgb(0%,0%,0%);fill-opacity:1;">
  <use xlink:href="#glyph3-2" x="52.177" y="48.711"/>
</g>
<g style="fill:rgb(0%,0%,0%);fill-opacity:1;">
  <use xlink:href="#glyph3-3" x="55.57426" y="48.711"/>
  <use xlink:href="#glyph3-1" x="61.372517" y="48.711"/>
</g>
<g style="fill:rgb(0%,0%,0%);fill-opacity:1;">
  <use xlink:href="#glyph2-2" x="57.015" y="25.003"/>
</g>
<g style="fill:rgb(0%,0%,0%);fill-opacity:1;">
  <use xlink:href="#glyph3-4" x="70.012" y="48.711"/>
  <use xlink:href="#glyph3-5" x="76.099173" y="48.711"/>
  <use xlink:href="#glyph3-6" x="78.958451" y="48.711"/>
</g>
<g style="fill:rgb(0%,0%,0%);fill-opacity:1;">
  <use xlink:href="#glyph2-2" x="76.739" y="29.073"/>
</g>
<g style="fill:rgb(0%,0%,0%);fill-opacity:1;">
  <use xlink:href="#glyph3-7" x="91.623" y="48.711"/>
  <use xlink:href="#glyph3-3" x="95.847159" y="48.711"/>
  <use xlink:href="#glyph3-8" x="101.645416" y="48.711"/>
  <use xlink:href="#glyph3-4" x="106.626736" y="48.711"/>
</g>
<g style="fill:rgb(0%,0%,0%);fill-opacity:1;">
  <use xlink:href="#glyph2-3" x="100.023" y="33.144"/>
</g>
<g style="fill:rgb(0%,0%,0%);fill-opacity:1;">
  <use xlink:href="#glyph3-9" x="112.714" y="48.711"/>
</g>
<g style="fill:rgb(0%,0%,0%);fill-opacity:1;">
  <use xlink:href="#glyph3-10" x="117.904535" y="48.711"/>
</g>
<g style="fill:rgb(0%,0%,0%);fill-opacity:1;">
  <use xlink:href="#glyph3-7" x="126.063938" y="48.711"/>
</g>
<g style="fill:rgb(0%,0%,0%);fill-opacity:1;">
  <use xlink:href="#glyph2-2" x="119.356" y="25.003"/>
</g>
<g style="fill:rgb(0%,0%,0%);fill-opacity:1;">
  <use xlink:href="#glyph2-4" x="130.056" y="20.933"/>
</g>
<g style="fill:rgb(0%,0%,0%);fill-opacity:1;">
  <use xlink:href="#glyph3-9" x="134.723" y="48.711"/>
  <use xlink:href="#glyph3-11" x="140.162601" y="48.711"/>
</g>
<g style="fill:rgb(0%,0%,0%);fill-opacity:1;">
  <use xlink:href="#glyph2-2" x="136.956" y="29.073"/>
</g>
<g style="fill:rgb(0%,0%,0%);fill-opacity:1;">
  <use xlink:href="#glyph3-2" x="147.348" y="48.711"/>
</g>
<g style="fill:rgb(0%,0%,0%);fill-opacity:1;">
  <use xlink:href="#glyph3-3" x="150.74526" y="48.711"/>
  <use xlink:href="#glyph3-1" x="156.543517" y="48.711"/>
</g>
<g style="fill:rgb(0%,0%,0%);fill-opacity:1;">
  <use xlink:href="#glyph2-2" x="152.186" y="33.144"/>
</g>
<g style="fill:rgb(0%,0%,0%);fill-opacity:1;">
  <use xlink:href="#glyph3-12" x="165.183" y="48.711"/>
  <use xlink:href="#glyph3-5" x="170.981256" y="48.711"/>
  <use xlink:href="#glyph3-13" x="173.840534" y="48.711"/>
  <use xlink:href="#glyph3-3" x="179.379762" y="48.711"/>
  <use xlink:href="#glyph3-2" x="185.178018" y="48.711"/>
</g>
<g style="fill:rgb(0%,0%,0%);fill-opacity:1;">
  <use xlink:href="#glyph2-2" x="174.659" y="37.214"/>
</g>
<g style="fill:rgb(0%,0%,0%);fill-opacity:1;">
  <use xlink:href="#glyph3-8" x="192.293" y="48.711"/>
  <use xlink:href="#glyph3-14" x="197.27432" y="48.711"/>
  <use xlink:href="#glyph3-1" x="201.209563" y="48.711"/>
</g>
<g style="fill:rgb(0%,0%,0%);fill-opacity:1;">
  <use xlink:href="#glyph2-2" x="196.993" y="33.144"/>
</g>
<g style="fill:rgb(0%,0%,0%);fill-opacity:1;">
  <use xlink:href="#glyph3-10" x="209.849" y="48.711"/>
</g>
<g style="fill:rgb(0%,0%,0%);fill-opacity:1;">
  <use xlink:href="#glyph3-8" x="217.858963" y="48.711"/>
</g>
<g style="fill:rgb(0%,0%,0%);fill-opacity:1;">
  <use xlink:href="#glyph2-2" x="214.2" y="29.073"/>
</g>
<g style="fill:rgb(0%,0%,0%);fill-opacity:1;">
  <use xlink:href="#glyph3-12" x="222.841" y="48.711"/>
  <use xlink:href="#glyph3-5" x="228.639256" y="48.711"/>
  <use xlink:href="#glyph3-12" x="231.498534" y="48.711"/>
  <use xlink:href="#glyph3-13" x="237.296791" y="48.711"/>
  <use xlink:href="#glyph3-15" x="242.836018" y="48.711"/>
</g>
<g style="fill:rgb(0%,0%,0%);fill-opacity:1;">
  <use xlink:href="#glyph2-2" x="231.939" y="29.073"/>
</g>
<g style="fill:rgb(0%,0%,0%);fill-opacity:1;">
  <use xlink:href="#glyph2-5" x="244.669" y="20.933"/>
</g>
<g style="fill:rgb(0%,0%,0%);fill-opacity:1;">
  <use xlink:href="#glyph3-7" x="249.761" y="48.711"/>
  <use xlink:href="#glyph3-1" x="253.985159" y="48.711"/>
  <use xlink:href="#glyph3-1" x="258.757264" y="48.711"/>
  <use xlink:href="#glyph3-16" x="263.529368" y="48.711"/>
</g>
<g style="fill:rgb(0%,0%,0%);fill-opacity:1;">
  <use xlink:href="#glyph2-6" x="253.601" y="29.073"/>
</g>
<g style="fill:rgb(0%,0%,0%);fill-opacity:1;">
  <use xlink:href="#glyph3-5" x="269.888" y="48.711"/>
  <use xlink:href="#glyph3-12" x="272.747278" y="48.711"/>
</g>
<g style="fill:rgb(0%,0%,0%);fill-opacity:1;">
  <use xlink:href="#glyph2-2" x="272.072" y="37.214"/>
</g>
<g style="fill:rgb(0%,0%,0%);fill-opacity:1;">
  <use xlink:href="#glyph3-4" x="282.413" y="48.711"/>
  <use xlink:href="#glyph3-8" x="288.500173" y="48.711"/>
</g>
<g style="fill:rgb(0%,0%,0%);fill-opacity:1;">
  <use xlink:href="#glyph3-10" x="293.132801" y="48.711"/>
  <use xlink:href="#glyph3-12" x="301.441642" y="48.711"/>
</g>
<g style="fill:rgb(0%,0%,0%);fill-opacity:1;">
  <use xlink:href="#glyph3-17" x="306.94102" y="48.711"/>
</g>
<g style="fill:rgb(0%,0%,0%);fill-opacity:1;">
  <use xlink:href="#glyph3-7" x="309.461568" y="48.711"/>
</g>
<g style="fill:rgb(0%,0%,0%);fill-opacity:1;">
  <use xlink:href="#glyph2-2" x="295.904" y="29.073"/>
</g>
<g clip-path="url(#clip5)" clip-rule="nonzero">
<g style="fill:rgb(0%,0%,0%);fill-opacity:1;">
  <use xlink:href="#glyph3-18" x="317.553" y="48.711"/>
  <use xlink:href="#glyph3-14" x="323.06234" y="48.711"/>
  <use xlink:href="#glyph3-5" x="326.997583" y="48.711"/>
  <use xlink:href="#glyph3-13" x="329.85686" y="48.711"/>
  <use xlink:href="#glyph3-3" x="335.396088" y="48.711"/>
  <use xlink:href="#glyph3-2" x="341.194345" y="48.711"/>
  <use xlink:href="#glyph3-19" x="344.442165" y="48.711"/>
</g>
</g>
<g style="fill:rgb(0%,0%,0%);fill-opacity:1;">
  <use xlink:href="#glyph2-3" x="328.853" y="20.933"/>
</g>
<g clip-path="url(#clip6)" clip-rule="nonzero">
<g style="fill:rgb(0%,0%,0%);fill-opacity:1;">
  <use xlink:href="#glyph2-7" x="345.831871" y="20.933"/>
</g>
</g>
<g clip-path="url(#clip7)" clip-rule="nonzero">
<path style="fill:none;stroke-width:0.388;stroke-linecap:butt;stroke-linejoin:miter;stroke:rgb(0%,0%,0%);stroke-opacity:1;stroke-miterlimit:10;" d="M 0 0.00096875 L 347.761719 0.00096875 " transform="matrix(1,0,0,-1,0,61.708)"/>
</g>
<g clip-path="url(#clip8)" clip-rule="nonzero">
<path style="fill:none;stroke-width:0.388;stroke-linecap:butt;stroke-linejoin:miter;stroke:rgb(0%,0%,0%);stroke-opacity:1;stroke-miterlimit:10;" d="M 0 0.00034375 L 347.761719 0.00034375 " transform="matrix(1,0,0,-1,0,69.848)"/>
</g>
<g clip-path="url(#clip9)" clip-rule="nonzero">
<path style="fill:none;stroke-width:0.388;stroke-linecap:butt;stroke-linejoin:miter;stroke:rgb(0%,0%,0%);stroke-opacity:1;stroke-miterlimit:10;" d="M 0 0.00071875 L 347.761719 0.00071875 " transform="matrix(1,0,0,-1,0,77.989)"/>
</g>
<g clip-path="url(#clip10)" clip-rule="nonzero">
<path style="fill:none;stroke-width:0.388;stroke-linecap:butt;stroke-linejoin:miter;stroke:rgb(0%,0%,0%);stroke-opacity:1;stroke-miterlimit:10;" d="M 0 0.00009375 L 347.761719 0.00009375 " transform="matrix(1,0,0,-1,0,86.129)"/>
</g>
<g style="fill:rgb(0%,0%,0%);fill-opacity:1;">
  <use xlink:href="#glyph2-1" x="0" y="67.587"/>
</g>
<g style="fill:rgb(0%,0%,0%);fill-opacity:1;">
  <use xlink:href="#glyph3-12" x="2.2" y="103.506"/>
  <use xlink:href="#glyph3-1" x="7.998256" y="103.506"/>
  <use xlink:href="#glyph3-7" x="12.770361" y="103.506"/>
  <use xlink:href="#glyph3-7" x="16.99452" y="103.506"/>
  <use xlink:href="#glyph3-16" x="21.21868" y="103.506"/>
</g>
<g style="fill:rgb(0%,0%,0%);fill-opacity:1;">
  <use xlink:href="#glyph2-2" x="10.81" y="75.727"/>
</g>
<g style="fill:rgb(0%,0%,0%);fill-opacity:1;">
  <use xlink:href="#glyph2-4" x="25.256254" y="75.727"/>
</g>
<g style="fill:rgb(0%,0%,0%);fill-opacity:1;">
  <use xlink:href="#glyph3-20" x="27.918" y="103.506"/>
  <use xlink:href="#glyph3-5" x="30.817128" y="103.506"/>
  <use xlink:href="#glyph3-13" x="33.676406" y="103.506"/>
  <use xlink:href="#glyph3-3" x="39.215634" y="103.506"/>
  <use xlink:href="#glyph3-2" x="45.01389" y="103.506"/>
</g>
<g style="fill:rgb(0%,0%,0%);fill-opacity:1;">
  <use xlink:href="#glyph2-2" x="35.945" y="75.727"/>
</g>
<g style="fill:rgb(0%,0%,0%);fill-opacity:1;">
  <use xlink:href="#glyph3-9" x="51.904" y="103.506"/>
  <use xlink:href="#glyph3-11" x="57.343601" y="103.506"/>
</g>
<g style="fill:rgb(0%,0%,0%);fill-opacity:1;">
  <use xlink:href="#glyph2-2" x="54.137" y="79.798"/>
</g>
<g style="fill:rgb(0%,0%,0%);fill-opacity:1;">
  <use xlink:href="#glyph3-4" x="64.302" y="103.506"/>
  <use xlink:href="#glyph3-8" x="70.389173" y="103.506"/>
</g>
<g style="fill:rgb(0%,0%,0%);fill-opacity:1;">
  <use xlink:href="#glyph3-21" x="74.971987" y="103.506"/>
</g>
<g style="fill:rgb(0%,0%,0%);fill-opacity:1;">
  <use xlink:href="#glyph2-2" x="70.262" y="83.868"/>
</g>
<g style="fill:rgb(0%,0%,0%);fill-opacity:1;">
  <use xlink:href="#glyph3-14" x="84.153" y="103.506"/>
  <use xlink:href="#glyph3-1" x="88.088243" y="103.506"/>
</g>
<g style="fill:rgb(0%,0%,0%);fill-opacity:1;">
  <use xlink:href="#glyph2-2" x="86.362" y="79.798"/>
</g>
<g style="fill:rgb(0%,0%,0%);fill-opacity:1;">
  <use xlink:href="#glyph3-2" x="92.861" y="103.506"/>
  <use xlink:href="#glyph3-22" x="96.108821" y="103.506"/>
  <use xlink:href="#glyph3-14" x="102.116293" y="103.506"/>
</g>
<g style="fill:rgb(0%,0%,0%);fill-opacity:1;">
  <use xlink:href="#glyph3-12" x="106.200975" y="103.506"/>
</g>
<g style="fill:rgb(0%,0%,0%);fill-opacity:1;">
  <use xlink:href="#glyph2-3" x="100.285" y="75.727"/>
</g>
<g style="fill:rgb(0%,0%,0%);fill-opacity:1;">
  <use xlink:href="#glyph3-5" x="111.999" y="103.506"/>
  <use xlink:href="#glyph3-12" x="114.858278" y="103.506"/>
  <use xlink:href="#glyph3-13" x="120.656534" y="103.506"/>
  <use xlink:href="#glyph3-23" x="126.195762" y="103.506"/>
</g>
<g style="fill:rgb(0%,0%,0%);fill-opacity:1;">
  <use xlink:href="#glyph2-2" x="118.337" y="75.727"/>
</g>
<g style="fill:rgb(0%,0%,0%);fill-opacity:1;">
  <use xlink:href="#glyph2-5" x="132.007963" y="75.727"/>
</g>
<g style="fill:rgb(0%,0%,0%);fill-opacity:1;">
  <use xlink:href="#glyph3-24" x="133.174" y="103.506"/>
</g>
<g style="fill:rgb(0%,0%,0%);fill-opacity:1;">
  <use xlink:href="#glyph3-5" x="142.887574" y="103.506"/>
  <use xlink:href="#glyph3-2" x="145.746852" y="103.506"/>
</g>
<g style="fill:rgb(0%,0%,0%);fill-opacity:1;">
  <use xlink:href="#glyph3-3" x="149.144112" y="103.506"/>
</g>
<g style="fill:rgb(0%,0%,0%);fill-opacity:1;">
  <use xlink:href="#glyph2-3" x="141.914" y="75.727"/>
</g>
<g style="fill:rgb(0%,0%,0%);fill-opacity:1;">
  <use xlink:href="#glyph3-8" x="158.584" y="103.506"/>
  <use xlink:href="#glyph3-20" x="163.56532" y="103.506"/>
  <use xlink:href="#glyph3-20" x="166.464448" y="103.506"/>
</g>
<g style="fill:rgb(0%,0%,0%);fill-opacity:1;">
  <use xlink:href="#glyph2-2" x="161.829" y="67.587"/>
</g>
<g style="fill:rgb(0%,0%,0%);fill-opacity:1;">
  <use xlink:href="#glyph3-9" x="173.006" y="103.506"/>
  <use xlink:href="#glyph3-22" x="178.445601" y="103.506"/>
  <use xlink:href="#glyph3-14" x="184.453073" y="103.506"/>
</g>
<g style="fill:rgb(0%,0%,0%);fill-opacity:1;">
  <use xlink:href="#glyph2-2" x="178.552" y="71.657"/>
</g>
<g style="fill:rgb(0%,0%,0%);fill-opacity:1;">
  <use xlink:href="#glyph3-25" x="192.03" y="103.506"/>
  <use xlink:href="#glyph3-9" x="198.017547" y="103.506"/>
</g>
<g style="fill:rgb(0%,0%,0%);fill-opacity:1;">
  <use xlink:href="#glyph3-10" x="203.208082" y="103.506"/>
</g>
<g style="fill:rgb(0%,0%,0%);fill-opacity:1;">
  <use xlink:href="#glyph2-8" x="199.628" y="75.727"/>
</g>
<g style="fill:rgb(0%,0%,0%);fill-opacity:1;">
  <use xlink:href="#glyph3-1" x="211.517" y="103.506"/>
  <use xlink:href="#glyph3-14" x="216.289105" y="103.506"/>
  <use xlink:href="#glyph3-7" x="220.224347" y="103.506"/>
  <use xlink:href="#glyph3-16" x="224.448507" y="103.506"/>
</g>
<g style="fill:rgb(0%,0%,0%);fill-opacity:1;">
  <use xlink:href="#glyph2-2" x="220.191" y="75.727"/>
</g>
<g style="fill:rgb(0%,0%,0%);fill-opacity:1;">
  <use xlink:href="#glyph2-4" x="229.546177" y="75.727"/>
</g>
<g style="fill:rgb(0%,0%,0%);fill-opacity:1;">
  <use xlink:href="#glyph3-2" x="232.985" y="103.506"/>
</g>
<g style="fill:rgb(0%,0%,0%);fill-opacity:1;">
  <use xlink:href="#glyph3-9" x="236.133194" y="103.506"/>
</g>
<g style="fill:rgb(0%,0%,0%);fill-opacity:1;">
  <use xlink:href="#glyph2-2" x="235.134" y="75.727"/>
</g>
<g style="fill:rgb(0%,0%,0%);fill-opacity:1;">
  <use xlink:href="#glyph3-2" x="245.214" y="103.506"/>
</g>
<g style="fill:rgb(0%,0%,0%);fill-opacity:1;">
  <use xlink:href="#glyph3-3" x="248.61126" y="103.506"/>
  <use xlink:href="#glyph3-1" x="254.409517" y="103.506"/>
</g>
<g style="fill:rgb(0%,0%,0%);fill-opacity:1;">
  <use xlink:href="#glyph2-2" x="250.053" y="75.727"/>
</g>
<g style="fill:rgb(0%,0%,0%);fill-opacity:1;">
  <use xlink:href="#glyph3-13" x="262.823" y="103.506"/>
</g>
<g style="fill:rgb(0%,0%,0%);fill-opacity:1;">
  <use xlink:href="#glyph3-14" x="268.511667" y="103.506"/>
  <use xlink:href="#glyph3-1" x="272.44691" y="103.506"/>
  <use xlink:href="#glyph3-8" x="277.219015" y="103.506"/>
  <use xlink:href="#glyph3-2" x="282.200335" y="103.506"/>
</g>
<g style="fill:rgb(0%,0%,0%);fill-opacity:1;">
  <use xlink:href="#glyph2-2" x="271.991" y="79.798"/>
</g>
<g style="fill:rgb(0%,0%,0%);fill-opacity:1;">
  <use xlink:href="#glyph3-26" x="289.09" y="103.506"/>
  <use xlink:href="#glyph3-20" x="296.840934" y="103.506"/>
</g>
<g style="fill:rgb(0%,0%,0%);fill-opacity:1;">
  <use xlink:href="#glyph2-2" x="292.27" y="83.868"/>
</g>
<g style="fill:rgb(0%,0%,0%);fill-opacity:1;">
  <use xlink:href="#glyph3-6" x="299.74" y="103.506"/>
  <use xlink:href="#glyph3-5" x="308.537011" y="103.506"/>
  <use xlink:href="#glyph3-13" x="311.396289" y="103.506"/>
  <use xlink:href="#glyph3-3" x="316.935517" y="103.506"/>
  <use xlink:href="#glyph3-2" x="322.733773" y="103.506"/>
</g>
<g style="fill:rgb(0%,0%,0%);fill-opacity:1;">
  <use xlink:href="#glyph2-3" x="310.716" y="87.938"/>
</g>
<g style="fill:rgb(0%,0%,0%);fill-opacity:1;">
  <use xlink:href="#glyph3-21" x="325.982" y="103.506"/>
  <use xlink:href="#glyph3-16" x="331.521228" y="103.506"/>
</g>
<g style="fill:rgb(0%,0%,0%);fill-opacity:1;">
  <use xlink:href="#glyph2-2" x="327.852" y="83.868"/>
</g>
<g style="fill:rgb(0%,0%,0%);fill-opacity:1;">
  <use xlink:href="#glyph2-9" x="338.837" y="75.727"/>
</g>
<g clip-path="url(#clip11)" clip-rule="nonzero">
<g style="fill:rgb(0%,0%,0%);fill-opacity:1;">
  <use xlink:href="#glyph2-7" x="345.848" y="83.868"/>
</g>
</g>
<g clip-path="url(#clip12)" clip-rule="nonzero">
<path style="fill:none;stroke-width:0.388;stroke-linecap:butt;stroke-linejoin:miter;stroke:rgb(0%,0%,0%);stroke-opacity:1;stroke-miterlimit:10;" d="M 0 -0.00190625 L 347.761719 -0.00190625 " transform="matrix(1,0,0,-1,0,116.502)"/>
</g>
<g clip-path="url(#clip13)" clip-rule="nonzero">
<path style="fill:none;stroke-width:0.388;stroke-linecap:butt;stroke-linejoin:miter;stroke:rgb(0%,0%,0%);stroke-opacity:1;stroke-miterlimit:10;" d="M 0 -0.00153125 L 347.761719 -0.00153125 " transform="matrix(1,0,0,-1,0,124.643)"/>
</g>
<g clip-path="url(#clip14)" clip-rule="nonzero">
<path style="fill:none;stroke-width:0.388;stroke-linecap:butt;stroke-linejoin:miter;stroke:rgb(0%,0%,0%);stroke-opacity:1;stroke-miterlimit:10;" d="M 0 0.00175 L 347.761719 0.00175 " transform="matrix(1,0,0,-1,0,132.783)"/>
</g>
<g clip-path="url(#clip15)" clip-rule="nonzero">
<path style="fill:none;stroke-width:0.388;stroke-linecap:butt;stroke-linejoin:miter;stroke:rgb(0%,0%,0%);stroke-opacity:1;stroke-miterlimit:10;" d="M 0 -0.00178125 L 347.761719 -0.00178125 " transform="matrix(1,0,0,-1,0,140.924)"/>
</g>
<g style="fill:rgb(0%,0%,0%);fill-opacity:1;">
  <use xlink:href="#glyph2-1" x="0" y="122.381"/>
</g>
<g style="fill:rgb(0%,0%,0%);fill-opacity:1;">
  <use xlink:href="#glyph3-25" x="3.007" y="158.3"/>
  <use xlink:href="#glyph3-14" x="8.994547" y="158.3"/>
</g>
<g style="fill:rgb(0%,0%,0%);fill-opacity:1;">
  <use xlink:href="#glyph3-8" x="12.78035" y="158.3"/>
</g>
<g style="fill:rgb(0%,0%,0%);fill-opacity:1;">
  <use xlink:href="#glyph3-21" x="17.363164" y="158.3"/>
</g>
<g style="fill:rgb(0%,0%,0%);fill-opacity:1;">
  <use xlink:href="#glyph2-2" x="10.81" y="138.662"/>
</g>
<g style="fill:rgb(0%,0%,0%);fill-opacity:1;">
  <use xlink:href="#glyph3-10" x="27.721" y="158.3"/>
</g>
<g style="fill:rgb(0%,0%,0%);fill-opacity:1;">
  <use xlink:href="#glyph3-1" x="35.631336" y="158.3"/>
</g>
<g style="fill:rgb(0%,0%,0%);fill-opacity:1;">
  <use xlink:href="#glyph2-2" x="31.917" y="134.592"/>
</g>
<g style="fill:rgb(0%,0%,0%);fill-opacity:1;">
  <use xlink:href="#glyph3-4" x="45.222" y="158.3"/>
  <use xlink:href="#glyph3-1" x="51.309173" y="158.3"/>
</g>
<g style="fill:rgb(0%,0%,0%);fill-opacity:1;">
  <use xlink:href="#glyph2-2" x="48.507" y="138.662"/>
</g>
<g style="fill:rgb(0%,0%,0%);fill-opacity:1;">
  <use xlink:href="#glyph3-27" x="56.082" y="158.3"/>
</g>
<g style="fill:rgb(0%,0%,0%);fill-opacity:1;">
  <use xlink:href="#glyph3-9" x="61.312386" y="158.3"/>
  <use xlink:href="#glyph3-22" x="66.751987" y="158.3"/>
  <use xlink:href="#glyph3-2" x="72.759459" y="158.3"/>
</g>
<g style="fill:rgb(0%,0%,0%);fill-opacity:1;">
  <use xlink:href="#glyph2-3" x="63.899" y="142.733"/>
</g>
<g style="fill:rgb(0%,0%,0%);fill-opacity:1;">
  <use xlink:href="#glyph3-20" x="76.007" y="158.3"/>
</g>
<g style="fill:rgb(0%,0%,0%);fill-opacity:1;">
  <use xlink:href="#glyph3-21" x="78.657062" y="158.3"/>
  <use xlink:href="#glyph3-28" x="84.19629" y="158.3"/>
</g>
<g style="fill:rgb(0%,0%,0%);fill-opacity:1;">
  <use xlink:href="#glyph2-2" x="79.202" y="138.662"/>
</g>
<g style="fill:rgb(0%,0%,0%);fill-opacity:1;">
  <use xlink:href="#glyph2-5" x="90.077" y="130.522"/>
</g>
<g style="fill:rgb(0%,0%,0%);fill-opacity:1;">
  <use xlink:href="#glyph2-5" x="93.669181" y="130.522"/>
</g>
<g style="fill:rgb(0%,0%,0%);fill-opacity:1;">
  <use xlink:href="#glyph1-3" x="99.014" y="158.3"/>
</g>
<g style="fill:rgb(0%,0%,0%);fill-opacity:1;">
  <use xlink:href="#glyph2-8" x="100.745" y="138.662"/>
</g>
<g style="fill:rgb(0%,0%,0%);fill-opacity:1;">
  <use xlink:href="#glyph1-4" x="106.765" y="158.3"/>
  <use xlink:href="#glyph1-5" x="115.621787" y="158.3"/>
  <use xlink:href="#glyph1-6" x="120.603107" y="158.3"/>
  <use xlink:href="#glyph1-7" x="126.69028" y="158.3"/>
</g>
<g style="fill:rgb(0%,0%,0%);fill-opacity:1;">
  <use xlink:href="#glyph2-3" x="121.502" y="142.733"/>
</g>
<g style="fill:rgb(0%,0%,0%);fill-opacity:1;">
  <use xlink:href="#glyph2-10" x="127.209" y="145.506"/>
</g>
<g style="fill:rgb(0%,0%,0%);fill-opacity:1;">
  <use xlink:href="#glyph2-10" x="127.209" y="139.233"/>
</g>
<g style="fill:rgb(0%,0%,0%);fill-opacity:1;">
  <use xlink:href="#glyph2-5" x="135.478" y="130.522"/>
</g>
<g style="fill:rgb(0%,0%,0%);fill-opacity:1;">
  <use xlink:href="#glyph2-5" x="139.070181" y="130.522"/>
</g>
</g>
</svg>
