
%% LilyPond file generated by Denemo version 2.0.8

%%http://www.gnu.org/software/denemo/

\version "2.18.0"

CompactChordSymbols = {}
titledPiece = {}
AutoBarline = {}
AutoEndMovementBarline = \bar "|."

				% The music follows

MvmntIVoiceI = {\voiceOne
		\partial 256*128  r8 a' g' fis'\AutoBarline
		g' g'4. r4 a'8 a'\AutoBarline
		a'4 e' r4. e'8\AutoBarline
		\tuplet 3/2 { d'4 d' d' } e' e'\AutoBarline
				%5
		fis' fis' r g'8 a'\AutoBarline
		b'4 b' r c''8 b'\AutoBarline
		a'4 g' r2\AutoBarline
		g'8 g'4. e'4 g'\AutoBarline
		\set Timing.measurePosition = #(ly:make-moment -1/2)  a'4 a' \AutoEndMovementBarline
	      }


MvmntIVoiceII = {\voiceTwo
		 \partial 256*128  r8 d' d' d'\AutoBarline
		 d' d'4. r4 e'8 e'\AutoBarline
		 e'4 c' r4. c'8\AutoBarline
		 \tuplet 3/2 { b4 b b } b a\AutoBarline
				%5
		 d' d' r d'8 d'\AutoBarline
		 d'4 d' r d'8 d'\AutoBarline
		 d'4 b r2\AutoBarline
		 e'8 e'4. e'4 e'\AutoBarline
		 \set Timing.measurePosition = #(ly:make-moment -1/2)  fis'4 fis' \AutoEndMovementBarline
	       }


MvmntIVoiceIII = {\voiceThree
		  \partial 256*128  r8 a a a\AutoBarline
		  b b4. r4 g8 g\AutoBarline
		  a4 a r4. a8\AutoBarline
		  \tuplet 3/2 { fis4 fis fis } g a\AutoBarline
				%5
		  a a r a8 a\AutoBarline
		  g4 g r g8 g\AutoBarline
		  fis4 g r2\AutoBarline
		  g8 g4. c'4 c'\AutoBarline
		  \set Timing.measurePosition = #(ly:make-moment -1/2)  a4 a \AutoEndMovementBarline
		}


MvmntIVoiceIV = {\voiceFour
		 \partial 256*128  r8 d d d\AutoBarline
		 g, g,4. r4 c8 c\AutoBarline
		 c4 a, r4. a,8\AutoBarline
		 \tuplet 3/2 { b,4 b, b, } e c\AutoBarline
				%5
		 d d r d8 d\AutoBarline
		 g4 g r g8 g\AutoBarline
		 d4 e r2\AutoBarline
		 c8 c4. c4 a,\AutoBarline
		 \set Timing.measurePosition = #(ly:make-moment -1/2)  d4 d \AutoEndMovementBarline
	       }





OrigLyrics = \lyricmode {
  Saň -- te se so -- lí, so -- lí ze -- mě,
  a hle -- dej -- te po -- klad ví -- ry.
  Bud' -- te svět -- lem, svět -- lem svě -- ta,
  kte -- ré do tmy sví -- tí.
}
EnglishLyrics = \lyricmode {
  (Be -- come the salt, the salt of the earth, and seek the treas -- ure of faith. _ 
  Be_ _ the light,  light of the world, shin -- ing out in the darkness.)

}

#(set-global-staff-size 20)
\paper {
  myStaffSize = #18
    #(define fonts
    (make-pango-font-tree "TeX Gyre Pagella"
                          "TeX Gyre Pagella"
     "TeX Gyre Pagella"
     (/ myStaffSize 20)
                           ))
   indent = 0\cm} 

\score { %Start of Movement
  <<

				%Start of Staff
    \new Staff << 
      \new Voice = "VoiceIMvmntI"  { 
	\clef treble    \key g \major    \time 4/4   \MvmntIVoiceI
      } %End of voice
      \new Voice = "VoiceIIMvmntI"  { 
	\MvmntIVoiceII
      } %End of voice

    >> %End of Staff
    \new Lyrics = OrigLyrics \lyricsto VoiceIMvmntI \OrigLyrics
    \new Lyrics = EnglishLyrics \lyricsto VoiceIMvmntI \EnglishLyrics

				%Start of Staff
    \new Staff << 
      \new Voice = "VoiceIIIMvmntI"  { 
	\clef bass    \key g \major    \time 4/4   \MvmntIVoiceIII
      } %End of voice
      \new Voice = "VoiceIVMvmntI"  { 
	\MvmntIVoiceIV
      } %End of voice

    >> %End of Staff

  >>
  \midi { }
  \layout { }

} %End of Movement




