%!PS-Adobe-2.0 EPSF-2.0
%%Creator: LilyPond 2.18.2
%%BoundingBox: -9 -140 336 0
%%Orientation: Portrait
%%DocumentSuppliedResources: font Emmentaler-11
%%DocumentSuppliedResources: font Emmentaler-18
%%DocumentSuppliedResources: font TeXGyrePagella-Regular
%%EndComments
%%BeginProlog
/lilypond-datadir where {pop} {userdict /lilypond-datadir (/usr/share/lilypond/2.18.2) put } ifelse
%%BeginFont: Emmentaler-11
lilypond-datadir (/fonts/otf/emmentaler-11.otf) concatstrings (r) file .loadfont
%%EndFont

%%BeginFont: Emmentaler-18
lilypond-datadir (/fonts/otf/emmentaler-18.otf) concatstrings (r) file .loadfont
%%EndFont

%%BeginFont: Emmentaler-18
lilypond-datadir (/fonts/otf/emmentaler-18.otf) concatstrings (r) file .loadfont
%%EndFont

%%BeginFont: TeXGyrePagella-Regular
(/usr/share/texmf/fonts/opentype/public/tex-gyre/texgyrepagella-regular.otf) (r) file .loadfont
%%EndFont

/magfontemmentaler-18mDWo { /Emmentaler-18 6.3263 output-scale div selectfont } bind def
/lily-output-units 2.83464566929134 def %% millimeter
/staff-line-thickness 0.1 def
/line-width 67.3237795275591 def
/paper-size (a4) def
/staff-height 4.0 def
/output-scale 1.75729901757299 def
/page-height 169.00937007874 def
/page-width 119.50157480315 def
%%BeginResource: procset (music-drawing-routines.ps) 1 0
%!PS-Adobe-2.0
%
% Functions for direct and embedded PostScript

% Careful with double % as comment prefix.
% Any %%X comment is interpreted as DSC comments.

% TODO: use dicts or prefixes to prevent namespace pollution.

/pdfmark where
{pop} {userdict /pdfmark /cleartomark load put} ifelse


% llx lly urx ury URI
/mark_URI
{
    /uri exch def
    /ury exch def
    /urx exch def
    /lly exch def
    /llx exch def
    [
	/Rect [ llx lly urx ury ]
	
	/Border [ 0 0 0 ]

        /Action
	    <<
		/Subtype /URI
		/URI uri
	    >>
        /Subtype /Link
    /ANN
    pdfmark
}
bind def

% llx lly urx ury page
/mark_page_link
{
    /page exch def
    /ury exch def
    /urx exch def
    /lly exch def
    /llx exch def
    [
        /Rect [ llx lly urx ury ]
        /Border [ 0 0 0 ]
        /Page page
        /Subtype /Link
    /ANN
    pdfmark
}
bind def

% from adobe tech note 5002.
/BeginEPSF { %def
    /b4_Inc_state save def % Save state for cleanup
    /dict_count countdictstack def % Count objects on dict stack
    /op_count count 1 sub def % Count objects on operand stack
    userdict begin % Push userdict on dict stack
    /showpage { } def % Redefine showpage, { } = null proc
    0 setgray 0 setlinecap % Prepare graphics state
    1 setlinewidth 0 setlinejoin
    10 setmiterlimit [ ] 0 setdash newpath
    false setoverprint
} bind def

/EndEPSF { %def
  count op_count sub {pop} repeat % Clean up stacks
  countdictstack dict_count sub {end} repeat
  b4_Inc_state restore
} bind def

/stroke_and_fill? {
    {
	gsave
	    false setstrokeadjust
	    stroke
	grestore
	fill
    }
    {
	stroke
    }
    ifelse
} bind def

/vector_add { % x1 y1 x2 y2 vector_add x1+x2 y1+y2
	exch
	4 1 roll
	add
	3 1 roll
	add
	exch
} bind def

/draw_round_box % width height x y blot
{
    0 max setlinewidth
    matrix currentmatrix 5 1 roll
    currentpoint translate newpath translate
    2 copy 0 min exch 0 min exch translate
    abs exch abs exch
    currentlinewidth 0 eq
    { % straight corners
	2 copy 2 mul gt
	{ % horizontal
	    0 1 index 2 div moveto
	    setlinewidth
	    0 rlineto
	    0 setlinecap
	    stroke
	}
	{
	    2 copy exch 2 mul gt
	    { % vertical
		1 index 2 div 0 moveto
		exch setlinewidth
		0 exch rlineto
		0 setlinecap
		stroke
	    }
	    {
		0 0 4 2 roll rectfill
	    }
	    ifelse
	}
	ifelse
    }
    { % rounded corners
	2 copy 0 eq exch 0 eq or
	{ % line shape
	    0 0 moveto
	    rlineto
	    1 setlinecap
	    stroke
	    0 setlinecap
	}
	{ % full shape
	    currentstrokeadjust {
		currentlinewidth 2 div
		0 0 2 index 180 270 arc
		2 index 0 2 index 270 360 arc
		3 copy 0 90 arc
		0 2 index 3 -1 roll 90 180 arc
		closepath
		2 copy 2 mul gt
		{ % horizontal
		    2 copy add currentlinewidth add 10 add % large enough
		    0 1 index neg moveto
		    2 index 1 index neg lineto
		    2 index 1 index lineto
		    0 exch lineto closepath
		    gsave clip newpath
		    0 1 index 2 div moveto
		    currentlinewidth add setlinewidth
		    0 rlineto
		    2 setlinecap
		    stroke
		    grestore
		}
		{
		    2 copy exch 2 mul gt
		    { % vertical
			2 copy add currentlinewidth add 10 add % large enough
			dup neg 0 moveto
			dup 0 lineto
			dup 2 index lineto
			neg 1 index lineto closepath
			gsave clip newpath
			1 index 2 div 0 moveto
			exch currentlinewidth add setlinewidth
			0 exch rlineto
			2 setlinecap
			stroke
			grestore
		    }
		    {
			pop pop
			fill
		    }
		    ifelse
		}
		ifelse
		newpath
	    }
	    {
		1 setlinejoin
		0 0 4 2 roll 4 copy rectstroke rectfill
	    }
	    ifelse
	}
	ifelse
    }
    ifelse
    setmatrix
} bind def

/draw_polygon % fill? x(n) y(n) x(n-1) y(n-1) ... x(0) y(0) n blot
{
	setlinewidth %set to blot

	0 setlinecap
	1 setlinejoin

	3 1 roll
	/polygon_x
	currentpoint
	/polygon_y exch def
	def
	rmoveto % x(0) y(0)
	{ polygon_x polygon_y vector_add lineto } repeat % n times
	closepath
	stroke_and_fill?
} bind def

/draw_circle % filled? radius thickness draw_circle
{
	setlinewidth	% f? r
	currentpoint	% f? r x0 y0
	3 2 roll	% f? x0 y0 r
	dup 0 rmoveto
	0 360 arc closepath
	stroke_and_fill?
} bind def

/draw_ellipse % filled? x-radius y-radius thickness draw_ellipse
{
  setlinewidth % f? x-r y-r
  /savematrix matrix currentmatrix def
  scale % f?
  currentpoint
  1 0 rmoveto
  1 0 360  arc closepath
  savematrix setmatrix
  stroke_and_fill?
} bind def

/draw_partial_ellipse % filled connect x-radius y-radius startangle endangle thickness draw_partial_ellipse
% Note that filled is not boolean to permit for different graylevels (ie for trill keys)
{
  gsave
  currentpoint translate
  /thickness exch def
  /endangle exch def
  /startangle exch def
  /y_radius exch def
  /x_radius exch def
  /endrad x_radius y_radius mul
    x_radius x_radius mul
    endangle cos endangle cos mul mul
    y_radius y_radius mul
    endangle sin endangle sin mul mul add sqrt div def
  /endangle endangle sin endrad mul y_radius div
    endangle cos endrad mul x_radius div atan def
  /startrad x_radius y_radius mul
    x_radius x_radius mul
      startangle cos startangle cos mul mul
    y_radius y_radius mul
      startangle sin startangle sin mul mul add sqrt div def
  /startangle startangle sin startrad mul y_radius div
    startangle cos startrad mul x_radius div atan def
  /connect exch def
  /filled exch def
  /savematrix matrix currentmatrix def
  thickness setlinewidth
  x_radius y_radius scale
  startangle cos startangle sin moveto
  0 0 1 startangle
    startangle endangle eq { endangle 360 add } { endangle } ifelse
    arc
  connect {
    startangle cos startangle sin moveto endangle cos endangle sin lineto }
    if
  savematrix setmatrix filled stroke_and_fill?
  grestore
} bind def

/draw_line % dx dy x1 y1 thickness draw_line
{
	setlinewidth % dx dy x1 y1
	1 setlinecap
	rmoveto % dx dy
	rlineto
	stroke
} bind def

/draw_dashed_line % dx dy thickness dashpattern offset draw_dashed_line
{
	1 setlinecap
	setdash % dx dy thickness
	setlinewidth %dx dy
	rlineto
	stroke
	[] 0 setdash % reset dash pattern
} bind def

/print_glyphs % w dx dy glyph print_glyphs
{
	{
		currentpoint %w dx dy glyph x0 y0
		5 2 roll %w x0 y0 dx dy glyph
		3 1 roll %w x0 y0 glyph dx dy
		rmoveto %w x0 y0 glyph
		glyphshow %w x0 y0
		moveto %w
		0 rmoveto
	}repeat
}bind def
%end music-drawing-routines.ps

%%EndResource
%%BeginResource: procset (lilyponddefs.ps) 1 0
%!PS-Adobe-2.0: lilyponddefs.ps
%
% Functions for direct PostScript output

% /setgray { 1 add } bind def

/set-ps-scale-to-lily-scale {
	lily-output-units output-scale mul dup scale
} bind def


/init-paper {
	gsave
	clippath pathbbox newpath
	/paper-height exch def
	/paper-width exch def pop pop pop
	% FIXME
	/top-margin 2 def
	paper-width line-width sub 2 div /left-margin exch def
	grestore
} bind def

/init-lilypond-parameters {
	staff-line-thickness setlinewidth
	staff-height init-paper
} bind def


% end lilyponddefs.ps

%%EndResource
%%EndProlog
%%BeginSetup
init-lilypond-parameters
%%EndSetup

/mark_page_link { pop pop pop pop pop } bind def
gsave set-ps-scale-to-lily-scale
0.0000 -7.2100 moveto 67.2238 0.0000 0.0500 0.0000 0.1000 draw_line
0.0000 -6.2100 moveto 67.2238 0.0000 0.0500 0.0000 0.1000 draw_line
0.0000 -5.2100 moveto 67.2238 0.0000 0.0500 0.0000 0.1000 draw_line
0.0000 -4.2100 moveto 67.2238 0.0000 0.0500 0.0000 0.1000 draw_line
0.0000 -3.2100 moveto 67.2238 0.0000 0.0500 0.0000 0.1000 draw_line
37.9345 -5.2100 moveto 0.1900 4.0000 0.0000 -2.0000 0.0000 draw_round_box
37.9345 -23.6352 moveto 0.1900 4.0000 0.0000 -2.0000 0.0000 draw_round_box
28.3203 -23.6352 moveto 0.1900 4.0000 0.0000 -2.0000 0.0000 draw_round_box
28.3203 -5.2100 moveto 0.1900 4.0000 0.0000 -2.0000 0.0000 draw_round_box
45.7586 -5.2100 moveto 0.1900 4.0000 0.0000 -2.0000 0.0000 draw_round_box
45.7586 -23.6352 moveto 0.1900 4.0000 0.0000 -2.0000 0.0000 draw_round_box
50.6897 -4.7100 moveto magfontemmentaler-18mDWo /dots.dot glyphshow 
50.6897 -5.7100 moveto magfontemmentaler-18mDWo /dots.dot glyphshow 
51.8811 -5.2100 moveto 0.6000 4.0000 0.0000 -2.0000 0.0000 draw_round_box
51.3911 -5.2100 moveto 0.1900 4.0000 0.0000 -2.0000 0.0000 draw_round_box
50.6897 -23.1352 moveto magfontemmentaler-18mDWo /dots.dot glyphshow 
50.6897 -24.1352 moveto magfontemmentaler-18mDWo /dots.dot glyphshow 
51.8811 -23.6352 moveto 0.6000 4.0000 0.0000 -2.0000 0.0000 draw_round_box
51.3911 -23.6352 moveto 0.1900 4.0000 0.0000 -2.0000 0.0000 draw_round_box
18.6726 -23.6352 moveto 0.1900 4.0000 0.0000 -2.0000 0.0000 draw_round_box
18.6726 -5.2100 moveto 0.1900 4.0000 0.0000 -2.0000 0.0000 draw_round_box
61.3015 -5.2100 moveto 0.1900 4.0000 0.0000 -2.0000 0.0000 draw_round_box
61.3015 -23.6352 moveto 0.1900 4.0000 0.0000 -2.0000 0.0000 draw_round_box
65.5324 -4.7100 moveto magfontemmentaler-18mDWo /dots.dot glyphshow 
65.5324 -5.7100 moveto magfontemmentaler-18mDWo /dots.dot glyphshow 
66.7238 -5.2100 moveto 0.6000 4.0000 0.0000 -2.0000 0.0000 draw_round_box
66.2338 -5.2100 moveto 0.1900 4.0000 0.0000 -2.0000 0.0000 draw_round_box
65.5324 -23.1352 moveto magfontemmentaler-18mDWo /dots.dot glyphshow 
65.5324 -24.1352 moveto magfontemmentaler-18mDWo /dots.dot glyphshow 
66.7238 -23.6352 moveto 0.6000 4.0000 0.0000 -2.0000 0.0000 draw_round_box
66.2338 -23.6352 moveto 0.1900 4.0000 0.0000 -2.0000 0.0000 draw_round_box
0.0000 -20.6352 moveto 1.5761 0.0000 5.6040 0.0000 0.2000 draw_round_box
0.0000 -20.6352 moveto 1.5761 0.0000 10.0317 0.0000 0.2000 draw_round_box
0.0000 -20.6352 moveto 1.6821 0.0000 14.6624 0.0000 0.2000 draw_round_box
0.0000 -20.6352 moveto 1.5761 0.0000 19.6041 0.0000 0.2000 draw_round_box
0.0000 -20.6352 moveto 1.5761 0.0000 19.6041 0.0000 0.2000 draw_round_box
0.0000 -20.6352 moveto 1.5761 0.0000 23.7671 0.0000 0.2000 draw_round_box
0.0000 -20.6352 moveto 1.5761 0.0000 23.7671 0.0000 0.2000 draw_round_box
0.0000 -20.6352 moveto 1.5761 0.0000 29.0988 0.0000 0.2000 draw_round_box
0.0000 -20.6352 moveto 1.5761 0.0000 33.3813 0.0000 0.2000 draw_round_box
0.0000 -20.6352 moveto 1.5761 0.0000 38.7130 0.0000 0.2000 draw_round_box
0.0000 -20.6352 moveto 1.5761 0.0000 40.9605 0.0000 0.2000 draw_round_box
0.0000 -20.6352 moveto 1.5761 0.0000 43.2079 0.0000 0.2000 draw_round_box
0.0000 -20.6352 moveto 1.5761 0.0000 52.9129 0.0000 0.2000 draw_round_box
0.0000 -20.6352 moveto 1.5280 0.0000 55.1642 0.0000 0.2000 draw_round_box
0.0000 -20.6352 moveto 1.5280 0.0000 56.9922 0.0000 0.2000 draw_round_box
0.0000 -25.6352 moveto 67.2238 0.0000 0.0500 0.0000 0.1000 draw_line
0.0000 -24.6352 moveto 67.2238 0.0000 0.0500 0.0000 0.1000 draw_line
0.0000 -23.6352 moveto 67.2238 0.0000 0.0500 0.0000 0.1000 draw_line
0.0000 -22.6352 moveto 67.2238 0.0000 0.0500 0.0000 0.1000 draw_line
0.0000 -21.6352 moveto 67.2238 0.0000 0.0500 0.0000 0.1000 draw_line
0.0000 -8.2100 moveto 1.6821 0.0000 62.2301 0.0000 0.2000 draw_round_box
48.6478 -21.1352 moveto magfontemmentaler-18mDWo /dots.dot glyphshow 
48.1814 -23.6352 moveto 0.0500 2.1901 -0.0250 2.7699 0.0800 draw_round_box
48.6478 -23.1352 moveto magfontemmentaler-18mDWo /dots.dot glyphshow 
47.0567 -23.6352 moveto 0.0500 3.1901 -0.0250 -2.9600 0.0800 draw_round_box
46.4240 -15.4523 moveto /TeXGyrePagella-Regular 3.90625000 output-scale div selectfont
0.6146 0.0000 0.0000 /exclam
1.1267 0.0000 0.0000 /a
0.6487 0.0000 0.0000 /i
3 print_glyphs
46.9917 -21.1352 moveto magfontemmentaler-18mDWo /noteheads.s1 glyphshow 
46.9917 -23.1352 moveto magfontemmentaler-18mDWo /noteheads.s1 glyphshow 
48.6478 -4.7100 moveto magfontemmentaler-18mDWo /dots.dot glyphshow 
48.1814 -5.2100 moveto 0.0500 3.0234 -0.0250 0.2699 0.0800 draw_round_box
48.6478 -7.7100 moveto magfontemmentaler-18mDWo /dots.dot glyphshow 
47.0567 -5.2100 moveto 0.0500 2.3568 -0.0250 -4.6267 0.0800 draw_round_box
12.2000 -12.6523 moveto 0.5800 0.0500 0.0400 0.4600 0.0800 draw_round_box
54.2280 -23.6352 moveto 0.0500 2.2570 -0.0250 3.2030 0.0800 draw_round_box
53.1739 -5.2100 moveto 0.0500 2.4237 -0.0250 -4.6267 0.0800 draw_round_box
53.1739 -23.6352 moveto 0.0500 3.2570 -0.0250 -1.4600 0.0800 draw_round_box
6.8541 -2.2100 moveto true 4.5177 0.0100 4.5177 -0.3900 0.0400 -0.2000 0.0400 0.2000 3 0.0800 draw_polygon
52.5059 -15.4523 moveto /TeXGyrePagella-Regular 3.90625000 output-scale div selectfont
0.6487 0.0000 0.0000 /l
1.7413 0.0000 0.0000 /A
2 print_glyphs
53.1089 -5.7100 moveto magfontemmentaler-18mDWo /noteheads.s2 glyphshow 
53.1089 -7.2100 moveto magfontemmentaler-18mDWo /noteheads.s2 glyphshow 
52.5059 -12.6523 moveto /TeXGyrePagella-Regular 3.90625000 output-scale div selectfont
0.6487 0.0000 0.0000 /l
1.7413 0.0000 0.0000 /A
2 print_glyphs
46.9917 -7.2100 moveto magfontemmentaler-18mDWo /noteheads.s1 glyphshow 
53.1089 -20.6352 moveto magfontemmentaler-18mDWo /noteheads.s2 glyphshow 
53.1089 -21.6352 moveto magfontemmentaler-18mDWo /noteheads.s2 glyphshow 
54.2280 -5.2100 moveto 0.0500 3.2570 -0.0250 -0.2970 0.0800 draw_round_box
42.2756 -5.2100 moveto 0.0500 2.9237 -0.0250 0.7030 0.0800 draw_round_box
41.1565 -4.7100 moveto magfontemmentaler-18mDWo /noteheads.s2 glyphshow 
41.1565 -6.7100 moveto magfontemmentaler-18mDWo /noteheads.s2 glyphshow 
40.8949 -12.6523 moveto /TeXGyrePagella-Regular 3.90625000 output-scale div selectfont
1.0584 0.0000 0.0000 /e
0.6487 0.0000 0.0000 /l
2 print_glyphs
40.8949 -15.4523 moveto /TeXGyrePagella-Regular 3.90625000 output-scale div selectfont
1.0584 0.0000 0.0000 /e
0.6487 0.0000 0.0000 /l
2 print_glyphs
41.1565 -20.6352 moveto magfontemmentaler-18mDWo /noteheads.s2 glyphshow 
41.1565 -22.6352 moveto magfontemmentaler-18mDWo /noteheads.s2 glyphshow 
41.2215 -5.2100 moveto 0.0500 2.5903 -0.0250 -4.2933 0.0800 draw_round_box
38.9740 -23.6352 moveto 0.0500 3.2570 -0.0250 -1.4600 0.0800 draw_round_box
8.3612 -12.6523 moveto 0.5800 0.0500 0.0400 0.4600 0.0800 draw_round_box
40.0281 -23.6352 moveto 0.0500 2.2570 -0.0250 3.2030 0.0800 draw_round_box
42.2756 -23.6352 moveto 0.0500 2.2570 -0.0250 3.2030 0.0800 draw_round_box
43.4690 -5.2100 moveto 0.0500 2.2570 -0.0250 -4.9600 0.0800 draw_round_box
44.5230 -23.6352 moveto 0.0500 2.2570 -0.0250 3.7030 0.0800 draw_round_box
43.4690 -23.6352 moveto 0.0500 3.0903 -0.0250 -3.2933 0.0800 draw_round_box
46.9917 -5.2100 moveto magfontemmentaler-18mDWo /noteheads.s1 glyphshow 
43.4040 -4.2100 moveto magfontemmentaler-18mDWo /noteheads.s2 glyphshow 
41.2215 -23.6352 moveto 0.0500 3.2570 -0.0250 -2.4600 0.0800 draw_round_box
46.4240 -12.6523 moveto /TeXGyrePagella-Regular 3.90625000 output-scale div selectfont
0.6146 0.0000 0.0000 /exclam
1.1267 0.0000 0.0000 /a
0.6487 0.0000 0.0000 /i
3 print_glyphs
43.4040 -7.7100 moveto magfontemmentaler-18mDWo /noteheads.s2 glyphshow 
43.0058 -12.6523 moveto /TeXGyrePagella-Regular 3.90625000 output-scale div selectfont
1.3316 0.0000 0.0000 /u
0.6487 0.0000 0.0000 /l
2 print_glyphs
43.0058 -15.4523 moveto /TeXGyrePagella-Regular 3.90625000 output-scale div selectfont
1.3316 0.0000 0.0000 /u
0.6487 0.0000 0.0000 /l
2 print_glyphs
43.4040 -20.1352 moveto magfontemmentaler-18mDWo /noteheads.s2 glyphshow 
43.4040 -23.6352 moveto magfontemmentaler-18mDWo /noteheads.s2 glyphshow 
44.5230 -5.2100 moveto 0.0500 2.7570 -0.0250 1.2030 0.0800 draw_round_box
6.8541 -17.8252 moveto true 4.5177 -0.1100 4.5177 -0.5100 0.0400 -0.2000 0.0400 0.2000 3 0.0800 draw_polygon
64.1000 -25.1352 moveto magfontemmentaler-18mDWo /dots.dot glyphshow 
62.5088 -23.6352 moveto 0.0500 2.5234 -0.0250 -4.2933 0.0800 draw_round_box
63.6336 -23.6352 moveto 0.0500 2.3568 -0.0250 2.2699 0.0800 draw_round_box
64.1000 -5.7100 moveto magfontemmentaler-18mDWo /dots.dot glyphshow 
63.6336 -5.2100 moveto 0.0500 3.1901 -0.0250 -0.2301 0.0800 draw_round_box
64.1000 -8.7100 moveto magfontemmentaler-18mDWo /dots.dot glyphshow 
62.5088 -5.2100 moveto 0.0500 2.1901 -0.0250 -5.4600 0.0800 draw_round_box
64.1000 -21.1352 moveto magfontemmentaler-18mDWo /dots.dot glyphshow 
38.9645 -1.7409 moveto /Emmentaler-11 3.98535156 output-scale div selectfont
0.8194 0.0000 0.0000 /one
1 print_glyphs
37.9345 -0.0800 moveto 13.4265 0.0000 0.1100 0.0000 0.1600 draw_line
37.9345 -0.0800 moveto 0.0000 -2.0000 13.5365 0.0000 0.1600 draw_line
37.9345 -0.0800 moveto 0.0000 -2.0000 0.1100 0.0000 0.1600 draw_line
45.3751 -15.4523 moveto 0.5800 0.0500 0.0400 0.4600 0.0800 draw_round_box
45.3751 -12.6523 moveto 0.5800 0.0500 0.0400 0.4600 0.0800 draw_round_box
42.6540 -15.4523 moveto 0.2200 0.0500 0.0400 0.4600 0.0800 draw_round_box
42.6540 -12.6523 moveto 0.2200 0.0500 0.0400 0.4600 0.0800 draw_round_box
57.3339 -12.6523 moveto 0.5800 0.0500 0.0400 0.4600 0.0800 draw_round_box
31.9030 -12.6523 moveto 0.5800 0.0500 0.0400 0.4600 0.0800 draw_round_box
5.8000 -25.4452 moveto true 4.5177 0.2000 4.5177 -0.2000 0.0400 -0.2000 0.0400 0.2000 3 0.0800 draw_polygon
22.1095 -12.6523 moveto 0.5800 0.0500 0.0400 0.4600 0.0800 draw_round_box
62.4438 -25.1352 moveto magfontemmentaler-18mDWo /noteheads.s1 glyphshow 
56.4143 -17.8252 moveto true 1.8699 -0.1100 1.8699 -0.5100 0.0400 -0.2000 0.0400 0.2000 3 0.0800 draw_polygon
60.6714 -15.4523 moveto 0.5800 0.0500 0.0400 0.4600 0.0800 draw_round_box
60.8592 -12.6523 moveto 0.5800 0.0500 0.0400 0.4600 0.0800 draw_round_box
55.3602 -23.6352 moveto gsave currentpoint translate
1 setlinecap 1 setlinejoin 0.08000000 setlinewidth
1.18230684 6.53944996 moveto  1.76261364 6.94498923 2.54000147 6.81881272 2.96225212 6.25055004 curveto  2.52077607 6.70036279 1.74338823 6.82653930 1.18230684 6.53944996 curveto   closepath  gsave stroke grestore fill grestore
57.3339 -15.4523 moveto 0.5800 0.0500 0.0400 0.4600 0.0800 draw_round_box
56.4793 -23.6352 moveto 0.0500 2.0564 -0.0250 3.7030 0.0800 draw_round_box
5.8000 -8.7100 moveto true 4.5177 -0.1100 4.5177 -0.5100 0.0400 -0.2000 0.0400 0.2000 3 0.0800 draw_polygon
55.4252 -23.6352 moveto 0.0500 3.0903 -0.0250 -3.2933 0.0800 draw_round_box
57.1401 -20.6352 moveto magfontemmentaler-18mDWo /noteheads.s2 glyphshow 
58.2592 -23.6352 moveto 0.0500 2.2675 -0.0250 3.2030 0.0800 draw_round_box
55.0986 -12.6523 moveto /TeXGyrePagella-Regular 3.90625000 output-scale div selectfont
1.0584 0.0000 0.0000 /e
0.6487 0.0000 0.0000 /l
2 print_glyphs
55.3602 -5.7100 moveto magfontemmentaler-18mDWo /noteheads.s2 glyphshow 
55.3602 -6.7100 moveto magfontemmentaler-18mDWo /noteheads.s2 glyphshow 
55.0986 -15.4523 moveto /TeXGyrePagella-Regular 3.90625000 output-scale div selectfont
1.0584 0.0000 0.0000 /e
0.6487 0.0000 0.0000 /l
2 print_glyphs
55.3602 -20.1352 moveto magfontemmentaler-18mDWo /noteheads.s2 glyphshow 
55.3602 -23.6352 moveto magfontemmentaler-18mDWo /noteheads.s2 glyphshow 
56.4793 -5.2100 moveto 0.0500 3.2570 -0.0250 -0.2970 0.0800 draw_round_box
55.4252 -5.2100 moveto 0.0500 2.5903 -0.0250 -4.2933 0.0800 draw_round_box
57.5801 -6.2100 moveto magfontemmentaler-18mDWo /accidentals.sharp glyphshow 
60.0392 -23.6352 moveto 0.0500 2.2570 -0.0250 2.7030 0.0800 draw_round_box
58.9851 -23.6352 moveto 0.0500 3.2570 -0.0250 -2.9600 0.0800 draw_round_box
62.4438 -5.7100 moveto magfontemmentaler-18mDWo /noteheads.s1 glyphshow 
62.4438 -8.2100 moveto magfontemmentaler-18mDWo /noteheads.s1 glyphshow 
61.8762 -12.6523 moveto /TeXGyrePagella-Regular 3.90625000 output-scale div selectfont
0.6146 0.0000 0.0000 /exclam
1.1267 0.0000 0.0000 /a
0.6487 0.0000 0.0000 /i
3 print_glyphs
61.5006 -15.4523 moveto /TeXGyrePagella-Regular 3.90625000 output-scale div selectfont
0.7512 0.0000 0.0000 /parenright
0.6146 0.0000 0.0000 /exclam
1.1267 0.0000 0.0000 /a
0.6487 0.0000 0.0000 /i
4 print_glyphs
62.4438 -21.6352 moveto magfontemmentaler-18mDWo /noteheads.s1 glyphshow 
58.9201 -23.1352 moveto magfontemmentaler-18mDWo /noteheads.s2 glyphshow 
58.9201 -6.2100 moveto magfontemmentaler-18mDWo /noteheads.s2 glyphshow 
58.9201 -7.2100 moveto magfontemmentaler-18mDWo /noteheads.s2 glyphshow 
58.5220 -12.6523 moveto /TeXGyrePagella-Regular 3.90625000 output-scale div selectfont
1.3316 0.0000 0.0000 /u
0.6487 0.0000 0.0000 /l
2 print_glyphs
58.5220 -15.4523 moveto /TeXGyrePagella-Regular 3.90625000 output-scale div selectfont
1.3316 0.0000 0.0000 /u
0.6487 0.0000 0.0000 /l
2 print_glyphs
58.9201 -21.1352 moveto magfontemmentaler-18mDWo /noteheads.s2 glyphshow 
60.0392 -5.2100 moveto 0.0500 3.2570 -0.0250 -0.7970 0.0800 draw_round_box
58.9851 -5.2100 moveto 0.0500 2.4237 -0.0250 -4.6267 0.0800 draw_round_box
16.0659 -23.6352 moveto 0.0500 2.1901 -0.0250 3.7699 0.0800 draw_round_box
14.9411 -23.6352 moveto 0.0500 3.1901 -0.0250 -1.9600 0.0800 draw_round_box
19.8001 -4.7100 moveto magfontemmentaler-18mDWo /noteheads.s2 glyphshow 
19.8001 -6.2100 moveto magfontemmentaler-18mDWo /noteheads.s2 glyphshow 
18.8045 -12.6523 moveto /TeXGyrePagella-Regular 3.90625000 output-scale div selectfont
1.9462 0.0000 0.0000 /m
1.2292 0.0000 0.0000 /o
2 print_glyphs
18.6338 -15.4523 moveto /TeXGyrePagella-Regular 3.90625000 output-scale div selectfont
1.2292 0.0000 0.0000 /o
1.0584 0.0000 0.0000 /e
1.2292 0.0000 0.0000 /P
3 print_glyphs
19.8001 -20.6352 moveto magfontemmentaler-18mDWo /noteheads.s2 glyphshow 
19.8001 -20.6352 moveto magfontemmentaler-18mDWo /noteheads.s2 glyphshow 
12.9428 -12.6523 moveto /TeXGyrePagella-Regular 3.90625000 output-scale div selectfont
0.5463 0.0000 0.0000 /comma
1.9462 0.0000 0.0000 /m
1.3316 0.0000 0.0000 /u
1.2974 0.0000 0.0000 /n
4 print_glyphs
10.2927 -23.6352 moveto 0.0500 3.0670 -0.0250 -1.7700 0.0800 draw_round_box
14.8761 -5.2100 moveto magfontemmentaler-18mDWo /noteheads.s1 glyphshow 
14.8761 -6.2100 moveto magfontemmentaler-18mDWo /noteheads.s1 glyphshow 
12.8233 -15.4523 moveto /TeXGyrePagella-Regular 3.90625000 output-scale div selectfont
0.5463 0.0000 0.0000 /period
1.3657 0.0000 0.0000 /d
0.8536 0.0000 0.0000 /r
1.2292 0.0000 0.0000 /o
1.3657 0.0000 0.0000 /L
5 print_glyphs
14.8761 -20.1352 moveto magfontemmentaler-18mDWo /noteheads.s1 glyphshow 
14.8761 -22.1352 moveto magfontemmentaler-18mDWo /noteheads.s1 glyphshow 
16.0659 -5.2100 moveto 0.0500 3.0234 -0.0250 0.2699 0.0800 draw_round_box
14.9411 -5.2100 moveto 0.0500 2.6901 -0.0250 -3.9600 0.0800 draw_round_box
23.9631 -4.7100 moveto magfontemmentaler-18mDWo /noteheads.s2 glyphshow 
23.9631 -6.2100 moveto magfontemmentaler-18mDWo /noteheads.s2 glyphshow 
22.8992 -12.6523 moveto /TeXGyrePagella-Regular 3.90625000 output-scale div selectfont
0.9560 0.0000 0.0000 /s
1.0584 0.0000 0.0000 /e
1.2974 0.0000 0.0000 /n
3 print_glyphs
22.2505 -15.4523 moveto /TeXGyrePagella-Regular 3.90625000 output-scale div selectfont
0.6146 0.0000 0.0000 /exclam
0.9560 0.0000 0.0000 /s
1.0584 0.0000 0.0000 /e
0.6487 0.0000 0.0000 /l
1.3316 0.0000 0.0000 /p
5 print_glyphs
23.9631 -20.6352 moveto magfontemmentaler-18mDWo /noteheads.s2 glyphshow 
23.9631 -20.6352 moveto magfontemmentaler-18mDWo /noteheads.s2 glyphshow 
25.0822 -5.2100 moveto 0.0500 2.9237 -0.0250 0.7030 0.0800 draw_round_box
20.9192 -5.2100 moveto 0.0500 2.9237 -0.0250 0.7030 0.0800 draw_round_box
19.8651 -5.2100 moveto 0.0500 2.7570 -0.0250 -3.9600 0.0800 draw_round_box
20.9192 -23.6352 moveto 0.0500 2.2570 -0.0250 3.2030 0.0800 draw_round_box
19.8651 -23.6352 moveto 0.0500 3.2570 -0.0250 -0.4600 0.0800 draw_round_box
5.8000 -20.1352 moveto magfontemmentaler-18mDWo /noteheads.s2 glyphshow 
5.8000 -5.2100 moveto magfontemmentaler-18mDWo /noteheads.s2 glyphshow 
5.8000 -6.2100 moveto magfontemmentaler-18mDWo /noteheads.s2 glyphshow 
4.9239 -12.6523 moveto /TeXGyrePagella-Regular 3.90625000 output-scale div selectfont
1.2292 0.0000 0.0000 /o
1.7072 0.0000 0.0000 /D
2 print_glyphs
3.9679 -15.4523 moveto /TeXGyrePagella-Regular 3.90625000 output-scale div selectfont
0.9560 0.0000 0.0000 /s
0.9560 0.0000 0.0000 /s
1.0584 0.0000 0.0000 /e
0.6487 0.0000 0.0000 /l
1.2292 0.0000 0.0000 /b
5 print_glyphs
0.8000 -22.6352 moveto magfontemmentaler-18mDWo /clefs.F glyphshow 
5.8000 -22.1352 moveto magfontemmentaler-18mDWo /noteheads.s2 glyphshow 
6.9191 -5.2100 moveto 0.0500 2.7543 -0.0250 0.2030 0.0800 draw_round_box
5.8650 -5.2100 moveto 0.0500 2.2614 -0.0250 -3.4644 0.0800 draw_round_box
-0.0600 -14.4226 moveto 0.0600 22.4252 0.0500 -11.2126 0.1000 draw_round_box
53.3211 -1.7067 moveto /Emmentaler-11 3.98535156 output-scale div selectfont
0.8536 0.0000 0.0000 /two
1 print_glyphs
51.3911 -0.0800 moveto 14.8427 0.0000 1.0100 0.0000 0.1600 draw_line
51.3911 -0.0800 moveto 0.0000 -2.0000 15.8527 0.0000 0.1600 draw_line
51.3911 -0.0800 moveto 0.0000 -2.0000 1.0100 0.0000 0.1600 draw_line
-0.7853 -2.1259 moveto /TeXGyrePagella-Regular 2.76074219 output-scale div selectfont
0.7853 0.0000 0.0000 /four
1 print_glyphs
0.8000 -6.2100 moveto magfontemmentaler-18mDWo /clefs.G glyphshow 
10.2277 -20.6352 moveto magfontemmentaler-18mDWo /noteheads.s2 glyphshow 
10.2277 -22.1352 moveto magfontemmentaler-18mDWo /noteheads.s2 glyphshow 
11.3468 -5.2100 moveto 0.0500 3.0697 -0.0250 -0.2970 0.0800 draw_round_box
10.2927 -5.2100 moveto 0.0500 2.0626 -0.0250 -3.7656 0.0800 draw_round_box
9.2662 -15.4523 moveto /TeXGyrePagella-Regular 3.90625000 output-scale div selectfont
1.0584 0.0000 0.0000 /e
1.2974 0.0000 0.0000 /h
0.7512 0.0000 0.0000 /t
3 print_glyphs
11.3468 -23.6352 moveto 0.0500 2.2614 -0.0250 3.2030 0.0800 draw_round_box
5.8650 -23.6352 moveto 0.0500 3.0670 -0.0250 -1.7700 0.0800 draw_round_box
6.9191 -23.6352 moveto 0.0500 2.0626 -0.0250 3.7030 0.0800 draw_round_box
10.2277 -5.7100 moveto magfontemmentaler-18mDWo /noteheads.s2 glyphshow 
10.2277 -6.7100 moveto magfontemmentaler-18mDWo /noteheads.s2 glyphshow 
9.5223 -12.6523 moveto /TeXGyrePagella-Regular 3.90625000 output-scale div selectfont
0.6487 0.0000 0.0000 /i
1.9462 0.0000 0.0000 /m
2 print_glyphs
34.6964 -23.6352 moveto 0.0500 2.2570 -0.0250 3.7030 0.0800 draw_round_box
34.6964 -5.2100 moveto 0.0500 3.0903 -0.0250 0.2030 0.0800 draw_round_box
33.6424 -5.2100 moveto 0.0500 2.7570 -0.0250 -3.9600 0.0800 draw_round_box
33.5774 -22.1352 moveto magfontemmentaler-18mDWo /noteheads.s2 glyphshow 
33.6424 -23.6352 moveto 0.0500 3.2570 -0.0250 -1.9600 0.0800 draw_round_box
29.3598 -23.6352 moveto 0.0500 3.2570 -0.0250 -1.9600 0.0800 draw_round_box
35.8911 -3.2100 moveto magfontemmentaler-18mDWo /rests.2 glyphshow 
33.5774 -5.2100 moveto magfontemmentaler-18mDWo /noteheads.s2 glyphshow 
33.5774 -6.2100 moveto magfontemmentaler-18mDWo /noteheads.s2 glyphshow 
32.8037 -12.6523 moveto /TeXGyrePagella-Regular 3.90625000 output-scale div selectfont
0.9560 0.0000 0.0000 /s
1.0584 0.0000 0.0000 /e
0.7170 0.0000 0.0000 /t
3 print_glyphs
31.4379 -15.4523 moveto /TeXGyrePagella-Regular 3.90625000 output-scale div selectfont
0.6146 0.0000 0.0000 /exclam
0.9560 0.0000 0.0000 /s
1.2974 0.0000 0.0000 /n
1.2292 0.0000 0.0000 /o
0.6487 0.0000 0.0000 /i
0.7170 0.0000 0.0000 /t
6 print_glyphs
33.5774 -20.1352 moveto magfontemmentaler-18mDWo /noteheads.s2 glyphshow 
38.9090 -21.6352 moveto magfontemmentaler-18mDWo /noteheads.s2 glyphshow 
38.9090 -4.7100 moveto magfontemmentaler-18mDWo /noteheads.s2 glyphshow 
38.9090 -5.7100 moveto magfontemmentaler-18mDWo /noteheads.s2 glyphshow 
38.3061 -12.6523 moveto /TeXGyrePagella-Regular 3.90625000 output-scale div selectfont
0.6487 0.0000 0.0000 /l
1.7413 0.0000 0.0000 /A
2 print_glyphs
38.3061 -15.4523 moveto /TeXGyrePagella-Regular 3.90625000 output-scale div selectfont
0.6487 0.0000 0.0000 /l
1.7413 0.0000 0.0000 /A
2 print_glyphs
38.9090 -20.6352 moveto magfontemmentaler-18mDWo /noteheads.s2 glyphshow 
40.0281 -5.2100 moveto 0.0500 2.9237 -0.0250 0.7030 0.0800 draw_round_box
38.9740 -5.2100 moveto 0.0500 2.9237 -0.0250 -3.6267 0.0800 draw_round_box
35.8911 -7.2100 moveto magfontemmentaler-18mDWo /rests.2 glyphshow 
35.8911 -21.6352 moveto magfontemmentaler-18mDWo /rests.2 glyphshow 
35.8911 -25.6352 moveto magfontemmentaler-18mDWo /rests.2 glyphshow 
26.2769 -21.6352 moveto magfontemmentaler-18mDWo /rests.2 glyphshow 
26.2769 -25.6352 moveto magfontemmentaler-18mDWo /rests.2 glyphshow 
26.2769 -7.2100 moveto magfontemmentaler-18mDWo /rests.2 glyphshow 
24.0281 -5.2100 moveto 0.0500 2.7570 -0.0250 -3.9600 0.0800 draw_round_box
25.0822 -23.6352 moveto 0.0500 2.2570 -0.0250 3.2030 0.0800 draw_round_box
24.0281 -23.6352 moveto 0.0500 3.2570 -0.0250 -0.4600 0.0800 draw_round_box
26.2769 -3.2100 moveto magfontemmentaler-18mDWo /rests.2 glyphshow 
29.2948 -6.2100 moveto magfontemmentaler-18mDWo /noteheads.s2 glyphshow 
29.3598 -5.2100 moveto 0.0500 2.7570 -0.0250 -3.9600 0.0800 draw_round_box
30.4139 -5.2100 moveto 0.0500 3.0903 -0.0250 0.2030 0.0800 draw_round_box
29.2948 -22.1352 moveto magfontemmentaler-18mDWo /noteheads.s2 glyphshow 
29.2948 -20.1352 moveto magfontemmentaler-18mDWo /noteheads.s2 glyphshow 
28.4358 -15.4523 moveto /TeXGyrePagella-Regular 3.90625000 output-scale div selectfont
1.1267 0.0000 0.0000 /a
1.7755 0.0000 0.0000 /N
2 print_glyphs
28.1114 -12.6523 moveto /TeXGyrePagella-Regular 3.90625000 output-scale div selectfont
1.2974 0.0000 0.0000 /n
1.0584 0.0000 0.0000 /e
1.1950 0.0000 0.0000 /g
3 print_glyphs
29.2948 -5.2100 moveto magfontemmentaler-18mDWo /noteheads.s2 glyphshow 
30.4139 -23.6352 moveto 0.0500 2.2570 -0.0250 3.7030 0.0800 draw_round_box
stroke grestore
%%Trailer
%%EOF
