%% Generated by lilypond-book
%% Options: [indent=0\mm,line-width=348\pt]
\include "lilypond-book-preamble.ly"


% ****************************************************************
% Start cut-&-pastable-section
% ****************************************************************



\paper {
  indent = 0\mm
  line-width = 348\pt
  % offset the left padding, also add 1mm as lilypond creates cropped
  % images with a little space on the right
  line-width = #(- line-width (* mm  3.000000) (* mm 1))
}

\layout {
  
}





% ****************************************************************
% ly snippet:
% ****************************************************************
\sourcefilename "./laudate_dominum/laudate.ly"
\sourcefileline 0

%% LilyPond file generated by Denemo version 2.0.8

%%http://www.gnu.org/software/denemo/

\version "2.18.0"

CompactChordSymbols = {}
DenemoGlobalTranspose = \void #0
titledPiece = {}
AutoBarline = {}
AutoEndMovementBarline = \bar "|."

				% The music follows

MvmntIVoiceI = {
  \voiceOne
%{/home/john/Dropbox/cathsoc/lindisfarne2017/laudate_dominum/laudom.pdf:56:67:0%} a'4 a' a'\AutoBarline
  gis'8 fis' gis'2\AutoBarline
  a'4 a' a'\AutoBarline
  b'8 a' b'2\AutoBarline
				%5
  c''4 c'' r\AutoBarline
  b' b' r\AutoBarline
  
  \set Score.repeatCommands = #'((volta "1"))
  c''4 c'' d''\AutoBarline
  
%  \set Score.repeatCommands = #'((volta #f))
  b'2. 
%  \set Score.repeatCommands = #'((volta #f))
  \bar ":|."         
  \set Score.repeatCommands = #'((volta "2"))
  a'4 a' gis'\AutoBarline
				%10
  a'2. 
  \set Score.repeatCommands = #'((volta #f))
  \bar ":|." % \bar ".|:"
}


MvmntIVoiceII = {
  \voiceTwo
%{/home/john/Dropbox/cathsoc/lindisfarne2017/laudate_dominum/laudom.pdf:56:67:0%} e'4 e' e'\AutoBarline
  e'8 d' e'2\AutoBarline
  e'4 e' e'\AutoBarline
  g'8 f' g'2\AutoBarline
				%5
  g'4 g' r\AutoBarline
  g' g' r\AutoBarline
  
  \set Score.repeatCommands = #'((volta "1"))
  a'4 f' d'\AutoBarline
  
%  \set Score.repeatCommands = #'((volta #f))
  e'2. 
  \set Score.repeatCommands = #'((volta #f))
  \bar ":|."         
  \set Score.repeatCommands = #'((volta "2"))
  e'4 f' e'\AutoBarline
				%10
  c'2.   \bar ":|."}


MvmntIVoiceIILyricsVerseI = \lyricmode { 
  Lau -- da -- te Do -- mi -- num, Lau -- da -- te Do -- mi -- num, om -- nes gen -- tes Al -- le -- lu -- ia! Al -- le -- lu -- ia! 
}
EnglishLyrics = \lyricmode {
  (Sing, praise and bless the Lord.  Sing, praise and bless the Lord. Peo -- ples! Na -- tions! Al -- le -- lu -- ia! Al -- le -- lu -- ia!)
}


MvmntIVoiceIII = {
  \voiceThree
%{/home/john/Dropbox/cathsoc/lindisfarne2017/laudate_dominum/laudom.pdf:56:67:0%} c'4 c' c'\AutoBarline
  b8 a b2\AutoBarline
  c'4 c' c'\AutoBarline
  d'8 c' d'2\AutoBarline
				%5
  c'4 c' r\AutoBarline
  d' d' r\AutoBarline
  
  \set Score.repeatCommands = #'((volta "1"))
  c'4 c' d'\AutoBarline
  
%  \set Score.repeatCommands = #'((volta #f))
  b2. 
  \set Score.repeatCommands = #'((volta #f))
  \bar ":|."         
  \set Score.repeatCommands = #'((volta "2"))
  c'4 d'8( c') b4\AutoBarline
				%10
  a2. \bar ":|."}


MvmntIVoiceIV = {
  \voiceFour
%{/home/john/Dropbox/cathsoc/lindisfarne2017/laudate_dominum/laudom.pdf:56:67:0%} a4 a a\AutoBarline
  e8 e e2\AutoBarline
  a4 a a\AutoBarline
  g8 g g2\AutoBarline
				%5
  c'4 c' r\AutoBarline
  g g r\AutoBarline
  
  \set Score.repeatCommands = #'((volta "1"))
  a4 f d\AutoBarline
  
 % \set Score.repeatCommands = #'((volta #f))
  e2. 
  \set Score.repeatCommands = #'((volta #f))
  \bar ":|."         
  \set Score.repeatCommands = #'((volta "2"))
  a4 d e\AutoBarline
				%10
  a,2. \bar ":|."}



MvmntIVoiceIIVerseIContext = \context Lyrics = MvmntIVoiceIIVerseI \lyricsto VoiceIIMvmntI \MvmntIVoiceIILyricsVerseI



				%Default Score Layout
#(set-global-staff-size 20)
\paper {
  myStaffSize = #18
    #(define fonts
    (make-pango-font-tree "TeX Gyre Pagella"
                          "TeX Gyre Pagella"
     "TeX Gyre Pagella"
     (/ myStaffSize 20)
                           ))
   indent = 0\cm} 

\score { %Start of Movement
  <<

				%Start of Staff
    \new Staff = "SA_"  << 
      \new Voice = "VoiceIMvmntI"  { 
	\clef treble    \key c \major    \time 3/4   \MvmntIVoiceI
      } %End of voice
      \new Voice = "VoiceIIMvmntI"  { 
	\MvmntIVoiceII
      } %End of voice

    >> %End of Staff

    \new Lyrics = MvmntIVoiceIIVerseI

    \MvmntIVoiceIIVerseIContext
    \new Lyrics = EnglishLyrics \lyricsto VoiceIMvmntI \EnglishLyrics
				%Start of Staff
    \new Staff = "TB"  << 
      \new Voice = "VoiceIIIMvmntI"  { 
	\clef bass    \key c \major    \time 3/4   \MvmntIVoiceIII
      } %End of voice
      \new Voice = "VoiceIVMvmntI"  { 
	\MvmntIVoiceIV
      } %End of voice

    >> %End of Staff

  >>
  \midi { }
  \layout { }

} %End of Movement






% ****************************************************************
% end ly snippet
% ****************************************************************
