%!PS-Adobe-2.0 EPSF-2.0
%%Creator: LilyPond 2.18.2
%%BoundingBox: -9 -266 336 1
%%Orientation: Portrait
%%DocumentSuppliedResources: font Emmentaler-11
%%DocumentSuppliedResources: font Emmentaler-18
%%DocumentSuppliedResources: font TeXGyrePagella-Regular
%%EndComments
%%BeginProlog
/lilypond-datadir where {pop} {userdict /lilypond-datadir (/usr/share/lilypond/2.18.2) put } ifelse
%%BeginFont: Emmentaler-11
lilypond-datadir (/fonts/otf/emmentaler-11.otf) concatstrings (r) file .loadfont
%%EndFont

%%BeginFont: Emmentaler-18
lilypond-datadir (/fonts/otf/emmentaler-18.otf) concatstrings (r) file .loadfont
%%EndFont

%%BeginFont: Emmentaler-18
lilypond-datadir (/fonts/otf/emmentaler-18.otf) concatstrings (r) file .loadfont
%%EndFont

%%BeginFont: TeXGyrePagella-Regular
(/usr/share/texmf/fonts/opentype/public/tex-gyre/texgyrepagella-regular.otf) (r) file .loadfont
%%EndFont

/magfontemmentaler-18mDWo { /Emmentaler-18 6.3263 output-scale div selectfont } bind def
/lily-output-units 2.83464566929134 def %% millimeter
/staff-line-thickness 0.1 def
/line-width 67.3237795275591 def
/paper-size (a4) def
/staff-height 4.0 def
/output-scale 1.75729901757299 def
/page-height 169.00937007874 def
/page-width 119.50157480315 def
%%BeginResource: procset (music-drawing-routines.ps) 1 0
%!PS-Adobe-2.0
%
% Functions for direct and embedded PostScript

% Careful with double % as comment prefix.
% Any %%X comment is interpreted as DSC comments.

% TODO: use dicts or prefixes to prevent namespace pollution.

/pdfmark where
{pop} {userdict /pdfmark /cleartomark load put} ifelse


% llx lly urx ury URI
/mark_URI
{
    /uri exch def
    /ury exch def
    /urx exch def
    /lly exch def
    /llx exch def
    [
	/Rect [ llx lly urx ury ]
	
	/Border [ 0 0 0 ]

        /Action
	    <<
		/Subtype /URI
		/URI uri
	    >>
        /Subtype /Link
    /ANN
    pdfmark
}
bind def

% llx lly urx ury page
/mark_page_link
{
    /page exch def
    /ury exch def
    /urx exch def
    /lly exch def
    /llx exch def
    [
        /Rect [ llx lly urx ury ]
        /Border [ 0 0 0 ]
        /Page page
        /Subtype /Link
    /ANN
    pdfmark
}
bind def

% from adobe tech note 5002.
/BeginEPSF { %def
    /b4_Inc_state save def % Save state for cleanup
    /dict_count countdictstack def % Count objects on dict stack
    /op_count count 1 sub def % Count objects on operand stack
    userdict begin % Push userdict on dict stack
    /showpage { } def % Redefine showpage, { } = null proc
    0 setgray 0 setlinecap % Prepare graphics state
    1 setlinewidth 0 setlinejoin
    10 setmiterlimit [ ] 0 setdash newpath
    false setoverprint
} bind def

/EndEPSF { %def
  count op_count sub {pop} repeat % Clean up stacks
  countdictstack dict_count sub {end} repeat
  b4_Inc_state restore
} bind def

/stroke_and_fill? {
    {
	gsave
	    false setstrokeadjust
	    stroke
	grestore
	fill
    }
    {
	stroke
    }
    ifelse
} bind def

/vector_add { % x1 y1 x2 y2 vector_add x1+x2 y1+y2
	exch
	4 1 roll
	add
	3 1 roll
	add
	exch
} bind def

/draw_round_box % width height x y blot
{
    0 max setlinewidth
    matrix currentmatrix 5 1 roll
    currentpoint translate newpath translate
    2 copy 0 min exch 0 min exch translate
    abs exch abs exch
    currentlinewidth 0 eq
    { % straight corners
	2 copy 2 mul gt
	{ % horizontal
	    0 1 index 2 div moveto
	    setlinewidth
	    0 rlineto
	    0 setlinecap
	    stroke
	}
	{
	    2 copy exch 2 mul gt
	    { % vertical
		1 index 2 div 0 moveto
		exch setlinewidth
		0 exch rlineto
		0 setlinecap
		stroke
	    }
	    {
		0 0 4 2 roll rectfill
	    }
	    ifelse
	}
	ifelse
    }
    { % rounded corners
	2 copy 0 eq exch 0 eq or
	{ % line shape
	    0 0 moveto
	    rlineto
	    1 setlinecap
	    stroke
	    0 setlinecap
	}
	{ % full shape
	    currentstrokeadjust {
		currentlinewidth 2 div
		0 0 2 index 180 270 arc
		2 index 0 2 index 270 360 arc
		3 copy 0 90 arc
		0 2 index 3 -1 roll 90 180 arc
		closepath
		2 copy 2 mul gt
		{ % horizontal
		    2 copy add currentlinewidth add 10 add % large enough
		    0 1 index neg moveto
		    2 index 1 index neg lineto
		    2 index 1 index lineto
		    0 exch lineto closepath
		    gsave clip newpath
		    0 1 index 2 div moveto
		    currentlinewidth add setlinewidth
		    0 rlineto
		    2 setlinecap
		    stroke
		    grestore
		}
		{
		    2 copy exch 2 mul gt
		    { % vertical
			2 copy add currentlinewidth add 10 add % large enough
			dup neg 0 moveto
			dup 0 lineto
			dup 2 index lineto
			neg 1 index lineto closepath
			gsave clip newpath
			1 index 2 div 0 moveto
			exch currentlinewidth add setlinewidth
			0 exch rlineto
			2 setlinecap
			stroke
			grestore
		    }
		    {
			pop pop
			fill
		    }
		    ifelse
		}
		ifelse
		newpath
	    }
	    {
		1 setlinejoin
		0 0 4 2 roll 4 copy rectstroke rectfill
	    }
	    ifelse
	}
	ifelse
    }
    ifelse
    setmatrix
} bind def

/draw_polygon % fill? x(n) y(n) x(n-1) y(n-1) ... x(0) y(0) n blot
{
	setlinewidth %set to blot

	0 setlinecap
	1 setlinejoin

	3 1 roll
	/polygon_x
	currentpoint
	/polygon_y exch def
	def
	rmoveto % x(0) y(0)
	{ polygon_x polygon_y vector_add lineto } repeat % n times
	closepath
	stroke_and_fill?
} bind def

/draw_circle % filled? radius thickness draw_circle
{
	setlinewidth	% f? r
	currentpoint	% f? r x0 y0
	3 2 roll	% f? x0 y0 r
	dup 0 rmoveto
	0 360 arc closepath
	stroke_and_fill?
} bind def

/draw_ellipse % filled? x-radius y-radius thickness draw_ellipse
{
  setlinewidth % f? x-r y-r
  /savematrix matrix currentmatrix def
  scale % f?
  currentpoint
  1 0 rmoveto
  1 0 360  arc closepath
  savematrix setmatrix
  stroke_and_fill?
} bind def

/draw_partial_ellipse % filled connect x-radius y-radius startangle endangle thickness draw_partial_ellipse
% Note that filled is not boolean to permit for different graylevels (ie for trill keys)
{
  gsave
  currentpoint translate
  /thickness exch def
  /endangle exch def
  /startangle exch def
  /y_radius exch def
  /x_radius exch def
  /endrad x_radius y_radius mul
    x_radius x_radius mul
    endangle cos endangle cos mul mul
    y_radius y_radius mul
    endangle sin endangle sin mul mul add sqrt div def
  /endangle endangle sin endrad mul y_radius div
    endangle cos endrad mul x_radius div atan def
  /startrad x_radius y_radius mul
    x_radius x_radius mul
      startangle cos startangle cos mul mul
    y_radius y_radius mul
      startangle sin startangle sin mul mul add sqrt div def
  /startangle startangle sin startrad mul y_radius div
    startangle cos startrad mul x_radius div atan def
  /connect exch def
  /filled exch def
  /savematrix matrix currentmatrix def
  thickness setlinewidth
  x_radius y_radius scale
  startangle cos startangle sin moveto
  0 0 1 startangle
    startangle endangle eq { endangle 360 add } { endangle } ifelse
    arc
  connect {
    startangle cos startangle sin moveto endangle cos endangle sin lineto }
    if
  savematrix setmatrix filled stroke_and_fill?
  grestore
} bind def

/draw_line % dx dy x1 y1 thickness draw_line
{
	setlinewidth % dx dy x1 y1
	1 setlinecap
	rmoveto % dx dy
	rlineto
	stroke
} bind def

/draw_dashed_line % dx dy thickness dashpattern offset draw_dashed_line
{
	1 setlinecap
	setdash % dx dy thickness
	setlinewidth %dx dy
	rlineto
	stroke
	[] 0 setdash % reset dash pattern
} bind def

/print_glyphs % w dx dy glyph print_glyphs
{
	{
		currentpoint %w dx dy glyph x0 y0
		5 2 roll %w x0 y0 dx dy glyph
		3 1 roll %w x0 y0 glyph dx dy
		rmoveto %w x0 y0 glyph
		glyphshow %w x0 y0
		moveto %w
		0 rmoveto
	}repeat
}bind def
%end music-drawing-routines.ps

%%EndResource
%%BeginResource: procset (lilyponddefs.ps) 1 0
%!PS-Adobe-2.0: lilyponddefs.ps
%
% Functions for direct PostScript output

% /setgray { 1 add } bind def

/set-ps-scale-to-lily-scale {
	lily-output-units output-scale mul dup scale
} bind def


/init-paper {
	gsave
	clippath pathbbox newpath
	/paper-height exch def
	/paper-width exch def pop pop pop
	% FIXME
	/top-margin 2 def
	paper-width line-width sub 2 div /left-margin exch def
	grestore
} bind def

/init-lilypond-parameters {
	staff-line-thickness setlinewidth
	staff-height init-paper
} bind def


% end lilyponddefs.ps

%%EndResource
%%EndProlog
%%BeginSetup
init-lilypond-parameters
%%EndSetup

/mark_page_link { pop pop pop pop pop } bind def
gsave set-ps-scale-to-lily-scale
0.0000 -5.2984 moveto 67.2238 0.0000 0.0500 0.0000 0.1000 draw_line
0.0000 -4.2984 moveto 67.2238 0.0000 0.0500 0.0000 0.1000 draw_line
0.0000 -3.2984 moveto 67.2238 0.0000 0.0500 0.0000 0.1000 draw_line
0.0000 -2.2984 moveto 67.2238 0.0000 0.0500 0.0000 0.1000 draw_line
0.0000 -1.2984 moveto 67.2238 0.0000 0.0500 0.0000 0.1000 draw_line
27.2844 -3.2984 moveto 0.1900 4.0000 0.0000 -2.0000 0.0000 draw_round_box
67.1338 -3.2984 moveto 0.1900 4.0000 0.0000 -2.0000 0.0000 draw_round_box
67.1338 -20.3341 moveto 0.1900 4.0000 0.0000 -2.0000 0.0000 draw_round_box
27.2844 -20.3341 moveto 0.1900 4.0000 0.0000 -2.0000 0.0000 draw_round_box
46.9676 -3.2984 moveto 0.1900 4.0000 0.0000 -2.0000 0.0000 draw_round_box
46.9676 -20.3341 moveto 0.1900 4.0000 0.0000 -2.0000 0.0000 draw_round_box
0.0000 -17.3341 moveto 1.5761 0.0000 8.2380 0.0000 0.2000 draw_round_box
0.0000 -17.3341 moveto 1.5761 0.0000 15.9588 0.0000 0.2000 draw_round_box
0.0000 -17.3341 moveto 1.5761 0.0000 22.7577 0.0000 0.2000 draw_round_box
0.0000 -17.3341 moveto 1.5761 0.0000 48.4630 0.0000 0.2000 draw_round_box
0.0000 -17.3341 moveto 1.5761 0.0000 55.8082 0.0000 0.2000 draw_round_box
0.0000 -17.3341 moveto 1.5761 0.0000 62.6071 0.0000 0.2000 draw_round_box
0.0000 -22.3341 moveto 67.2238 0.0000 0.0500 0.0000 0.1000 draw_line
0.0000 -21.3341 moveto 67.2238 0.0000 0.0500 0.0000 0.1000 draw_line
0.0000 -20.3341 moveto 67.2238 0.0000 0.0500 0.0000 0.1000 draw_line
0.0000 -19.3341 moveto 67.2238 0.0000 0.0500 0.0000 0.1000 draw_line
0.0000 -18.3341 moveto 67.2238 0.0000 0.0500 0.0000 0.1000 draw_line
48.6590 -18.3341 moveto magfontemmentaler-18mDWo /noteheads.s2 glyphshow 
48.7240 -3.2984 moveto 0.0500 2.4237 -0.0250 -4.6267 0.0800 draw_round_box
49.7781 -3.2984 moveto 0.0500 3.2570 -0.0250 -0.2970 0.0800 draw_round_box
48.6590 -17.3341 moveto magfontemmentaler-18mDWo /noteheads.s2 glyphshow 
46.8098 -12.9285 moveto /TeXGyrePagella-Regular 3.90625000 output-scale div selectfont
0.5463 0.0000 0.0000 /comma
1.2292 0.0000 0.0000 /g
1.2974 0.0000 0.0000 /n
0.6487 0.0000 0.0000 /i
1.1609 0.0000 0.0000 /S
5 print_glyphs
47.3390 -10.1285 moveto /TeXGyrePagella-Regular 3.90625000 output-scale div selectfont
1.3316 0.0000 0.0000 /u
1.1267 0.0000 0.0000 /a
1.3657 0.0000 0.0000 /L
3 print_glyphs
48.6590 -5.2984 moveto magfontemmentaler-18mDWo /noteheads.s2 glyphshow 
48.6590 -3.7984 moveto magfontemmentaler-18mDWo /noteheads.s2 glyphshow 
48.7240 -20.3341 moveto 0.0500 3.2570 -0.0250 -1.4600 0.0800 draw_round_box
49.7781 -20.3341 moveto 0.0500 2.2570 -0.0250 3.2030 0.0800 draw_round_box
40.1608 -5.2984 moveto magfontemmentaler-18mDWo /noteheads.s1 glyphshow 
40.1608 -4.2984 moveto magfontemmentaler-18mDWo /noteheads.s1 glyphshow 
34.8865 -20.3341 moveto 0.0500 3.0670 -0.0250 -2.7700 0.0800 draw_round_box
38.2275 -10.1285 moveto /TeXGyrePagella-Regular 3.90625000 output-scale div selectfont
0.5463 0.0000 0.0000 /comma
1.9462 0.0000 0.0000 /m
1.3316 0.0000 0.0000 /u
1.2974 0.0000 0.0000 /n
4 print_glyphs
35.9406 -20.3341 moveto 0.0500 2.2608 -0.0250 2.2030 0.0800 draw_round_box
33.4815 -4.7984 moveto magfontemmentaler-18mDWo /accidentals.sharp glyphshow 
12.8893 -10.1285 moveto 0.5800 0.0500 0.0400 0.4600 0.0800 draw_round_box
40.2258 -20.3341 moveto 0.0500 3.1901 -0.0250 -2.9600 0.0800 draw_round_box
41.3506 -20.3341 moveto 0.0500 2.1901 -0.0250 2.7699 0.0800 draw_round_box
40.2258 -3.2984 moveto 0.0500 2.3568 -0.0250 -4.6267 0.0800 draw_round_box
41.3506 -3.2984 moveto 0.0500 3.1901 -0.0250 -0.7301 0.0800 draw_round_box
40.1608 -19.8341 moveto magfontemmentaler-18mDWo /noteheads.s1 glyphshow 
40.1608 -17.8341 moveto magfontemmentaler-18mDWo /noteheads.s1 glyphshow 
38.1080 -12.9285 moveto /TeXGyrePagella-Regular 3.90625000 output-scale div selectfont
0.5463 0.0000 0.0000 /period
1.3657 0.0000 0.0000 /d
0.8536 0.0000 0.0000 /r
1.2292 0.0000 0.0000 /o
1.3657 0.0000 0.0000 /L
5 print_glyphs
62.8681 -20.3341 moveto 0.0500 3.2570 -0.0250 -1.4600 0.0800 draw_round_box
63.9222 -20.3341 moveto 0.0500 2.2570 -0.0250 3.2030 0.0800 draw_round_box
30.7571 -1.2984 moveto true 5.2086 0.0100 5.2086 -0.3900 0.0400 -0.2000 0.0400 0.2000 3 0.0800 draw_polygon
19.9955 -10.1285 moveto 0.5800 0.0500 0.0400 0.4600 0.0800 draw_round_box
32.6097 -10.1285 moveto 0.5800 0.0500 0.0400 0.4600 0.0800 draw_round_box
37.1392 -10.1285 moveto 0.5800 0.0500 0.0400 0.4600 0.0800 draw_round_box
29.7030 -7.7984 moveto true 5.2086 -0.1100 5.2086 -0.5100 0.0400 -0.2000 0.0400 0.2000 3 0.0800 draw_polygon
30.7571 -15.5241 moveto true 5.2086 -0.1100 5.2086 -0.5100 0.0400 -0.2000 0.0400 0.2000 3 0.0800 draw_polygon
29.7030 -23.1441 moveto true 5.2086 0.2000 5.2086 -0.2000 0.0400 -0.2000 0.0400 0.2000 3 0.0800 draw_polygon
52.9265 -10.1285 moveto 0.5800 0.0500 0.0400 0.4600 0.0800 draw_round_box
59.8449 -10.1285 moveto 0.5800 0.0500 0.0400 0.4600 0.0800 draw_round_box
57.1233 -20.3341 moveto 0.0500 2.2570 -0.0250 3.2030 0.0800 draw_round_box
56.0692 -3.2984 moveto 0.0500 2.4237 -0.0250 -4.6267 0.0800 draw_round_box
56.0692 -20.3341 moveto 0.0500 3.2570 -0.0250 -1.4600 0.0800 draw_round_box
57.1233 -3.2984 moveto 0.0500 3.2570 -0.0250 -0.2970 0.0800 draw_round_box
56.0042 -18.3341 moveto magfontemmentaler-18mDWo /noteheads.s2 glyphshow 
56.0042 -17.3341 moveto magfontemmentaler-18mDWo /noteheads.s2 glyphshow 
53.6087 -12.9285 moveto /TeXGyrePagella-Regular 3.90625000 output-scale div selectfont
1.0584 0.0000 0.0000 /e
0.9560 0.0000 0.0000 /s
0.6487 0.0000 0.0000 /i
1.1267 0.0000 0.0000 /a
0.8536 0.0000 0.0000 /r
1.3316 0.0000 0.0000 /p
6 print_glyphs
55.3500 -10.1285 moveto /TeXGyrePagella-Regular 3.90625000 output-scale div selectfont
1.1267 0.0000 0.0000 /a
1.3657 0.0000 0.0000 /d
2 print_glyphs
56.0042 -5.2984 moveto magfontemmentaler-18mDWo /noteheads.s2 glyphshow 
56.0042 -3.7984 moveto magfontemmentaler-18mDWo /noteheads.s2 glyphshow 
62.8031 -17.3341 moveto magfontemmentaler-18mDWo /noteheads.s2 glyphshow 
62.8681 -3.2984 moveto 0.0500 2.4237 -0.0250 -4.6267 0.0800 draw_round_box
63.9222 -3.2984 moveto 0.0500 3.2570 -0.0250 -0.2970 0.0800 draw_round_box
62.8031 -18.3341 moveto magfontemmentaler-18mDWo /noteheads.s2 glyphshow 
61.5002 -12.9285 moveto /TeXGyrePagella-Regular 3.90625000 output-scale div selectfont
1.3657 0.0000 0.0000 /d
1.2974 0.0000 0.0000 /n
1.1267 0.0000 0.0000 /a
3 print_glyphs
62.5074 -10.1285 moveto /TeXGyrePagella-Regular 3.90625000 output-scale div selectfont
1.0584 0.0000 0.0000 /e
0.7170 0.0000 0.0000 /t
2 print_glyphs
62.8031 -5.2984 moveto magfontemmentaler-18mDWo /noteheads.s2 glyphshow 
62.8031 -3.7984 moveto magfontemmentaler-18mDWo /noteheads.s2 glyphshow 
16.1548 -5.2984 moveto magfontemmentaler-18mDWo /noteheads.s2 glyphshow 
16.2198 -3.2984 moveto 0.0500 2.4237 -0.0250 -4.6267 0.0800 draw_round_box
17.2739 -3.2984 moveto 0.0500 3.2570 -0.0250 -0.2970 0.0800 draw_round_box
16.1548 -18.3341 moveto magfontemmentaler-18mDWo /noteheads.s2 glyphshow 
16.1548 -17.3341 moveto magfontemmentaler-18mDWo /noteheads.s2 glyphshow 
13.7593 -12.9285 moveto /TeXGyrePagella-Regular 3.90625000 output-scale div selectfont
1.0584 0.0000 0.0000 /e
0.9560 0.0000 0.0000 /s
0.6487 0.0000 0.0000 /i
1.1267 0.0000 0.0000 /a
0.8536 0.0000 0.0000 /r
1.3316 0.0000 0.0000 /p
6 print_glyphs
15.5006 -10.1285 moveto /TeXGyrePagella-Regular 3.90625000 output-scale div selectfont
1.1267 0.0000 0.0000 /a
1.3657 0.0000 0.0000 /d
2 print_glyphs
16.1548 -3.7984 moveto magfontemmentaler-18mDWo /noteheads.s2 glyphshow 
22.9537 -18.3341 moveto magfontemmentaler-18mDWo /noteheads.s2 glyphshow 
22.9537 -17.3341 moveto magfontemmentaler-18mDWo /noteheads.s2 glyphshow 
22.6580 -10.1285 moveto /TeXGyrePagella-Regular 3.90625000 output-scale div selectfont
1.0584 0.0000 0.0000 /e
0.7170 0.0000 0.0000 /t
2 print_glyphs
22.9537 -5.2984 moveto magfontemmentaler-18mDWo /noteheads.s2 glyphshow 
22.9537 -3.7984 moveto magfontemmentaler-18mDWo /noteheads.s2 glyphshow 
16.2198 -20.3341 moveto 0.0500 3.2570 -0.0250 -1.4600 0.0800 draw_round_box
17.2739 -20.3341 moveto 0.0500 2.2570 -0.0250 3.2030 0.0800 draw_round_box
8.4340 -3.7984 moveto magfontemmentaler-18mDWo /noteheads.s2 glyphshow 
0.8000 -19.3341 moveto magfontemmentaler-18mDWo /clefs.F glyphshow 
8.4340 -18.3341 moveto magfontemmentaler-18mDWo /noteheads.s2 glyphshow 
8.4340 -17.3341 moveto magfontemmentaler-18mDWo /noteheads.s2 glyphshow 
6.2092 -12.9285 moveto /TeXGyrePagella-Regular 3.90625000 output-scale div selectfont
0.5463 0.0000 0.0000 /comma
1.2292 0.0000 0.0000 /g
1.2974 0.0000 0.0000 /n
0.6487 0.0000 0.0000 /i
1.1609 0.0000 0.0000 /S
0.7512 0.0000 0.0000 /parenleft
6 print_glyphs
7.1140 -10.1285 moveto /TeXGyrePagella-Regular 3.90625000 output-scale div selectfont
1.3316 0.0000 0.0000 /u
1.1267 0.0000 0.0000 /a
1.3657 0.0000 0.0000 /L
3 print_glyphs
5.0000 -5.1421 moveto /Emmentaler-18 6.32617188 output-scale div selectfont
1.4340 0.0000 0.0000 /four
1 print_glyphs
5.1195 -3.2984 moveto /Emmentaler-18 6.32617188 output-scale div selectfont
1.1950 0.0000 0.0000 /three
1 print_glyphs
0.8000 -4.2984 moveto magfontemmentaler-18mDWo /clefs.G glyphshow 
8.4340 -5.2984 moveto magfontemmentaler-18mDWo /noteheads.s2 glyphshow 
-0.0600 -11.8163 moveto 0.0600 21.0357 0.0500 -10.5179 0.1000 draw_round_box
8.4990 -20.3341 moveto 0.0500 3.2570 -0.0250 -1.4600 0.0800 draw_round_box
9.5531 -20.3341 moveto 0.0500 2.2570 -0.0250 3.2030 0.0800 draw_round_box
21.6508 -12.9285 moveto /TeXGyrePagella-Regular 3.90625000 output-scale div selectfont
1.3657 0.0000 0.0000 /d
1.2974 0.0000 0.0000 /n
1.1267 0.0000 0.0000 /a
3 print_glyphs
8.4990 -3.2984 moveto 0.0500 2.4237 -0.0250 -4.6267 0.0800 draw_round_box
9.5531 -3.2984 moveto 0.0500 3.2570 -0.0250 -0.2970 0.0800 draw_round_box
5.0000 -22.1778 moveto /Emmentaler-18 6.32617188 output-scale div selectfont
1.4340 0.0000 0.0000 /four
1 print_glyphs
5.1195 -20.3341 moveto /Emmentaler-18 6.32617188 output-scale div selectfont
1.1950 0.0000 0.0000 /three
1 print_glyphs
29.7680 -20.3341 moveto 0.0500 3.0670 -0.0250 -2.7700 0.0800 draw_round_box
30.8221 -20.3341 moveto 0.0500 2.0631 -0.0250 2.7030 0.0800 draw_round_box
28.3630 -4.2984 moveto magfontemmentaler-18mDWo /accidentals.sharp glyphshow 
24.0728 -3.2984 moveto 0.0500 3.2570 -0.0250 -0.2970 0.0800 draw_round_box
33.8601 -12.9285 moveto /TeXGyrePagella-Regular 3.90625000 output-scale div selectfont
1.0584 0.0000 0.0000 /e
1.2974 0.0000 0.0000 /h
0.7512 0.0000 0.0000 /t
3 print_glyphs
34.8865 -3.2984 moveto 0.0500 2.0631 -0.0250 -4.7662 0.0800 draw_round_box
35.9406 -3.2984 moveto 0.0500 3.0693 -0.0250 -1.2970 0.0800 draw_round_box
34.8215 -19.8341 moveto magfontemmentaler-18mDWo /noteheads.s2 glyphshow 
34.8215 -18.3341 moveto magfontemmentaler-18mDWo /noteheads.s2 glyphshow 
34.1161 -10.1285 moveto /TeXGyrePagella-Regular 3.90625000 output-scale div selectfont
0.6487 0.0000 0.0000 /i
1.9462 0.0000 0.0000 /m
2 print_glyphs
34.8215 -5.7984 moveto magfontemmentaler-18mDWo /noteheads.s2 glyphshow 
34.8215 -4.7984 moveto magfontemmentaler-18mDWo /noteheads.s2 glyphshow 
23.0187 -20.3341 moveto 0.0500 3.2570 -0.0250 -1.4600 0.0800 draw_round_box
29.7030 -5.2984 moveto magfontemmentaler-18mDWo /noteheads.s2 glyphshow 
29.7030 -4.2984 moveto magfontemmentaler-18mDWo /noteheads.s2 glyphshow 
23.0187 -3.2984 moveto 0.0500 2.4237 -0.0250 -4.6267 0.0800 draw_round_box
28.8269 -10.1285 moveto /TeXGyrePagella-Regular 3.90625000 output-scale div selectfont
1.2292 0.0000 0.0000 /o
1.7072 0.0000 0.0000 /D
2 print_glyphs
24.0728 -20.3341 moveto 0.0500 2.2570 -0.0250 3.2030 0.0800 draw_round_box
27.8708 -12.9285 moveto /TeXGyrePagella-Regular 3.90625000 output-scale div selectfont
0.9560 0.0000 0.0000 /s
0.9560 0.0000 0.0000 /s
1.0584 0.0000 0.0000 /e
0.6487 0.0000 0.0000 /l
1.2292 0.0000 0.0000 /b
5 print_glyphs
29.7680 -3.2984 moveto 0.0500 2.2608 -0.0250 -4.4638 0.0800 draw_round_box
30.8221 -3.2984 moveto 0.0500 2.7546 -0.0250 -0.7970 0.0800 draw_round_box
29.7030 -19.8341 moveto magfontemmentaler-18mDWo /noteheads.s2 glyphshow 
29.7030 -17.8341 moveto magfontemmentaler-18mDWo /noteheads.s2 glyphshow 
0.0000 -32.5941 moveto 67.2238 0.0000 0.0500 0.0000 0.1000 draw_line
0.0000 -31.5941 moveto 67.2238 0.0000 0.0500 0.0000 0.1000 draw_line
0.0000 -30.5941 moveto 67.2238 0.0000 0.0500 0.0000 0.1000 draw_line
0.0000 -29.5941 moveto 67.2238 0.0000 0.0500 0.0000 0.1000 draw_line
0.0000 -28.5941 moveto 67.2238 0.0000 0.0500 0.0000 0.1000 draw_line
37.9345 -30.5941 moveto 0.1900 4.0000 0.0000 -2.0000 0.0000 draw_round_box
37.9345 -49.0193 moveto 0.1900 4.0000 0.0000 -2.0000 0.0000 draw_round_box
28.3203 -49.0193 moveto 0.1900 4.0000 0.0000 -2.0000 0.0000 draw_round_box
28.3203 -30.5941 moveto 0.1900 4.0000 0.0000 -2.0000 0.0000 draw_round_box
45.7586 -30.5941 moveto 0.1900 4.0000 0.0000 -2.0000 0.0000 draw_round_box
45.7586 -49.0193 moveto 0.1900 4.0000 0.0000 -2.0000 0.0000 draw_round_box
50.6897 -30.0941 moveto magfontemmentaler-18mDWo /dots.dot glyphshow 
50.6897 -31.0941 moveto magfontemmentaler-18mDWo /dots.dot glyphshow 
51.8811 -30.5941 moveto 0.6000 4.0000 0.0000 -2.0000 0.0000 draw_round_box
51.3911 -30.5941 moveto 0.1900 4.0000 0.0000 -2.0000 0.0000 draw_round_box
50.6897 -48.5193 moveto magfontemmentaler-18mDWo /dots.dot glyphshow 
50.6897 -49.5193 moveto magfontemmentaler-18mDWo /dots.dot glyphshow 
51.8811 -49.0193 moveto 0.6000 4.0000 0.0000 -2.0000 0.0000 draw_round_box
51.3911 -49.0193 moveto 0.1900 4.0000 0.0000 -2.0000 0.0000 draw_round_box
18.6726 -49.0193 moveto 0.1900 4.0000 0.0000 -2.0000 0.0000 draw_round_box
18.6726 -30.5941 moveto 0.1900 4.0000 0.0000 -2.0000 0.0000 draw_round_box
61.3015 -30.5941 moveto 0.1900 4.0000 0.0000 -2.0000 0.0000 draw_round_box
61.3015 -49.0193 moveto 0.1900 4.0000 0.0000 -2.0000 0.0000 draw_round_box
65.5324 -30.0941 moveto magfontemmentaler-18mDWo /dots.dot glyphshow 
65.5324 -31.0941 moveto magfontemmentaler-18mDWo /dots.dot glyphshow 
66.7238 -30.5941 moveto 0.6000 4.0000 0.0000 -2.0000 0.0000 draw_round_box
66.2338 -30.5941 moveto 0.1900 4.0000 0.0000 -2.0000 0.0000 draw_round_box
65.5324 -48.5193 moveto magfontemmentaler-18mDWo /dots.dot glyphshow 
65.5324 -49.5193 moveto magfontemmentaler-18mDWo /dots.dot glyphshow 
66.7238 -49.0193 moveto 0.6000 4.0000 0.0000 -2.0000 0.0000 draw_round_box
66.2338 -49.0193 moveto 0.1900 4.0000 0.0000 -2.0000 0.0000 draw_round_box
0.0000 -46.0193 moveto 1.5761 0.0000 5.6040 0.0000 0.2000 draw_round_box
0.0000 -46.0193 moveto 1.5761 0.0000 10.0317 0.0000 0.2000 draw_round_box
0.0000 -46.0193 moveto 1.6821 0.0000 14.6624 0.0000 0.2000 draw_round_box
0.0000 -46.0193 moveto 1.5761 0.0000 19.6041 0.0000 0.2000 draw_round_box
0.0000 -46.0193 moveto 1.5761 0.0000 19.6041 0.0000 0.2000 draw_round_box
0.0000 -46.0193 moveto 1.5761 0.0000 23.7671 0.0000 0.2000 draw_round_box
0.0000 -46.0193 moveto 1.5761 0.0000 23.7671 0.0000 0.2000 draw_round_box
0.0000 -46.0193 moveto 1.5761 0.0000 29.0988 0.0000 0.2000 draw_round_box
0.0000 -46.0193 moveto 1.5761 0.0000 33.3813 0.0000 0.2000 draw_round_box
0.0000 -46.0193 moveto 1.5761 0.0000 38.7130 0.0000 0.2000 draw_round_box
0.0000 -46.0193 moveto 1.5761 0.0000 40.9605 0.0000 0.2000 draw_round_box
0.0000 -46.0193 moveto 1.5761 0.0000 43.2079 0.0000 0.2000 draw_round_box
0.0000 -46.0193 moveto 1.5761 0.0000 52.9129 0.0000 0.2000 draw_round_box
0.0000 -46.0193 moveto 1.5280 0.0000 55.1642 0.0000 0.2000 draw_round_box
0.0000 -46.0193 moveto 1.5280 0.0000 56.9922 0.0000 0.2000 draw_round_box
0.0000 -51.0193 moveto 67.2238 0.0000 0.0500 0.0000 0.1000 draw_line
0.0000 -50.0193 moveto 67.2238 0.0000 0.0500 0.0000 0.1000 draw_line
0.0000 -49.0193 moveto 67.2238 0.0000 0.0500 0.0000 0.1000 draw_line
0.0000 -48.0193 moveto 67.2238 0.0000 0.0500 0.0000 0.1000 draw_line
0.0000 -47.0193 moveto 67.2238 0.0000 0.0500 0.0000 0.1000 draw_line
0.0000 -33.5941 moveto 1.6821 0.0000 62.2301 0.0000 0.2000 draw_round_box
48.6478 -46.5193 moveto magfontemmentaler-18mDWo /dots.dot glyphshow 
48.1814 -49.0193 moveto 0.0500 2.1901 -0.0250 2.7699 0.0800 draw_round_box
48.6478 -48.5193 moveto magfontemmentaler-18mDWo /dots.dot glyphshow 
47.0567 -49.0193 moveto 0.0500 3.1901 -0.0250 -2.9600 0.0800 draw_round_box
46.4240 -40.8364 moveto /TeXGyrePagella-Regular 3.90625000 output-scale div selectfont
0.6146 0.0000 0.0000 /exclam
1.1267 0.0000 0.0000 /a
0.6487 0.0000 0.0000 /i
3 print_glyphs
46.9917 -46.5193 moveto magfontemmentaler-18mDWo /noteheads.s1 glyphshow 
46.9917 -48.5193 moveto magfontemmentaler-18mDWo /noteheads.s1 glyphshow 
48.6478 -30.0941 moveto magfontemmentaler-18mDWo /dots.dot glyphshow 
48.1814 -30.5941 moveto 0.0500 3.0234 -0.0250 0.2699 0.0800 draw_round_box
48.6478 -33.0941 moveto magfontemmentaler-18mDWo /dots.dot glyphshow 
47.0567 -30.5941 moveto 0.0500 2.3568 -0.0250 -4.6267 0.0800 draw_round_box
12.2000 -38.0364 moveto 0.5800 0.0500 0.0400 0.4600 0.0800 draw_round_box
54.2280 -49.0193 moveto 0.0500 2.2570 -0.0250 3.2030 0.0800 draw_round_box
53.1739 -30.5941 moveto 0.0500 2.4237 -0.0250 -4.6267 0.0800 draw_round_box
53.1739 -49.0193 moveto 0.0500 3.2570 -0.0250 -1.4600 0.0800 draw_round_box
6.8541 -27.5941 moveto true 4.5177 0.0100 4.5177 -0.3900 0.0400 -0.2000 0.0400 0.2000 3 0.0800 draw_polygon
52.5059 -40.8364 moveto /TeXGyrePagella-Regular 3.90625000 output-scale div selectfont
0.6487 0.0000 0.0000 /l
1.7413 0.0000 0.0000 /A
2 print_glyphs
53.1089 -31.0941 moveto magfontemmentaler-18mDWo /noteheads.s2 glyphshow 
53.1089 -32.5941 moveto magfontemmentaler-18mDWo /noteheads.s2 glyphshow 
52.5059 -38.0364 moveto /TeXGyrePagella-Regular 3.90625000 output-scale div selectfont
0.6487 0.0000 0.0000 /l
1.7413 0.0000 0.0000 /A
2 print_glyphs
46.9917 -32.5941 moveto magfontemmentaler-18mDWo /noteheads.s1 glyphshow 
53.1089 -46.0193 moveto magfontemmentaler-18mDWo /noteheads.s2 glyphshow 
53.1089 -47.0193 moveto magfontemmentaler-18mDWo /noteheads.s2 glyphshow 
54.2280 -30.5941 moveto 0.0500 3.2570 -0.0250 -0.2970 0.0800 draw_round_box
42.2756 -30.5941 moveto 0.0500 2.9237 -0.0250 0.7030 0.0800 draw_round_box
41.1565 -30.0941 moveto magfontemmentaler-18mDWo /noteheads.s2 glyphshow 
41.1565 -32.0941 moveto magfontemmentaler-18mDWo /noteheads.s2 glyphshow 
40.8949 -38.0364 moveto /TeXGyrePagella-Regular 3.90625000 output-scale div selectfont
1.0584 0.0000 0.0000 /e
0.6487 0.0000 0.0000 /l
2 print_glyphs
40.8949 -40.8364 moveto /TeXGyrePagella-Regular 3.90625000 output-scale div selectfont
1.0584 0.0000 0.0000 /e
0.6487 0.0000 0.0000 /l
2 print_glyphs
41.1565 -46.0193 moveto magfontemmentaler-18mDWo /noteheads.s2 glyphshow 
41.1565 -48.0193 moveto magfontemmentaler-18mDWo /noteheads.s2 glyphshow 
41.2215 -30.5941 moveto 0.0500 2.5903 -0.0250 -4.2933 0.0800 draw_round_box
38.9740 -49.0193 moveto 0.0500 3.2570 -0.0250 -1.4600 0.0800 draw_round_box
8.3612 -38.0364 moveto 0.5800 0.0500 0.0400 0.4600 0.0800 draw_round_box
40.0281 -49.0193 moveto 0.0500 2.2570 -0.0250 3.2030 0.0800 draw_round_box
42.2756 -49.0193 moveto 0.0500 2.2570 -0.0250 3.2030 0.0800 draw_round_box
43.4690 -30.5941 moveto 0.0500 2.2570 -0.0250 -4.9600 0.0800 draw_round_box
44.5230 -49.0193 moveto 0.0500 2.2570 -0.0250 3.7030 0.0800 draw_round_box
43.4690 -49.0193 moveto 0.0500 3.0903 -0.0250 -3.2933 0.0800 draw_round_box
46.9917 -30.5941 moveto magfontemmentaler-18mDWo /noteheads.s1 glyphshow 
43.4040 -29.5941 moveto magfontemmentaler-18mDWo /noteheads.s2 glyphshow 
41.2215 -49.0193 moveto 0.0500 3.2570 -0.0250 -2.4600 0.0800 draw_round_box
46.4240 -38.0364 moveto /TeXGyrePagella-Regular 3.90625000 output-scale div selectfont
0.6146 0.0000 0.0000 /exclam
1.1267 0.0000 0.0000 /a
0.6487 0.0000 0.0000 /i
3 print_glyphs
43.4040 -33.0941 moveto magfontemmentaler-18mDWo /noteheads.s2 glyphshow 
43.0058 -38.0364 moveto /TeXGyrePagella-Regular 3.90625000 output-scale div selectfont
1.3316 0.0000 0.0000 /u
0.6487 0.0000 0.0000 /l
2 print_glyphs
43.0058 -40.8364 moveto /TeXGyrePagella-Regular 3.90625000 output-scale div selectfont
1.3316 0.0000 0.0000 /u
0.6487 0.0000 0.0000 /l
2 print_glyphs
43.4040 -45.5193 moveto magfontemmentaler-18mDWo /noteheads.s2 glyphshow 
43.4040 -49.0193 moveto magfontemmentaler-18mDWo /noteheads.s2 glyphshow 
44.5230 -30.5941 moveto 0.0500 2.7570 -0.0250 1.2030 0.0800 draw_round_box
6.8541 -43.2093 moveto true 4.5177 -0.1100 4.5177 -0.5100 0.0400 -0.2000 0.0400 0.2000 3 0.0800 draw_polygon
64.1000 -50.5193 moveto magfontemmentaler-18mDWo /dots.dot glyphshow 
62.5088 -49.0193 moveto 0.0500 2.5234 -0.0250 -4.2933 0.0800 draw_round_box
63.6336 -49.0193 moveto 0.0500 2.3568 -0.0250 2.2699 0.0800 draw_round_box
64.1000 -31.0941 moveto magfontemmentaler-18mDWo /dots.dot glyphshow 
63.6336 -30.5941 moveto 0.0500 3.1901 -0.0250 -0.2301 0.0800 draw_round_box
64.1000 -34.0941 moveto magfontemmentaler-18mDWo /dots.dot glyphshow 
62.5088 -30.5941 moveto 0.0500 2.1901 -0.0250 -5.4600 0.0800 draw_round_box
64.1000 -46.5193 moveto magfontemmentaler-18mDWo /dots.dot glyphshow 
38.9645 -27.1250 moveto /Emmentaler-11 3.98535156 output-scale div selectfont
0.8194 0.0000 0.0000 /one
1 print_glyphs
37.9345 -25.4641 moveto 13.4265 0.0000 0.1100 0.0000 0.1600 draw_line
37.9345 -25.4641 moveto 0.0000 -2.0000 13.5365 0.0000 0.1600 draw_line
37.9345 -25.4641 moveto 0.0000 -2.0000 0.1100 0.0000 0.1600 draw_line
45.3751 -40.8364 moveto 0.5800 0.0500 0.0400 0.4600 0.0800 draw_round_box
45.3751 -38.0364 moveto 0.5800 0.0500 0.0400 0.4600 0.0800 draw_round_box
42.6540 -40.8364 moveto 0.2200 0.0500 0.0400 0.4600 0.0800 draw_round_box
42.6540 -38.0364 moveto 0.2200 0.0500 0.0400 0.4600 0.0800 draw_round_box
57.3339 -38.0364 moveto 0.5800 0.0500 0.0400 0.4600 0.0800 draw_round_box
31.9030 -38.0364 moveto 0.5800 0.0500 0.0400 0.4600 0.0800 draw_round_box
5.8000 -50.8293 moveto true 4.5177 0.2000 4.5177 -0.2000 0.0400 -0.2000 0.0400 0.2000 3 0.0800 draw_polygon
22.1095 -38.0364 moveto 0.5800 0.0500 0.0400 0.4600 0.0800 draw_round_box
62.4438 -50.5193 moveto magfontemmentaler-18mDWo /noteheads.s1 glyphshow 
56.4143 -43.2093 moveto true 1.8699 -0.1100 1.8699 -0.5100 0.0400 -0.2000 0.0400 0.2000 3 0.0800 draw_polygon
60.6714 -40.8364 moveto 0.5800 0.0500 0.0400 0.4600 0.0800 draw_round_box
60.8592 -38.0364 moveto 0.5800 0.0500 0.0400 0.4600 0.0800 draw_round_box
55.3602 -49.0193 moveto gsave currentpoint translate
1 setlinecap 1 setlinejoin 0.08000000 setlinewidth
1.18230684 6.53944996 moveto  1.76261364 6.94498923 2.54000147 6.81881272 2.96225212 6.25055004 curveto  2.52077607 6.70036279 1.74338823 6.82653930 1.18230684 6.53944996 curveto   closepath  gsave stroke grestore fill grestore
57.3339 -40.8364 moveto 0.5800 0.0500 0.0400 0.4600 0.0800 draw_round_box
56.4793 -49.0193 moveto 0.0500 2.0564 -0.0250 3.7030 0.0800 draw_round_box
5.8000 -34.0941 moveto true 4.5177 -0.1100 4.5177 -0.5100 0.0400 -0.2000 0.0400 0.2000 3 0.0800 draw_polygon
55.4252 -49.0193 moveto 0.0500 3.0903 -0.0250 -3.2933 0.0800 draw_round_box
57.1401 -46.0193 moveto magfontemmentaler-18mDWo /noteheads.s2 glyphshow 
58.2592 -49.0193 moveto 0.0500 2.2675 -0.0250 3.2030 0.0800 draw_round_box
55.0986 -38.0364 moveto /TeXGyrePagella-Regular 3.90625000 output-scale div selectfont
1.0584 0.0000 0.0000 /e
0.6487 0.0000 0.0000 /l
2 print_glyphs
55.3602 -31.0941 moveto magfontemmentaler-18mDWo /noteheads.s2 glyphshow 
55.3602 -32.0941 moveto magfontemmentaler-18mDWo /noteheads.s2 glyphshow 
55.0986 -40.8364 moveto /TeXGyrePagella-Regular 3.90625000 output-scale div selectfont
1.0584 0.0000 0.0000 /e
0.6487 0.0000 0.0000 /l
2 print_glyphs
55.3602 -45.5193 moveto magfontemmentaler-18mDWo /noteheads.s2 glyphshow 
55.3602 -49.0193 moveto magfontemmentaler-18mDWo /noteheads.s2 glyphshow 
56.4793 -30.5941 moveto 0.0500 3.2570 -0.0250 -0.2970 0.0800 draw_round_box
55.4252 -30.5941 moveto 0.0500 2.5903 -0.0250 -4.2933 0.0800 draw_round_box
57.5801 -31.5941 moveto magfontemmentaler-18mDWo /accidentals.sharp glyphshow 
60.0392 -49.0193 moveto 0.0500 2.2570 -0.0250 2.7030 0.0800 draw_round_box
58.9851 -49.0193 moveto 0.0500 3.2570 -0.0250 -2.9600 0.0800 draw_round_box
62.4438 -31.0941 moveto magfontemmentaler-18mDWo /noteheads.s1 glyphshow 
62.4438 -33.5941 moveto magfontemmentaler-18mDWo /noteheads.s1 glyphshow 
61.8762 -38.0364 moveto /TeXGyrePagella-Regular 3.90625000 output-scale div selectfont
0.6146 0.0000 0.0000 /exclam
1.1267 0.0000 0.0000 /a
0.6487 0.0000 0.0000 /i
3 print_glyphs
61.5006 -40.8364 moveto /TeXGyrePagella-Regular 3.90625000 output-scale div selectfont
0.7512 0.0000 0.0000 /parenright
0.6146 0.0000 0.0000 /exclam
1.1267 0.0000 0.0000 /a
0.6487 0.0000 0.0000 /i
4 print_glyphs
62.4438 -47.0193 moveto magfontemmentaler-18mDWo /noteheads.s1 glyphshow 
58.9201 -48.5193 moveto magfontemmentaler-18mDWo /noteheads.s2 glyphshow 
58.9201 -31.5941 moveto magfontemmentaler-18mDWo /noteheads.s2 glyphshow 
58.9201 -32.5941 moveto magfontemmentaler-18mDWo /noteheads.s2 glyphshow 
58.5220 -38.0364 moveto /TeXGyrePagella-Regular 3.90625000 output-scale div selectfont
1.3316 0.0000 0.0000 /u
0.6487 0.0000 0.0000 /l
2 print_glyphs
58.5220 -40.8364 moveto /TeXGyrePagella-Regular 3.90625000 output-scale div selectfont
1.3316 0.0000 0.0000 /u
0.6487 0.0000 0.0000 /l
2 print_glyphs
58.9201 -46.5193 moveto magfontemmentaler-18mDWo /noteheads.s2 glyphshow 
60.0392 -30.5941 moveto 0.0500 3.2570 -0.0250 -0.7970 0.0800 draw_round_box
58.9851 -30.5941 moveto 0.0500 2.4237 -0.0250 -4.6267 0.0800 draw_round_box
16.0659 -49.0193 moveto 0.0500 2.1901 -0.0250 3.7699 0.0800 draw_round_box
14.9411 -49.0193 moveto 0.0500 3.1901 -0.0250 -1.9600 0.0800 draw_round_box
19.8001 -30.0941 moveto magfontemmentaler-18mDWo /noteheads.s2 glyphshow 
19.8001 -31.5941 moveto magfontemmentaler-18mDWo /noteheads.s2 glyphshow 
18.8045 -38.0364 moveto /TeXGyrePagella-Regular 3.90625000 output-scale div selectfont
1.9462 0.0000 0.0000 /m
1.2292 0.0000 0.0000 /o
2 print_glyphs
18.6338 -40.8364 moveto /TeXGyrePagella-Regular 3.90625000 output-scale div selectfont
1.2292 0.0000 0.0000 /o
1.0584 0.0000 0.0000 /e
1.2292 0.0000 0.0000 /P
3 print_glyphs
19.8001 -46.0193 moveto magfontemmentaler-18mDWo /noteheads.s2 glyphshow 
19.8001 -46.0193 moveto magfontemmentaler-18mDWo /noteheads.s2 glyphshow 
12.9428 -38.0364 moveto /TeXGyrePagella-Regular 3.90625000 output-scale div selectfont
0.5463 0.0000 0.0000 /comma
1.9462 0.0000 0.0000 /m
1.3316 0.0000 0.0000 /u
1.2974 0.0000 0.0000 /n
4 print_glyphs
10.2927 -49.0193 moveto 0.0500 3.0670 -0.0250 -1.7700 0.0800 draw_round_box
14.8761 -30.5941 moveto magfontemmentaler-18mDWo /noteheads.s1 glyphshow 
14.8761 -31.5941 moveto magfontemmentaler-18mDWo /noteheads.s1 glyphshow 
12.8233 -40.8364 moveto /TeXGyrePagella-Regular 3.90625000 output-scale div selectfont
0.5463 0.0000 0.0000 /period
1.3657 0.0000 0.0000 /d
0.8536 0.0000 0.0000 /r
1.2292 0.0000 0.0000 /o
1.3657 0.0000 0.0000 /L
5 print_glyphs
14.8761 -45.5193 moveto magfontemmentaler-18mDWo /noteheads.s1 glyphshow 
14.8761 -47.5193 moveto magfontemmentaler-18mDWo /noteheads.s1 glyphshow 
16.0659 -30.5941 moveto 0.0500 3.0234 -0.0250 0.2699 0.0800 draw_round_box
14.9411 -30.5941 moveto 0.0500 2.6901 -0.0250 -3.9600 0.0800 draw_round_box
23.9631 -30.0941 moveto magfontemmentaler-18mDWo /noteheads.s2 glyphshow 
23.9631 -31.5941 moveto magfontemmentaler-18mDWo /noteheads.s2 glyphshow 
22.8992 -38.0364 moveto /TeXGyrePagella-Regular 3.90625000 output-scale div selectfont
0.9560 0.0000 0.0000 /s
1.0584 0.0000 0.0000 /e
1.2974 0.0000 0.0000 /n
3 print_glyphs
22.2505 -40.8364 moveto /TeXGyrePagella-Regular 3.90625000 output-scale div selectfont
0.6146 0.0000 0.0000 /exclam
0.9560 0.0000 0.0000 /s
1.0584 0.0000 0.0000 /e
0.6487 0.0000 0.0000 /l
1.3316 0.0000 0.0000 /p
5 print_glyphs
23.9631 -46.0193 moveto magfontemmentaler-18mDWo /noteheads.s2 glyphshow 
23.9631 -46.0193 moveto magfontemmentaler-18mDWo /noteheads.s2 glyphshow 
25.0822 -30.5941 moveto 0.0500 2.9237 -0.0250 0.7030 0.0800 draw_round_box
20.9192 -30.5941 moveto 0.0500 2.9237 -0.0250 0.7030 0.0800 draw_round_box
19.8651 -30.5941 moveto 0.0500 2.7570 -0.0250 -3.9600 0.0800 draw_round_box
20.9192 -49.0193 moveto 0.0500 2.2570 -0.0250 3.2030 0.0800 draw_round_box
19.8651 -49.0193 moveto 0.0500 3.2570 -0.0250 -0.4600 0.0800 draw_round_box
5.8000 -45.5193 moveto magfontemmentaler-18mDWo /noteheads.s2 glyphshow 
5.8000 -30.5941 moveto magfontemmentaler-18mDWo /noteheads.s2 glyphshow 
5.8000 -31.5941 moveto magfontemmentaler-18mDWo /noteheads.s2 glyphshow 
4.9239 -38.0364 moveto /TeXGyrePagella-Regular 3.90625000 output-scale div selectfont
1.2292 0.0000 0.0000 /o
1.7072 0.0000 0.0000 /D
2 print_glyphs
3.9679 -40.8364 moveto /TeXGyrePagella-Regular 3.90625000 output-scale div selectfont
0.9560 0.0000 0.0000 /s
0.9560 0.0000 0.0000 /s
1.0584 0.0000 0.0000 /e
0.6487 0.0000 0.0000 /l
1.2292 0.0000 0.0000 /b
5 print_glyphs
0.8000 -48.0193 moveto magfontemmentaler-18mDWo /clefs.F glyphshow 
5.8000 -47.5193 moveto magfontemmentaler-18mDWo /noteheads.s2 glyphshow 
6.9191 -30.5941 moveto 0.0500 2.7543 -0.0250 0.2030 0.0800 draw_round_box
5.8650 -30.5941 moveto 0.0500 2.2614 -0.0250 -3.4644 0.0800 draw_round_box
-0.0600 -39.8067 moveto 0.0600 22.4252 0.0500 -11.2126 0.1000 draw_round_box
53.3211 -27.0908 moveto /Emmentaler-11 3.98535156 output-scale div selectfont
0.8536 0.0000 0.0000 /two
1 print_glyphs
51.3911 -25.4641 moveto 14.8427 0.0000 1.0100 0.0000 0.1600 draw_line
51.3911 -25.4641 moveto 0.0000 -2.0000 15.8527 0.0000 0.1600 draw_line
51.3911 -25.4641 moveto 0.0000 -2.0000 1.0100 0.0000 0.1600 draw_line
-0.7853 -27.5100 moveto /TeXGyrePagella-Regular 2.76074219 output-scale div selectfont
0.7853 0.0000 0.0000 /four
1 print_glyphs
0.8000 -31.5941 moveto magfontemmentaler-18mDWo /clefs.G glyphshow 
10.2277 -46.0193 moveto magfontemmentaler-18mDWo /noteheads.s2 glyphshow 
10.2277 -47.5193 moveto magfontemmentaler-18mDWo /noteheads.s2 glyphshow 
11.3468 -30.5941 moveto 0.0500 3.0697 -0.0250 -0.2970 0.0800 draw_round_box
10.2927 -30.5941 moveto 0.0500 2.0626 -0.0250 -3.7656 0.0800 draw_round_box
9.2662 -40.8364 moveto /TeXGyrePagella-Regular 3.90625000 output-scale div selectfont
1.0584 0.0000 0.0000 /e
1.2974 0.0000 0.0000 /h
0.7512 0.0000 0.0000 /t
3 print_glyphs
11.3468 -49.0193 moveto 0.0500 2.2614 -0.0250 3.2030 0.0800 draw_round_box
5.8650 -49.0193 moveto 0.0500 3.0670 -0.0250 -1.7700 0.0800 draw_round_box
6.9191 -49.0193 moveto 0.0500 2.0626 -0.0250 3.7030 0.0800 draw_round_box
10.2277 -31.0941 moveto magfontemmentaler-18mDWo /noteheads.s2 glyphshow 
10.2277 -32.0941 moveto magfontemmentaler-18mDWo /noteheads.s2 glyphshow 
9.5223 -38.0364 moveto /TeXGyrePagella-Regular 3.90625000 output-scale div selectfont
0.6487 0.0000 0.0000 /i
1.9462 0.0000 0.0000 /m
2 print_glyphs
34.6964 -49.0193 moveto 0.0500 2.2570 -0.0250 3.7030 0.0800 draw_round_box
34.6964 -30.5941 moveto 0.0500 3.0903 -0.0250 0.2030 0.0800 draw_round_box
33.6424 -30.5941 moveto 0.0500 2.7570 -0.0250 -3.9600 0.0800 draw_round_box
33.5774 -47.5193 moveto magfontemmentaler-18mDWo /noteheads.s2 glyphshow 
33.6424 -49.0193 moveto 0.0500 3.2570 -0.0250 -1.9600 0.0800 draw_round_box
29.3598 -49.0193 moveto 0.0500 3.2570 -0.0250 -1.9600 0.0800 draw_round_box
35.8911 -28.5941 moveto magfontemmentaler-18mDWo /rests.2 glyphshow 
33.5774 -30.5941 moveto magfontemmentaler-18mDWo /noteheads.s2 glyphshow 
33.5774 -31.5941 moveto magfontemmentaler-18mDWo /noteheads.s2 glyphshow 
32.8037 -38.0364 moveto /TeXGyrePagella-Regular 3.90625000 output-scale div selectfont
0.9560 0.0000 0.0000 /s
1.0584 0.0000 0.0000 /e
0.7170 0.0000 0.0000 /t
3 print_glyphs
31.4379 -40.8364 moveto /TeXGyrePagella-Regular 3.90625000 output-scale div selectfont
0.6146 0.0000 0.0000 /exclam
0.9560 0.0000 0.0000 /s
1.2974 0.0000 0.0000 /n
1.2292 0.0000 0.0000 /o
0.6487 0.0000 0.0000 /i
0.7170 0.0000 0.0000 /t
6 print_glyphs
33.5774 -45.5193 moveto magfontemmentaler-18mDWo /noteheads.s2 glyphshow 
38.9090 -47.0193 moveto magfontemmentaler-18mDWo /noteheads.s2 glyphshow 
38.9090 -30.0941 moveto magfontemmentaler-18mDWo /noteheads.s2 glyphshow 
38.9090 -31.0941 moveto magfontemmentaler-18mDWo /noteheads.s2 glyphshow 
38.3061 -38.0364 moveto /TeXGyrePagella-Regular 3.90625000 output-scale div selectfont
0.6487 0.0000 0.0000 /l
1.7413 0.0000 0.0000 /A
2 print_glyphs
38.3061 -40.8364 moveto /TeXGyrePagella-Regular 3.90625000 output-scale div selectfont
0.6487 0.0000 0.0000 /l
1.7413 0.0000 0.0000 /A
2 print_glyphs
38.9090 -46.0193 moveto magfontemmentaler-18mDWo /noteheads.s2 glyphshow 
40.0281 -30.5941 moveto 0.0500 2.9237 -0.0250 0.7030 0.0800 draw_round_box
38.9740 -30.5941 moveto 0.0500 2.9237 -0.0250 -3.6267 0.0800 draw_round_box
35.8911 -32.5941 moveto magfontemmentaler-18mDWo /rests.2 glyphshow 
35.8911 -47.0193 moveto magfontemmentaler-18mDWo /rests.2 glyphshow 
35.8911 -51.0193 moveto magfontemmentaler-18mDWo /rests.2 glyphshow 
26.2769 -47.0193 moveto magfontemmentaler-18mDWo /rests.2 glyphshow 
26.2769 -51.0193 moveto magfontemmentaler-18mDWo /rests.2 glyphshow 
26.2769 -32.5941 moveto magfontemmentaler-18mDWo /rests.2 glyphshow 
24.0281 -30.5941 moveto 0.0500 2.7570 -0.0250 -3.9600 0.0800 draw_round_box
25.0822 -49.0193 moveto 0.0500 2.2570 -0.0250 3.2030 0.0800 draw_round_box
24.0281 -49.0193 moveto 0.0500 3.2570 -0.0250 -0.4600 0.0800 draw_round_box
26.2769 -28.5941 moveto magfontemmentaler-18mDWo /rests.2 glyphshow 
29.2948 -31.5941 moveto magfontemmentaler-18mDWo /noteheads.s2 glyphshow 
29.3598 -30.5941 moveto 0.0500 2.7570 -0.0250 -3.9600 0.0800 draw_round_box
30.4139 -30.5941 moveto 0.0500 3.0903 -0.0250 0.2030 0.0800 draw_round_box
29.2948 -47.5193 moveto magfontemmentaler-18mDWo /noteheads.s2 glyphshow 
29.2948 -45.5193 moveto magfontemmentaler-18mDWo /noteheads.s2 glyphshow 
28.4358 -40.8364 moveto /TeXGyrePagella-Regular 3.90625000 output-scale div selectfont
1.1267 0.0000 0.0000 /a
1.7755 0.0000 0.0000 /N
2 print_glyphs
28.1114 -38.0364 moveto /TeXGyrePagella-Regular 3.90625000 output-scale div selectfont
1.2974 0.0000 0.0000 /n
1.0584 0.0000 0.0000 /e
1.1950 0.0000 0.0000 /g
3 print_glyphs
29.2948 -30.5941 moveto magfontemmentaler-18mDWo /noteheads.s2 glyphshow 
30.4139 -49.0193 moveto 0.0500 2.2570 -0.0250 3.7030 0.0800 draw_round_box
stroke grestore
%%Trailer
%%EOF
