<?xml version="1.0" encoding="UTF-8"?>
<svg xmlns="http://www.w3.org/2000/svg" xmlns:xlink="http://www.w3.org/1999/xlink" width="348pt" height="220pt" viewBox="0 0 348 220" version="1.1">
<defs>
<g>
<symbol overflow="visible" id="glyph0-0">
<path style="stroke:none;" d=""/>
</symbol>
<symbol overflow="visible" id="glyph0-1">
<path style="stroke:none;" d="M 30.125 0.125 L 30.125 -1.078125 L 28.765625 -1.203125 C 27.734375 -1.28125 27.296875 -2.03125 25.90625 -5.265625 L 16.25 -27.890625 L 14.984375 -27.890625 C 14.984375 -27.890625 14.546875 -26.53125 13.03125 -23.15625 L 4.21875 -3.140625 C 3.703125 -2 2.953125 -1.28125 2.078125 -1.203125 L 0.59375 -1.078125 L 0.59375 0.125 C 2.03125 0.046875 3.5 0 4.9375 0 C 6.53125 0 8.171875 0.046875 9.765625 0.125 L 9.765625 -1.078125 L 8.28125 -1.203125 C 6.890625 -1.3125 6.375 -1.59375 6.375 -2.234375 C 6.375 -2.75 6.9375 -4.46875 7.765625 -6.453125 L 8.890625 -9.125 L 20.359375 -9.125 L 22.1875 -4.546875 C 22.875 -2.875 23.03125 -2.34375 23.03125 -2 C 23.03125 -1.546875 22.390625 -1.28125 21.390625 -1.203125 L 19.53125 -1.078125 L 19.53125 0.125 C 21.359375 0.046875 23.234375 0 25.0625 0 C 26.734375 0 28.453125 0.046875 30.125 0.125 Z M 19.640625 -10.71875 L 9.5625 -10.71875 L 14.625 -22.59375 Z M 19.640625 -10.71875 "/>
</symbol>
<symbol overflow="visible" id="glyph1-0">
<path style="stroke:none;" d=""/>
</symbol>
<symbol overflow="visible" id="glyph1-1">
<path style="stroke:none;" d="M 7.03125 -6.59375 L 7.03125 -6.890625 C 6.671875 -6.875 6.3125 -6.875 5.96875 -6.875 C 5.609375 -6.875 5.25 -6.875 4.890625 -6.890625 L 4.890625 -6.59375 L 5.40625 -6.5625 C 5.765625 -6.546875 5.796875 -6.265625 5.65625 -5.921875 L 3.84375 -1.203125 L 1.875 -6.265625 C 1.828125 -6.40625 1.90625 -6.5625 2.171875 -6.5625 L 2.734375 -6.59375 L 2.734375 -6.890625 C 2.296875 -6.875 1.84375 -6.875 1.40625 -6.875 C 0.96875 -6.875 0.515625 -6.875 0.078125 -6.890625 L 0.078125 -6.59375 L 0.4375 -6.5625 C 0.640625 -6.546875 0.75 -6.453125 0.875 -6.15625 L 2.75 -1.5625 C 3.0625 -0.796875 3.1875 -0.453125 3.328125 0.09375 L 3.828125 0.09375 C 4.015625 -0.53125 4.140625 -0.859375 4.46875 -1.65625 L 6.203125 -5.859375 C 6.4375 -6.40625 6.5625 -6.546875 6.734375 -6.5625 Z M 7.03125 -6.59375 "/>
</symbol>
<symbol overflow="visible" id="glyph1-2">
<path style="stroke:none;" d="M 3.140625 0.03125 L 3.140625 -0.265625 L 2.65625 -0.296875 C 2.203125 -0.328125 2.15625 -0.40625 2.15625 -1.203125 L 2.15625 -5.671875 C 2.15625 -6.453125 2.203125 -6.546875 2.65625 -6.5625 L 3.140625 -6.59375 L 3.140625 -6.890625 C 2.65625 -6.875 2.15625 -6.875 1.671875 -6.875 C 1.1875 -6.875 0.703125 -6.875 0.21875 -6.890625 L 0.21875 -6.59375 L 0.703125 -6.5625 C 1.15625 -6.546875 1.203125 -6.453125 1.203125 -5.671875 L 1.203125 -1.203125 C 1.203125 -0.40625 1.15625 -0.328125 0.703125 -0.296875 L 0.21875 -0.265625 L 0.21875 0.03125 C 0.703125 0.015625 1.1875 0 1.671875 0 C 2.15625 0 2.65625 0.015625 3.140625 0.03125 Z M 3.140625 0.03125 "/>
</symbol>
<symbol overflow="visible" id="glyph1-3">
<path style="stroke:none;" d="M 3.109375 -2.8125 L 3.0625 -2.859375 L 0.4375 -2.859375 L 0.171875 -2.1875 L 0.21875 -2.140625 L 2.8125 -2.140625 Z M 3.109375 -2.8125 "/>
</symbol>
<symbol overflow="visible" id="glyph1-4">
<path style="stroke:none;" d="M 5.375 -4.296875 L 5.375 -4.578125 C 5.0625 -4.5625 4.75 -4.546875 4.4375 -4.546875 C 4.125 -4.546875 3.8125 -4.5625 3.5 -4.578125 L 3.5 -4.296875 L 3.90625 -4.28125 C 4.234375 -4.25 4.234375 -3.96875 3.953125 -3.296875 L 3.53125 -2.234375 L 2.921875 -0.84375 L 1.734375 -3.703125 C 1.625 -3.984375 1.578125 -4.265625 1.890625 -4.28125 L 2.375 -4.296875 L 2.375 -4.578125 C 2 -4.5625 1.609375 -4.546875 1.21875 -4.546875 C 0.828125 -4.546875 0.453125 -4.5625 0.0625 -4.578125 L 0.0625 -4.296875 L 0.40625 -4.28125 C 0.578125 -4.265625 0.609375 -4.171875 0.703125 -3.953125 L 2.421875 0.0625 L 2.921875 0.0625 C 2.984375 -0.265625 3.125 -0.5625 3.328125 -1.015625 L 4.5 -3.609375 C 4.734375 -4.109375 4.859375 -4.265625 5.0625 -4.28125 Z M 5.375 -4.296875 "/>
</symbol>
<symbol overflow="visible" id="glyph1-5">
<path style="stroke:none;" d="M 4.46875 -2.78125 C 4.46875 -3.921875 3.734375 -4.671875 2.609375 -4.671875 C 2.25 -4.671875 1.8125 -4.546875 1.40625 -4.3125 C 0.59375 -3.84375 0.265625 -3.21875 0.265625 -2.1875 C 0.265625 -1.5625 0.40625 -1.015625 0.671875 -0.640625 C 1.0625 -0.109375 1.75 0.203125 2.5 0.203125 C 2.859375 0.203125 3.234375 0.125 3.640625 -0.0625 C 3.90625 -0.171875 4.109375 -0.296875 4.15625 -0.359375 L 4.359375 -0.703125 L 4.234375 -0.796875 C 3.59375 -0.421875 3.359375 -0.328125 2.9375 -0.328125 C 2.28125 -0.328125 1.75 -0.625 1.46875 -1.109375 C 1.28125 -1.4375 1.203125 -1.71875 1.1875 -2.296875 L 2.640625 -2.296875 C 3.328125 -2.296875 3.765625 -2.328125 4.453125 -2.4375 C 4.453125 -2.578125 4.46875 -2.65625 4.46875 -2.78125 Z M 3.578125 -2.65625 L 2.46875 -2.625 C 2 -2.625 1.75 -2.640625 1.203125 -2.6875 C 1.203125 -3.15625 1.25 -3.375 1.375 -3.640625 C 1.578125 -4.078125 2.015625 -4.34375 2.5 -4.34375 C 2.828125 -4.34375 3.078125 -4.21875 3.265625 -3.953125 C 3.484375 -3.625 3.578125 -3.328125 3.578125 -2.65625 Z M 3.578125 -2.65625 "/>
</symbol>
<symbol overflow="visible" id="glyph1-6">
<path style="stroke:none;" d="M 6.671875 0.03125 L 6.671875 -0.265625 C 6.34375 -0.296875 6.1875 -0.359375 6.0625 -0.53125 L 3.796875 -3.484375 C 4.359375 -3.625 4.609375 -3.734375 4.9375 -3.953125 C 5.46875 -4.328125 5.734375 -4.828125 5.734375 -5.40625 C 5.734375 -6.359375 5.09375 -6.890625 3.796875 -6.890625 C 3.203125 -6.890625 2.609375 -6.875 2.015625 -6.875 C 1.4375 -6.875 0.875 -6.875 0.296875 -6.890625 L 0.296875 -6.59375 L 0.703125 -6.5625 C 1.15625 -6.546875 1.203125 -6.453125 1.203125 -5.671875 L 1.203125 -1.203125 C 1.203125 -0.40625 1.15625 -0.328125 0.703125 -0.296875 L 0.21875 -0.265625 L 0.21875 0.03125 C 0.703125 0.015625 1.1875 0 1.671875 0 C 2.15625 0 2.65625 0.015625 3.140625 0.03125 L 3.140625 -0.265625 L 2.65625 -0.296875 C 2.203125 -0.328125 2.15625 -0.40625 2.15625 -1.203125 L 2.15625 -6.40625 C 2.5 -6.484375 2.796875 -6.515625 3.125 -6.515625 C 4.171875 -6.515625 4.75 -6.046875 4.75 -5.1875 C 4.75 -4.28125 4.015625 -3.703125 2.859375 -3.703125 L 2.578125 -3.703125 L 2.578125 -3.53125 C 2.796875 -3.296875 2.875 -3.1875 3.03125 -2.96875 L 4.859375 -0.515625 L 5.28125 0.03125 C 5.5 0.015625 5.71875 0 5.953125 0 C 6.1875 0 6.4375 0.015625 6.671875 0.03125 Z M 6.671875 0.03125 "/>
</symbol>
<symbol overflow="visible" id="glyph1-7">
<path style="stroke:none;" d="M 5.421875 -4.171875 L 5.390625 -4.296875 L 3.96875 -4.25 C 3.59375 -4.5625 3.234375 -4.671875 2.75 -4.671875 C 2.3125 -4.671875 1.796875 -4.53125 1.390625 -4.296875 C 0.84375 -3.984375 0.546875 -3.484375 0.546875 -2.875 C 0.546875 -2.140625 1 -1.640625 1.75 -1.5625 L 0.953125 -0.953125 C 0.859375 -0.796875 0.8125 -0.671875 0.8125 -0.515625 C 0.8125 -0.234375 0.984375 -0.078125 1.46875 0.0625 L 0.59375 0.53125 C 0.453125 0.609375 0.3125 0.984375 0.3125 1.28125 C 0.3125 2.1875 1.203125 2.828125 2.46875 2.828125 C 3.984375 2.828125 5.15625 1.875 5.15625 0.65625 C 5.15625 -0.0625 4.6875 -0.5625 3.984375 -0.5625 L 2.390625 -0.5625 C 1.875 -0.5625 1.640625 -0.671875 1.640625 -0.953125 C 1.640625 -1.078125 1.71875 -1.1875 1.96875 -1.40625 C 2.03125 -1.453125 2.046875 -1.46875 2.09375 -1.515625 C 2.1875 -1.5 2.25 -1.5 2.328125 -1.5 C 2.765625 -1.5 3.296875 -1.6875 3.703125 -1.96875 C 4.140625 -2.296875 4.359375 -2.703125 4.359375 -3.234375 C 4.359375 -3.421875 4.34375 -3.5625 4.25 -3.765625 L 5.171875 -3.765625 Z M 3.53125 -2.9375 C 3.53125 -2.28125 3.109375 -1.828125 2.5 -1.828125 C 1.828125 -1.828125 1.390625 -2.359375 1.390625 -3.125 C 1.390625 -3.890625 1.75 -4.34375 2.390625 -4.34375 C 3.078125 -4.34375 3.53125 -3.78125 3.53125 -2.9375 Z M 4.375 1.015625 C 4.375 1.875 3.59375 2.515625 2.546875 2.515625 C 1.671875 2.515625 1.078125 2 1.078125 1.265625 C 1.078125 0.8125 1.328125 0.421875 1.734375 0.234375 C 1.890625 0.171875 2.171875 0.140625 2.859375 0.140625 C 3.984375 0.140625 4.375 0.375 4.375 1.015625 Z M 4.375 1.015625 "/>
</symbol>
<symbol overflow="visible" id="glyph1-8">
<path style="stroke:none;" d="M 2.703125 0.03125 L 2.703125 -0.265625 L 2.25 -0.296875 C 1.90625 -0.3125 1.875 -0.390625 1.875 -1.015625 L 1.875 -4.640625 L 1.78125 -4.671875 C 1.28125 -4.46875 0.75 -4.328125 0.234375 -4.265625 L 0.234375 -3.984375 L 0.59375 -3.984375 C 1 -3.984375 1.03125 -3.921875 1.03125 -3.265625 L 1.03125 -1.015625 C 1.03125 -0.390625 1 -0.3125 0.671875 -0.296875 L 0.203125 -0.265625 L 0.203125 0.03125 C 0.625 0.015625 1.03125 0 1.453125 0 C 1.875 0 2.28125 0.015625 2.703125 0.03125 Z M 2.796875 -6.40625 C 2.796875 -6.59375 2.65625 -6.75 2.5 -6.75 C 2.34375 -6.75 2.15625 -6.640625 1.9375 -6.421875 L 0.5625 -5.046875 L 0.96875 -5.046875 L 2.40625 -5.9375 C 2.734375 -6.15625 2.796875 -6.234375 2.796875 -6.40625 Z M 2.796875 -6.40625 "/>
</symbol>
<symbol overflow="visible" id="glyph1-9">
<path style="stroke:none;" d="M 5.703125 0.03125 L 5.703125 -0.265625 L 5.296875 -0.296875 C 4.953125 -0.3125 4.921875 -0.375 4.921875 -1.015625 L 4.921875 -2.9375 C 4.921875 -4.109375 4.375 -4.671875 3.265625 -4.671875 C 2.890625 -4.671875 2.6875 -4.609375 2.46875 -4.421875 L 1.71875 -3.765625 L 1.71875 -4.640625 L 1.625 -4.671875 C 1.109375 -4.46875 0.59375 -4.328125 0.0625 -4.265625 L 0.0625 -3.984375 L 0.4375 -3.984375 C 0.84375 -3.984375 0.875 -3.921875 0.875 -3.265625 L 0.875 -1.015625 C 0.875 -0.390625 0.84375 -0.3125 0.515625 -0.296875 L 0.0625 -0.265625 L 0.0625 0.03125 C 0.46875 0.015625 0.890625 0 1.296875 0 C 1.703125 0 2.125 0.015625 2.53125 0.03125 L 2.53125 -0.265625 L 2.078125 -0.296875 C 1.75 -0.3125 1.71875 -0.390625 1.71875 -1.015625 L 1.71875 -3.125 C 1.71875 -3.578125 2.375 -4.0625 2.984375 -4.0625 C 3.65625 -4.0625 4.09375 -3.5625 4.09375 -2.796875 L 4.09375 0.03125 C 4.34375 0.015625 4.609375 0 4.875 0 C 5.15625 0 5.421875 0.015625 5.703125 0.03125 Z M 5.703125 0.03125 "/>
</symbol>
<symbol overflow="visible" id="glyph1-10">
<path style="stroke:none;" d="M 4.6875 0.03125 L 4.6875 -0.265625 L 4.3125 -0.296875 C 4.0625 -0.296875 4.03125 -0.375 4.03125 -0.875 L 4.03125 -2.6875 C 4.03125 -4.140625 3.609375 -4.671875 2.453125 -4.671875 C 2.03125 -4.671875 1.625 -4.5625 1.25 -4.34375 L 0.71875 -4.015625 L 0.71875 -3.375 L 0.984375 -3.296875 L 1.109375 -3.609375 C 1.3125 -4.078125 1.421875 -4.140625 1.875 -4.140625 C 2.8125 -4.140625 3.203125 -3.78125 3.234375 -2.875 L 2.25 -2.6875 C 0.890625 -2.4375 0.3125 -1.96875 0.3125 -1.109375 C 0.3125 -0.328125 0.78125 0.125 1.578125 0.125 C 1.75 0.125 1.921875 0.09375 2 0.046875 L 3.234375 -0.8125 L 3.1875 0.03125 C 3.4375 0.015625 3.703125 0 3.953125 0 C 4.203125 0 4.453125 0.015625 4.6875 0.03125 Z M 3.234375 -1.234375 C 2.9375 -0.828125 2.3125 -0.453125 1.921875 -0.453125 C 1.53125 -0.453125 1.171875 -0.8125 1.171875 -1.25 C 1.171875 -1.609375 1.375 -1.96875 1.671875 -2.15625 C 1.921875 -2.296875 2.46875 -2.4375 3.234375 -2.546875 Z M 3.234375 -1.234375 "/>
</symbol>
<symbol overflow="visible" id="glyph1-11">
<path style="stroke:none;" d="M 4.109375 -0.453125 L 4.015625 -0.609375 C 3.65625 -0.40625 3.328125 -0.3125 2.96875 -0.3125 C 1.859375 -0.3125 1.140625 -1.171875 1.140625 -2.5 C 1.140625 -3.5625 1.640625 -4.15625 2.53125 -4.15625 C 2.96875 -4.15625 3.453125 -3.953125 3.625 -3.703125 L 3.703125 -3.09375 L 3.984375 -3.09375 C 3.984375 -3.5625 4.03125 -3.96875 4.109375 -4.328125 C 3.71875 -4.5625 3.375 -4.671875 2.953125 -4.671875 C 2.484375 -4.671875 1.921875 -4.484375 1.328125 -4.109375 C 0.625 -3.671875 0.265625 -2.96875 0.265625 -2.09375 C 0.265625 -0.75 1.203125 0.203125 2.546875 0.203125 C 3.0625 0.203125 3.8125 0.015625 3.90625 -0.140625 Z M 4.109375 -0.453125 "/>
</symbol>
<symbol overflow="visible" id="glyph1-12">
<path style="stroke:none;" d="M 7.296875 -2.765625 C 7.296875 -3.171875 7.203125 -3.546875 7.0625 -3.8125 C 6.734375 -4.34375 6.125 -4.671875 5.4375 -4.671875 C 4.859375 -4.671875 4.46875 -4.5 3.828125 -3.96875 C 3.4375 -4.46875 3.015625 -4.671875 2.375 -4.671875 C 2.09375 -4.671875 1.890625 -4.625 1.671875 -4.5 L 0.6875 -3.984375 L 0.6875 -3.359375 L 0.953125 -3.296875 C 1.015625 -3.5625 1.125 -3.796875 1.203125 -3.875 C 1.3125 -4.015625 1.765625 -4.140625 2.109375 -4.140625 C 2.453125 -4.140625 2.78125 -3.984375 2.953125 -3.734375 C 3.15625 -3.453125 3.203125 -3.21875 3.234375 -2.640625 L 2.671875 -2.578125 C 1.828125 -2.5 1 -2.265625 0.703125 -2.046875 C 0.4375 -1.828125 0.296875 -1.5 0.296875 -1.0625 C 0.296875 -0.296875 0.828125 0.203125 1.65625 0.203125 C 1.890625 0.203125 2.109375 0.15625 2.203125 0.0625 L 3.421875 -0.890625 C 3.59375 -0.59375 3.703125 -0.484375 3.875 -0.328125 C 4.25 0 4.78125 0.203125 5.34375 0.203125 C 5.71875 0.203125 6.109375 0.109375 6.515625 -0.0625 C 6.78125 -0.171875 6.984375 -0.296875 7.015625 -0.359375 L 7.21875 -0.703125 L 7.078125 -0.796875 C 6.484375 -0.421875 6.203125 -0.328125 5.765625 -0.328125 C 5.109375 -0.328125 4.5625 -0.609375 4.28125 -1.109375 C 4.09375 -1.4375 4.03125 -1.71875 4.015625 -2.296875 L 5.46875 -2.296875 C 6.15625 -2.296875 6.59375 -2.328125 7.28125 -2.4375 C 7.28125 -2.578125 7.296875 -2.65625 7.296875 -2.765625 Z M 3.234375 -1.171875 C 2.796875 -0.640625 2.46875 -0.453125 2 -0.453125 C 1.46875 -0.453125 1.15625 -0.734375 1.15625 -1.21875 C 1.15625 -1.4375 1.21875 -1.640625 1.328125 -1.796875 C 1.421875 -1.921875 1.5625 -2 1.890625 -2.09375 C 2.328125 -2.21875 2.421875 -2.234375 3.234375 -2.328125 Z M 6.46875 -2.65625 L 5.296875 -2.625 C 4.828125 -2.625 4.578125 -2.640625 4.03125 -2.6875 C 4.0625 -3.265625 4.140625 -3.5625 4.34375 -3.84375 C 4.5625 -4.140625 4.96875 -4.34375 5.375 -4.34375 C 5.75 -4.34375 6.015625 -4.171875 6.234375 -3.765625 C 6.40625 -3.4375 6.46875 -3.1875 6.46875 -2.65625 Z M 6.46875 -2.65625 "/>
</symbol>
<symbol overflow="visible" id="glyph1-13">
<path style="stroke:none;" d="M 2.703125 0.03125 L 2.703125 -0.265625 L 2.25 -0.296875 C 1.90625 -0.3125 1.875 -0.390625 1.875 -1.015625 L 1.875 -7.15625 L 1.78125 -7.234375 C 1.34375 -7.0625 1.015625 -6.984375 0.234375 -6.875 L 0.234375 -6.59375 L 0.78125 -6.59375 C 0.96875 -6.59375 1.03125 -6.484375 1.03125 -6.1875 L 1.03125 -1.015625 C 1.03125 -0.390625 1 -0.3125 0.671875 -0.296875 L 0.203125 -0.265625 L 0.203125 0.03125 C 0.625 0.015625 1.03125 0 1.453125 0 C 1.875 0 2.28125 0.015625 2.703125 0.03125 Z M 2.703125 0.03125 "/>
</symbol>
<symbol overflow="visible" id="glyph1-14">
<path style="stroke:none;" d="M 5.125 -2.359375 C 5.125 -3.703125 4.140625 -4.671875 2.78125 -4.671875 C 1.328125 -4.671875 0.3125 -3.65625 0.3125 -2.15625 C 0.3125 -0.75 1.203125 0.203125 2.5 0.203125 C 4.03125 0.203125 5.125 -0.875 5.125 -2.359375 Z M 4.203125 -2 C 4.203125 -0.84375 3.6875 -0.125 2.875 -0.125 C 1.90625 -0.125 1.25 -1.09375 1.25 -2.5 C 1.25 -3.703125 1.71875 -4.34375 2.609375 -4.34375 C 3.515625 -4.34375 4.203125 -3.34375 4.203125 -2 Z M 4.125 -6.40625 C 4.125 -6.59375 3.984375 -6.75 3.8125 -6.75 C 3.671875 -6.75 3.484375 -6.640625 3.265625 -6.421875 L 1.890625 -5.046875 L 2.296875 -5.046875 L 3.734375 -5.9375 C 4.0625 -6.15625 4.125 -6.234375 4.125 -6.40625 Z M 4.125 -6.40625 "/>
</symbol>
<symbol overflow="visible" id="glyph1-15">
<path style="stroke:none;" d="M 3.734375 -4.5625 C 3.625 -4.640625 3.4375 -4.671875 3.265625 -4.671875 C 2.953125 -4.671875 2.640625 -4.515625 2.4375 -4.265625 L 1.875 -3.609375 L 1.875 -4.640625 L 1.78125 -4.671875 C 1.28125 -4.46875 0.75 -4.328125 0.234375 -4.265625 L 0.234375 -3.984375 L 0.59375 -3.984375 C 1 -3.984375 1.03125 -3.921875 1.03125 -3.265625 L 1.03125 -1.015625 C 1.03125 -0.390625 1 -0.3125 0.671875 -0.296875 L 0.203125 -0.265625 L 0.203125 0.03125 C 0.625 0.015625 1.03125 0 1.4375 0 C 1.90625 0 2.375 0.015625 2.859375 0.03125 L 2.859375 -0.265625 L 2.34375 -0.296875 C 1.890625 -0.328125 1.875 -0.359375 1.875 -1.015625 L 1.875 -2.734375 C 1.875 -3.328125 2.265625 -3.828125 2.765625 -3.828125 C 3.0625 -3.828125 3.265625 -3.6875 3.421875 -3.375 L 3.640625 -3.375 Z M 3.734375 -4.5625 "/>
</symbol>
<symbol overflow="visible" id="glyph1-16">
<path style="stroke:none;" d="M 5.796875 0.03125 L 5.796875 -0.265625 L 5.390625 -0.296875 C 5.046875 -0.3125 5.015625 -0.375 5.015625 -1.015625 L 5.015625 -4.640625 L 4.921875 -4.671875 C 4.421875 -4.46875 3.890625 -4.328125 3.375 -4.265625 L 3.375 -3.984375 L 3.734375 -3.984375 C 4.140625 -3.984375 4.171875 -3.921875 4.171875 -3.265625 L 4.171875 -1.640625 C 4.171875 -1.421875 4.03125 -1.140625 3.8125 -0.90625 C 3.53125 -0.625 3.203125 -0.484375 2.828125 -0.484375 C 2.46875 -0.484375 2.1875 -0.59375 2.03125 -0.78125 C 1.890625 -0.953125 1.828125 -1.25 1.828125 -1.6875 L 1.828125 -4.640625 L 1.734375 -4.671875 C 1.21875 -4.46875 0.703125 -4.328125 0.171875 -4.265625 L 0.171875 -3.984375 L 0.546875 -3.984375 C 0.953125 -3.984375 0.984375 -3.921875 0.984375 -3.265625 L 0.984375 -1.578125 C 0.984375 -0.890625 1.046875 -0.578125 1.21875 -0.328125 C 1.453125 -0.03125 1.828125 0.125 2.390625 0.125 C 2.84375 0.125 3.234375 -0.015625 3.515625 -0.265625 L 4.171875 -0.890625 C 4.171875 -0.59375 4.171875 -0.4375 4.140625 0.03125 C 4.421875 0.015625 4.6875 0 4.96875 0 C 5.25 0 5.515625 0.015625 5.796875 0.03125 Z M 5.796875 0.03125 "/>
</symbol>
<symbol overflow="visible" id="glyph1-17">
<path style="stroke:none;" d="M 8.65625 0.03125 L 8.65625 -0.265625 L 8.1875 -0.296875 C 7.859375 -0.3125 7.828125 -0.390625 7.828125 -1.015625 L 7.828125 -3.078125 C 7.828125 -4.0625 7.25 -4.671875 6.328125 -4.671875 C 5.984375 -4.671875 5.6875 -4.578125 5.515625 -4.421875 L 4.75 -3.75 C 4.4375 -4.40625 4.03125 -4.671875 3.34375 -4.671875 C 2.96875 -4.671875 2.6875 -4.578125 2.515625 -4.421875 L 1.828125 -3.78125 L 1.828125 -4.640625 L 1.734375 -4.671875 C 1.21875 -4.46875 0.703125 -4.328125 0.171875 -4.265625 L 0.171875 -3.984375 L 0.546875 -3.984375 C 0.953125 -3.984375 0.984375 -3.921875 0.984375 -3.265625 L 0.984375 -1.015625 C 0.984375 -0.390625 0.953125 -0.3125 0.625 -0.296875 L 0.15625 -0.265625 L 0.15625 0.03125 C 0.578125 0.015625 1 0 1.421875 0 C 1.828125 0 2.21875 0.015625 2.609375 0.03125 L 2.609375 -0.265625 L 2.1875 -0.296875 C 1.859375 -0.3125 1.828125 -0.390625 1.828125 -1.015625 L 1.828125 -3.125 C 1.828125 -3.578125 2.484375 -4.0625 3.078125 -4.0625 C 3.625 -4.0625 3.984375 -3.5625 3.984375 -2.796875 L 3.984375 -1.015625 C 3.984375 -0.390625 3.953125 -0.3125 3.625 -0.296875 L 3.15625 -0.265625 L 3.15625 0.03125 C 3.578125 0.015625 3.984375 0 4.40625 0 C 4.828125 0 5.234375 0.015625 5.65625 0.03125 L 5.65625 -0.265625 L 5.1875 -0.296875 C 4.859375 -0.3125 4.828125 -0.390625 4.828125 -1.015625 L 4.828125 -3.125 C 4.828125 -3.578125 5.484375 -4.0625 6.078125 -4.0625 C 6.625 -4.0625 6.984375 -3.5625 6.984375 -2.796875 L 6.984375 0.03125 C 7.25 0.015625 7.515625 0 7.78125 0 C 8.078125 0 8.359375 0.015625 8.65625 0.03125 Z M 8.65625 0.03125 "/>
</symbol>
<symbol overflow="visible" id="glyph1-18">
<path style="stroke:none;" d="M 2.171875 -1.09375 L 2.03125 -1.21875 C 1.765625 -1.140625 1.578125 -1.078125 1.0625 -0.921875 C 0.984375 -0.171875 0.734375 0.484375 0.15625 1.4375 L 0.296875 1.546875 L 0.703125 1.359375 C 1.515625 0.3125 1.890625 -0.3125 2.171875 -1.09375 Z M 2.171875 -1.09375 "/>
</symbol>
<symbol overflow="visible" id="glyph1-19">
<path style="stroke:none;" d="M 7.53125 0.03125 L 7.53125 -0.265625 L 7.203125 -0.296875 C 6.9375 -0.3125 6.828125 -0.515625 6.484375 -1.3125 L 4.0625 -6.984375 L 3.75 -6.984375 C 3.75 -6.984375 3.640625 -6.640625 3.265625 -5.796875 L 1.0625 -0.78125 C 0.921875 -0.5 0.734375 -0.3125 0.515625 -0.296875 L 0.15625 -0.265625 L 0.15625 0.03125 C 0.515625 0.015625 0.875 0 1.234375 0 C 1.640625 0 2.046875 0.015625 2.4375 0.03125 L 2.4375 -0.265625 L 2.078125 -0.296875 C 1.71875 -0.328125 1.59375 -0.40625 1.59375 -0.5625 C 1.59375 -0.6875 1.734375 -1.109375 1.9375 -1.609375 L 2.21875 -2.28125 L 5.09375 -2.28125 L 5.546875 -1.140625 C 5.71875 -0.71875 5.765625 -0.59375 5.765625 -0.5 C 5.765625 -0.390625 5.609375 -0.3125 5.359375 -0.296875 L 4.890625 -0.265625 L 4.890625 0.03125 C 5.34375 0.015625 5.8125 0 6.265625 0 C 6.6875 0 7.125 0.015625 7.53125 0.03125 Z M 4.921875 -2.6875 L 2.390625 -2.6875 L 3.65625 -5.65625 Z M 4.921875 -2.6875 "/>
</symbol>
<symbol overflow="visible" id="glyph1-20">
<path style="stroke:none;" d="M 7.484375 -3.84375 C 7.484375 -5.6875 6.109375 -6.890625 4 -6.890625 C 3.421875 -6.890625 2.84375 -6.875 2.265625 -6.875 C 1.578125 -6.875 0.90625 -6.875 0.21875 -6.890625 L 0.21875 -6.59375 L 0.625 -6.5625 C 1.078125 -6.546875 1.125 -6.453125 1.125 -5.671875 L 1.125 -0.953125 C 1.125 -0.65625 1.03125 -0.4375 0.875 -0.359375 L 0.5625 -0.203125 L 0.5625 0.03125 C 1.03125 0.015625 1.5 0 1.953125 0 C 2.4375 0 2.921875 0.03125 3.40625 0.03125 C 4.671875 0.03125 5.625 -0.296875 6.328125 -0.984375 C 7.046875 -1.6875 7.484375 -2.765625 7.484375 -3.84375 Z M 6.421875 -3.578125 C 6.421875 -2.46875 6.078125 -1.609375 5.421875 -1.0625 C 4.828125 -0.578125 4.234375 -0.40625 3.09375 -0.40625 C 2.640625 -0.40625 2.328125 -0.421875 2.078125 -0.484375 L 2.078125 -6.421875 C 2.328125 -6.46875 2.6875 -6.5 3.1875 -6.5 C 4.28125 -6.5 5.1875 -6.296875 5.71875 -5.765625 C 6.1875 -5.296875 6.421875 -4.578125 6.421875 -3.578125 Z M 6.421875 -3.578125 "/>
</symbol>
<symbol overflow="visible" id="glyph1-21">
<path style="stroke:none;" d="M 2.703125 0.03125 L 2.703125 -0.265625 L 2.25 -0.296875 C 1.90625 -0.3125 1.875 -0.390625 1.875 -1.015625 L 1.875 -4.640625 L 1.78125 -4.671875 C 1.28125 -4.46875 0.75 -4.328125 0.234375 -4.265625 L 0.234375 -3.984375 L 0.59375 -3.984375 C 1 -3.984375 1.03125 -3.921875 1.03125 -3.265625 L 1.03125 -1.015625 C 1.03125 -0.390625 1 -0.3125 0.671875 -0.296875 L 0.203125 -0.265625 L 0.203125 0.03125 C 0.625 0.015625 1.03125 0 1.453125 0 C 1.875 0 2.28125 0.015625 2.703125 0.03125 Z M 1.953125 -5.90625 C 1.953125 -6.1875 1.75 -6.40625 1.46875 -6.40625 C 1.15625 -6.40625 0.953125 -6.203125 0.953125 -5.90625 C 0.953125 -5.609375 1.15625 -5.40625 1.453125 -5.40625 C 1.75 -5.40625 1.953125 -5.609375 1.953125 -5.90625 Z M 1.953125 -5.90625 "/>
</symbol>
<symbol overflow="visible" id="glyph1-22">
<path style="stroke:none;" d="M 1.8125 -0.53125 C 1.8125 -0.828125 1.53125 -1.109375 1.21875 -1.109375 C 0.921875 -1.109375 0.65625 -0.828125 0.65625 -0.53125 C 0.65625 -0.234375 0.921875 0.046875 1.21875 0.046875 C 1.53125 0.046875 1.8125 -0.21875 1.8125 -0.53125 Z M 1.8125 -3.953125 C 1.8125 -4.265625 1.53125 -4.546875 1.21875 -4.546875 C 0.921875 -4.546875 0.65625 -4.265625 0.65625 -3.96875 C 0.65625 -3.671875 0.921875 -3.390625 1.21875 -3.390625 C 1.53125 -3.390625 1.8125 -3.65625 1.8125 -3.953125 Z M 1.8125 -3.953125 "/>
</symbol>
<symbol overflow="visible" id="glyph1-23">
<path style="stroke:none;" d="M 5.015625 -2.296875 C 5.015625 -2.765625 4.890625 -3.09375 4.609375 -3.34375 C 4.25 -3.671875 3.84375 -3.8125 2.71875 -3.953125 C 1.5 -4.109375 1.078125 -4.453125 1.078125 -5.21875 C 1.078125 -6.046875 1.703125 -6.65625 2.578125 -6.65625 C 2.96875 -6.65625 3.34375 -6.5625 3.609375 -6.421875 C 3.9375 -6.25 4.046875 -6.09375 4.078125 -5.8125 L 4.140625 -5.25 L 4.453125 -5.25 C 4.453125 -5.765625 4.5 -6.109375 4.59375 -6.65625 C 3.796875 -6.96875 3.34375 -7.0625 2.796875 -7.0625 C 1.3125 -7.0625 0.234375 -6.125 0.234375 -4.828125 C 0.234375 -4.34375 0.375 -3.984375 0.65625 -3.703125 C 1 -3.40625 1.453125 -3.234375 2.421875 -3.109375 C 3.1875 -3 3.53125 -2.875 3.796875 -2.65625 C 4.0625 -2.4375 4.171875 -2.15625 4.171875 -1.78125 C 4.171875 -0.890625 3.421875 -0.234375 2.390625 -0.234375 C 1.59375 -0.234375 0.8125 -0.625 0.765625 -1.03125 L 0.6875 -1.703125 L 0.375 -1.703125 C 0.375 -1.53125 0.375 -1.359375 0.375 -1.3125 C 0.375 -0.84375 0.359375 -0.625 0.296875 -0.171875 C 0.875 0.0625 1.453125 0.203125 2.03125 0.203125 C 3.765625 0.203125 5.015625 -0.84375 5.015625 -2.296875 Z M 5.015625 -2.296875 "/>
</symbol>
<symbol overflow="visible" id="glyph1-24">
<path style="stroke:none;" d="M 4.6875 0.03125 L 4.6875 -0.265625 L 4.3125 -0.296875 C 4.0625 -0.296875 4.03125 -0.375 4.03125 -0.875 L 4.03125 -2.6875 C 4.03125 -4.140625 3.609375 -4.671875 2.453125 -4.671875 C 2.03125 -4.671875 1.625 -4.5625 1.25 -4.34375 L 0.71875 -4.015625 L 0.71875 -3.375 L 0.984375 -3.296875 L 1.109375 -3.609375 C 1.3125 -4.078125 1.421875 -4.140625 1.875 -4.140625 C 2.8125 -4.140625 3.203125 -3.78125 3.234375 -2.875 L 2.25 -2.6875 C 0.890625 -2.4375 0.3125 -1.96875 0.3125 -1.109375 C 0.3125 -0.328125 0.78125 0.125 1.578125 0.125 C 1.75 0.125 1.921875 0.09375 2 0.046875 L 3.234375 -0.8125 L 3.1875 0.03125 C 3.4375 0.015625 3.703125 0 3.953125 0 C 4.203125 0 4.453125 0.015625 4.6875 0.03125 Z M 3.234375 -1.234375 C 2.9375 -0.828125 2.3125 -0.453125 1.921875 -0.453125 C 1.53125 -0.453125 1.171875 -0.8125 1.171875 -1.25 C 1.171875 -1.609375 1.375 -1.96875 1.671875 -2.15625 C 1.921875 -2.296875 2.46875 -2.4375 3.234375 -2.546875 Z M 3.796875 -6.40625 C 3.796875 -6.59375 3.65625 -6.75 3.484375 -6.75 C 3.34375 -6.75 3.15625 -6.640625 2.9375 -6.421875 L 1.5625 -5.046875 L 1.96875 -5.046875 L 3.40625 -5.9375 C 3.734375 -6.15625 3.796875 -6.234375 3.796875 -6.40625 Z M 3.796875 -6.40625 "/>
</symbol>
<symbol overflow="visible" id="glyph1-25">
<path style="stroke:none;" d="M 5.765625 0.03125 L 5.765625 -0.265625 L 5.3125 -0.296875 C 4.96875 -0.3125 4.9375 -0.390625 4.9375 -1.015625 L 4.9375 -7.15625 L 4.859375 -7.234375 C 4.421875 -7.0625 4.09375 -6.984375 3.296875 -6.875 L 3.296875 -6.59375 L 3.859375 -6.59375 C 4.03125 -6.59375 4.109375 -6.484375 4.109375 -6.1875 L 4.109375 -4.359375 C 3.546875 -4.59375 3.265625 -4.671875 2.921875 -4.671875 C 2.65625 -4.671875 2.40625 -4.609375 2.15625 -4.484375 L 1.28125 -4.03125 C 0.71875 -3.734375 0.34375 -3 0.34375 -2.15625 C 0.34375 -1.359375 0.625 -0.703125 1.109375 -0.296875 C 1.453125 -0.015625 1.90625 0.125 2.5625 0.125 C 2.765625 0.125 2.984375 0.078125 3.046875 0.046875 L 4.140625 -0.890625 L 4.09375 0.03125 C 4.359375 0.015625 4.609375 0 4.859375 0 C 5.15625 0 5.46875 0.015625 5.765625 0.03125 Z M 4.109375 -2.203125 C 4.109375 -1.5625 4.09375 -1.453125 3.953125 -1.21875 C 3.671875 -0.75 3.1875 -0.453125 2.71875 -0.453125 C 1.84375 -0.453125 1.21875 -1.296875 1.21875 -2.484375 C 1.21875 -3.5625 1.75 -4.203125 2.65625 -4.203125 C 3.03125 -4.203125 3.421875 -4.078125 3.78125 -3.84375 C 3.984375 -3.703125 4.109375 -3.5625 4.109375 -3.484375 Z M 4.109375 -2.203125 "/>
</symbol>
<symbol overflow="visible" id="glyph1-26">
<path style="stroke:none;" d="M 4.9375 0.03125 L 4.9375 -0.265625 L 4.6875 -0.296875 C 4.578125 -0.3125 4.453125 -0.390625 4.34375 -0.53125 L 2.875 -2.53125 L 4.28125 -4.1875 C 4.34375 -4.25 4.453125 -4.296875 4.625 -4.296875 L 4.765625 -4.296875 L 4.765625 -4.578125 L 3.953125 -4.578125 L 2.71875 -2.828125 L 1.953125 -3.984375 C 1.796875 -4.203125 1.6875 -4.34375 1.359375 -4.671875 L 0.203125 -4.46875 L 0.25 -4.21875 L 0.453125 -4.203125 C 0.640625 -4.171875 0.859375 -4.046875 0.953125 -3.90625 L 2.15625 -2.171875 L 0.671875 -0.421875 C 0.59375 -0.328125 0.46875 -0.265625 0.375 -0.265625 L 0.203125 -0.265625 L 0.203125 0 L 1.0625 0 C 1.0625 0 1.125 -0.234375 1.65625 -0.9375 L 2.390625 -1.90625 L 3.71875 0.03125 C 3.921875 0.015625 4.125 0 4.328125 0 C 4.53125 0 4.734375 0.015625 4.9375 0.03125 Z M 4.9375 0.03125 "/>
</symbol>
<symbol overflow="visible" id="glyph1-27">
<path style="stroke:none;" d="M 3.890625 -1.46875 C 3.890625 -1.78125 3.8125 -2.015625 3.625 -2.21875 C 3.359375 -2.46875 3.03125 -2.578125 2.15625 -2.75 C 1.328125 -2.90625 1.0625 -3.109375 1.0625 -3.5625 C 1.0625 -4.0625 1.421875 -4.34375 2.03125 -4.34375 C 2.6875 -4.34375 3.203125 -4 3.203125 -3.53125 L 3.203125 -3.296875 L 3.484375 -3.296875 C 3.484375 -3.875 3.5 -4.109375 3.53125 -4.421875 C 3 -4.609375 2.640625 -4.671875 2.234375 -4.671875 C 1.078125 -4.671875 0.375 -4.125 0.375 -3.234375 C 0.375 -2.75 0.59375 -2.40625 1.046875 -2.203125 C 1.3125 -2.078125 1.84375 -1.921875 2.515625 -1.78125 C 2.96875 -1.671875 3.15625 -1.46875 3.15625 -1.09375 C 3.15625 -0.546875 2.65625 -0.171875 1.953125 -0.171875 C 1.21875 -0.171875 0.703125 -0.515625 0.703125 -1.015625 L 0.703125 -1.421875 L 0.40625 -1.421875 C 0.40625 -0.734375 0.375 -0.4375 0.296875 -0.046875 C 0.8125 0.125 1.203125 0.203125 1.671875 0.203125 C 2.96875 0.203125 3.890625 -0.5 3.890625 -1.46875 Z M 3.890625 -1.46875 "/>
</symbol>
<symbol overflow="visible" id="glyph1-28">
<path style="stroke:none;" d="M 5.515625 -2.703125 C 5.515625 -3.8125 4.609375 -4.671875 3.453125 -4.671875 C 3.078125 -4.671875 2.71875 -4.578125 2.5625 -4.421875 L 1.75 -3.671875 L 1.75 -4.640625 L 1.65625 -4.671875 C 1.140625 -4.46875 0.625 -4.328125 0.09375 -4.265625 L 0.09375 -3.984375 L 0.46875 -3.984375 C 0.875 -3.984375 0.90625 -3.921875 0.90625 -3.265625 L 0.90625 1.75 C 0.90625 2.375 0.875 2.453125 0.53125 2.46875 L 0.078125 2.5 L 0.078125 2.796875 C 0.5 2.78125 0.90625 2.765625 1.328125 2.765625 C 1.75 2.765625 2.15625 2.78125 2.578125 2.796875 L 2.578125 2.5 L 2.109375 2.46875 C 1.78125 2.453125 1.75 2.375 1.75 1.75 L 1.75 -0.125 C 2.046875 0.046875 2.359375 0.125 2.8125 0.125 C 3.09375 0.125 3.359375 0.0625 3.515625 -0.046875 L 4.65625 -0.78125 C 5.046875 -1.03125 5.515625 -2.0625 5.515625 -2.703125 Z M 4.65625 -2.328125 C 4.65625 -1.21875 3.984375 -0.390625 3.09375 -0.390625 C 2.546875 -0.390625 2.140625 -0.5625 1.75 -0.984375 L 1.75 -3.046875 C 1.75 -3.1875 1.796875 -3.296875 1.921875 -3.46875 C 2.21875 -3.84375 2.625 -4.03125 3.125 -4.03125 C 4.0625 -4.03125 4.65625 -3.375 4.65625 -2.328125 Z M 4.65625 -2.328125 "/>
</symbol>
<symbol overflow="visible" id="glyph1-29">
<path style="stroke:none;" d="M 5.125 -2.359375 C 5.125 -3.703125 4.140625 -4.671875 2.78125 -4.671875 C 1.328125 -4.671875 0.3125 -3.65625 0.3125 -2.15625 C 0.3125 -0.75 1.203125 0.203125 2.5 0.203125 C 4.03125 0.203125 5.125 -0.875 5.125 -2.359375 Z M 4.203125 -2 C 4.203125 -0.84375 3.6875 -0.125 2.875 -0.125 C 1.90625 -0.125 1.25 -1.09375 1.25 -2.5 C 1.25 -3.703125 1.71875 -4.34375 2.609375 -4.34375 C 3.515625 -4.34375 4.203125 -3.34375 4.203125 -2 Z M 4.203125 -2 "/>
</symbol>
<symbol overflow="visible" id="glyph1-30">
<path style="stroke:none;" d="M 3.1875 -4.34375 L 1.8125 -4.28125 L 1.8125 -4.671875 C 1.8125 -5.078125 1.84375 -5.4375 1.921875 -6.078125 L 1.796875 -6.1875 C 1.5625 -6.046875 1.265625 -5.90625 0.953125 -5.8125 C 0.984375 -5.515625 1 -5.328125 1 -5.03125 L 1 -4.328125 L 0.21875 -3.984375 L 0.21875 -3.765625 L 0.984375 -3.8125 L 0.984375 -0.9375 C 0.984375 -0.203125 1.3125 0.125 2.078125 0.125 C 2.296875 0.125 2.546875 0.0625 2.609375 0 L 3.078125 -0.53125 L 2.953125 -0.703125 C 2.703125 -0.5625 2.546875 -0.515625 2.359375 -0.515625 C 1.96875 -0.515625 1.8125 -0.703125 1.8125 -1.203125 L 1.8125 -3.8125 L 3.09375 -3.8125 Z M 3.1875 -4.34375 "/>
</symbol>
<symbol overflow="visible" id="glyph1-31">
<path style="stroke:none;" d="M 5.703125 -1.640625 L 5.359375 -1.640625 L 5.296875 -1.296875 C 5.25 -0.875 5.109375 -0.5625 4.96875 -0.515625 C 4.765625 -0.4375 4.03125 -0.390625 3.140625 -0.390625 C 2.625 -0.390625 2.4375 -0.40625 2.15625 -0.46875 L 2.15625 -3.265625 L 3.75 -3.296875 C 4.1875 -3.296875 4.375 -3.25 4.453125 -2.921875 C 4.484375 -2.703125 4.5 -2.328125 4.5 -2.328125 L 4.796875 -2.328125 C 4.78125 -2.703125 4.765625 -3.078125 4.765625 -3.4375 C 4.765625 -3.828125 4.78125 -4.203125 4.796875 -4.59375 L 4.5 -4.59375 C 4.5 -4.59375 4.5 -4.265625 4.453125 -4.078125 C 4.359375 -3.734375 4.171875 -3.703125 3.75 -3.703125 C 3.25 -3.703125 2.59375 -3.703125 2.15625 -3.734375 L 2.15625 -6.40625 C 2.46875 -6.46875 2.625 -6.484375 3.3125 -6.484375 C 3.890625 -6.484375 4.453125 -6.4375 4.765625 -6.34375 C 5 -6.265625 5.03125 -6.234375 5.03125 -6 L 5.03125 -5.359375 L 5.390625 -5.359375 C 5.390625 -5.953125 5.4375 -6.4375 5.546875 -6.875 L 4.3125 -6.890625 C 3.53125 -6.875 2.765625 -6.875 2 -6.875 C 1.40625 -6.875 0.8125 -6.875 0.21875 -6.890625 L 0.21875 -6.59375 L 0.703125 -6.5625 C 1.15625 -6.546875 1.203125 -6.453125 1.203125 -5.671875 L 1.203125 -1.203125 C 1.203125 -0.40625 1.171875 -0.34375 0.703125 -0.296875 L 0.34375 -0.265625 L 0.34375 0.03125 C 0.75 0.015625 1.15625 0 1.5625 0 C 2.328125 0 3.109375 0.015625 3.875 0.03125 L 5.546875 0 C 5.546875 -0.578125 5.609375 -1.109375 5.703125 -1.640625 Z M 5.703125 -1.640625 "/>
</symbol>
<symbol overflow="visible" id="glyph1-32">
<path style="stroke:none;" d="M 5.578125 2.796875 L 5.578125 2.5 L 5.125 2.46875 C 4.78125 2.453125 4.75 2.375 4.75 1.75 L 4.75 -3.171875 C 4.75 -3.78125 4.8125 -4.171875 4.984375 -4.546875 L 4.796875 -4.65625 L 4.3125 -4.34375 C 3.796875 -4.578125 3.375 -4.671875 2.9375 -4.671875 C 2.65625 -4.671875 2.296875 -4.59375 2.15625 -4.5 L 1.3125 -3.96875 C 0.671875 -3.5625 0.34375 -2.90625 0.34375 -2.03125 C 0.34375 -0.734375 1.140625 0.125 2.375 0.125 C 2.578125 0.125 2.75 0.078125 2.875 0 L 3.921875 -0.65625 L 3.921875 1.75 C 3.921875 2.375 3.875 2.453125 3.546875 2.46875 L 2.96875 2.5 L 2.96875 2.796875 C 3.421875 2.78125 3.890625 2.765625 4.359375 2.765625 C 4.765625 2.765625 5.171875 2.78125 5.578125 2.796875 Z M 3.921875 -1.203125 C 3.921875 -1.0625 3.671875 -0.796875 3.40625 -0.640625 C 3.171875 -0.515625 2.9375 -0.453125 2.703125 -0.453125 C 1.828125 -0.453125 1.21875 -1.265625 1.21875 -2.46875 C 1.21875 -3.5625 1.78125 -4.203125 2.734375 -4.203125 C 3.21875 -4.203125 3.5625 -4.09375 3.921875 -3.796875 Z M 3.921875 -1.203125 "/>
</symbol>
<symbol overflow="visible" id="glyph1-33">
<path style="stroke:none;" d="M 7.25 -2.453125 L 7.21875 -2.703125 C 6.8125 -2.6875 6.40625 -2.671875 5.984375 -2.671875 C 5.578125 -2.671875 5.1875 -2.6875 4.78125 -2.703125 L 4.78125 -2.40625 L 5.609375 -2.328125 C 5.859375 -2.3125 5.9375 -2.21875 5.9375 -1.984375 L 5.9375 -0.984375 C 5.9375 -0.734375 5.921875 -0.625 5.875 -0.546875 C 5.765625 -0.359375 5.171875 -0.21875 4.515625 -0.21875 C 2.546875 -0.21875 1.28125 -1.53125 1.28125 -3.609375 C 1.28125 -5.53125 2.359375 -6.65625 4.234375 -6.65625 C 4.75 -6.65625 5.1875 -6.59375 5.5625 -6.46875 C 6.140625 -6.28125 6.390625 -6.046875 6.390625 -5.671875 L 6.390625 -5.140625 L 6.703125 -5.140625 C 6.703125 -5.65625 6.765625 -6.125 6.890625 -6.65625 C 5.796875 -6.984375 5.28125 -7.0625 4.484375 -7.0625 C 1.90625 -7.0625 0.21875 -5.609375 0.21875 -3.40625 C 0.21875 -2.390625 0.5625 -1.5 1.1875 -0.890625 C 1.890625 -0.203125 2.953125 0.203125 4.109375 0.203125 C 4.8125 0.203125 5.5 0.0625 6.859375 -0.3125 L 6.859375 -1.984375 C 6.859375 -2.296875 6.875 -2.3125 6.96875 -2.359375 Z M 7.25 -2.453125 "/>
</symbol>
<symbol overflow="visible" id="glyph1-34">
<path style="stroke:none;" d="M 5.0625 -2.6875 C 5.0625 -3.84375 4.3125 -4.671875 3.265625 -4.671875 C 2.796875 -4.671875 2.296875 -4.5 2.046875 -4.234375 L 1.5 -3.671875 L 1.5 -7.15625 L 1.40625 -7.234375 C 0.96875 -7.0625 0.640625 -6.984375 -0.15625 -6.875 L -0.15625 -6.59375 L 0.40625 -6.59375 C 0.59375 -6.59375 0.65625 -6.484375 0.65625 -6.1875 L 0.65625 -1.53125 C 0.65625 -0.90625 0.640625 -0.640625 0.578125 0.0625 L 0.734375 0.125 L 1.140625 -0.234375 C 1.53125 0.015625 1.890625 0.125 2.421875 0.125 C 2.8125 0.125 3.078125 0.046875 3.28125 -0.09375 L 4.28125 -0.8125 C 4.71875 -1.140625 5.0625 -1.96875 5.0625 -2.6875 Z M 4.203125 -2.28125 C 4.203125 -1.171875 3.59375 -0.390625 2.75 -0.390625 C 2.234375 -0.390625 1.5 -0.703125 1.5 -0.921875 L 1.5 -3.078125 C 1.5 -3.203125 1.59375 -3.390625 1.75 -3.5625 C 2.03125 -3.859375 2.421875 -4.03125 2.828125 -4.03125 C 3.671875 -4.03125 4.203125 -3.34375 4.203125 -2.28125 Z M 4.203125 -2.28125 "/>
</symbol>
<symbol overflow="visible" id="glyph1-35">
<path style="stroke:none;" d="M 6.671875 -0.84375 L 6.59375 -0.9375 C 5.96875 -0.53125 5.28125 -0.34375 4.53125 -0.34375 C 2.578125 -0.34375 1.28125 -1.640625 1.28125 -3.59375 C 1.28125 -5.4375 2.421875 -6.65625 4.140625 -6.65625 C 5.109375 -6.65625 6.125 -6.25 6.125 -5.859375 L 6.125 -5.140625 L 6.4375 -5.140625 C 6.4375 -5.640625 6.484375 -6 6.625 -6.65625 C 5.765625 -6.9375 5.046875 -7.0625 4.3125 -7.0625 C 3.453125 -7.0625 2.625 -6.859375 1.953125 -6.46875 C 0.8125 -5.796875 0.21875 -4.75 0.21875 -3.40625 C 0.21875 -1.25 1.796875 0.203125 4.140625 0.203125 C 4.96875 0.203125 5.71875 0.015625 6.40625 -0.34375 Z M 6.671875 -0.84375 "/>
</symbol>
<symbol overflow="visible" id="glyph1-36">
<path style="stroke:none;" d="M 5.703125 0.03125 L 5.703125 -0.265625 L 5.296875 -0.296875 C 4.953125 -0.3125 4.921875 -0.375 4.921875 -1.015625 L 4.921875 -2.9375 C 4.921875 -4.109375 4.375 -4.671875 3.265625 -4.671875 C 2.890625 -4.671875 2.6875 -4.609375 2.46875 -4.421875 L 1.71875 -3.765625 L 1.71875 -7.15625 L 1.625 -7.234375 C 1.1875 -7.0625 0.859375 -6.984375 0.0625 -6.875 L 0.0625 -6.59375 L 0.625 -6.59375 C 0.8125 -6.59375 0.875 -6.484375 0.875 -6.1875 L 0.875 -1.015625 C 0.875 -0.390625 0.84375 -0.3125 0.515625 -0.296875 L 0.0625 -0.265625 L 0.0625 0.03125 C 0.46875 0.015625 0.890625 0 1.296875 0 C 1.703125 0 2.125 0.015625 2.53125 0.03125 L 2.53125 -0.265625 L 2.078125 -0.296875 C 1.75 -0.3125 1.71875 -0.390625 1.71875 -1.015625 L 1.71875 -3.125 C 1.71875 -3.578125 2.375 -4.0625 2.984375 -4.0625 C 3.65625 -4.0625 4.09375 -3.5625 4.09375 -2.796875 L 4.09375 0.03125 C 4.34375 0.015625 4.609375 0 4.875 0 C 5.15625 0 5.421875 0.015625 5.703125 0.03125 Z M 5.703125 0.03125 "/>
</symbol>
<symbol overflow="visible" id="glyph1-37">
<path style="stroke:none;" d="M 1.828125 -0.53125 C 1.828125 -0.828125 1.546875 -1.109375 1.234375 -1.109375 C 0.9375 -1.109375 0.671875 -0.828125 0.671875 -0.53125 C 0.671875 -0.234375 0.9375 0.046875 1.21875 0.046875 C 1.546875 0.046875 1.828125 -0.21875 1.828125 -0.53125 Z M 1.828125 -0.53125 "/>
</symbol>
<symbol overflow="visible" id="glyph2-0">
<path style="stroke:none;" d="M 0.859375 0 L 0.859375 -17.21875 L 7.703125 -17.21875 L 7.703125 0 Z M 1.703125 -0.859375 L 6.84375 -0.859375 L 6.84375 -16.359375 L 1.703125 -16.359375 Z M 1.703125 -0.859375 "/>
</symbol>
<symbol overflow="visible" id="glyph2-1">
<path style="stroke:none;" d="M 0 -1.703125 L 0 -10.125 C 0 -10.988281 0.25 -11.648438 0.75 -12.109375 C 1.25 -12.566406 1.929688 -12.796875 2.796875 -12.796875 C 3.273438 -12.773438 3.644531 -12.644531 3.90625 -12.40625 C 4.164062 -12.175781 4.296875 -11.882812 4.296875 -11.53125 L 4.296875 -6.984375 L 4.03125 -7.203125 C 3.53125 -7.648438 2.894531 -7.875 2.125 -7.875 C 1.601562 -7.875 1.160156 -7.6875 0.796875 -7.3125 C 0.441406 -6.9375 0.265625 -6.472656 0.265625 -5.921875 C 0.265625 -5.367188 0.441406 -4.898438 0.796875 -4.515625 C 1.160156 -4.140625 1.601562 -3.953125 2.125 -3.953125 C 2.914062 -3.953125 3.550781 -4.160156 4.03125 -4.578125 L 4.296875 -4.828125 L 4.296875 -0.265625 C 4.296875 0.148438 4.144531 0.46875 3.84375 0.6875 C 3.550781 0.914062 3.203125 1.03125 2.796875 1.03125 C 1.929688 1.019531 1.25 0.773438 0.75 0.296875 C 0.25 -0.171875 0 -0.835938 0 -1.703125 Z M 0 -1.703125 "/>
</symbol>
<symbol overflow="visible" id="glyph2-2">
<path style="stroke:none;" d="M 2.125 -4.375 C 3.570312 -4.375 4.296875 -3.96875 4.296875 -3.15625 L 4.296875 0.9375 C 3.828125 0.445312 3.109375 0.203125 2.140625 0.203125 C 1.179688 0.203125 0.46875 0.445312 0 0.9375 L 0 -3.15625 C 0 -3.96875 0.707031 -4.375 2.125 -4.375 Z M 2.125 -4.375 "/>
</symbol>
<symbol overflow="visible" id="glyph2-3">
<path style="stroke:none;" d="M 0 -2.203125 C 0.0703125 -2.304688 0.210938 -2.359375 0.421875 -2.359375 C 0.640625 -2.359375 0.789062 -2.304688 0.875 -2.203125 L 0.875 0.3125 C 0.8125 0.414062 0.671875 0.46875 0.453125 0.46875 C 0.234375 0.46875 0.0820312 0.414062 0 0.3125 Z M 0 -2.203125 "/>
</symbol>
<symbol overflow="visible" id="glyph2-4">
<path style="stroke:none;" d="M 1.546875 -1.484375 C 1.359375 -1.316406 1.144531 -1.234375 0.90625 -1.234375 C 0.675781 -1.234375 0.46875 -1.316406 0.28125 -1.484375 C 0.09375 -1.660156 0 -1.882812 0 -2.15625 C 0 -2.425781 0.09375 -2.644531 0.28125 -2.8125 C 0.46875 -2.988281 0.675781 -3.078125 0.90625 -3.078125 C 1.144531 -3.078125 1.359375 -2.988281 1.546875 -2.8125 C 1.734375 -2.644531 1.828125 -2.425781 1.828125 -2.15625 C 1.828125 -1.882812 1.734375 -1.660156 1.546875 -1.484375 Z M 1.546875 -1.484375 "/>
</symbol>
<symbol overflow="visible" id="glyph2-5">
<path style="stroke:none;" d="M 0.484375 -9.96875 L 0.484375 7.578125 C 0.234375 7.585938 0.0703125 7.613281 0 7.65625 L 0 -9.890625 C 0.0820312 -9.941406 0.242188 -9.96875 0.484375 -9.96875 Z M 0.484375 -9.96875 "/>
</symbol>
<symbol overflow="visible" id="glyph2-6">
<path style="stroke:none;" d="M 3.921875 -0.859375 C 3.921875 -0.421875 3.707031 -0.203125 3.28125 -0.203125 C 3.007812 -0.203125 2.628906 -0.34375 2.140625 -0.625 C 1.660156 -0.914062 1.25 -1.195312 0.90625 -1.46875 L 0.390625 -1.890625 L 0.390625 -3.515625 L 1.078125 -3.40625 L 2.359375 -2.71875 C 3.023438 -2.320312 3.453125 -2.007812 3.640625 -1.78125 C 3.828125 -1.5625 3.921875 -1.253906 3.921875 -0.859375 Z M 3.921875 -0.859375 "/>
</symbol>
<symbol overflow="visible" id="glyph2-7">
<path style="stroke:none;" d="M 1.1875 -4.625 C 1.945312 -4.625 2.632812 -4.414062 3.25 -4 C 3.875 -3.59375 4.1875 -3.191406 4.1875 -2.796875 C 4.1875 -0.117188 4.171875 1.21875 4.140625 1.21875 C 2.484375 1.21875 1.15625 0.691406 0.15625 -0.359375 C 0.0507812 -2.910156 0 -4.582031 0 -5.375 C 0 -5.375 0 -6.113281 0 -7.59375 C 0 -8.0625 0.113281 -8.296875 0.34375 -8.296875 C 0.53125 -8.296875 0.625 -8.070312 0.625 -7.625 L 0.546875 -1.890625 C 1.472656 -0.859375 2.347656 -0.34375 3.171875 -0.34375 C 3.566406 -0.34375 3.765625 -0.546875 3.765625 -0.953125 C 3.765625 -1.296875 3.675781 -1.570312 3.5 -1.78125 C 3.332031 -1.988281 2.941406 -2.273438 2.328125 -2.640625 L 1.1875 -3.28125 Z M 1.1875 -4.625 "/>
</symbol>
<symbol overflow="visible" id="glyph2-8">
<path style="stroke:none;" d="M 0 0 L 0 -4.625 C 0.238281 -4.414062 0.453125 -4.273438 0.640625 -4.203125 C 0.835938 -4.140625 1.113281 -4.109375 1.46875 -4.109375 L 1.46875 -9.828125 C 1.46875 -10.148438 1.53125 -10.3125 1.65625 -10.3125 L 1.6875 -10.3125 C 1.820312 -10.289062 1.890625 -10.015625 1.890625 -9.484375 L 1.890625 1.265625 C 0.628906 1.078125 0 0.65625 0 0 Z M 0 0 "/>
</symbol>
<symbol overflow="visible" id="glyph2-9">
<path style="stroke:none;" d="M -0.125 -0.40625 L 4.46875 -0.40625 L 4.421875 0.40625 L -0.1875 0.40625 Z M -0.125 -0.40625 "/>
</symbol>
<symbol overflow="visible" id="glyph2-10">
<path style="stroke:none;" d="M 0 -14.234375 L 0.484375 -14.234375 L 0.484375 10.5625 L 0 10.5625 Z M 0 -14.234375 "/>
</symbol>
<symbol overflow="visible" id="glyph2-11">
<path style="stroke:none;" d="M 1.46875 0.390625 C 1.09375 0.390625 0.8125 0.421875 0.625 0.484375 C 0.4375 0.554688 0.226562 0.707031 0 0.9375 L 0 -3.703125 C 0 -4.054688 0.175781 -4.34375 0.53125 -4.5625 C 0.882812 -4.78125 1.335938 -4.921875 1.890625 -4.984375 L 1.890625 8.734375 C 1.890625 9.148438 1.8125 9.425781 1.65625 9.5625 C 1.53125 9.5625 1.46875 9.378906 1.46875 9.015625 Z M 1.46875 0.390625 "/>
</symbol>
<symbol overflow="visible" id="glyph2-12">
<path style="stroke:none;" d="M 0 0.078125 L 0 -3 C 0.0195312 -2.945312 0.0703125 -2.828125 0.15625 -2.640625 C 0.238281 -2.460938 0.3125 -2.304688 0.375 -2.171875 C 0.445312 -2.046875 0.535156 -1.925781 0.640625 -1.8125 C 0.742188 -1.707031 0.84375 -1.65625 0.9375 -1.65625 C 1.070312 -1.65625 1.164062 -1.976562 1.21875 -2.625 C 1.28125 -3.269531 1.382812 -3.59375 1.53125 -3.59375 C 1.675781 -3.613281 1.828125 -3.390625 1.984375 -2.921875 C 2.140625 -2.453125 2.304688 -2.21875 2.484375 -2.21875 C 2.597656 -2.21875 2.679688 -2.53125 2.734375 -3.15625 C 2.785156 -3.789062 2.875 -4.113281 3 -4.125 C 3.132812 -4.132812 3.242188 -4.015625 3.328125 -3.765625 C 3.421875 -3.523438 3.492188 -3.285156 3.546875 -3.046875 C 3.597656 -2.804688 3.648438 -2.6875 3.703125 -2.6875 C 3.785156 -2.707031 3.828125 -3.128906 3.828125 -3.953125 C 3.828125 -4.234375 3.707031 -4.425781 3.46875 -4.53125 C 3.238281 -4.644531 2.847656 -4.703125 2.296875 -4.703125 C 1.472656 -4.703125 0.800781 -4.519531 0.28125 -4.15625 L 0.28125 -7.59375 C 0.28125 -8.457031 0.953125 -8.890625 2.296875 -8.890625 C 2.828125 -8.890625 3.289062 -8.789062 3.6875 -8.59375 C 4.09375 -8.394531 4.296875 -8.0625 4.296875 -7.59375 L 4.296875 -1.15625 C 4.296875 -0.832031 4.238281 -0.535156 4.125 -0.265625 C 4.007812 -0.00390625 3.890625 0.132812 3.765625 0.15625 C 3.679688 0.15625 3.601562 0.0976562 3.53125 -0.015625 C 3.46875 -0.140625 3.414062 -0.28125 3.375 -0.4375 C 3.332031 -0.59375 3.273438 -0.726562 3.203125 -0.84375 C 3.128906 -0.96875 3.0625 -1.03125 3 -1.03125 C 2.914062 -1.019531 2.847656 -0.738281 2.796875 -0.1875 C 2.753906 0.351562 2.648438 0.625 2.484375 0.625 C 2.304688 0.625 2.160156 0.53125 2.046875 0.34375 C 1.941406 0.164062 1.847656 -0.0078125 1.765625 -0.1875 C 1.691406 -0.375 1.613281 -0.46875 1.53125 -0.46875 C 1.476562 -0.445312 1.398438 -0.160156 1.296875 0.390625 C 1.191406 0.941406 1.046875 1.222656 0.859375 1.234375 C 0.660156 1.253906 0.46875 1.117188 0.28125 0.828125 C 0.09375 0.546875 0 0.296875 0 0.078125 Z M 0 0.078125 "/>
</symbol>
<symbol overflow="visible" id="glyph2-13">
<path style="stroke:none;" d="M 3.3125 0.703125 C 3.21875 0.703125 3.035156 0.695312 2.765625 0.6875 C 2.492188 0.675781 2.25 0.671875 2.03125 0.671875 C 1.8125 0.671875 1.5625 0.675781 1.28125 0.6875 C 1 0.695312 0.8125 0.703125 0.71875 0.703125 C 0.414062 0.703125 0.21875 0.6875 0.125 0.65625 C 0.0390625 0.632812 0 0.570312 0 0.46875 L 0 -3 C 0 -3.15625 0.0507812 -3.234375 0.15625 -3.234375 L 0.265625 -3.234375 C 0.378906 -3.210938 0.9375 -3.203125 1.9375 -3.203125 L 2.796875 -3.203125 C 3.097656 -3.203125 3.304688 -3.207031 3.421875 -3.21875 C 3.535156 -3.226562 3.628906 -3.257812 3.703125 -3.3125 C 3.785156 -3.375 3.828125 -3.484375 3.828125 -3.640625 C 3.828125 -4.421875 3.316406 -4.8125 2.296875 -4.8125 C 1.472656 -4.8125 0.800781 -4.628906 0.28125 -4.265625 L 0.28125 -7.59375 C 0.28125 -8.457031 0.953125 -8.890625 2.296875 -8.890625 C 2.828125 -8.890625 3.289062 -8.789062 3.6875 -8.59375 C 4.09375 -8.394531 4.296875 -8.0625 4.296875 -7.59375 L 4.296875 0.4375 C 4.296875 0.539062 4.226562 0.609375 4.09375 0.640625 C 3.96875 0.679688 3.707031 0.703125 3.3125 0.703125 Z M 3.3125 0.703125 "/>
</symbol>
<symbol overflow="visible" id="glyph3-0">
<path style="stroke:none;" d="M 0.328125 0 L 0.328125 -6.640625 L 2.96875 -6.640625 L 2.96875 0 Z M 0.65625 -0.328125 L 2.640625 -0.328125 L 2.640625 -6.3125 L 0.65625 -6.3125 Z M 0.65625 -0.328125 "/>
</symbol>
<symbol overflow="visible" id="glyph3-1">
<path style="stroke:none;" d="M 2.40625 -3.875 L 2.40625 -3.953125 C 2.132812 -3.785156 1.960938 -3.664062 1.890625 -3.59375 C 1.816406 -3.53125 1.675781 -3.378906 1.46875 -3.140625 C 1.320312 -2.984375 1.179688 -2.90625 1.046875 -2.90625 C 0.828125 -2.9375 0.707031 -3.050781 0.6875 -3.25 C 0.6875 -3.4375 0.816406 -3.570312 1.078125 -3.65625 C 1.140625 -3.664062 1.21875 -3.679688 1.3125 -3.703125 C 1.65625 -3.765625 1.957031 -3.875 2.21875 -4.03125 C 2.25 -4.050781 2.285156 -4.070312 2.328125 -4.09375 L 2.21875 -4.171875 C 2.03125 -4.296875 1.742188 -4.394531 1.359375 -4.46875 C 0.921875 -4.539062 0.695312 -4.695312 0.6875 -4.9375 C 0.6875 -5.101562 0.765625 -5.21875 0.921875 -5.28125 C 0.960938 -5.289062 1 -5.296875 1.03125 -5.296875 C 1.164062 -5.296875 1.320312 -5.1875 1.5 -4.96875 C 1.78125 -4.664062 2.066406 -4.429688 2.359375 -4.265625 L 2.40625 -4.25 L 2.40625 -4.375 C 2.40625 -4.644531 2.351562 -4.945312 2.25 -5.28125 C 2.1875 -5.507812 2.15625 -5.679688 2.15625 -5.796875 C 2.15625 -5.960938 2.234375 -6.070312 2.390625 -6.125 C 2.421875 -6.132812 2.457031 -6.140625 2.5 -6.140625 C 2.664062 -6.140625 2.78125 -6.0625 2.84375 -5.90625 C 2.851562 -5.863281 2.859375 -5.816406 2.859375 -5.765625 C 2.859375 -5.671875 2.828125 -5.519531 2.765625 -5.3125 C 2.648438 -4.988281 2.59375 -4.710938 2.59375 -4.484375 L 2.59375 -4.234375 L 2.65625 -4.265625 C 2.882812 -4.390625 3.125 -4.601562 3.375 -4.90625 C 3.613281 -5.175781 3.800781 -5.3125 3.9375 -5.3125 C 4.125 -5.3125 4.238281 -5.222656 4.28125 -5.046875 C 4.289062 -5.003906 4.296875 -4.960938 4.296875 -4.921875 C 4.296875 -4.734375 4.191406 -4.609375 3.984375 -4.546875 C 3.921875 -4.535156 3.851562 -4.519531 3.78125 -4.5 C 3.445312 -4.445312 3.125 -4.335938 2.8125 -4.171875 L 2.671875 -4.09375 L 2.75 -4.03125 C 3.019531 -3.863281 3.34375 -3.753906 3.71875 -3.703125 C 4.0625 -3.648438 4.253906 -3.539062 4.296875 -3.375 L 4.3125 -3.265625 C 4.3125 -3.054688 4.21875 -2.9375 4.03125 -2.90625 L 3.953125 -2.890625 C 3.785156 -2.890625 3.585938 -3.03125 3.359375 -3.3125 C 3.097656 -3.625 2.863281 -3.828125 2.65625 -3.921875 L 2.59375 -3.953125 L 2.59375 -3.875 C 2.59375 -3.488281 2.660156 -3.117188 2.796875 -2.765625 C 2.847656 -2.617188 2.875 -2.507812 2.875 -2.4375 C 2.875 -2.269531 2.789062 -2.148438 2.625 -2.078125 C 2.582031 -2.054688 2.535156 -2.046875 2.484375 -2.046875 C 2.328125 -2.046875 2.21875 -2.117188 2.15625 -2.265625 C 2.144531 -2.316406 2.140625 -2.363281 2.140625 -2.40625 C 2.140625 -2.53125 2.175781 -2.6875 2.25 -2.875 C 2.351562 -3.164062 2.40625 -3.414062 2.40625 -3.625 Z M 2.40625 -3.875 "/>
</symbol>
</g>
<clipPath id="clip1">
  <path d="M 42 6 L 347.761719 6 L 347.761719 8 L 42 8 Z M 42 6 "/>
</clipPath>
<clipPath id="clip2">
  <path d="M 42 14 L 347.761719 14 L 347.761719 16 L 42 16 Z M 42 14 "/>
</clipPath>
<clipPath id="clip3">
  <path d="M 42 23 L 347.761719 23 L 347.761719 24 L 42 24 Z M 42 23 "/>
</clipPath>
<clipPath id="clip4">
  <path d="M 42 31 L 347.761719 31 L 347.761719 32 L 42 32 Z M 42 31 "/>
</clipPath>
<clipPath id="clip5">
  <path d="M 345 26 L 347.761719 26 L 347.761719 39 L 345 39 Z M 345 26 "/>
</clipPath>
<clipPath id="clip6">
  <path d="M 0 62 L 347.761719 62 L 347.761719 63 L 0 63 Z M 0 62 "/>
</clipPath>
<clipPath id="clip7">
  <path d="M 0 70 L 347.761719 70 L 347.761719 71 L 0 71 Z M 0 70 "/>
</clipPath>
<clipPath id="clip8">
  <path d="M 0 78 L 347.761719 78 L 347.761719 80 L 0 80 Z M 0 78 "/>
</clipPath>
<clipPath id="clip9">
  <path d="M 0 86 L 347.761719 86 L 347.761719 88 L 0 88 Z M 0 86 "/>
</clipPath>
<clipPath id="clip10">
  <path d="M 345 59 L 347.761719 59 L 347.761719 74 L 345 74 Z M 345 59 "/>
</clipPath>
<clipPath id="clip11">
  <path d="M 0 118 L 347.761719 118 L 347.761719 119 L 0 119 Z M 0 118 "/>
</clipPath>
<clipPath id="clip12">
  <path d="M 0 126 L 347.761719 126 L 347.761719 127 L 0 127 Z M 0 126 "/>
</clipPath>
<clipPath id="clip13">
  <path d="M 0 134 L 347.761719 134 L 347.761719 135 L 0 135 Z M 0 134 "/>
</clipPath>
<clipPath id="clip14">
  <path d="M 0 142 L 347.761719 142 L 347.761719 143 L 0 143 Z M 0 142 "/>
</clipPath>
<clipPath id="clip15">
  <path d="M 345 122 L 347.761719 122 L 347.761719 134 L 345 134 Z M 345 122 "/>
</clipPath>
<clipPath id="clip16">
  <path d="M 0 173 L 347.761719 173 L 347.761719 175 L 0 175 Z M 0 173 "/>
</clipPath>
<clipPath id="clip17">
  <path d="M 0 181 L 347.761719 181 L 347.761719 183 L 0 183 Z M 0 181 "/>
</clipPath>
<clipPath id="clip18">
  <path d="M 0 189 L 347.761719 189 L 347.761719 191 L 0 191 Z M 0 189 "/>
</clipPath>
<clipPath id="clip19">
  <path d="M 0 198 L 347.761719 198 L 347.761719 199 L 0 199 Z M 0 198 "/>
</clipPath>
</defs>
<g id="surface1">
<g style="fill:rgb(0%,0%,0%);fill-opacity:1;">
  <use xlink:href="#glyph0-1" x="5.669" y="52.797"/>
</g>
<g style="fill:rgb(0%,0%,0%);fill-opacity:1;">
  <use xlink:href="#glyph1-1" x="15.896" y="12.388"/>
  <use xlink:href="#glyph1-2" x="23.089026" y="12.388"/>
</g>
<g clip-path="url(#clip1)" clip-rule="nonzero">
<path style="fill:none;stroke-width:0.388;stroke-linecap:butt;stroke-linejoin:miter;stroke:rgb(0%,0%,0%);stroke-opacity:1;stroke-miterlimit:10;" d="M 0.00175 -0.0010625 L 305.419719 -0.0010625 " transform="matrix(1,0,0,-1,42.342,6.913)"/>
</g>
<g clip-path="url(#clip2)" clip-rule="nonzero">
<path style="fill:none;stroke-width:0.388;stroke-linecap:butt;stroke-linejoin:miter;stroke:rgb(0%,0%,0%);stroke-opacity:1;stroke-miterlimit:10;" d="M 0.00175 -0.0006875 L 305.419719 -0.0006875 " transform="matrix(1,0,0,-1,42.342,15.054)"/>
</g>
<g clip-path="url(#clip3)" clip-rule="nonzero">
<path style="fill:none;stroke-width:0.388;stroke-linecap:butt;stroke-linejoin:miter;stroke:rgb(0%,0%,0%);stroke-opacity:1;stroke-miterlimit:10;" d="M 0.00175 -0.0013125 L 305.419719 -0.0013125 " transform="matrix(1,0,0,-1,42.342,23.194)"/>
</g>
<g clip-path="url(#clip4)" clip-rule="nonzero">
<path style="fill:none;stroke-width:0.388;stroke-linecap:butt;stroke-linejoin:miter;stroke:rgb(0%,0%,0%);stroke-opacity:1;stroke-miterlimit:10;" d="M 0.00175 -0.0009375 L 305.419719 -0.0009375 " transform="matrix(1,0,0,-1,42.342,31.335)"/>
</g>
<g style="fill:rgb(0%,0%,0%);fill-opacity:1;">
  <use xlink:href="#glyph2-1" x="42.342" y="12.792"/>
</g>
<g style="fill:rgb(0%,0%,0%);fill-opacity:1;">
  <use xlink:href="#glyph1-3" x="53.608" y="52.797"/>
</g>
<g style="fill:rgb(0%,0%,0%);fill-opacity:1;">
  <use xlink:href="#glyph2-2" x="51.463" y="25.003"/>
</g>
<g style="fill:rgb(0%,0%,0%);fill-opacity:1;">
  <use xlink:href="#glyph1-4" x="57.085" y="52.797"/>
</g>
<g style="fill:rgb(0%,0%,0%);fill-opacity:1;">
  <use xlink:href="#glyph1-5" x="62.315386" y="52.797"/>
</g>
<g style="fill:rgb(0%,0%,0%);fill-opacity:1;">
  <use xlink:href="#glyph2-2" x="62.556" y="29.073"/>
</g>
<g style="fill:rgb(0%,0%,0%);fill-opacity:1;">
  <use xlink:href="#glyph2-3" x="64.262" y="35.333"/>
</g>
<g style="fill:rgb(0%,0%,0%);fill-opacity:1;">
  <use xlink:href="#glyph1-6" x="70.913" y="52.797"/>
</g>
<g style="fill:rgb(0%,0%,0%);fill-opacity:1;">
  <use xlink:href="#glyph1-5" x="77.368791" y="52.797"/>
  <use xlink:href="#glyph1-3" x="82.140895" y="52.797"/>
</g>
<g style="fill:rgb(0%,0%,0%);fill-opacity:1;">
  <use xlink:href="#glyph2-2" x="77.61" y="33.144"/>
</g>
<g style="fill:rgb(0%,0%,0%);fill-opacity:1;">
  <use xlink:href="#glyph1-7" x="85.459" y="52.797"/>
  <use xlink:href="#glyph1-8" x="90.998228" y="52.797"/>
  <use xlink:href="#glyph1-3" x="93.857506" y="52.797"/>
</g>
<g style="fill:rgb(0%,0%,0%);fill-opacity:1;">
  <use xlink:href="#glyph2-2" x="90.282" y="37.214"/>
</g>
<g style="fill:rgb(0%,0%,0%);fill-opacity:1;">
  <use xlink:href="#glyph2-3" x="91.988" y="41.642"/>
</g>
<g style="fill:rgb(0%,0%,0%);fill-opacity:1;">
  <use xlink:href="#glyph1-9" x="97.175" y="52.797"/>
  <use xlink:href="#glyph1-10" x="102.973256" y="52.797"/>
</g>
<g style="fill:rgb(0%,0%,0%);fill-opacity:1;">
  <use xlink:href="#glyph2-2" x="103.319" y="33.144"/>
</g>
<g style="fill:rgb(0%,0%,0%);fill-opacity:1;">
  <use xlink:href="#glyph1-11" x="111.78" y="52.797"/>
  <use xlink:href="#glyph1-12" x="116.203412" y="52.797"/>
  <use xlink:href="#glyph1-3" x="123.755093" y="52.797"/>
</g>
<g style="fill:rgb(0%,0%,0%);fill-opacity:1;">
  <use xlink:href="#glyph2-2" x="117.834" y="25.003"/>
</g>
<g style="fill:rgb(0%,0%,0%);fill-opacity:1;">
  <use xlink:href="#glyph2-3" x="119.54" y="29.431"/>
</g>
<g style="fill:rgb(0%,0%,0%);fill-opacity:1;">
  <use xlink:href="#glyph1-13" x="127.073" y="52.797"/>
  <use xlink:href="#glyph1-14" x="129.972128" y="52.797"/>
  <use xlink:href="#glyph1-3" x="135.41173" y="52.797"/>
</g>
<g style="fill:rgb(0%,0%,0%);fill-opacity:1;">
  <use xlink:href="#glyph2-2" x="130.547" y="20.933"/>
</g>
<g style="fill:rgb(0%,0%,0%);fill-opacity:1;">
  <use xlink:href="#glyph1-15" x="138.729" y="52.797"/>
</g>
<g style="fill:rgb(0%,0%,0%);fill-opacity:1;">
  <use xlink:href="#glyph1-16" x="142.763869" y="52.797"/>
  <use xlink:href="#glyph1-17" x="148.771341" y="52.797"/>
  <use xlink:href="#glyph1-18" x="157.568352" y="52.797"/>
</g>
<g style="fill:rgb(0%,0%,0%);fill-opacity:1;">
  <use xlink:href="#glyph2-2" x="143.623" y="25.003"/>
</g>
<g style="fill:rgb(0%,0%,0%);fill-opacity:1;">
  <use xlink:href="#glyph2-4" x="149.251" y="22.723"/>
</g>
<g style="fill:rgb(0%,0%,0%);fill-opacity:1;">
  <use xlink:href="#glyph3-1" x="164.586" y="52.797"/>
</g>
<g style="fill:rgb(0%,0%,0%);fill-opacity:1;">
  <use xlink:href="#glyph2-5" x="162.499" y="20.933"/>
</g>
<g style="fill:rgb(0%,0%,0%);fill-opacity:1;">
  <use xlink:href="#glyph1-19" x="174.013" y="52.797"/>
</g>
<g style="fill:rgb(0%,0%,0%);fill-opacity:1;">
  <use xlink:href="#glyph2-2" x="175.744" y="16.863"/>
</g>
<g style="fill:rgb(0%,0%,0%);fill-opacity:1;">
  <use xlink:href="#glyph2-3" x="177.45" y="21.291"/>
</g>
<g style="fill:rgb(0%,0%,0%);fill-opacity:1;">
  <use xlink:href="#glyph1-4" x="181.764" y="52.797"/>
</g>
<g style="fill:rgb(0%,0%,0%);fill-opacity:1;">
  <use xlink:href="#glyph1-5" x="186.994386" y="52.797"/>
</g>
<g style="fill:rgb(0%,0%,0%);fill-opacity:1;">
  <use xlink:href="#glyph2-2" x="187.236" y="8.722"/>
</g>
<g style="fill:rgb(0%,0%,0%);fill-opacity:1;">
  <use xlink:href="#glyph1-20" x="195.593" y="52.797"/>
  <use xlink:href="#glyph1-14" x="203.304083" y="52.797"/>
</g>
<g style="fill:rgb(100%,100%,100%);fill-opacity:1;">
  <use xlink:href="#glyph2-6" x="197.496" y="12.792"/>
</g>
<g style="fill:rgb(0%,0%,0%);fill-opacity:1;">
  <use xlink:href="#glyph2-7" x="197.496" y="12.792"/>
</g>
<g style="fill:rgb(0%,0%,0%);fill-opacity:1;">
  <use xlink:href="#glyph2-2" x="203.879228" y="12.792"/>
</g>
<g style="fill:rgb(0%,0%,0%);fill-opacity:1;">
  <use xlink:href="#glyph2-3" x="205.585" y="19.052"/>
</g>
<g style="fill:rgb(0%,0%,0%);fill-opacity:1;">
  <use xlink:href="#glyph1-17" x="208.744" y="52.797"/>
  <use xlink:href="#glyph1-21" x="217.541011" y="52.797"/>
  <use xlink:href="#glyph1-3" x="220.440139" y="52.797"/>
</g>
<g style="fill:rgb(0%,0%,0%);fill-opacity:1;">
  <use xlink:href="#glyph2-2" x="216.845" y="20.933"/>
</g>
<g style="fill:rgb(0%,0%,0%);fill-opacity:1;">
  <use xlink:href="#glyph1-9" x="223.757" y="52.797"/>
  <use xlink:href="#glyph1-10" x="229.555256" y="52.797"/>
</g>
<g style="fill:rgb(0%,0%,0%);fill-opacity:1;">
  <use xlink:href="#glyph2-2" x="229.901" y="16.863"/>
</g>
<g style="fill:rgb(0%,0%,0%);fill-opacity:1;">
  <use xlink:href="#glyph2-3" x="231.607" y="21.291"/>
</g>
<g style="fill:rgb(0%,0%,0%);fill-opacity:1;">
  <use xlink:href="#glyph1-19" x="239.688" y="52.797"/>
  <use xlink:href="#glyph1-9" x="247.438934" y="52.797"/>
</g>
<g style="fill:rgb(0%,0%,0%);fill-opacity:1;">
  <use xlink:href="#glyph2-2" x="241.419" y="20.933"/>
</g>
<g style="fill:rgb(0%,0%,0%);fill-opacity:1;">
  <use xlink:href="#glyph1-7" x="253.237" y="52.797"/>
</g>
<g style="fill:rgb(0%,0%,0%);fill-opacity:1;">
  <use xlink:href="#glyph1-5" x="258.576975" y="52.797"/>
  <use xlink:href="#glyph1-3" x="263.34908" y="52.797"/>
</g>
<g style="fill:rgb(0%,0%,0%);fill-opacity:1;">
  <use xlink:href="#glyph2-2" x="258.818" y="25.003"/>
</g>
<g style="fill:rgb(0%,0%,0%);fill-opacity:1;">
  <use xlink:href="#glyph2-3" x="260.524" y="29.431"/>
</g>
<g style="fill:rgb(0%,0%,0%);fill-opacity:1;">
  <use xlink:href="#glyph1-13" x="266.667" y="52.797"/>
  <use xlink:href="#glyph1-14" x="269.566128" y="52.797"/>
  <use xlink:href="#glyph1-3" x="275.00573" y="52.797"/>
</g>
<g style="fill:rgb(0%,0%,0%);fill-opacity:1;">
  <use xlink:href="#glyph2-2" x="270.141" y="16.863"/>
</g>
<g style="fill:rgb(0%,0%,0%);fill-opacity:1;">
  <use xlink:href="#glyph1-15" x="278.323" y="52.797"/>
</g>
<g style="fill:rgb(0%,0%,0%);fill-opacity:1;">
  <use xlink:href="#glyph1-16" x="282.357869" y="52.797"/>
  <use xlink:href="#glyph1-17" x="288.365341" y="52.797"/>
  <use xlink:href="#glyph1-22" x="297.162352" y="52.797"/>
</g>
<g style="fill:rgb(0%,0%,0%);fill-opacity:1;">
  <use xlink:href="#glyph2-2" x="283.217" y="20.933"/>
</g>
<g style="fill:rgb(0%,0%,0%);fill-opacity:1;">
  <use xlink:href="#glyph2-4" x="288.845" y="21.503"/>
</g>
<g style="fill:rgb(0%,0%,0%);fill-opacity:1;">
  <use xlink:href="#glyph2-5" x="298.949" y="20.933"/>
</g>
<g style="fill:rgb(0%,0%,0%);fill-opacity:1;">
  <use xlink:href="#glyph1-23" x="303.967" y="52.797"/>
  <use xlink:href="#glyph1-10" x="309.197386" y="52.797"/>
  <use xlink:href="#glyph1-13" x="314.178706" y="52.797"/>
</g>
<g style="fill:rgb(0%,0%,0%);fill-opacity:1;">
  <use xlink:href="#glyph2-2" x="309.543" y="25.003"/>
</g>
<g style="fill:rgb(0%,0%,0%);fill-opacity:1;">
  <use xlink:href="#glyph1-4" x="317.078" y="52.797"/>
</g>
<g style="fill:rgb(0%,0%,0%);fill-opacity:1;">
  <use xlink:href="#glyph1-5" x="322.308386" y="52.797"/>
</g>
<g style="fill:rgb(0%,0%,0%);fill-opacity:1;">
  <use xlink:href="#glyph2-2" x="322.55" y="29.073"/>
</g>
<g style="fill:rgb(0%,0%,0%);fill-opacity:1;">
  <use xlink:href="#glyph2-3" x="324.255" y="35.333"/>
</g>
<g style="fill:rgb(0%,0%,0%);fill-opacity:1;">
  <use xlink:href="#glyph1-15" x="330.907" y="52.797"/>
</g>
<g style="fill:rgb(0%,0%,0%);fill-opacity:1;">
  <use xlink:href="#glyph1-24" x="334.692803" y="52.797"/>
  <use xlink:href="#glyph1-3" x="339.674123" y="52.797"/>
</g>
<g style="fill:rgb(0%,0%,0%);fill-opacity:1;">
  <use xlink:href="#glyph2-2" x="335.038" y="33.144"/>
</g>
<g clip-path="url(#clip5)" clip-rule="nonzero">
<g style="fill:rgb(0%,0%,0%);fill-opacity:1;">
  <use xlink:href="#glyph2-8" x="345.848" y="37.214"/>
</g>
</g>
<g clip-path="url(#clip6)" clip-rule="nonzero">
<path style="fill:none;stroke-width:0.388;stroke-linecap:butt;stroke-linejoin:miter;stroke:rgb(0%,0%,0%);stroke-opacity:1;stroke-miterlimit:10;" d="M 0 0.00165625 L 347.761719 0.00165625 " transform="matrix(1,0,0,-1,0,62.529)"/>
</g>
<g clip-path="url(#clip7)" clip-rule="nonzero">
<path style="fill:none;stroke-width:0.388;stroke-linecap:butt;stroke-linejoin:miter;stroke:rgb(0%,0%,0%);stroke-opacity:1;stroke-miterlimit:10;" d="M 0 -0.001875 L 347.761719 -0.001875 " transform="matrix(1,0,0,-1,0,70.67)"/>
</g>
<g clip-path="url(#clip8)" clip-rule="nonzero">
<path style="fill:none;stroke-width:0.388;stroke-linecap:butt;stroke-linejoin:miter;stroke:rgb(0%,0%,0%);stroke-opacity:1;stroke-miterlimit:10;" d="M 0 -0.0015 L 347.761719 -0.0015 " transform="matrix(1,0,0,-1,0,78.811)"/>
</g>
<g clip-path="url(#clip9)" clip-rule="nonzero">
<path style="fill:none;stroke-width:0.388;stroke-linecap:butt;stroke-linejoin:miter;stroke:rgb(0%,0%,0%);stroke-opacity:1;stroke-miterlimit:10;" d="M 0 0.00178125 L 347.761719 0.00178125 " transform="matrix(1,0,0,-1,0,86.951)"/>
</g>
<g style="fill:rgb(0%,0%,0%);fill-opacity:1;">
  <use xlink:href="#glyph2-1" x="0" y="68.409"/>
</g>
<g style="fill:rgb(0%,0%,0%);fill-opacity:1;">
  <use xlink:href="#glyph1-25" x="5.418" y="108.413"/>
  <use xlink:href="#glyph1-21" x="11.505173" y="108.413"/>
  <use xlink:href="#glyph1-26" x="14.404301" y="108.413"/>
  <use xlink:href="#glyph1-18" x="19.545024" y="108.413"/>
</g>
<g style="fill:rgb(0%,0%,0%);fill-opacity:1;">
  <use xlink:href="#glyph2-2" x="10.81" y="92.83"/>
</g>
<g style="fill:rgb(0%,0%,0%);fill-opacity:1;">
  <use xlink:href="#glyph2-3" x="12.515" y="97.258"/>
</g>
<g style="fill:rgb(0%,0%,0%);fill-opacity:1;">
  <use xlink:href="#glyph1-27" x="26.137" y="108.413"/>
  <use xlink:href="#glyph1-10" x="30.361159" y="108.413"/>
  <use xlink:href="#glyph1-13" x="35.342479" y="108.413"/>
</g>
<g style="fill:rgb(0%,0%,0%);fill-opacity:1;">
  <use xlink:href="#glyph2-2" x="30.707" y="88.76"/>
</g>
<g style="fill:rgb(0%,0%,0%);fill-opacity:1;">
  <use xlink:href="#glyph1-4" x="38.242" y="108.413"/>
</g>
<g style="fill:rgb(0%,0%,0%);fill-opacity:1;">
  <use xlink:href="#glyph1-5" x="43.472386" y="108.413"/>
</g>
<g style="fill:rgb(0%,0%,0%);fill-opacity:1;">
  <use xlink:href="#glyph2-2" x="43.713" y="80.62"/>
</g>
<g style="fill:rgb(0%,0%,0%);fill-opacity:1;">
  <use xlink:href="#glyph2-3" x="45.419" y="85.048"/>
</g>
<g style="fill:rgb(0%,0%,0%);fill-opacity:1;">
  <use xlink:href="#glyph1-28" x="52.345" y="108.413"/>
  <use xlink:href="#glyph1-29" x="58.332547" y="108.413"/>
  <use xlink:href="#glyph1-15" x="63.772148" y="108.413"/>
</g>
<g style="fill:rgb(0%,0%,0%);fill-opacity:1;">
  <use xlink:href="#glyph2-2" x="58.908" y="76.549"/>
</g>
<g style="fill:rgb(0%,0%,0%);fill-opacity:1;">
  <use xlink:href="#glyph1-30" x="67.708" y="108.413"/>
  <use xlink:href="#glyph1-10" x="70.955821" y="108.413"/>
  <use xlink:href="#glyph1-18" x="75.937141" y="108.413"/>
</g>
<g style="fill:rgb(0%,0%,0%);fill-opacity:1;">
  <use xlink:href="#glyph2-2" x="71.301" y="80.62"/>
</g>
<g style="fill:rgb(0%,0%,0%);fill-opacity:1;">
  <use xlink:href="#glyph2-9" x="71.301" y="73.696"/>
</g>
<g style="fill:rgb(0%,0%,0%);fill-opacity:1;">
  <use xlink:href="#glyph2-3" x="73.007" y="85.048"/>
</g>
<g style="fill:rgb(0%,0%,0%);fill-opacity:1;">
  <use xlink:href="#glyph2-5" x="81.818" y="76.549"/>
</g>
<g style="fill:rgb(0%,0%,0%);fill-opacity:1;">
  <use xlink:href="#glyph1-31" x="87.636" y="108.413"/>
  <use xlink:href="#glyph1-26" x="93.723173" y="108.413"/>
</g>
<g style="fill:rgb(0%,0%,0%);fill-opacity:1;">
  <use xlink:href="#glyph2-2" x="88.535" y="72.479"/>
</g>
<g style="fill:rgb(0%,0%,0%);fill-opacity:1;">
  <use xlink:href="#glyph1-32" x="102.966" y="108.413"/>
  <use xlink:href="#glyph1-16" x="108.545078" y="108.413"/>
  <use xlink:href="#glyph1-10" x="114.55255" y="108.413"/>
</g>
<g style="fill:rgb(0%,0%,0%);fill-opacity:1;">
  <use xlink:href="#glyph2-2" x="114.898" y="76.549"/>
</g>
<g style="fill:rgb(0%,0%,0%);fill-opacity:1;">
  <use xlink:href="#glyph2-3" x="116.604" y="82.809"/>
</g>
<g style="fill:rgb(0%,0%,0%);fill-opacity:1;">
  <use xlink:href="#glyph1-17" x="123.635" y="108.413"/>
  <use xlink:href="#glyph1-16" x="132.432011" y="108.413"/>
  <use xlink:href="#glyph1-9" x="138.439483" y="108.413"/>
</g>
<g style="fill:rgb(100%,100%,100%);fill-opacity:1;">
  <use xlink:href="#glyph2-6" x="126.908" y="68.409"/>
</g>
<g style="fill:rgb(0%,0%,0%);fill-opacity:1;">
  <use xlink:href="#glyph2-7" x="126.908" y="68.409"/>
</g>
<g style="fill:rgb(0%,0%,0%);fill-opacity:1;">
  <use xlink:href="#glyph2-2" x="133.291228" y="68.409"/>
</g>
<g style="fill:rgb(0%,0%,0%);fill-opacity:1;">
  <use xlink:href="#glyph1-25" x="144.238" y="108.413"/>
  <use xlink:href="#glyph1-29" x="150.325173" y="108.413"/>
</g>
<g style="fill:rgb(0%,0%,0%);fill-opacity:1;">
  <use xlink:href="#glyph2-2" x="150.9" y="72.479"/>
</g>
<g style="fill:rgb(0%,0%,0%);fill-opacity:1;">
  <use xlink:href="#glyph2-3" x="152.605" y="76.907"/>
</g>
<g style="fill:rgb(0%,0%,0%);fill-opacity:1;">
  <use xlink:href="#glyph1-13" x="159.866" y="108.413"/>
  <use xlink:href="#glyph1-16" x="162.765128" y="108.413"/>
  <use xlink:href="#glyph1-26" x="168.7726" y="108.413"/>
</g>
<g style="fill:rgb(0%,0%,0%);fill-opacity:1;">
  <use xlink:href="#glyph2-2" x="163.624" y="76.549"/>
</g>
<g style="fill:rgb(0%,0%,0%);fill-opacity:1;">
  <use xlink:href="#glyph1-5" x="178.015" y="108.413"/>
  <use xlink:href="#glyph1-27" x="182.787105" y="108.413"/>
</g>
<g style="fill:rgb(0%,0%,0%);fill-opacity:1;">
  <use xlink:href="#glyph1-30" x="186.861824" y="108.413"/>
</g>
<g style="fill:rgb(0%,0%,0%);fill-opacity:1;">
  <use xlink:href="#glyph2-2" x="178.256" y="88.76"/>
</g>
<g style="fill:rgb(0%,0%,0%);fill-opacity:1;">
  <use xlink:href="#glyph2-3" x="179.962" y="93.188"/>
</g>
<g style="fill:rgb(0%,0%,0%);fill-opacity:1;">
  <use xlink:href="#glyph1-29" x="194.211" y="108.413"/>
  <use xlink:href="#glyph1-15" x="199.650601" y="108.413"/>
</g>
<g style="fill:rgb(0%,0%,0%);fill-opacity:1;">
  <use xlink:href="#glyph2-2" x="194.786" y="76.549"/>
</g>
<g style="fill:rgb(0%,0%,0%);fill-opacity:1;">
  <use xlink:href="#glyph1-30" x="203.586" y="108.413"/>
  <use xlink:href="#glyph1-10" x="206.833821" y="108.413"/>
  <use xlink:href="#glyph1-22" x="211.815141" y="108.413"/>
</g>
<g style="fill:rgb(0%,0%,0%);fill-opacity:1;">
  <use xlink:href="#glyph2-2" x="207.179" y="80.62"/>
</g>
<g style="fill:rgb(0%,0%,0%);fill-opacity:1;">
  <use xlink:href="#glyph2-4" x="212.829" y="78.339"/>
</g>
<g style="fill:rgb(0%,0%,0%);fill-opacity:1;">
  <use xlink:href="#glyph2-10" x="221.103" y="76.549"/>
</g>
<g style="fill:rgb(0%,0%,0%);fill-opacity:1;">
  <use xlink:href="#glyph1-33" x="218.917" y="108.413"/>
  <use xlink:href="#glyph1-10" x="226.518494" y="108.413"/>
  <use xlink:href="#glyph1-16" x="231.499814" y="108.413"/>
</g>
<g style="fill:rgb(0%,0%,0%);fill-opacity:1;">
  <use xlink:href="#glyph2-2" x="229.868" y="80.62"/>
</g>
<g style="fill:rgb(0%,0%,0%);fill-opacity:1;">
  <use xlink:href="#glyph1-25" x="237.507" y="108.413"/>
  <use xlink:href="#glyph1-5" x="243.594173" y="108.413"/>
</g>
<g style="fill:rgb(0%,0%,0%);fill-opacity:1;">
  <use xlink:href="#glyph2-2" x="243.836" y="76.549"/>
</g>
<g style="fill:rgb(0%,0%,0%);fill-opacity:1;">
  <use xlink:href="#glyph2-3" x="245.541" y="82.809"/>
</g>
<g style="fill:rgb(0%,0%,0%);fill-opacity:1;">
  <use xlink:href="#glyph1-1" x="252.468" y="108.413"/>
</g>
<g style="fill:rgb(0%,0%,0%);fill-opacity:1;">
  <use xlink:href="#glyph1-21" x="259.41196" y="108.413"/>
  <use xlink:href="#glyph1-15" x="262.311088" y="108.413"/>
</g>
<g style="fill:rgb(0%,0%,0%);fill-opacity:1;">
  <use xlink:href="#glyph2-2" x="258.717" y="72.479"/>
</g>
<g style="fill:rgb(0%,0%,0%);fill-opacity:1;">
  <use xlink:href="#glyph1-7" x="266.246" y="108.413"/>
  <use xlink:href="#glyph1-29" x="271.785228" y="108.413"/>
</g>
<g style="fill:rgb(0%,0%,0%);fill-opacity:1;">
  <use xlink:href="#glyph2-2" x="272.36" y="72.479"/>
</g>
<g style="fill:rgb(0%,0%,0%);fill-opacity:1;">
  <use xlink:href="#glyph2-3" x="274.066" y="76.907"/>
</g>
<g style="fill:rgb(0%,0%,0%);fill-opacity:1;">
  <use xlink:href="#glyph1-7" x="281.327" y="108.413"/>
  <use xlink:href="#glyph1-13" x="286.866228" y="108.413"/>
  <use xlink:href="#glyph1-29" x="289.765356" y="108.413"/>
  <use xlink:href="#glyph1-3" x="295.204958" y="108.413"/>
</g>
<g style="fill:rgb(0%,0%,0%);fill-opacity:1;">
  <use xlink:href="#glyph2-2" x="290.34" y="76.549"/>
</g>
<g style="fill:rgb(0%,0%,0%);fill-opacity:1;">
  <use xlink:href="#glyph1-15" x="298.522" y="108.413"/>
  <use xlink:href="#glyph1-21" x="302.457243" y="108.413"/>
  <use xlink:href="#glyph1-3" x="305.356371" y="108.413"/>
</g>
<g style="fill:rgb(0%,0%,0%);fill-opacity:1;">
  <use xlink:href="#glyph2-2" x="301.762" y="72.479"/>
</g>
<g style="fill:rgb(0%,0%,0%);fill-opacity:1;">
  <use xlink:href="#glyph2-3" x="303.468" y="76.907"/>
</g>
<g style="fill:rgb(0%,0%,0%);fill-opacity:1;">
  <use xlink:href="#glyph1-14" x="314.694" y="108.413"/>
  <use xlink:href="#glyph1-3" x="320.133601" y="108.413"/>
</g>
<g style="fill:rgb(100%,100%,100%);fill-opacity:1;">
  <use xlink:href="#glyph2-6" x="308.887" y="68.409"/>
</g>
<g style="fill:rgb(0%,0%,0%);fill-opacity:1;">
  <use xlink:href="#glyph2-7" x="308.887" y="68.409"/>
</g>
<g style="fill:rgb(0%,0%,0%);fill-opacity:1;">
  <use xlink:href="#glyph2-2" x="315.270228" y="68.409"/>
</g>
<g style="fill:rgb(0%,0%,0%);fill-opacity:1;">
  <use xlink:href="#glyph1-27" x="323.452" y="108.413"/>
  <use xlink:href="#glyph1-10" x="327.676159" y="108.413"/>
  <use xlink:href="#glyph1-18" x="332.657479" y="108.413"/>
</g>
<g style="fill:rgb(0%,0%,0%);fill-opacity:1;">
  <use xlink:href="#glyph2-2" x="328.021" y="72.479"/>
</g>
<g style="fill:rgb(0%,0%,0%);fill-opacity:1;">
  <use xlink:href="#glyph2-9" x="328.021" y="65.555"/>
</g>
<g style="fill:rgb(0%,0%,0%);fill-opacity:1;">
  <use xlink:href="#glyph2-3" x="329.727" y="76.907"/>
</g>
<g style="fill:rgb(0%,0%,0%);fill-opacity:1;">
  <use xlink:href="#glyph2-5" x="338.863" y="76.549"/>
</g>
<g clip-path="url(#clip10)" clip-rule="nonzero">
<g style="fill:rgb(0%,0%,0%);fill-opacity:1;">
  <use xlink:href="#glyph2-11" x="345.874" y="64.338"/>
</g>
</g>
<g clip-path="url(#clip11)" clip-rule="nonzero">
<path style="fill:none;stroke-width:0.388;stroke-linecap:butt;stroke-linejoin:miter;stroke:rgb(0%,0%,0%);stroke-opacity:1;stroke-miterlimit:10;" d="M 0 0.0015 L 347.761719 0.0015 " transform="matrix(1,0,0,-1,0,118.314)"/>
</g>
<g clip-path="url(#clip12)" clip-rule="nonzero">
<path style="fill:none;stroke-width:0.388;stroke-linecap:butt;stroke-linejoin:miter;stroke:rgb(0%,0%,0%);stroke-opacity:1;stroke-miterlimit:10;" d="M 0 0.000875 L 347.761719 0.000875 " transform="matrix(1,0,0,-1,0,126.454)"/>
</g>
<g clip-path="url(#clip13)" clip-rule="nonzero">
<path style="fill:none;stroke-width:0.388;stroke-linecap:butt;stroke-linejoin:miter;stroke:rgb(0%,0%,0%);stroke-opacity:1;stroke-miterlimit:10;" d="M 0 0.00125 L 347.761719 0.00125 " transform="matrix(1,0,0,-1,0,134.595)"/>
</g>
<g clip-path="url(#clip14)" clip-rule="nonzero">
<path style="fill:none;stroke-width:0.388;stroke-linecap:butt;stroke-linejoin:miter;stroke:rgb(0%,0%,0%);stroke-opacity:1;stroke-miterlimit:10;" d="M 0 0.000625 L 347.761719 0.000625 " transform="matrix(1,0,0,-1,0,142.735)"/>
</g>
<g style="fill:rgb(0%,0%,0%);fill-opacity:1;">
  <use xlink:href="#glyph2-1" x="0" y="124.193"/>
</g>
<g style="fill:rgb(0%,0%,0%);fill-opacity:1;">
  <use xlink:href="#glyph1-23" x="4.72" y="164.198"/>
  <use xlink:href="#glyph1-16" x="9.950386" y="164.198"/>
  <use xlink:href="#glyph1-3" x="15.957858" y="164.198"/>
</g>
<g style="fill:rgb(0%,0%,0%);fill-opacity:1;">
  <use xlink:href="#glyph2-2" x="10.81" y="120.123"/>
</g>
<g style="fill:rgb(0%,0%,0%);fill-opacity:1;">
  <use xlink:href="#glyph1-28" x="19.276" y="164.198"/>
  <use xlink:href="#glyph1-5" x="25.263547" y="164.198"/>
  <use xlink:href="#glyph1-15" x="30.035651" y="164.198"/>
</g>
<g style="fill:rgb(100%,100%,100%);fill-opacity:1;">
  <use xlink:href="#glyph2-6" x="19.122" y="124.193"/>
</g>
<g style="fill:rgb(0%,0%,0%);fill-opacity:1;">
  <use xlink:href="#glyph2-7" x="19.122" y="124.193"/>
</g>
<g style="fill:rgb(0%,0%,0%);fill-opacity:1;">
  <use xlink:href="#glyph2-2" x="25.505228" y="124.193"/>
</g>
<g style="fill:rgb(0%,0%,0%);fill-opacity:1;">
  <use xlink:href="#glyph2-3" x="27.21" y="130.453"/>
</g>
<g style="fill:rgb(0%,0%,0%);fill-opacity:1;">
  <use xlink:href="#glyph1-29" x="38.331" y="164.198"/>
</g>
<g style="fill:rgb(0%,0%,0%);fill-opacity:1;">
  <use xlink:href="#glyph2-2" x="38.906" y="128.263"/>
</g>
<g style="fill:rgb(0%,0%,0%);fill-opacity:1;">
  <use xlink:href="#glyph1-17" x="43.771" y="164.198"/>
  <use xlink:href="#glyph1-9" x="52.568011" y="164.198"/>
  <use xlink:href="#glyph1-5" x="58.366268" y="164.198"/>
  <use xlink:href="#glyph1-27" x="63.138372" y="164.198"/>
</g>
<g style="fill:rgb(0%,0%,0%);fill-opacity:1;">
  <use xlink:href="#glyph2-2" x="58.607" y="132.334"/>
</g>
<g style="fill:rgb(0%,0%,0%);fill-opacity:1;">
  <use xlink:href="#glyph2-3" x="60.313" y="138.594"/>
</g>
<g style="fill:rgb(0%,0%,0%);fill-opacity:1;">
  <use xlink:href="#glyph1-27" x="71.723" y="164.198"/>
  <use xlink:href="#glyph1-28" x="75.947159" y="164.198"/>
  <use xlink:href="#glyph1-5" x="81.934706" y="164.198"/>
  <use xlink:href="#glyph1-3" x="86.706811" y="164.198"/>
</g>
<g style="fill:rgb(0%,0%,0%);fill-opacity:1;">
  <use xlink:href="#glyph2-2" x="82.176" y="136.404"/>
</g>
<g style="fill:rgb(0%,0%,0%);fill-opacity:1;">
  <use xlink:href="#glyph1-11" x="90.025" y="164.198"/>
  <use xlink:href="#glyph1-21" x="94.448412" y="164.198"/>
  <use xlink:href="#glyph1-3" x="97.34754" y="164.198"/>
</g>
<g style="fill:rgb(0%,0%,0%);fill-opacity:1;">
  <use xlink:href="#glyph2-2" x="93.753" y="144.544"/>
</g>
<g style="fill:rgb(0%,0%,0%);fill-opacity:1;">
  <use xlink:href="#glyph2-3" x="95.458" y="148.972"/>
</g>
<g style="fill:rgb(0%,0%,0%);fill-opacity:1;">
  <use xlink:href="#glyph1-14" x="104.271" y="164.198"/>
  <use xlink:href="#glyph1-3" x="109.710601" y="164.198"/>
</g>
<g style="fill:rgb(0%,0%,0%);fill-opacity:1;">
  <use xlink:href="#glyph2-2" x="104.846" y="132.334"/>
</g>
<g style="fill:rgb(0%,0%,0%);fill-opacity:1;">
  <use xlink:href="#glyph1-27" x="113.028" y="164.198"/>
  <use xlink:href="#glyph1-10" x="117.252159" y="164.198"/>
  <use xlink:href="#glyph1-22" x="122.233479" y="164.198"/>
</g>
<g style="fill:rgb(0%,0%,0%);fill-opacity:1;">
  <use xlink:href="#glyph2-2" x="117.598" y="136.404"/>
</g>
<g style="fill:rgb(0%,0%,0%);fill-opacity:1;">
  <use xlink:href="#glyph2-4" x="123.269" y="134.123"/>
</g>
<g style="fill:rgb(0%,0%,0%);fill-opacity:1;">
  <use xlink:href="#glyph2-10" x="129.625" y="132.334"/>
</g>
<g style="fill:rgb(0%,0%,0%);fill-opacity:1;">
  <use xlink:href="#glyph1-1" x="134.277" y="164.198"/>
</g>
<g style="fill:rgb(0%,0%,0%);fill-opacity:1;">
  <use xlink:href="#glyph1-10" x="140.523575" y="164.198"/>
  <use xlink:href="#glyph1-3" x="145.504895" y="164.198"/>
</g>
<g style="fill:rgb(100%,100%,100%);fill-opacity:1;">
  <use xlink:href="#glyph2-6" x="134.487" y="124.193"/>
</g>
<g style="fill:rgb(0%,0%,0%);fill-opacity:1;">
  <use xlink:href="#glyph2-7" x="134.487" y="124.193"/>
</g>
<g style="fill:rgb(0%,0%,0%);fill-opacity:1;">
  <use xlink:href="#glyph2-2" x="140.870228" y="124.193"/>
</g>
<g style="fill:rgb(0%,0%,0%);fill-opacity:1;">
  <use xlink:href="#glyph1-13" x="148.823" y="164.198"/>
  <use xlink:href="#glyph1-5" x="151.722128" y="164.198"/>
  <use xlink:href="#glyph1-18" x="156.494233" y="164.198"/>
</g>
<g style="fill:rgb(0%,0%,0%);fill-opacity:1;">
  <use xlink:href="#glyph2-2" x="151.963" y="128.263"/>
</g>
<g style="fill:rgb(0%,0%,0%);fill-opacity:1;">
  <use xlink:href="#glyph2-3" x="153.669" y="132.691"/>
</g>
<g style="fill:rgb(0%,0%,0%);fill-opacity:1;">
  <use xlink:href="#glyph1-29" x="163.44" y="164.198"/>
</g>
<g style="fill:rgb(0%,0%,0%);fill-opacity:1;">
  <use xlink:href="#glyph2-2" x="164.015" y="132.334"/>
</g>
<g style="fill:rgb(0%,0%,0%);fill-opacity:1;">
  <use xlink:href="#glyph1-4" x="173.241" y="164.198"/>
</g>
<g style="fill:rgb(0%,0%,0%);fill-opacity:1;">
  <use xlink:href="#glyph1-10" x="178.571012" y="164.198"/>
</g>
<g style="fill:rgb(100%,100%,100%);fill-opacity:1;">
  <use xlink:href="#glyph2-6" x="172.534" y="124.193"/>
</g>
<g style="fill:rgb(0%,0%,0%);fill-opacity:1;">
  <use xlink:href="#glyph2-7" x="172.534" y="124.193"/>
</g>
<g style="fill:rgb(0%,0%,0%);fill-opacity:1;">
  <use xlink:href="#glyph2-2" x="178.917228" y="124.193"/>
</g>
<g style="fill:rgb(0%,0%,0%);fill-opacity:1;">
  <use xlink:href="#glyph1-13" x="183.552" y="164.198"/>
  <use xlink:href="#glyph1-25" x="186.451128" y="164.198"/>
  <use xlink:href="#glyph1-5" x="192.538301" y="164.198"/>
</g>
<g style="fill:rgb(0%,0%,0%);fill-opacity:1;">
  <use xlink:href="#glyph2-2" x="192.779" y="128.263"/>
</g>
<g style="fill:rgb(0%,0%,0%);fill-opacity:1;">
  <use xlink:href="#glyph2-3" x="194.485" y="132.691"/>
</g>
<g style="fill:rgb(0%,0%,0%);fill-opacity:1;">
  <use xlink:href="#glyph1-25" x="201.671" y="164.198"/>
  <use xlink:href="#glyph1-5" x="207.758173" y="164.198"/>
  <use xlink:href="#glyph1-3" x="212.530278" y="164.198"/>
</g>
<g style="fill:rgb(0%,0%,0%);fill-opacity:1;">
  <use xlink:href="#glyph2-2" x="207.999" y="132.334"/>
</g>
<g style="fill:rgb(0%,0%,0%);fill-opacity:1;">
  <use xlink:href="#glyph1-11" x="215.848" y="164.198"/>
  <use xlink:href="#glyph1-14" x="220.271412" y="164.198"/>
  <use xlink:href="#glyph1-3" x="225.711014" y="164.198"/>
</g>
<g style="fill:rgb(0%,0%,0%);fill-opacity:1;">
  <use xlink:href="#glyph2-2" x="220.846" y="136.404"/>
</g>
<g style="fill:rgb(0%,0%,0%);fill-opacity:1;">
  <use xlink:href="#glyph2-12" x="225.136" y="132.334"/>
</g>
<g style="fill:rgb(0%,0%,0%);fill-opacity:1;">
  <use xlink:href="#glyph1-15" x="232.098" y="164.198"/>
</g>
<g style="fill:rgb(0%,0%,0%);fill-opacity:1;">
  <use xlink:href="#glyph1-10" x="235.883803" y="164.198"/>
  <use xlink:href="#glyph1-18" x="240.865123" y="164.198"/>
</g>
<g style="fill:rgb(0%,0%,0%);fill-opacity:1;">
  <use xlink:href="#glyph2-2" x="236.229" y="128.263"/>
</g>
<g style="fill:rgb(0%,0%,0%);fill-opacity:1;">
  <use xlink:href="#glyph2-4" x="241.9" y="125.983"/>
</g>
<g style="fill:rgb(0%,0%,0%);fill-opacity:1;">
  <use xlink:href="#glyph2-5" x="248.256" y="132.334"/>
</g>
<g style="fill:rgb(0%,0%,0%);fill-opacity:1;">
  <use xlink:href="#glyph1-31" x="254.204" y="164.198"/>
  <use xlink:href="#glyph1-30" x="260.291173" y="164.198"/>
</g>
<g style="fill:rgb(0%,0%,0%);fill-opacity:1;">
  <use xlink:href="#glyph2-2" x="255.103" y="120.123"/>
</g>
<g style="fill:rgb(0%,0%,0%);fill-opacity:1;">
  <use xlink:href="#glyph1-28" x="267.9" y="164.198"/>
  <use xlink:href="#glyph1-15" x="273.887547" y="164.198"/>
  <use xlink:href="#glyph1-29" x="277.822789" y="164.198"/>
</g>
<g style="fill:rgb(100%,100%,100%);fill-opacity:1;">
  <use xlink:href="#glyph2-6" x="272.015" y="124.193"/>
</g>
<g style="fill:rgb(0%,0%,0%);fill-opacity:1;">
  <use xlink:href="#glyph2-7" x="272.015" y="124.193"/>
</g>
<g style="fill:rgb(0%,0%,0%);fill-opacity:1;">
  <use xlink:href="#glyph2-2" x="278.398228" y="124.193"/>
</g>
<g style="fill:rgb(0%,0%,0%);fill-opacity:1;">
  <use xlink:href="#glyph1-9" x="287.623" y="164.198"/>
  <use xlink:href="#glyph1-29" x="293.421256" y="164.198"/>
  <use xlink:href="#glyph1-3" x="298.860858" y="164.198"/>
</g>
<g style="fill:rgb(100%,100%,100%);fill-opacity:1;">
  <use xlink:href="#glyph2-6" x="287.614" y="124.193"/>
</g>
<g style="fill:rgb(0%,0%,0%);fill-opacity:1;">
  <use xlink:href="#glyph2-7" x="287.614" y="124.193"/>
</g>
<g style="fill:rgb(0%,0%,0%);fill-opacity:1;">
  <use xlink:href="#glyph2-2" x="293.997228" y="124.193"/>
</g>
<g style="fill:rgb(0%,0%,0%);fill-opacity:1;">
  <use xlink:href="#glyph2-13" x="298.286" y="120.123"/>
</g>
<g style="fill:rgb(0%,0%,0%);fill-opacity:1;">
  <use xlink:href="#glyph1-34" x="304.565" y="164.198"/>
  <use xlink:href="#glyph1-21" x="310.07434" y="164.198"/>
  <use xlink:href="#glyph1-27" x="312.973468" y="164.198"/>
</g>
<g style="fill:rgb(0%,0%,0%);fill-opacity:1;">
  <use xlink:href="#glyph2-2" x="309.379" y="128.263"/>
</g>
<g style="fill:rgb(0%,0%,0%);fill-opacity:1;">
  <use xlink:href="#glyph2-9" x="309.379" y="121.34"/>
</g>
<g style="fill:rgb(0%,0%,0%);fill-opacity:1;">
  <use xlink:href="#glyph2-3" x="311.085" y="132.691"/>
</g>
<g style="fill:rgb(0%,0%,0%);fill-opacity:1;">
  <use xlink:href="#glyph1-35" x="321.559" y="164.198"/>
  <use xlink:href="#glyph1-36" x="328.622512" y="164.198"/>
  <use xlink:href="#glyph1-15" x="334.420768" y="164.198"/>
  <use xlink:href="#glyph1-21" x="338.356011" y="164.198"/>
  <use xlink:href="#glyph1-3" x="341.255139" y="164.198"/>
</g>
<g style="fill:rgb(0%,0%,0%);fill-opacity:1;">
  <use xlink:href="#glyph2-2" x="337.66" y="128.263"/>
</g>
<g clip-path="url(#clip15)" clip-rule="nonzero">
<g style="fill:rgb(0%,0%,0%);fill-opacity:1;">
  <use xlink:href="#glyph2-8" x="345.848" y="132.334"/>
</g>
</g>
<g clip-path="url(#clip16)" clip-rule="nonzero">
<path style="fill:none;stroke-width:0.388;stroke-linecap:butt;stroke-linejoin:miter;stroke:rgb(0%,0%,0%);stroke-opacity:1;stroke-miterlimit:10;" d="M 0 -0.00015625 L 347.761719 -0.00015625 " transform="matrix(1,0,0,-1,0,173.91)"/>
</g>
<g clip-path="url(#clip17)" clip-rule="nonzero">
<path style="fill:none;stroke-width:0.388;stroke-linecap:butt;stroke-linejoin:miter;stroke:rgb(0%,0%,0%);stroke-opacity:1;stroke-miterlimit:10;" d="M 0 0.00021875 L 347.761719 0.00021875 " transform="matrix(1,0,0,-1,0,182.051)"/>
</g>
<g clip-path="url(#clip18)" clip-rule="nonzero">
<path style="fill:none;stroke-width:0.388;stroke-linecap:butt;stroke-linejoin:miter;stroke:rgb(0%,0%,0%);stroke-opacity:1;stroke-miterlimit:10;" d="M 0 -0.00040625 L 347.761719 -0.00040625 " transform="matrix(1,0,0,-1,0,190.191)"/>
</g>
<g clip-path="url(#clip19)" clip-rule="nonzero">
<path style="fill:none;stroke-width:0.388;stroke-linecap:butt;stroke-linejoin:miter;stroke:rgb(0%,0%,0%);stroke-opacity:1;stroke-miterlimit:10;" d="M 0 -0.00003125 L 347.761719 -0.00003125 " transform="matrix(1,0,0,-1,0,198.332)"/>
</g>
<g style="fill:rgb(0%,0%,0%);fill-opacity:1;">
  <use xlink:href="#glyph2-1" x="0" y="179.79"/>
</g>
<g style="fill:rgb(0%,0%,0%);fill-opacity:1;">
  <use xlink:href="#glyph1-27" x="2.628" y="219.794"/>
</g>
<g style="fill:rgb(0%,0%,0%);fill-opacity:1;">
  <use xlink:href="#glyph1-30" x="6.70272" y="219.794"/>
  <use xlink:href="#glyph1-16" x="9.95054" y="219.794"/>
  <use xlink:href="#glyph1-17" x="15.958012" y="219.794"/>
</g>
<g style="fill:rgb(0%,0%,0%);fill-opacity:1;">
  <use xlink:href="#glyph2-2" x="10.81" y="187.93"/>
</g>
<g style="fill:rgb(0%,0%,0%);fill-opacity:1;">
  <use xlink:href="#glyph2-3" x="12.515" y="194.19"/>
</g>
<g style="fill:rgb(0%,0%,0%);fill-opacity:1;">
  <use xlink:href="#glyph1-5" x="29.574" y="219.794"/>
  <use xlink:href="#glyph1-26" x="34.346105" y="219.794"/>
  <use xlink:href="#glyph1-3" x="39.486827" y="219.794"/>
</g>
<g style="fill:rgb(0%,0%,0%);fill-opacity:1;">
  <use xlink:href="#glyph2-2" x="29.815" y="192"/>
</g>
<g style="fill:rgb(0%,0%,0%);fill-opacity:1;">
  <use xlink:href="#glyph1-14" x="42.804" y="219.794"/>
  <use xlink:href="#glyph1-3" x="48.243601" y="219.794"/>
</g>
<g style="fill:rgb(0%,0%,0%);fill-opacity:1;">
  <use xlink:href="#glyph2-2" x="43.379" y="187.93"/>
</g>
<g style="fill:rgb(0%,0%,0%);fill-opacity:1;">
  <use xlink:href="#glyph2-2" x="49.633013" y="187.93"/>
</g>
<g style="fill:rgb(0%,0%,0%);fill-opacity:1;">
  <use xlink:href="#glyph1-15" x="56.595" y="219.794"/>
</g>
<g style="fill:rgb(0%,0%,0%);fill-opacity:1;">
  <use xlink:href="#glyph1-10" x="60.380803" y="219.794"/>
  <use xlink:href="#glyph1-37" x="65.362123" y="219.794"/>
</g>
<g style="fill:rgb(0%,0%,0%);fill-opacity:1;">
  <use xlink:href="#glyph2-2" x="60.726" y="192"/>
</g>
<g style="fill:rgb(0%,0%,0%);fill-opacity:1;">
  <use xlink:href="#glyph2-4" x="66.434" y="189.72"/>
</g>
<g style="fill:rgb(0%,0%,0%);fill-opacity:1;">
  <use xlink:href="#glyph2-10" x="74.702" y="187.93"/>
</g>
<g style="fill:rgb(0%,0%,0%);fill-opacity:1;">
  <use xlink:href="#glyph2-10" x="78.294181" y="187.93"/>
</g>
</g>
</svg>
