%!PS-Adobe-2.0 EPSF-2.0
%%Creator: LilyPond 2.18.2
%%BoundingBox: -9 -365 336 1
%%Orientation: Portrait
%%DocumentSuppliedResources: font Emmentaler-18
%%DocumentSuppliedResources: font TeXGyrePagella-Regular
%%EndComments
%%BeginProlog
/lilypond-datadir where {pop} {userdict /lilypond-datadir (/usr/share/lilypond/2.18.2) put } ifelse
%%BeginFont: Emmentaler-18
lilypond-datadir (/fonts/otf/emmentaler-18.otf) concatstrings (r) file .loadfont
%%EndFont

%%BeginFont: Emmentaler-18
lilypond-datadir (/fonts/otf/emmentaler-18.otf) concatstrings (r) file .loadfont
%%EndFont

%%BeginFont: TeXGyrePagella-Regular
(/usr/share/texmf/fonts/opentype/public/tex-gyre/texgyrepagella-regular.otf) (r) file .loadfont
%%EndFont

/magfontemmentaler-18mDWo { /Emmentaler-18 6.3263 output-scale div selectfont } bind def
/lily-output-units 2.83464566929134 def %% millimeter
/staff-line-thickness 0.1 def
/line-width 67.3237795275591 def
/paper-size (a4) def
/staff-height 4.0 def
/output-scale 1.75729901757299 def
/page-height 169.00937007874 def
/page-width 119.50157480315 def
%%BeginResource: procset (music-drawing-routines.ps) 1 0
%!PS-Adobe-2.0
%
% Functions for direct and embedded PostScript

% Careful with double % as comment prefix.
% Any %%X comment is interpreted as DSC comments.

% TODO: use dicts or prefixes to prevent namespace pollution.

/pdfmark where
{pop} {userdict /pdfmark /cleartomark load put} ifelse


% llx lly urx ury URI
/mark_URI
{
    /uri exch def
    /ury exch def
    /urx exch def
    /lly exch def
    /llx exch def
    [
	/Rect [ llx lly urx ury ]
	
	/Border [ 0 0 0 ]

        /Action
	    <<
		/Subtype /URI
		/URI uri
	    >>
        /Subtype /Link
    /ANN
    pdfmark
}
bind def

% llx lly urx ury page
/mark_page_link
{
    /page exch def
    /ury exch def
    /urx exch def
    /lly exch def
    /llx exch def
    [
        /Rect [ llx lly urx ury ]
        /Border [ 0 0 0 ]
        /Page page
        /Subtype /Link
    /ANN
    pdfmark
}
bind def

% from adobe tech note 5002.
/BeginEPSF { %def
    /b4_Inc_state save def % Save state for cleanup
    /dict_count countdictstack def % Count objects on dict stack
    /op_count count 1 sub def % Count objects on operand stack
    userdict begin % Push userdict on dict stack
    /showpage { } def % Redefine showpage, { } = null proc
    0 setgray 0 setlinecap % Prepare graphics state
    1 setlinewidth 0 setlinejoin
    10 setmiterlimit [ ] 0 setdash newpath
    false setoverprint
} bind def

/EndEPSF { %def
  count op_count sub {pop} repeat % Clean up stacks
  countdictstack dict_count sub {end} repeat
  b4_Inc_state restore
} bind def

/stroke_and_fill? {
    {
	gsave
	    false setstrokeadjust
	    stroke
	grestore
	fill
    }
    {
	stroke
    }
    ifelse
} bind def

/vector_add { % x1 y1 x2 y2 vector_add x1+x2 y1+y2
	exch
	4 1 roll
	add
	3 1 roll
	add
	exch
} bind def

/draw_round_box % width height x y blot
{
    0 max setlinewidth
    matrix currentmatrix 5 1 roll
    currentpoint translate newpath translate
    2 copy 0 min exch 0 min exch translate
    abs exch abs exch
    currentlinewidth 0 eq
    { % straight corners
	2 copy 2 mul gt
	{ % horizontal
	    0 1 index 2 div moveto
	    setlinewidth
	    0 rlineto
	    0 setlinecap
	    stroke
	}
	{
	    2 copy exch 2 mul gt
	    { % vertical
		1 index 2 div 0 moveto
		exch setlinewidth
		0 exch rlineto
		0 setlinecap
		stroke
	    }
	    {
		0 0 4 2 roll rectfill
	    }
	    ifelse
	}
	ifelse
    }
    { % rounded corners
	2 copy 0 eq exch 0 eq or
	{ % line shape
	    0 0 moveto
	    rlineto
	    1 setlinecap
	    stroke
	    0 setlinecap
	}
	{ % full shape
	    currentstrokeadjust {
		currentlinewidth 2 div
		0 0 2 index 180 270 arc
		2 index 0 2 index 270 360 arc
		3 copy 0 90 arc
		0 2 index 3 -1 roll 90 180 arc
		closepath
		2 copy 2 mul gt
		{ % horizontal
		    2 copy add currentlinewidth add 10 add % large enough
		    0 1 index neg moveto
		    2 index 1 index neg lineto
		    2 index 1 index lineto
		    0 exch lineto closepath
		    gsave clip newpath
		    0 1 index 2 div moveto
		    currentlinewidth add setlinewidth
		    0 rlineto
		    2 setlinecap
		    stroke
		    grestore
		}
		{
		    2 copy exch 2 mul gt
		    { % vertical
			2 copy add currentlinewidth add 10 add % large enough
			dup neg 0 moveto
			dup 0 lineto
			dup 2 index lineto
			neg 1 index lineto closepath
			gsave clip newpath
			1 index 2 div 0 moveto
			exch currentlinewidth add setlinewidth
			0 exch rlineto
			2 setlinecap
			stroke
			grestore
		    }
		    {
			pop pop
			fill
		    }
		    ifelse
		}
		ifelse
		newpath
	    }
	    {
		1 setlinejoin
		0 0 4 2 roll 4 copy rectstroke rectfill
	    }
	    ifelse
	}
	ifelse
    }
    ifelse
    setmatrix
} bind def

/draw_polygon % fill? x(n) y(n) x(n-1) y(n-1) ... x(0) y(0) n blot
{
	setlinewidth %set to blot

	0 setlinecap
	1 setlinejoin

	3 1 roll
	/polygon_x
	currentpoint
	/polygon_y exch def
	def
	rmoveto % x(0) y(0)
	{ polygon_x polygon_y vector_add lineto } repeat % n times
	closepath
	stroke_and_fill?
} bind def

/draw_circle % filled? radius thickness draw_circle
{
	setlinewidth	% f? r
	currentpoint	% f? r x0 y0
	3 2 roll	% f? x0 y0 r
	dup 0 rmoveto
	0 360 arc closepath
	stroke_and_fill?
} bind def

/draw_ellipse % filled? x-radius y-radius thickness draw_ellipse
{
  setlinewidth % f? x-r y-r
  /savematrix matrix currentmatrix def
  scale % f?
  currentpoint
  1 0 rmoveto
  1 0 360  arc closepath
  savematrix setmatrix
  stroke_and_fill?
} bind def

/draw_partial_ellipse % filled connect x-radius y-radius startangle endangle thickness draw_partial_ellipse
% Note that filled is not boolean to permit for different graylevels (ie for trill keys)
{
  gsave
  currentpoint translate
  /thickness exch def
  /endangle exch def
  /startangle exch def
  /y_radius exch def
  /x_radius exch def
  /endrad x_radius y_radius mul
    x_radius x_radius mul
    endangle cos endangle cos mul mul
    y_radius y_radius mul
    endangle sin endangle sin mul mul add sqrt div def
  /endangle endangle sin endrad mul y_radius div
    endangle cos endrad mul x_radius div atan def
  /startrad x_radius y_radius mul
    x_radius x_radius mul
      startangle cos startangle cos mul mul
    y_radius y_radius mul
      startangle sin startangle sin mul mul add sqrt div def
  /startangle startangle sin startrad mul y_radius div
    startangle cos startrad mul x_radius div atan def
  /connect exch def
  /filled exch def
  /savematrix matrix currentmatrix def
  thickness setlinewidth
  x_radius y_radius scale
  startangle cos startangle sin moveto
  0 0 1 startangle
    startangle endangle eq { endangle 360 add } { endangle } ifelse
    arc
  connect {
    startangle cos startangle sin moveto endangle cos endangle sin lineto }
    if
  savematrix setmatrix filled stroke_and_fill?
  grestore
} bind def

/draw_line % dx dy x1 y1 thickness draw_line
{
	setlinewidth % dx dy x1 y1
	1 setlinecap
	rmoveto % dx dy
	rlineto
	stroke
} bind def

/draw_dashed_line % dx dy thickness dashpattern offset draw_dashed_line
{
	1 setlinecap
	setdash % dx dy thickness
	setlinewidth %dx dy
	rlineto
	stroke
	[] 0 setdash % reset dash pattern
} bind def

/print_glyphs % w dx dy glyph print_glyphs
{
	{
		currentpoint %w dx dy glyph x0 y0
		5 2 roll %w x0 y0 dx dy glyph
		3 1 roll %w x0 y0 glyph dx dy
		rmoveto %w x0 y0 glyph
		glyphshow %w x0 y0
		moveto %w
		0 rmoveto
	}repeat
}bind def
%end music-drawing-routines.ps

%%EndResource
%%BeginResource: procset (lilyponddefs.ps) 1 0
%!PS-Adobe-2.0: lilyponddefs.ps
%
% Functions for direct PostScript output

% /setgray { 1 add } bind def

/set-ps-scale-to-lily-scale {
	lily-output-units output-scale mul dup scale
} bind def


/init-paper {
	gsave
	clippath pathbbox newpath
	/paper-height exch def
	/paper-width exch def pop pop pop
	% FIXME
	/top-margin 2 def
	paper-width line-width sub 2 div /left-margin exch def
	grestore
} bind def

/init-lilypond-parameters {
	staff-line-thickness setlinewidth
	staff-height init-paper
} bind def


% end lilyponddefs.ps

%%EndResource
%%EndProlog
%%BeginSetup
init-lilypond-parameters
%%EndSetup

/mark_page_link { pop pop pop pop pop } bind def
gsave set-ps-scale-to-lily-scale
0.0000 -5.8500 moveto 67.2238 0.0000 0.0500 0.0000 0.1000 draw_line
0.0000 -4.8500 moveto 67.2238 0.0000 0.0500 0.0000 0.1000 draw_line
0.0000 -3.8500 moveto 67.2238 0.0000 0.0500 0.0000 0.1000 draw_line
0.0000 -2.8500 moveto 67.2238 0.0000 0.0500 0.0000 0.1000 draw_line
0.0000 -1.8500 moveto 67.2238 0.0000 0.0500 0.0000 0.1000 draw_line
18.1343 -18.2611 moveto magfontemmentaler-18mDWo /dots.dot glyphshow 
18.1343 -19.2611 moveto magfontemmentaler-18mDWo /dots.dot glyphshow 
17.6443 -18.7611 moveto 0.1900 4.0000 0.0000 -2.0000 0.0000 draw_round_box
16.7443 -18.7611 moveto 0.6000 4.0000 0.0000 -2.0000 0.0000 draw_round_box
64.4498 -3.8500 moveto 0.1900 4.0000 0.0000 -2.0000 0.0000 draw_round_box
38.0767 -18.7611 moveto 0.1900 4.0000 0.0000 -2.0000 0.0000 draw_round_box
38.0767 -3.8500 moveto 0.1900 4.0000 0.0000 -2.0000 0.0000 draw_round_box
64.4498 -18.7611 moveto 0.1900 4.0000 0.0000 -2.0000 0.0000 draw_round_box
18.1343 -3.3500 moveto magfontemmentaler-18mDWo /dots.dot glyphshow 
18.1343 -4.3500 moveto magfontemmentaler-18mDWo /dots.dot glyphshow 
17.6443 -3.8500 moveto 0.1900 4.0000 0.0000 -2.0000 0.0000 draw_round_box
16.7443 -3.8500 moveto 0.6000 4.0000 0.0000 -2.0000 0.0000 draw_round_box
0.0000 -20.7611 moveto 67.2238 0.0000 0.0500 0.0000 0.1000 draw_line
0.0000 -19.7611 moveto 67.2238 0.0000 0.0500 0.0000 0.1000 draw_line
0.0000 -18.7611 moveto 67.2238 0.0000 0.0500 0.0000 0.1000 draw_line
0.0000 -17.7611 moveto 67.2238 0.0000 0.0500 0.0000 0.1000 draw_line
0.0000 -16.7611 moveto 67.2238 0.0000 0.0500 0.0000 0.1000 draw_line
0.0000 -15.7611 moveto 1.5761 0.0000 22.9221 0.0000 0.2000 draw_round_box
0.0000 -15.7611 moveto 1.5761 0.0000 26.0957 0.0000 0.2000 draw_round_box
0.0000 -15.7611 moveto 1.5761 0.0000 30.4302 0.0000 0.2000 draw_round_box
0.0000 -15.7611 moveto 1.5761 0.0000 34.7401 0.0000 0.2000 draw_round_box
0.0000 -15.7611 moveto 1.5761 0.0000 39.2829 0.0000 0.2000 draw_round_box
0.0000 -15.7611 moveto 1.5761 0.0000 44.0527 0.0000 0.2000 draw_round_box
47.8970 -18.7611 moveto 0.0500 3.1126 -0.0250 -3.3156 0.0800 draw_round_box
47.8320 -4.3500 moveto magfontemmentaler-18mDWo /noteheads.s2 glyphshow 
48.9511 -18.7611 moveto 0.0500 2.9413 -0.0250 2.7030 0.0800 draw_round_box
47.8970 -3.8500 moveto 0.0500 2.0670 -0.0250 -3.7700 0.0800 draw_round_box
48.9511 -3.8500 moveto 0.0500 3.1685 -0.0250 -0.2970 0.0800 draw_round_box
47.8320 -18.7611 moveto magfontemmentaler-18mDWo /noteheads.s2 glyphshow 
47.8320 -16.2611 moveto magfontemmentaler-18mDWo /noteheads.s2 glyphshow 
47.4339 -10.7269 moveto /TeXGyrePagella-Regular 3.90625000 output-scale div selectfont
0.7512 0.0000 0.0000 /f
1.2292 0.0000 0.0000 /o
2 print_glyphs
47.8320 -5.3500 moveto magfontemmentaler-18mDWo /noteheads.s2 glyphshow 
53.4397 -10.7269 moveto /TeXGyrePagella-Regular 3.90625000 output-scale div selectfont
1.3657 0.0000 0.0000 /d
0.8536 0.0000 0.0000 /r
1.2292 0.0000 0.0000 /o
1.3657 0.0000 0.0000 /L
4 print_glyphs
55.2548 -5.8500 moveto magfontemmentaler-18mDWo /noteheads.s2 glyphshow 
55.2548 -4.8500 moveto magfontemmentaler-18mDWo /noteheads.s2 glyphshow 
50.8999 -18.7611 moveto 0.0500 2.9505 -0.0250 -3.1535 0.0800 draw_round_box
51.9540 -18.7611 moveto 0.0500 2.7609 -0.0250 2.7030 0.0800 draw_round_box
50.8349 -4.3500 moveto magfontemmentaler-18mDWo /noteheads.s2 glyphshow 
50.8999 -3.8500 moveto 0.0500 2.0670 -0.0250 -3.7700 0.0800 draw_round_box
51.9540 -3.8500 moveto 0.0500 3.0691 -0.0250 -0.2970 0.0800 draw_round_box
50.8349 -18.7611 moveto magfontemmentaler-18mDWo /noteheads.s2 glyphshow 
50.8349 -16.2611 moveto magfontemmentaler-18mDWo /noteheads.s2 glyphshow 
49.8735 -10.7269 moveto /TeXGyrePagella-Regular 3.90625000 output-scale div selectfont
1.0584 0.0000 0.0000 /e
1.2974 0.0000 0.0000 /h
0.7512 0.0000 0.0000 /t
3 print_glyphs
50.8349 -5.3500 moveto magfontemmentaler-18mDWo /noteheads.s2 glyphshow 
39.5439 -18.7611 moveto 0.0500 2.5635 -0.0250 -3.7665 0.0800 draw_round_box
40.5980 -18.7611 moveto 0.0500 2.4431 -0.0250 3.7030 0.0800 draw_round_box
39.5439 -3.8500 moveto 0.0500 2.0670 -0.0250 -3.7700 0.0800 draw_round_box
44.3137 -18.7611 moveto 0.0500 2.3060 -0.0250 -3.5090 0.0800 draw_round_box
45.3678 -18.7611 moveto 0.0500 2.1565 -0.0250 3.7030 0.0800 draw_round_box
44.3137 -3.8500 moveto 0.0500 2.0670 -0.0250 -3.7700 0.0800 draw_round_box
45.3678 -3.8500 moveto 0.0500 2.7870 -0.0250 0.2030 0.0800 draw_round_box
44.2487 -19.7611 moveto magfontemmentaler-18mDWo /noteheads.s2 glyphshow 
44.2487 -15.2611 moveto magfontemmentaler-18mDWo /noteheads.s2 glyphshow 
42.7068 -10.7269 moveto /TeXGyrePagella-Regular 3.90625000 output-scale div selectfont
0.9560 0.0000 0.0000 /s
0.9560 0.0000 0.0000 /s
1.0584 0.0000 0.0000 /e
1.2974 0.0000 0.0000 /n
4 print_glyphs
44.2487 -5.3500 moveto magfontemmentaler-18mDWo /noteheads.s2 glyphshow 
44.2487 -3.8500 moveto magfontemmentaler-18mDWo /noteheads.s2 glyphshow 
65.3898 -5.6937 moveto /Emmentaler-18 6.32617188 output-scale div selectfont
1.4340 0.0000 0.0000 /four
1 print_glyphs
65.4410 -3.8500 moveto /Emmentaler-18 6.32617188 output-scale div selectfont
1.3316 0.0000 0.0000 /two
1 print_glyphs
65.3898 -20.6048 moveto /Emmentaler-18 6.32617188 output-scale div selectfont
1.4340 0.0000 0.0000 /four
1 print_glyphs
65.4410 -18.7611 moveto /Emmentaler-18 6.32617188 output-scale div selectfont
1.3316 0.0000 0.0000 /two
1 print_glyphs
62.1543 -18.7611 moveto 0.0500 2.7570 -0.0250 -2.9600 0.0800 draw_round_box
63.2083 -18.7611 moveto 0.0500 2.0670 -0.0250 2.7030 0.0800 draw_round_box
12.9969 -1.8500 moveto true 2.4833 0.2000 2.4833 -0.2000 0.0400 -0.2000 0.0400 0.2000 3 0.0800 draw_polygon
11.9428 -8.3500 moveto true 2.4833 0.2000 2.4833 -0.2000 0.0400 -0.2000 0.0400 0.2000 3 0.0800 draw_polygon
12.9969 -14.9511 moveto true 2.4833 0.2000 2.4833 -0.2000 0.0400 -0.2000 0.0400 0.2000 3 0.0800 draw_polygon
11.9428 -21.5711 moveto true 2.4833 0.2000 2.4833 -0.2000 0.0400 -0.2000 0.0400 0.2000 3 0.0800 draw_polygon
24.1722 -1.0400 moveto true 3.2636 0.2000 3.2636 -0.2000 0.0400 -0.2000 0.0400 0.2000 3 0.0800 draw_polygon
23.1181 -8.3500 moveto true 3.2636 0.2000 3.2636 -0.2000 0.0400 -0.2000 0.0400 0.2000 3 0.0800 draw_polygon
24.1722 -13.2611 moveto true 3.2636 0.2000 3.2636 -0.2000 0.0400 -0.2000 0.0400 0.2000 3 0.0800 draw_polygon
23.1181 -22.5711 moveto true 3.2636 0.2000 3.2636 -0.2000 0.0400 -0.2000 0.0400 0.2000 3 0.0800 draw_polygon
40.5330 -0.6600 moveto true 11.4460 -0.1800 11.4460 -0.5800 0.0400 -0.2000 0.0400 0.2000 3 0.0800 draw_polygon
39.4789 -7.6600 moveto true 11.4460 0.2000 11.4460 -0.2000 0.0400 -0.2000 0.0400 0.2000 3 0.0800 draw_polygon
40.5330 -12.5711 moveto true 11.4460 -0.4900 11.4460 -0.8900 0.0400 -0.2000 0.0400 0.2000 3 0.0800 draw_polygon
39.4789 -22.5711 moveto true 11.4460 0.8200 11.4460 0.4200 0.0400 -0.2000 0.0400 0.2000 3 0.0800 draw_polygon
60.1575 -2.0400 moveto true 3.0758 0.3900 3.0758 -0.0100 0.0400 -0.2000 0.0400 0.2000 3 0.0800 draw_polygon
60.2875 -8.3500 moveto true 1.8918 0.2000 1.8918 -0.2000 0.0400 -0.2000 0.0400 0.2000 3 0.0800 draw_polygon
60.1575 -13.9511 moveto true 3.0758 0.2000 3.0758 -0.2000 0.0400 -0.2000 0.0400 0.2000 3 0.0800 draw_polygon
59.1034 -21.7611 moveto true 3.0758 0.2000 3.0758 -0.2000 0.0400 -0.2000 0.0400 0.2000 3 0.0800 draw_polygon
55.3198 -18.7611 moveto 0.0500 3.2570 -0.0250 -2.9600 0.0800 draw_round_box
60.2225 -3.8500 moveto 0.0500 3.0709 -0.0250 -1.2970 0.0800 draw_round_box
59.1034 -18.7611 moveto magfontemmentaler-18mDWo /noteheads.s2 glyphshow 
59.1034 -16.2611 moveto magfontemmentaler-18mDWo /noteheads.s2 glyphshow 
58.7224 -10.7269 moveto /TeXGyrePagella-Regular 3.90625000 output-scale div selectfont
1.2974 0.0000 0.0000 /n
0.6487 0.0000 0.0000 /i
2 print_glyphs
60.2875 -5.8500 moveto magfontemmentaler-18mDWo /noteheads.s2 glyphshow 
59.1034 -5.3500 moveto magfontemmentaler-18mDWo /noteheads.s2 glyphshow 
60.3525 -3.8500 moveto 0.0500 2.2570 -0.0250 -4.4600 0.0800 draw_round_box
56.3739 -18.7611 moveto 0.0500 2.2570 -0.0250 2.7030 0.0800 draw_round_box
55.3198 -3.8500 moveto 0.0500 2.4237 -0.0250 -4.6267 0.0800 draw_round_box
56.3739 -3.8500 moveto 0.0500 3.2570 -0.0250 -0.7970 0.0800 draw_round_box
55.2548 -18.2611 moveto magfontemmentaler-18mDWo /noteheads.s2 glyphshow 
62.1543 -3.8500 moveto 0.0500 2.2570 -0.0250 -4.4600 0.0800 draw_round_box
63.2083 -3.8500 moveto 0.0500 2.7530 -0.0250 -0.7970 0.0800 draw_round_box
62.0893 -18.7611 moveto magfontemmentaler-18mDWo /noteheads.s2 glyphshow 
62.0893 -16.2611 moveto magfontemmentaler-18mDWo /noteheads.s2 glyphshow 
61.1278 -10.7269 moveto /TeXGyrePagella-Regular 3.90625000 output-scale div selectfont
1.0584 0.0000 0.0000 /e
1.2974 0.0000 0.0000 /h
0.7512 0.0000 0.0000 /t
3 print_glyphs
62.0893 -5.8500 moveto magfontemmentaler-18mDWo /noteheads.s2 glyphshow 
62.0893 -4.8500 moveto magfontemmentaler-18mDWo /noteheads.s2 glyphshow 
55.2548 -16.2611 moveto magfontemmentaler-18mDWo /noteheads.s2 glyphshow 
59.1684 -18.7611 moveto 0.0500 2.7570 -0.0250 -2.9600 0.0800 draw_round_box
60.2225 -18.7611 moveto 0.0500 2.0670 -0.0250 2.7030 0.0800 draw_round_box
19.5806 -3.8500 moveto 0.0500 2.4237 -0.0250 -4.6267 0.0800 draw_round_box
20.6346 -3.8500 moveto 0.0500 3.2570 -0.0250 -0.2970 0.0800 draw_round_box
19.5156 -19.2611 moveto magfontemmentaler-18mDWo /noteheads.s2 glyphshow 
19.5156 -16.7611 moveto magfontemmentaler-18mDWo /noteheads.s2 glyphshow 
17.9907 -10.7269 moveto /TeXGyrePagella-Regular 3.90625000 output-scale div selectfont
1.0584 0.0000 0.0000 /e
0.8877 0.0000 0.0000 /r
1.3316 0.0000 0.0000 /u
0.9560 0.0000 0.0000 /s
4 print_glyphs
19.5156 -5.8500 moveto magfontemmentaler-18mDWo /noteheads.s2 glyphshow 
19.5156 -4.3500 moveto magfontemmentaler-18mDWo /noteheads.s2 glyphshow 
14.4011 -18.7611 moveto 0.0500 3.0670 -0.0250 -2.7700 0.0800 draw_round_box
15.4552 -18.7611 moveto 0.0500 2.0670 -0.0250 1.7030 0.0800 draw_round_box
24.2372 -3.8500 moveto 0.0500 3.0670 -0.0250 -0.2970 0.0800 draw_round_box
23.1181 -20.2611 moveto magfontemmentaler-18mDWo /noteheads.s2 glyphshow 
23.3346 -10.7269 moveto /TeXGyrePagella-Regular 3.90625000 output-scale div selectfont
0.7512 0.0000 0.0000 /I
1 print_glyphs
23.1181 -5.8500 moveto magfontemmentaler-18mDWo /noteheads.s2 glyphshow 
23.1181 -4.3500 moveto magfontemmentaler-18mDWo /noteheads.s2 glyphshow 
14.4011 -3.8500 moveto 0.0500 2.2570 -0.0250 -4.4600 0.0800 draw_round_box
19.5806 -18.7611 moveto 0.0500 2.9237 -0.0250 -3.6267 0.0800 draw_round_box
20.6346 -18.7611 moveto 0.0500 2.4237 -0.0250 2.2030 0.0800 draw_round_box
11.9428 -18.2611 moveto magfontemmentaler-18mDWo /noteheads.s2 glyphshow 
12.0078 -3.8500 moveto 0.0500 2.2570 -0.0250 -4.4600 0.0800 draw_round_box
13.0619 -3.8500 moveto 0.0500 2.7570 -0.0250 -0.7970 0.0800 draw_round_box
8.4200 -18.7611 moveto magfontemmentaler-18mDWo /timesig.C44 glyphshow 
4.3000 -17.7611 moveto magfontemmentaler-18mDWo /accidentals.sharp glyphshow 
5.2900 -19.2611 moveto magfontemmentaler-18mDWo /accidentals.sharp glyphshow 
6.2800 -17.2611 moveto magfontemmentaler-18mDWo /accidentals.sharp glyphshow 
0.8000 -17.7611 moveto magfontemmentaler-18mDWo /clefs.F glyphshow 
11.9428 -17.2611 moveto magfontemmentaler-18mDWo /noteheads.s2 glyphshow 
12.1592 -10.7269 moveto /TeXGyrePagella-Regular 3.90625000 output-scale div selectfont
0.7512 0.0000 0.0000 /I
1 print_glyphs
8.4200 -3.8500 moveto magfontemmentaler-18mDWo /timesig.C44 glyphshow 
4.3000 -1.8500 moveto magfontemmentaler-18mDWo /accidentals.sharp glyphshow 
5.2900 -3.3500 moveto magfontemmentaler-18mDWo /accidentals.sharp glyphshow 
6.2800 -1.3500 moveto magfontemmentaler-18mDWo /accidentals.sharp glyphshow 
0.8000 -4.8500 moveto magfontemmentaler-18mDWo /clefs.G glyphshow 
11.9428 -5.8500 moveto magfontemmentaler-18mDWo /noteheads.s2 glyphshow 
11.9428 -4.8500 moveto magfontemmentaler-18mDWo /noteheads.s2 glyphshow 
-0.0600 -11.3055 moveto 0.0600 18.9111 0.0500 -9.4555 0.1000 draw_round_box
15.4552 -3.8500 moveto 0.0500 2.7570 -0.0250 -0.7970 0.0800 draw_round_box
14.3361 -18.2611 moveto magfontemmentaler-18mDWo /noteheads.s2 glyphshow 
14.3361 -17.2611 moveto magfontemmentaler-18mDWo /noteheads.s2 glyphshow 
13.3917 -10.7269 moveto /TeXGyrePagella-Regular 3.90625000 output-scale div selectfont
1.9462 0.0000 0.0000 /m
1.1267 0.0000 0.0000 /a
2 print_glyphs
14.3361 -5.8500 moveto magfontemmentaler-18mDWo /noteheads.s2 glyphshow 
14.3361 -4.8500 moveto magfontemmentaler-18mDWo /noteheads.s2 glyphshow 
23.1181 -15.7611 moveto magfontemmentaler-18mDWo /noteheads.s2 glyphshow 
12.0078 -18.7611 moveto 0.0500 3.0670 -0.0250 -2.7700 0.0800 draw_round_box
13.0619 -18.7611 moveto 0.0500 2.0670 -0.0250 1.7030 0.0800 draw_round_box
34.9361 -18.7611 moveto magfontemmentaler-18mDWo /noteheads.s2 glyphshow 
34.9361 -15.2611 moveto magfontemmentaler-18mDWo /noteheads.s2 glyphshow 
33.9746 -10.7269 moveto /TeXGyrePagella-Regular 3.90625000 output-scale div selectfont
1.0584 0.0000 0.0000 /e
1.2974 0.0000 0.0000 /h
0.7512 0.0000 0.0000 /t
3 print_glyphs
34.9361 -5.3500 moveto magfontemmentaler-18mDWo /noteheads.s2 glyphshow 
34.9361 -4.3500 moveto magfontemmentaler-18mDWo /noteheads.s2 glyphshow 
30.6912 -18.7611 moveto 0.0500 3.0903 -0.0250 -3.2933 0.0800 draw_round_box
32.2117 -19.2611 moveto magfontemmentaler-18mDWo /dots.dot glyphshow 
36.0552 -3.8500 moveto 0.0500 3.2570 -0.0250 -0.2970 0.0800 draw_round_box
31.7453 -18.7611 moveto 0.0500 2.2570 -0.0250 3.7030 0.0800 draw_round_box
32.2117 -15.2611 moveto magfontemmentaler-18mDWo /dots.dot glyphshow 
30.6912 -3.8500 moveto 0.0500 2.5903 -0.0250 -4.2933 0.0800 draw_round_box
32.2117 -5.3500 moveto magfontemmentaler-18mDWo /dots.dot glyphshow 
31.7453 -3.8500 moveto 0.0500 3.2570 -0.0250 -0.2970 0.0800 draw_round_box
32.2117 -4.3500 moveto magfontemmentaler-18mDWo /dots.dot glyphshow 
30.6262 -18.7611 moveto magfontemmentaler-18mDWo /noteheads.s2 glyphshow 
40.5980 -3.8500 moveto 0.0500 2.9448 -0.0250 0.2030 0.0800 draw_round_box
39.4789 -19.7611 moveto magfontemmentaler-18mDWo /noteheads.s2 glyphshow 
39.4789 -15.2611 moveto magfontemmentaler-18mDWo /noteheads.s2 glyphshow 
37.5443 -10.7269 moveto /TeXGyrePagella-Regular 3.90625000 output-scale div selectfont
1.3657 0.0000 0.0000 /d
1.2292 0.0000 0.0000 /o
1.2292 0.0000 0.0000 /o
1.2292 0.0000 0.0000 /g
4 print_glyphs
39.4789 -5.3500 moveto magfontemmentaler-18mDWo /noteheads.s2 glyphshow 
39.4789 -3.8500 moveto magfontemmentaler-18mDWo /noteheads.s2 glyphshow 
35.0661 -22.0961 moveto magfontemmentaler-18mDWo /flags.d3 glyphshow 
35.0011 -18.7611 moveto 0.0500 3.1320 -0.0250 -3.3350 0.0800 draw_round_box
36.1202 -12.3011 moveto magfontemmentaler-18mDWo /flags.u3 glyphshow 
36.0552 -18.7611 moveto 0.0500 2.7570 -0.0250 3.7030 0.0800 draw_round_box
35.0661 -8.3100 moveto magfontemmentaler-18mDWo /flags.d3 glyphshow 
35.0011 -3.8500 moveto 0.0500 2.7570 -0.0250 -4.4600 0.0800 draw_round_box
36.1202 -0.8900 moveto magfontemmentaler-18mDWo /flags.u3 glyphshow 
27.4108 -3.8500 moveto 0.0500 3.0670 -0.0250 -0.2970 0.0800 draw_round_box
26.2917 -20.2611 moveto magfontemmentaler-18mDWo /noteheads.s2 glyphshow 
26.2917 -15.7611 moveto magfontemmentaler-18mDWo /noteheads.s2 glyphshow 
24.5449 -10.7269 moveto /TeXGyrePagella-Regular 3.90625000 output-scale div selectfont
0.6487 0.0000 0.0000 /l
0.6487 0.0000 0.0000 /l
1.1267 0.0000 0.0000 /a
1.2974 0.0000 0.0000 /h
0.9560 0.0000 0.0000 /s
5 print_glyphs
26.2917 -5.8500 moveto magfontemmentaler-18mDWo /noteheads.s2 glyphshow 
26.2917 -4.3500 moveto magfontemmentaler-18mDWo /noteheads.s2 glyphshow 
29.6818 -10.7269 moveto /TeXGyrePagella-Regular 3.90625000 output-scale div selectfont
1.0584 0.0000 0.0000 /e
1.0584 0.0000 0.0000 /e
0.9560 0.0000 0.0000 /s
3 print_glyphs
23.1831 -18.7611 moveto 0.0500 2.0670 -0.0250 -3.7700 0.0800 draw_round_box
24.2372 -18.7611 moveto 0.0500 2.2570 -0.0250 3.2030 0.0800 draw_round_box
23.1831 -3.8500 moveto 0.0500 2.2570 -0.0250 -4.4600 0.0800 draw_round_box
26.3567 -18.7611 moveto 0.0500 2.0670 -0.0250 -3.7700 0.0800 draw_round_box
26.3567 -3.8500 moveto 0.0500 2.2570 -0.0250 -4.4600 0.0800 draw_round_box
30.6262 -4.3500 moveto magfontemmentaler-18mDWo /noteheads.s2 glyphshow 
27.4108 -18.7611 moveto 0.0500 2.2570 -0.0250 3.2030 0.0800 draw_round_box
30.6262 -5.3500 moveto magfontemmentaler-18mDWo /noteheads.s2 glyphshow 
30.6262 -15.2611 moveto magfontemmentaler-18mDWo /noteheads.s2 glyphshow 
41.5473 -28.9878 moveto 0.1900 4.0000 0.0000 -2.0000 0.0000 draw_round_box
41.5473 -44.1289 moveto 0.1900 4.0000 0.0000 -2.0000 0.0000 draw_round_box
67.1338 -28.9878 moveto 0.1900 4.0000 0.0000 -2.0000 0.0000 draw_round_box
23.8465 -44.1289 moveto 0.1900 4.0000 0.0000 -2.0000 0.0000 draw_round_box
23.8465 -28.9878 moveto 0.1900 4.0000 0.0000 -2.0000 0.0000 draw_round_box
67.1338 -44.1289 moveto 0.1900 4.0000 0.0000 -2.0000 0.0000 draw_round_box
0.0000 -46.1289 moveto 67.2238 0.0000 0.0500 0.0000 0.1000 draw_line
0.0000 -45.1289 moveto 67.2238 0.0000 0.0500 0.0000 0.1000 draw_line
0.0000 -44.1289 moveto 67.2238 0.0000 0.0500 0.0000 0.1000 draw_line
0.0000 -43.1289 moveto 67.2238 0.0000 0.0500 0.0000 0.1000 draw_line
0.0000 -42.1289 moveto 67.2238 0.0000 0.0500 0.0000 0.1000 draw_line
0.0000 -41.1289 moveto 1.5761 0.0000 47.8798 0.0000 0.2000 draw_round_box
0.0000 -40.1289 moveto 1.5761 0.0000 47.8798 0.0000 0.2000 draw_round_box
0.0000 -41.1289 moveto 1.5761 0.0000 51.7786 0.0000 0.2000 draw_round_box
0.0000 -41.1289 moveto 1.5761 0.0000 56.8382 0.0000 0.2000 draw_round_box
0.0000 -41.1289 moveto 1.5761 0.0000 61.8910 0.0000 0.2000 draw_round_box
0.0000 -30.9878 moveto 67.2238 0.0000 0.0500 0.0000 0.1000 draw_line
0.0000 -29.9878 moveto 67.2238 0.0000 0.0500 0.0000 0.1000 draw_line
0.0000 -28.9878 moveto 67.2238 0.0000 0.0500 0.0000 0.1000 draw_line
0.0000 -27.9878 moveto 67.2238 0.0000 0.0500 0.0000 0.1000 draw_line
0.0000 -26.9878 moveto 67.2238 0.0000 0.0500 0.0000 0.1000 draw_line
49.1949 -44.1289 moveto 0.0500 2.2520 -0.0250 4.2030 0.0800 draw_round_box
48.2923 -35.8804 moveto /TeXGyrePagella-Regular 3.90625000 output-scale div selectfont
0.7512 0.0000 0.0000 /I
1 print_glyphs
48.1408 -28.9878 moveto 0.0500 2.0670 -0.0250 -3.7700 0.0800 draw_round_box
49.1949 -28.9878 moveto 0.0500 2.2539 -0.0250 0.7030 0.0800 draw_round_box
48.0758 -44.6289 moveto magfontemmentaler-18mDWo /noteheads.s2 glyphshow 
48.0758 -40.1289 moveto magfontemmentaler-18mDWo /noteheads.s2 glyphshow 
51.9746 -40.6289 moveto magfontemmentaler-18mDWo /noteheads.s2 glyphshow 
52.0396 -28.9878 moveto 0.0500 2.0670 -0.0250 -3.7700 0.0800 draw_round_box
53.0937 -28.9878 moveto 0.0500 2.5701 -0.0250 0.2030 0.0800 draw_round_box
51.9746 -44.1289 moveto magfontemmentaler-18mDWo /noteheads.s2 glyphshow 
50.2278 -35.8804 moveto /TeXGyrePagella-Regular 3.90625000 output-scale div selectfont
0.6487 0.0000 0.0000 /l
0.6487 0.0000 0.0000 /l
1.1267 0.0000 0.0000 /a
1.2974 0.0000 0.0000 /h
0.9560 0.0000 0.0000 /s
5 print_glyphs
51.9746 -30.4878 moveto magfontemmentaler-18mDWo /noteheads.s2 glyphshow 
51.9746 -28.9878 moveto magfontemmentaler-18mDWo /noteheads.s2 glyphshow 
48.1408 -44.1289 moveto 0.0500 2.2539 -0.0250 -2.9569 0.0800 draw_round_box
43.0256 -28.9878 moveto 0.0500 2.5903 -0.0250 -4.2933 0.0800 draw_round_box
44.0796 -28.9878 moveto 0.0500 2.7570 -0.0250 1.2030 0.0800 draw_round_box
42.9606 -45.1289 moveto magfontemmentaler-18mDWo /noteheads.s2 glyphshow 
42.9606 -41.6289 moveto magfontemmentaler-18mDWo /noteheads.s2 glyphshow 
41.6406 -35.8804 moveto /TeXGyrePagella-Regular 3.90625000 output-scale div selectfont
0.5463 0.0000 0.0000 /comma
0.9560 0.0000 0.0000 /s
1.0584 0.0000 0.0000 /e
1.2633 0.0000 0.0000 /Y
4 print_glyphs
42.9606 -30.4878 moveto magfontemmentaler-18mDWo /noteheads.s2 glyphshow 
42.9606 -27.9878 moveto magfontemmentaler-18mDWo /noteheads.s2 glyphshow 
48.0758 -28.4878 moveto magfontemmentaler-18mDWo /noteheads.s2 glyphshow 
48.0758 -30.4878 moveto magfontemmentaler-18mDWo /noteheads.s2 glyphshow 
43.0256 -44.1289 moveto 0.0500 2.7570 -0.0250 -3.9600 0.0800 draw_round_box
44.0796 -44.1289 moveto 0.0500 2.2570 -0.0250 2.7030 0.0800 draw_round_box
62.1520 -44.1289 moveto 0.0500 3.2570 -0.0250 -2.9600 0.0800 draw_round_box
63.2061 -44.1289 moveto 0.0500 2.2570 -0.0250 3.2030 0.0800 draw_round_box
62.1520 -28.9878 moveto 0.0500 2.5903 -0.0250 -4.2933 0.0800 draw_round_box
18.0363 -26.1778 moveto true 3.8180 0.2000 3.8180 -0.2000 0.0400 -0.2000 0.0400 0.2000 3 0.0800 draw_polygon
16.9822 -33.4878 moveto true 3.8180 0.2000 3.8180 -0.2000 0.0400 -0.2000 0.0400 0.2000 3 0.0800 draw_polygon
30.8252 -35.8804 moveto 0.5800 0.0500 0.0400 0.4600 0.0800 draw_round_box
18.0363 -39.6289 moveto true 3.8180 0.2000 3.8180 -0.2000 0.0400 -0.2000 0.0400 0.2000 3 0.0800 draw_polygon
16.9822 -47.9389 moveto true 3.8180 0.2000 3.8180 -0.2000 0.0400 -0.2000 0.0400 0.2000 3 0.0800 draw_polygon
49.1299 -25.9878 moveto true 3.9888 0.0100 3.9888 -0.3900 0.0400 -0.2000 0.0400 0.2000 3 0.0800 draw_polygon
48.0758 -32.7978 moveto true 3.9888 0.2000 3.9888 -0.2000 0.0400 -0.2000 0.0400 0.2000 3 0.0800 draw_polygon
49.1299 -37.6289 moveto true 3.9888 -0.1100 3.9888 -0.5100 0.0400 -0.2000 0.0400 0.2000 3 0.0800 draw_polygon
48.0758 -47.1289 moveto true 3.9888 0.3900 3.9888 -0.0100 0.0400 -0.2000 0.0400 0.2000 3 0.0800 draw_polygon
57.0992 -28.9878 moveto 0.0500 2.5903 -0.0250 -4.2933 0.0800 draw_round_box
58.1533 -28.9878 moveto 0.0500 3.2570 -0.0250 -0.2970 0.0800 draw_round_box
57.0342 -43.1289 moveto magfontemmentaler-18mDWo /noteheads.s2 glyphshow 
57.0342 -41.1289 moveto magfontemmentaler-18mDWo /noteheads.s2 glyphshow 
56.0898 -35.8804 moveto /TeXGyrePagella-Regular 3.90625000 output-scale div selectfont
1.0584 0.0000 0.0000 /e
1.0584 0.0000 0.0000 /e
0.9560 0.0000 0.0000 /s
3 print_glyphs
57.0342 -30.4878 moveto magfontemmentaler-18mDWo /noteheads.s2 glyphshow 
57.0342 -29.4878 moveto magfontemmentaler-18mDWo /noteheads.s2 glyphshow 
52.0396 -44.1289 moveto 0.0500 2.5701 -0.0250 -2.7731 0.0800 draw_round_box
53.0937 -44.1289 moveto 0.0500 2.4520 -0.0250 3.7030 0.0800 draw_round_box
63.2061 -28.9878 moveto 0.0500 3.2570 -0.0250 -0.2970 0.0800 draw_round_box
62.0870 -43.6289 moveto magfontemmentaler-18mDWo /noteheads.s2 glyphshow 
62.0870 -41.1289 moveto magfontemmentaler-18mDWo /noteheads.s2 glyphshow 
61.1255 -35.8804 moveto /TeXGyrePagella-Regular 3.90625000 output-scale div selectfont
1.0584 0.0000 0.0000 /e
1.2974 0.0000 0.0000 /h
0.7512 0.0000 0.0000 /t
3 print_glyphs
62.0870 -30.4878 moveto magfontemmentaler-18mDWo /noteheads.s2 glyphshow 
62.0870 -29.4878 moveto magfontemmentaler-18mDWo /noteheads.s2 glyphshow 
57.0992 -44.1289 moveto 0.0500 3.2570 -0.0250 -2.4600 0.0800 draw_round_box
58.1533 -44.1289 moveto 0.0500 2.2570 -0.0250 3.2030 0.0800 draw_round_box
16.9822 -45.6289 moveto magfontemmentaler-18mDWo /noteheads.s2 glyphshow 
17.0472 -28.9878 moveto 0.0500 2.2570 -0.0250 -4.4600 0.0800 draw_round_box
18.1013 -28.9878 moveto 0.0500 2.0670 -0.0250 0.7030 0.0800 draw_round_box
16.9822 -42.1289 moveto magfontemmentaler-18mDWo /noteheads.s2 glyphshow 
16.5841 -35.8804 moveto /TeXGyrePagella-Regular 3.90625000 output-scale div selectfont
0.7512 0.0000 0.0000 /f
1.2292 0.0000 0.0000 /o
2 print_glyphs
16.9822 -30.9878 moveto magfontemmentaler-18mDWo /noteheads.s2 glyphshow 
16.9822 -28.4878 moveto magfontemmentaler-18mDWo /noteheads.s2 glyphshow 
11.9190 -44.1289 moveto 0.0500 2.9237 -0.0250 -3.6267 0.0800 draw_round_box
21.8293 -28.9878 moveto 0.0500 2.0670 -0.0250 0.7030 0.0800 draw_round_box
20.7103 -45.6289 moveto magfontemmentaler-18mDWo /noteheads.s2 glyphshow 
20.7103 -42.1289 moveto magfontemmentaler-18mDWo /noteheads.s2 glyphshow 
19.7488 -35.8804 moveto /TeXGyrePagella-Regular 3.90625000 output-scale div selectfont
1.0584 0.0000 0.0000 /e
1.2974 0.0000 0.0000 /h
0.7512 0.0000 0.0000 /t
3 print_glyphs
20.7103 -30.9878 moveto magfontemmentaler-18mDWo /noteheads.s2 glyphshow 
20.7103 -28.4878 moveto magfontemmentaler-18mDWo /noteheads.s2 glyphshow 
17.0472 -44.1289 moveto 0.0500 2.0670 -0.0250 -3.7700 0.0800 draw_round_box
18.1013 -44.1289 moveto 0.0500 2.2570 -0.0250 2.2030 0.0800 draw_round_box
-0.7853 -25.9037 moveto /TeXGyrePagella-Regular 2.76074219 output-scale div selectfont
0.7853 0.0000 0.0000 /three
1 print_glyphs
4.3000 -43.1289 moveto magfontemmentaler-18mDWo /accidentals.sharp glyphshow 
5.2900 -44.6289 moveto magfontemmentaler-18mDWo /accidentals.sharp glyphshow 
6.2800 -42.6289 moveto magfontemmentaler-18mDWo /accidentals.sharp glyphshow 
0.8000 -43.1289 moveto magfontemmentaler-18mDWo /clefs.F glyphshow 
4.3000 -26.9878 moveto magfontemmentaler-18mDWo /accidentals.sharp glyphshow 
5.2900 -28.4878 moveto magfontemmentaler-18mDWo /accidentals.sharp glyphshow 
6.2800 -26.4878 moveto magfontemmentaler-18mDWo /accidentals.sharp glyphshow 
0.8000 -29.9878 moveto magfontemmentaler-18mDWo /clefs.G glyphshow 
8.4200 -45.9727 moveto /Emmentaler-18 6.32617188 output-scale div selectfont
1.4340 0.0000 0.0000 /four
1 print_glyphs
8.4712 -44.1289 moveto /Emmentaler-18 6.32617188 output-scale div selectfont
1.3316 0.0000 0.0000 /two
1 print_glyphs
8.4200 -30.8316 moveto /Emmentaler-18 6.32617188 output-scale div selectfont
1.4340 0.0000 0.0000 /four
1 print_glyphs
8.4712 -28.9878 moveto /Emmentaler-18 6.32617188 output-scale div selectfont
1.3316 0.0000 0.0000 /two
1 print_glyphs
-0.0600 -36.5584 moveto 0.0600 19.1411 0.0500 -9.5706 0.1000 draw_round_box
12.9731 -28.9878 moveto 0.0500 3.2570 -0.0250 -0.2970 0.0800 draw_round_box
12.9731 -44.1289 moveto 0.0500 2.4237 -0.0250 2.2030 0.0800 draw_round_box
11.9190 -28.9878 moveto 0.0500 2.4237 -0.0250 -4.6267 0.0800 draw_round_box
11.8540 -44.6289 moveto magfontemmentaler-18mDWo /noteheads.s2 glyphshow 
11.8540 -42.1289 moveto magfontemmentaler-18mDWo /noteheads.s2 glyphshow 
10.2268 -35.8804 moveto /TeXGyrePagella-Regular 3.90625000 output-scale div selectfont
1.3657 0.0000 0.0000 /d
1.2974 0.0000 0.0000 /n
1.1267 0.0000 0.0000 /a
0.6487 0.0000 0.0000 /l
4 print_glyphs
11.8540 -30.9878 moveto magfontemmentaler-18mDWo /noteheads.s2 glyphshow 
11.8540 -29.4878 moveto magfontemmentaler-18mDWo /noteheads.s2 glyphshow 
33.3621 -30.9878 moveto magfontemmentaler-18mDWo /noteheads.s1 glyphshow 
33.3621 -28.9878 moveto magfontemmentaler-18mDWo /noteheads.s1 glyphshow 
32.1287 -35.8804 moveto /TeXGyrePagella-Regular 3.90625000 output-scale div selectfont
0.5463 0.0000 0.0000 /period
1.2292 0.0000 0.0000 /g
1.2974 0.0000 0.0000 /n
0.6487 0.0000 0.0000 /i
4 print_glyphs
28.3743 -44.1289 moveto 0.0500 3.2570 -0.0250 -2.9600 0.0800 draw_round_box
29.4284 -44.1289 moveto 0.0500 2.5903 -0.0250 1.7030 0.0800 draw_round_box
33.4271 -44.1289 moveto 0.0500 3.1901 -0.0250 -2.9600 0.0800 draw_round_box
35.0182 -43.6289 moveto magfontemmentaler-18mDWo /dots.dot glyphshow 
34.5519 -44.1289 moveto 0.0500 2.5234 -0.0250 1.7699 0.0800 draw_round_box
35.0182 -42.6289 moveto magfontemmentaler-18mDWo /dots.dot glyphshow 
33.4271 -28.9878 moveto 0.0500 2.3568 -0.0250 -4.6267 0.0800 draw_round_box
35.0182 -31.4878 moveto magfontemmentaler-18mDWo /dots.dot glyphshow 
34.5519 -28.9878 moveto 0.0500 3.0234 -0.0250 0.2699 0.0800 draw_round_box
35.0182 -28.4878 moveto magfontemmentaler-18mDWo /dots.dot glyphshow 
33.3621 -43.6289 moveto magfontemmentaler-18mDWo /noteheads.s1 glyphshow 
33.3621 -42.6289 moveto magfontemmentaler-18mDWo /noteheads.s1 glyphshow 
24.7865 -28.9878 moveto magfontemmentaler-18mDWo /timesig.C44 glyphshow 
28.3093 -30.9878 moveto magfontemmentaler-18mDWo /noteheads.s2 glyphshow 
20.7753 -44.1289 moveto 0.0500 2.0670 -0.0250 -3.7700 0.0800 draw_round_box
28.3093 -28.9878 moveto magfontemmentaler-18mDWo /noteheads.s2 glyphshow 
21.8293 -44.1289 moveto 0.0500 2.2570 -0.0250 2.2030 0.0800 draw_round_box
20.7753 -28.9878 moveto 0.0500 2.2570 -0.0250 -4.4600 0.0800 draw_round_box
28.3743 -28.9878 moveto 0.0500 2.4237 -0.0250 -4.6267 0.0800 draw_round_box
27.6210 -35.8804 moveto /TeXGyrePagella-Regular 3.90625000 output-scale div selectfont
1.2633 0.0000 0.0000 /v
0.6487 0.0000 0.0000 /i
0.6487 0.0000 0.0000 /l
3 print_glyphs
24.7865 -44.1289 moveto magfontemmentaler-18mDWo /timesig.C44 glyphshow 
29.4284 -28.9878 moveto 0.0500 3.0903 -0.0250 0.2030 0.0800 draw_round_box
28.3093 -42.6289 moveto magfontemmentaler-18mDWo /noteheads.s2 glyphshow 
28.3093 -43.6289 moveto magfontemmentaler-18mDWo /noteheads.s2 glyphshow 
0.0000 -56.3557 moveto 67.2238 0.0000 0.0500 0.0000 0.1000 draw_line
0.0000 -55.3557 moveto 67.2238 0.0000 0.0500 0.0000 0.1000 draw_line
0.0000 -54.3557 moveto 67.2238 0.0000 0.0500 0.0000 0.1000 draw_line
0.0000 -53.3557 moveto 67.2238 0.0000 0.0500 0.0000 0.1000 draw_line
0.0000 -52.3557 moveto 67.2238 0.0000 0.0500 0.0000 0.1000 draw_line
35.9187 -54.3557 moveto 0.1900 4.0000 0.0000 -2.0000 0.0000 draw_round_box
53.0213 -68.9162 moveto 0.1900 4.0000 0.0000 -2.0000 0.0000 draw_round_box
65.5324 -53.8557 moveto magfontemmentaler-18mDWo /dots.dot glyphshow 
65.5324 -54.8557 moveto magfontemmentaler-18mDWo /dots.dot glyphshow 
66.7238 -54.3557 moveto 0.6000 4.0000 0.0000 -2.0000 0.0000 draw_round_box
66.2338 -54.3557 moveto 0.1900 4.0000 0.0000 -2.0000 0.0000 draw_round_box
53.0213 -54.3557 moveto 0.1900 4.0000 0.0000 -2.0000 0.0000 draw_round_box
65.5324 -68.4162 moveto magfontemmentaler-18mDWo /dots.dot glyphshow 
65.5324 -69.4162 moveto magfontemmentaler-18mDWo /dots.dot glyphshow 
66.7238 -68.9162 moveto 0.6000 4.0000 0.0000 -2.0000 0.0000 draw_round_box
66.2338 -68.9162 moveto 0.1900 4.0000 0.0000 -2.0000 0.0000 draw_round_box
35.9187 -68.9162 moveto 0.1900 4.0000 0.0000 -2.0000 0.0000 draw_round_box
0.0000 -70.9162 moveto 67.2238 0.0000 0.0500 0.0000 0.1000 draw_line
0.0000 -69.9162 moveto 67.2238 0.0000 0.0500 0.0000 0.1000 draw_line
0.0000 -68.9162 moveto 67.2238 0.0000 0.0500 0.0000 0.1000 draw_line
0.0000 -67.9162 moveto 67.2238 0.0000 0.0500 0.0000 0.1000 draw_line
0.0000 -66.9162 moveto 67.2238 0.0000 0.0500 0.0000 0.1000 draw_line
0.0000 -65.9162 moveto 1.5761 0.0000 31.5710 0.0000 0.2000 draw_round_box
0.0000 -65.9162 moveto 1.6821 0.0000 36.9102 0.0000 0.2000 draw_round_box
50.8651 -68.9162 moveto 0.0500 2.0670 -0.0250 2.7030 0.0800 draw_round_box
49.8111 -54.3557 moveto 0.0500 2.4595 -0.0250 -4.1625 0.0800 draw_round_box
50.8651 -54.3557 moveto 0.0500 3.0545 -0.0250 -0.2970 0.0800 draw_round_box
49.7461 -69.9162 moveto magfontemmentaler-18mDWo /noteheads.s2 glyphshow 
49.7461 -66.4162 moveto magfontemmentaler-18mDWo /noteheads.s2 glyphshow 
48.7846 -61.8820 moveto /TeXGyrePagella-Regular 3.90625000 output-scale div selectfont
1.0584 0.0000 0.0000 /e
1.2974 0.0000 0.0000 /h
0.7512 0.0000 0.0000 /t
3 print_glyphs
49.7461 -55.8557 moveto magfontemmentaler-18mDWo /noteheads.s2 glyphshow 
49.7461 -54.8557 moveto magfontemmentaler-18mDWo /noteheads.s2 glyphshow 
55.7572 -54.3557 moveto 0.0500 3.0234 -0.0250 0.2699 0.0800 draw_round_box
54.6325 -54.3557 moveto 0.0500 2.3568 -0.0250 -4.6267 0.0800 draw_round_box
56.2236 -56.8557 moveto magfontemmentaler-18mDWo /dots.dot glyphshow 
49.8111 -68.9162 moveto 0.0500 2.2570 -0.0250 -3.4600 0.0800 draw_round_box
56.2236 -53.8557 moveto magfontemmentaler-18mDWo /dots.dot glyphshow 
54.5675 -68.4162 moveto magfontemmentaler-18mDWo /noteheads.s1 glyphshow 
54.5675 -67.4162 moveto magfontemmentaler-18mDWo /noteheads.s1 glyphshow 
52.5146 -61.8820 moveto /TeXGyrePagella-Regular 3.90625000 output-scale div selectfont
0.5463 0.0000 0.0000 /period
1.3657 0.0000 0.0000 /d
0.8536 0.0000 0.0000 /r
1.2292 0.0000 0.0000 /o
1.3657 0.0000 0.0000 /L
5 print_glyphs
54.5675 -56.3557 moveto magfontemmentaler-18mDWo /noteheads.s1 glyphshow 
54.5675 -54.3557 moveto magfontemmentaler-18mDWo /noteheads.s1 glyphshow 
42.6643 -68.9162 moveto magfontemmentaler-18mDWo /noteheads.s2 glyphshow 
43.7834 -68.9162 moveto 0.0500 2.2570 -0.0250 2.7030 0.0800 draw_round_box
42.7293 -54.3557 moveto 0.0500 2.5903 -0.0250 -4.2933 0.0800 draw_round_box
43.7834 -54.3557 moveto 0.0500 3.2570 -0.0250 -0.2970 0.0800 draw_round_box
42.7293 -68.9162 moveto 0.0500 3.0903 -0.0250 -3.2933 0.0800 draw_round_box
42.6643 -66.4162 moveto magfontemmentaler-18mDWo /noteheads.s2 glyphshow 
40.9517 -61.8820 moveto /TeXGyrePagella-Regular 3.90625000 output-scale div selectfont
0.7170 0.0000 0.0000 /t
0.9219 0.0000 0.0000 /s
1.3316 0.0000 0.0000 /u
0.9219 0.0000 0.0000 /r
0.7170 0.0000 0.0000 /t
5 print_glyphs
42.6643 -55.8557 moveto magfontemmentaler-18mDWo /noteheads.s2 glyphshow 
42.6643 -54.8557 moveto magfontemmentaler-18mDWo /noteheads.s2 glyphshow 
46.7087 -68.9162 moveto 0.0500 2.2570 -0.0250 -3.4600 0.0800 draw_round_box
47.7627 -68.9162 moveto 0.0500 2.0670 -0.0250 2.7030 0.0800 draw_round_box
46.7087 -54.3557 moveto 0.0500 2.0545 -0.0250 -4.7575 0.0800 draw_round_box
47.7627 -54.3557 moveto 0.0500 3.4595 -0.0250 -1.2970 0.0800 draw_round_box
46.6437 -69.9162 moveto magfontemmentaler-18mDWo /noteheads.s2 glyphshow 
46.6437 -66.4162 moveto magfontemmentaler-18mDWo /noteheads.s2 glyphshow 
46.2626 -61.8820 moveto /TeXGyrePagella-Regular 3.90625000 output-scale div selectfont
1.2974 0.0000 0.0000 /n
0.6487 0.0000 0.0000 /i
2 print_glyphs
46.6437 -56.8557 moveto magfontemmentaler-18mDWo /noteheads.s2 glyphshow 
46.6437 -55.8557 moveto magfontemmentaler-18mDWo /noteheads.s2 glyphshow 
63.0875 -68.9162 moveto 0.0500 3.0670 -0.0250 -2.7700 0.0800 draw_round_box
64.1416 -68.9162 moveto 0.0500 2.0670 -0.0250 1.7030 0.0800 draw_round_box
63.0875 -54.3557 moveto 0.0500 2.2570 -0.0250 -4.4600 0.0800 draw_round_box
47.6977 -52.1657 moveto true 3.1924 0.8200 3.1924 0.4200 0.0400 -0.2000 0.0400 0.2000 3 0.0800 draw_polygon
10.8241 -51.3557 moveto true 11.9665 -0.8000 11.9665 -1.2000 0.0400 -0.2000 0.0400 0.2000 3 0.0800 draw_polygon
9.7700 -58.8557 moveto true 11.9665 -0.4900 11.9665 -0.8900 0.0400 -0.2000 0.0400 0.2000 3 0.0800 draw_polygon
10.8241 -63.7262 moveto true 11.9665 -0.1800 11.9665 -0.5800 0.0400 -0.2000 0.0400 0.2000 3 0.0800 draw_polygon
9.7700 -71.7262 moveto true 11.9665 0.8200 11.9665 0.4200 0.0400 -0.2000 0.0400 0.2000 3 0.0800 draw_polygon
46.6437 -59.1657 moveto true 3.1924 0.8200 3.1924 0.4200 0.0400 -0.2000 0.0400 0.2000 3 0.0800 draw_polygon
47.6977 -64.1062 moveto true 3.1924 0.2000 3.1924 -0.2000 0.0400 -0.2000 0.0400 0.2000 3 0.0800 draw_polygon
46.6437 -72.4162 moveto true 3.1924 0.2000 3.1924 -0.2000 0.0400 -0.2000 0.0400 0.2000 3 0.0800 draw_polygon
61.5667 -52.3557 moveto true 2.5999 0.2000 2.5999 -0.2000 0.0400 -0.2000 0.0400 0.2000 3 0.0800 draw_polygon
60.5127 -58.8557 moveto true 2.5999 0.2000 2.5999 -0.2000 0.0400 -0.2000 0.0400 0.2000 3 0.0800 draw_polygon
61.5667 -65.1062 moveto true 2.5999 0.2000 2.5999 -0.2000 0.0400 -0.2000 0.0400 0.2000 3 0.0800 draw_polygon
60.5127 -71.7262 moveto true 2.5999 0.2000 2.5999 -0.2000 0.0400 -0.2000 0.0400 0.2000 3 0.0800 draw_polygon
61.6317 -54.3557 moveto 0.0500 2.7570 -0.0250 -0.7970 0.0800 draw_round_box
60.5127 -68.4162 moveto magfontemmentaler-18mDWo /noteheads.s2 glyphshow 
60.5127 -67.4162 moveto magfontemmentaler-18mDWo /noteheads.s2 glyphshow 
60.7291 -61.8820 moveto /TeXGyrePagella-Regular 3.90625000 output-scale div selectfont
0.7512 0.0000 0.0000 /I
1 print_glyphs
60.5127 -56.3557 moveto magfontemmentaler-18mDWo /noteheads.s2 glyphshow 
60.5127 -55.3557 moveto magfontemmentaler-18mDWo /noteheads.s2 glyphshow 
54.6325 -68.9162 moveto 0.0500 3.1901 -0.0250 -2.9600 0.0800 draw_round_box
56.2236 -68.4162 moveto magfontemmentaler-18mDWo /dots.dot glyphshow 
55.7572 -68.9162 moveto 0.0500 2.5234 -0.0250 1.7699 0.0800 draw_round_box
64.1416 -54.3557 moveto 0.0500 2.7570 -0.0250 -0.7970 0.0800 draw_round_box
63.0225 -68.4162 moveto magfontemmentaler-18mDWo /noteheads.s2 glyphshow 
63.0225 -67.4162 moveto magfontemmentaler-18mDWo /noteheads.s2 glyphshow 
62.0781 -61.8820 moveto /TeXGyrePagella-Regular 3.90625000 output-scale div selectfont
1.9462 0.0000 0.0000 /m
1.1267 0.0000 0.0000 /a
2 print_glyphs
63.0225 -56.3557 moveto magfontemmentaler-18mDWo /noteheads.s2 glyphshow 
63.0225 -55.3557 moveto magfontemmentaler-18mDWo /noteheads.s2 glyphshow 
60.5777 -68.9162 moveto 0.0500 3.0670 -0.0250 -2.7700 0.0800 draw_round_box
56.2236 -67.4162 moveto magfontemmentaler-18mDWo /dots.dot glyphshow 
61.6317 -68.9162 moveto 0.0500 2.0670 -0.0250 1.7030 0.0800 draw_round_box
60.5777 -54.3557 moveto 0.0500 2.2570 -0.0250 -4.4600 0.0800 draw_round_box
19.4754 -54.3557 moveto 0.0500 3.5364 -0.0250 -1.2970 0.0800 draw_round_box
18.3563 -67.9162 moveto magfontemmentaler-18mDWo /noteheads.s2 glyphshow 
18.3563 -66.9162 moveto magfontemmentaler-18mDWo /noteheads.s2 glyphshow 
17.9582 -61.8820 moveto /TeXGyrePagella-Regular 3.90625000 output-scale div selectfont
0.7512 0.0000 0.0000 /f
1.2292 0.0000 0.0000 /o
2 print_glyphs
18.3563 -56.8557 moveto magfontemmentaler-18mDWo /noteheads.s2 glyphshow 
18.3563 -55.8557 moveto magfontemmentaler-18mDWo /noteheads.s2 glyphshow 
14.7214 -68.9162 moveto 0.0500 2.3113 -0.0250 -2.5143 0.0800 draw_round_box
15.7755 -68.9162 moveto 0.0500 2.2903 -0.0250 2.7030 0.0800 draw_round_box
14.7214 -54.3557 moveto 0.0500 3.0415 -0.0250 -4.7445 0.0800 draw_round_box
18.4213 -68.9162 moveto 0.0500 3.1202 -0.0250 -2.3233 0.0800 draw_round_box
22.7656 -54.3557 moveto 0.0500 3.2624 -0.0250 -1.2970 0.0800 draw_round_box
21.6465 -66.9162 moveto magfontemmentaler-18mDWo /noteheads.s2 glyphshow 
20.5143 -61.8820 moveto /TeXGyrePagella-Regular 3.90625000 output-scale div selectfont
0.8877 0.0000 0.0000 /r
1.3316 0.0000 0.0000 /u
1.2292 0.0000 0.0000 /o
3 print_glyphs
21.6465 -56.8557 moveto magfontemmentaler-18mDWo /noteheads.s2 glyphshow 
21.6465 -55.8557 moveto magfontemmentaler-18mDWo /noteheads.s2 glyphshow 
19.4754 -68.9162 moveto 0.0500 2.6732 -0.0250 2.2030 0.0800 draw_round_box
18.4213 -54.3557 moveto 0.0500 2.2542 -0.0250 -4.9572 0.0800 draw_round_box
9.7700 -68.9162 moveto magfontemmentaler-18mDWo /noteheads.s2 glyphshow 
9.7700 -66.4162 moveto magfontemmentaler-18mDWo /noteheads.s2 glyphshow 
7.8354 -61.8820 moveto /TeXGyrePagella-Regular 3.90625000 output-scale div selectfont
1.3657 0.0000 0.0000 /d
1.2292 0.0000 0.0000 /o
1.2292 0.0000 0.0000 /o
1.2292 0.0000 0.0000 /g
4 print_glyphs
9.7700 -55.8557 moveto magfontemmentaler-18mDWo /noteheads.s2 glyphshow 
9.7700 -54.3557 moveto magfontemmentaler-18mDWo /noteheads.s2 glyphshow 
4.3000 -67.9162 moveto magfontemmentaler-18mDWo /accidentals.sharp glyphshow 
5.2900 -69.4162 moveto magfontemmentaler-18mDWo /accidentals.sharp glyphshow 
6.2800 -67.4162 moveto magfontemmentaler-18mDWo /accidentals.sharp glyphshow 
0.8000 -67.9162 moveto magfontemmentaler-18mDWo /clefs.F glyphshow 
10.8891 -54.3557 moveto 0.0500 2.7516 -0.0250 0.2030 0.0800 draw_round_box
4.3000 -52.3557 moveto magfontemmentaler-18mDWo /accidentals.sharp glyphshow 
5.2900 -53.8557 moveto magfontemmentaler-18mDWo /accidentals.sharp glyphshow 
6.2800 -51.8557 moveto magfontemmentaler-18mDWo /accidentals.sharp glyphshow 
0.8000 -55.3557 moveto magfontemmentaler-18mDWo /clefs.G glyphshow 
-0.7853 -51.2715 moveto /TeXGyrePagella-Regular 2.76074219 output-scale div selectfont
0.7853 0.0000 0.0000 /six
1 print_glyphs
-0.0600 -61.6359 moveto 0.0600 18.5605 0.0500 -9.2803 0.1000 draw_round_box
15.7755 -54.3557 moveto 0.0500 2.3446 -0.0250 0.2030 0.0800 draw_round_box
14.6564 -68.9162 moveto magfontemmentaler-18mDWo /noteheads.s2 glyphshow 
14.6564 -66.4162 moveto magfontemmentaler-18mDWo /noteheads.s2 glyphshow 
13.1145 -61.8820 moveto /TeXGyrePagella-Regular 3.90625000 output-scale div selectfont
0.9560 0.0000 0.0000 /s
0.9560 0.0000 0.0000 /s
1.0584 0.0000 0.0000 /e
1.2974 0.0000 0.0000 /n
4 print_glyphs
14.6564 -55.8557 moveto magfontemmentaler-18mDWo /noteheads.s2 glyphshow 
14.6564 -54.3557 moveto magfontemmentaler-18mDWo /noteheads.s2 glyphshow 
9.8350 -68.9162 moveto 0.0500 2.5636 -0.0250 -2.7666 0.0800 draw_round_box
21.6465 -67.9162 moveto magfontemmentaler-18mDWo /noteheads.s2 glyphshow 
10.8891 -68.9162 moveto 0.0500 2.4449 -0.0250 2.7030 0.0800 draw_round_box
9.8350 -54.3557 moveto 0.0500 2.7607 -0.0250 -4.4637 0.0800 draw_round_box
31.8320 -68.9162 moveto 0.0500 2.7570 -0.0250 -3.9600 0.0800 draw_round_box
32.8861 -68.9162 moveto 0.0500 2.2570 -0.0250 3.2030 0.0800 draw_round_box
31.8320 -54.3557 moveto 0.0500 2.4237 -0.0250 -4.6267 0.0800 draw_round_box
32.8861 -54.3557 moveto 0.0500 3.2570 -0.0250 -0.7970 0.0800 draw_round_box
31.7670 -69.9162 moveto magfontemmentaler-18mDWo /noteheads.s2 glyphshow 
31.7670 -65.9162 moveto magfontemmentaler-18mDWo /noteheads.s2 glyphshow 
30.3170 -66.9162 moveto magfontemmentaler-18mDWo /scripts.rcomma glyphshow 
30.0885 -61.8820 moveto /TeXGyrePagella-Regular 3.90625000 output-scale div selectfont
1.3657 0.0000 0.0000 /d
0.6487 0.0000 0.0000 /l
1.2292 0.0000 0.0000 /o
1.2974 0.0000 0.0000 /h
4 print_glyphs
37.1889 -68.9162 moveto 0.0500 2.5234 -0.0250 -4.2933 0.0800 draw_round_box
38.3137 -68.9162 moveto 0.0500 2.1901 -0.0250 3.2699 0.0800 draw_round_box
30.3170 -66.9162 moveto magfontemmentaler-18mDWo /scripts.rcomma glyphshow 
37.1889 -54.3557 moveto 0.0500 2.5234 -0.0250 -4.2933 0.0800 draw_round_box
38.3137 -54.3557 moveto 0.0500 3.1901 -0.0250 -0.2301 0.0800 draw_round_box
37.1239 -70.4162 moveto magfontemmentaler-18mDWo /noteheads.s1 glyphshow 
37.1239 -65.9162 moveto magfontemmentaler-18mDWo /noteheads.s1 glyphshow 
35.3783 -61.8820 moveto /TeXGyrePagella-Regular 3.90625000 output-scale div selectfont
0.5463 0.0000 0.0000 /comma
1.9462 0.0000 0.0000 /m
0.9219 0.0000 0.0000 /r
1.3316 0.0000 0.0000 /f_i
4 print_glyphs
37.1239 -55.8557 moveto magfontemmentaler-18mDWo /noteheads.s1 glyphshow 
37.1239 -54.8557 moveto magfontemmentaler-18mDWo /noteheads.s1 glyphshow 
21.7115 -68.9162 moveto 0.0500 2.9503 -0.0250 -2.1534 0.0800 draw_round_box
27.4898 -54.3557 moveto 0.0500 3.2570 -0.0250 -0.7970 0.0800 draw_round_box
26.3707 -69.4162 moveto magfontemmentaler-18mDWo /noteheads.s2 glyphshow 
31.7670 -56.3557 moveto magfontemmentaler-18mDWo /noteheads.s2 glyphshow 
24.5386 -61.8820 moveto /TeXGyrePagella-Regular 3.90625000 output-scale div selectfont
0.5463 0.0000 0.0000 /comma
1.3657 0.0000 0.0000 /d
1.2292 0.0000 0.0000 /o
1.7072 0.0000 0.0000 /G
4 print_glyphs
26.3707 -56.3557 moveto magfontemmentaler-18mDWo /noteheads.s2 glyphshow 
26.3707 -55.3557 moveto magfontemmentaler-18mDWo /noteheads.s2 glyphshow 
26.3707 -67.4162 moveto magfontemmentaler-18mDWo /noteheads.s2 glyphshow 
22.7656 -68.9162 moveto 0.0500 2.5690 -0.0250 2.2030 0.0800 draw_round_box
21.7115 -54.3557 moveto 0.0500 2.4433 -0.0250 -5.1463 0.0800 draw_round_box
30.3170 -52.3557 moveto magfontemmentaler-18mDWo /scripts.rcomma glyphshow 
31.7670 -55.3557 moveto magfontemmentaler-18mDWo /noteheads.s2 glyphshow 
30.3170 -52.3557 moveto magfontemmentaler-18mDWo /scripts.rcomma glyphshow 
26.4357 -68.9162 moveto 0.0500 2.9237 -0.0250 -3.6267 0.0800 draw_round_box
27.4898 -68.9162 moveto 0.0500 2.5903 -0.0250 1.7030 0.0800 draw_round_box
26.4357 -54.3557 moveto 0.0500 2.4237 -0.0250 -4.6267 0.0800 draw_round_box
stroke grestore
%%Trailer
%%EOF
