%!PS-Adobe-2.0 EPSF-2.0
%%Creator: LilyPond 2.18.2
%%BoundingBox: -9 -117 336 0
%%Orientation: Portrait
%%DocumentSuppliedResources: font Emmentaler-18
%%DocumentSuppliedResources: font TeXGyrePagella-Regular
%%EndComments
%%BeginProlog
/lilypond-datadir where {pop} {userdict /lilypond-datadir (/usr/share/lilypond/2.18.2) put } ifelse
%%BeginFont: Emmentaler-18
lilypond-datadir (/fonts/otf/emmentaler-18.otf) concatstrings (r) file .loadfont
%%EndFont

%%BeginFont: Emmentaler-18
lilypond-datadir (/fonts/otf/emmentaler-18.otf) concatstrings (r) file .loadfont
%%EndFont

%%BeginFont: TeXGyrePagella-Regular
(/usr/share/texmf/fonts/opentype/public/tex-gyre/texgyrepagella-regular.otf) (r) file .loadfont
%%EndFont

/magfontemmentaler-18mDWo { /Emmentaler-18 6.3263 output-scale div selectfont } bind def
/lily-output-units 2.83464566929134 def %% millimeter
/staff-line-thickness 0.1 def
/line-width 67.3237795275591 def
/paper-size (a4) def
/staff-height 4.0 def
/output-scale 1.75729901757299 def
/page-height 169.00937007874 def
/page-width 119.50157480315 def
%%BeginResource: procset (music-drawing-routines.ps) 1 0
%!PS-Adobe-2.0
%
% Functions for direct and embedded PostScript

% Careful with double % as comment prefix.
% Any %%X comment is interpreted as DSC comments.

% TODO: use dicts or prefixes to prevent namespace pollution.

/pdfmark where
{pop} {userdict /pdfmark /cleartomark load put} ifelse


% llx lly urx ury URI
/mark_URI
{
    /uri exch def
    /ury exch def
    /urx exch def
    /lly exch def
    /llx exch def
    [
	/Rect [ llx lly urx ury ]
	
	/Border [ 0 0 0 ]

        /Action
	    <<
		/Subtype /URI
		/URI uri
	    >>
        /Subtype /Link
    /ANN
    pdfmark
}
bind def

% llx lly urx ury page
/mark_page_link
{
    /page exch def
    /ury exch def
    /urx exch def
    /lly exch def
    /llx exch def
    [
        /Rect [ llx lly urx ury ]
        /Border [ 0 0 0 ]
        /Page page
        /Subtype /Link
    /ANN
    pdfmark
}
bind def

% from adobe tech note 5002.
/BeginEPSF { %def
    /b4_Inc_state save def % Save state for cleanup
    /dict_count countdictstack def % Count objects on dict stack
    /op_count count 1 sub def % Count objects on operand stack
    userdict begin % Push userdict on dict stack
    /showpage { } def % Redefine showpage, { } = null proc
    0 setgray 0 setlinecap % Prepare graphics state
    1 setlinewidth 0 setlinejoin
    10 setmiterlimit [ ] 0 setdash newpath
    false setoverprint
} bind def

/EndEPSF { %def
  count op_count sub {pop} repeat % Clean up stacks
  countdictstack dict_count sub {end} repeat
  b4_Inc_state restore
} bind def

/stroke_and_fill? {
    {
	gsave
	    false setstrokeadjust
	    stroke
	grestore
	fill
    }
    {
	stroke
    }
    ifelse
} bind def

/vector_add { % x1 y1 x2 y2 vector_add x1+x2 y1+y2
	exch
	4 1 roll
	add
	3 1 roll
	add
	exch
} bind def

/draw_round_box % width height x y blot
{
    0 max setlinewidth
    matrix currentmatrix 5 1 roll
    currentpoint translate newpath translate
    2 copy 0 min exch 0 min exch translate
    abs exch abs exch
    currentlinewidth 0 eq
    { % straight corners
	2 copy 2 mul gt
	{ % horizontal
	    0 1 index 2 div moveto
	    setlinewidth
	    0 rlineto
	    0 setlinecap
	    stroke
	}
	{
	    2 copy exch 2 mul gt
	    { % vertical
		1 index 2 div 0 moveto
		exch setlinewidth
		0 exch rlineto
		0 setlinecap
		stroke
	    }
	    {
		0 0 4 2 roll rectfill
	    }
	    ifelse
	}
	ifelse
    }
    { % rounded corners
	2 copy 0 eq exch 0 eq or
	{ % line shape
	    0 0 moveto
	    rlineto
	    1 setlinecap
	    stroke
	    0 setlinecap
	}
	{ % full shape
	    currentstrokeadjust {
		currentlinewidth 2 div
		0 0 2 index 180 270 arc
		2 index 0 2 index 270 360 arc
		3 copy 0 90 arc
		0 2 index 3 -1 roll 90 180 arc
		closepath
		2 copy 2 mul gt
		{ % horizontal
		    2 copy add currentlinewidth add 10 add % large enough
		    0 1 index neg moveto
		    2 index 1 index neg lineto
		    2 index 1 index lineto
		    0 exch lineto closepath
		    gsave clip newpath
		    0 1 index 2 div moveto
		    currentlinewidth add setlinewidth
		    0 rlineto
		    2 setlinecap
		    stroke
		    grestore
		}
		{
		    2 copy exch 2 mul gt
		    { % vertical
			2 copy add currentlinewidth add 10 add % large enough
			dup neg 0 moveto
			dup 0 lineto
			dup 2 index lineto
			neg 1 index lineto closepath
			gsave clip newpath
			1 index 2 div 0 moveto
			exch currentlinewidth add setlinewidth
			0 exch rlineto
			2 setlinecap
			stroke
			grestore
		    }
		    {
			pop pop
			fill
		    }
		    ifelse
		}
		ifelse
		newpath
	    }
	    {
		1 setlinejoin
		0 0 4 2 roll 4 copy rectstroke rectfill
	    }
	    ifelse
	}
	ifelse
    }
    ifelse
    setmatrix
} bind def

/draw_polygon % fill? x(n) y(n) x(n-1) y(n-1) ... x(0) y(0) n blot
{
	setlinewidth %set to blot

	0 setlinecap
	1 setlinejoin

	3 1 roll
	/polygon_x
	currentpoint
	/polygon_y exch def
	def
	rmoveto % x(0) y(0)
	{ polygon_x polygon_y vector_add lineto } repeat % n times
	closepath
	stroke_and_fill?
} bind def

/draw_circle % filled? radius thickness draw_circle
{
	setlinewidth	% f? r
	currentpoint	% f? r x0 y0
	3 2 roll	% f? x0 y0 r
	dup 0 rmoveto
	0 360 arc closepath
	stroke_and_fill?
} bind def

/draw_ellipse % filled? x-radius y-radius thickness draw_ellipse
{
  setlinewidth % f? x-r y-r
  /savematrix matrix currentmatrix def
  scale % f?
  currentpoint
  1 0 rmoveto
  1 0 360  arc closepath
  savematrix setmatrix
  stroke_and_fill?
} bind def

/draw_partial_ellipse % filled connect x-radius y-radius startangle endangle thickness draw_partial_ellipse
% Note that filled is not boolean to permit for different graylevels (ie for trill keys)
{
  gsave
  currentpoint translate
  /thickness exch def
  /endangle exch def
  /startangle exch def
  /y_radius exch def
  /x_radius exch def
  /endrad x_radius y_radius mul
    x_radius x_radius mul
    endangle cos endangle cos mul mul
    y_radius y_radius mul
    endangle sin endangle sin mul mul add sqrt div def
  /endangle endangle sin endrad mul y_radius div
    endangle cos endrad mul x_radius div atan def
  /startrad x_radius y_radius mul
    x_radius x_radius mul
      startangle cos startangle cos mul mul
    y_radius y_radius mul
      startangle sin startangle sin mul mul add sqrt div def
  /startangle startangle sin startrad mul y_radius div
    startangle cos startrad mul x_radius div atan def
  /connect exch def
  /filled exch def
  /savematrix matrix currentmatrix def
  thickness setlinewidth
  x_radius y_radius scale
  startangle cos startangle sin moveto
  0 0 1 startangle
    startangle endangle eq { endangle 360 add } { endangle } ifelse
    arc
  connect {
    startangle cos startangle sin moveto endangle cos endangle sin lineto }
    if
  savematrix setmatrix filled stroke_and_fill?
  grestore
} bind def

/draw_line % dx dy x1 y1 thickness draw_line
{
	setlinewidth % dx dy x1 y1
	1 setlinecap
	rmoveto % dx dy
	rlineto
	stroke
} bind def

/draw_dashed_line % dx dy thickness dashpattern offset draw_dashed_line
{
	1 setlinecap
	setdash % dx dy thickness
	setlinewidth %dx dy
	rlineto
	stroke
	[] 0 setdash % reset dash pattern
} bind def

/print_glyphs % w dx dy glyph print_glyphs
{
	{
		currentpoint %w dx dy glyph x0 y0
		5 2 roll %w x0 y0 dx dy glyph
		3 1 roll %w x0 y0 glyph dx dy
		rmoveto %w x0 y0 glyph
		glyphshow %w x0 y0
		moveto %w
		0 rmoveto
	}repeat
}bind def
%end music-drawing-routines.ps

%%EndResource
%%BeginResource: procset (lilyponddefs.ps) 1 0
%!PS-Adobe-2.0: lilyponddefs.ps
%
% Functions for direct PostScript output

% /setgray { 1 add } bind def

/set-ps-scale-to-lily-scale {
	lily-output-units output-scale mul dup scale
} bind def


/init-paper {
	gsave
	clippath pathbbox newpath
	/paper-height exch def
	/paper-width exch def pop pop pop
	% FIXME
	/top-margin 2 def
	paper-width line-width sub 2 div /left-margin exch def
	grestore
} bind def

/init-lilypond-parameters {
	staff-line-thickness setlinewidth
	staff-height init-paper
} bind def


% end lilyponddefs.ps

%%EndResource
%%EndProlog
%%BeginSetup
init-lilypond-parameters
%%EndSetup

/mark_page_link { pop pop pop pop pop } bind def
gsave set-ps-scale-to-lily-scale
41.5473 -4.1767 moveto 0.1900 4.0000 0.0000 -2.0000 0.0000 draw_round_box
41.5473 -19.3178 moveto 0.1900 4.0000 0.0000 -2.0000 0.0000 draw_round_box
67.1338 -4.1767 moveto 0.1900 4.0000 0.0000 -2.0000 0.0000 draw_round_box
23.8465 -19.3178 moveto 0.1900 4.0000 0.0000 -2.0000 0.0000 draw_round_box
23.8465 -4.1767 moveto 0.1900 4.0000 0.0000 -2.0000 0.0000 draw_round_box
67.1338 -19.3178 moveto 0.1900 4.0000 0.0000 -2.0000 0.0000 draw_round_box
0.0000 -21.3178 moveto 67.2238 0.0000 0.0500 0.0000 0.1000 draw_line
0.0000 -20.3178 moveto 67.2238 0.0000 0.0500 0.0000 0.1000 draw_line
0.0000 -19.3178 moveto 67.2238 0.0000 0.0500 0.0000 0.1000 draw_line
0.0000 -18.3178 moveto 67.2238 0.0000 0.0500 0.0000 0.1000 draw_line
0.0000 -17.3178 moveto 67.2238 0.0000 0.0500 0.0000 0.1000 draw_line
0.0000 -16.3178 moveto 1.5761 0.0000 47.8798 0.0000 0.2000 draw_round_box
0.0000 -15.3178 moveto 1.5761 0.0000 47.8798 0.0000 0.2000 draw_round_box
0.0000 -16.3178 moveto 1.5761 0.0000 51.7786 0.0000 0.2000 draw_round_box
0.0000 -16.3178 moveto 1.5761 0.0000 56.8382 0.0000 0.2000 draw_round_box
0.0000 -16.3178 moveto 1.5761 0.0000 61.8910 0.0000 0.2000 draw_round_box
0.0000 -6.1767 moveto 67.2238 0.0000 0.0500 0.0000 0.1000 draw_line
0.0000 -5.1767 moveto 67.2238 0.0000 0.0500 0.0000 0.1000 draw_line
0.0000 -4.1767 moveto 67.2238 0.0000 0.0500 0.0000 0.1000 draw_line
0.0000 -3.1767 moveto 67.2238 0.0000 0.0500 0.0000 0.1000 draw_line
0.0000 -2.1767 moveto 67.2238 0.0000 0.0500 0.0000 0.1000 draw_line
49.1949 -19.3178 moveto 0.0500 2.2520 -0.0250 4.2030 0.0800 draw_round_box
48.2923 -11.0693 moveto /TeXGyrePagella-Regular 3.90625000 output-scale div selectfont
0.7512 0.0000 0.0000 /I
1 print_glyphs
48.1408 -4.1767 moveto 0.0500 2.0670 -0.0250 -3.7700 0.0800 draw_round_box
49.1949 -4.1767 moveto 0.0500 2.2539 -0.0250 0.7030 0.0800 draw_round_box
48.0758 -19.8178 moveto magfontemmentaler-18mDWo /noteheads.s2 glyphshow 
48.0758 -15.3178 moveto magfontemmentaler-18mDWo /noteheads.s2 glyphshow 
51.9746 -15.8178 moveto magfontemmentaler-18mDWo /noteheads.s2 glyphshow 
52.0396 -4.1767 moveto 0.0500 2.0670 -0.0250 -3.7700 0.0800 draw_round_box
53.0937 -4.1767 moveto 0.0500 2.5701 -0.0250 0.2030 0.0800 draw_round_box
51.9746 -19.3178 moveto magfontemmentaler-18mDWo /noteheads.s2 glyphshow 
50.2278 -11.0693 moveto /TeXGyrePagella-Regular 3.90625000 output-scale div selectfont
0.6487 0.0000 0.0000 /l
0.6487 0.0000 0.0000 /l
1.1267 0.0000 0.0000 /a
1.2974 0.0000 0.0000 /h
0.9560 0.0000 0.0000 /s
5 print_glyphs
51.9746 -5.6767 moveto magfontemmentaler-18mDWo /noteheads.s2 glyphshow 
51.9746 -4.1767 moveto magfontemmentaler-18mDWo /noteheads.s2 glyphshow 
48.1408 -19.3178 moveto 0.0500 2.2539 -0.0250 -2.9569 0.0800 draw_round_box
43.0256 -4.1767 moveto 0.0500 2.5903 -0.0250 -4.2933 0.0800 draw_round_box
44.0796 -4.1767 moveto 0.0500 2.7570 -0.0250 1.2030 0.0800 draw_round_box
42.9606 -20.3178 moveto magfontemmentaler-18mDWo /noteheads.s2 glyphshow 
42.9606 -16.8178 moveto magfontemmentaler-18mDWo /noteheads.s2 glyphshow 
41.6406 -11.0693 moveto /TeXGyrePagella-Regular 3.90625000 output-scale div selectfont
0.5463 0.0000 0.0000 /comma
0.9560 0.0000 0.0000 /s
1.0584 0.0000 0.0000 /e
1.2633 0.0000 0.0000 /Y
4 print_glyphs
42.9606 -5.6767 moveto magfontemmentaler-18mDWo /noteheads.s2 glyphshow 
42.9606 -3.1767 moveto magfontemmentaler-18mDWo /noteheads.s2 glyphshow 
48.0758 -3.6767 moveto magfontemmentaler-18mDWo /noteheads.s2 glyphshow 
48.0758 -5.6767 moveto magfontemmentaler-18mDWo /noteheads.s2 glyphshow 
43.0256 -19.3178 moveto 0.0500 2.7570 -0.0250 -3.9600 0.0800 draw_round_box
44.0796 -19.3178 moveto 0.0500 2.2570 -0.0250 2.7030 0.0800 draw_round_box
62.1520 -19.3178 moveto 0.0500 3.2570 -0.0250 -2.9600 0.0800 draw_round_box
63.2061 -19.3178 moveto 0.0500 2.2570 -0.0250 3.2030 0.0800 draw_round_box
62.1520 -4.1767 moveto 0.0500 2.5903 -0.0250 -4.2933 0.0800 draw_round_box
18.0363 -1.3667 moveto true 3.8180 0.2000 3.8180 -0.2000 0.0400 -0.2000 0.0400 0.2000 3 0.0800 draw_polygon
16.9822 -8.6767 moveto true 3.8180 0.2000 3.8180 -0.2000 0.0400 -0.2000 0.0400 0.2000 3 0.0800 draw_polygon
30.8252 -11.0693 moveto 0.5800 0.0500 0.0400 0.4600 0.0800 draw_round_box
18.0363 -14.8178 moveto true 3.8180 0.2000 3.8180 -0.2000 0.0400 -0.2000 0.0400 0.2000 3 0.0800 draw_polygon
16.9822 -23.1278 moveto true 3.8180 0.2000 3.8180 -0.2000 0.0400 -0.2000 0.0400 0.2000 3 0.0800 draw_polygon
49.1299 -1.1767 moveto true 3.9888 0.0100 3.9888 -0.3900 0.0400 -0.2000 0.0400 0.2000 3 0.0800 draw_polygon
48.0758 -7.9867 moveto true 3.9888 0.2000 3.9888 -0.2000 0.0400 -0.2000 0.0400 0.2000 3 0.0800 draw_polygon
49.1299 -12.8178 moveto true 3.9888 -0.1100 3.9888 -0.5100 0.0400 -0.2000 0.0400 0.2000 3 0.0800 draw_polygon
48.0758 -22.3178 moveto true 3.9888 0.3900 3.9888 -0.0100 0.0400 -0.2000 0.0400 0.2000 3 0.0800 draw_polygon
57.0992 -4.1767 moveto 0.0500 2.5903 -0.0250 -4.2933 0.0800 draw_round_box
58.1533 -4.1767 moveto 0.0500 3.2570 -0.0250 -0.2970 0.0800 draw_round_box
57.0342 -18.3178 moveto magfontemmentaler-18mDWo /noteheads.s2 glyphshow 
57.0342 -16.3178 moveto magfontemmentaler-18mDWo /noteheads.s2 glyphshow 
56.0898 -11.0693 moveto /TeXGyrePagella-Regular 3.90625000 output-scale div selectfont
1.0584 0.0000 0.0000 /e
1.0584 0.0000 0.0000 /e
0.9560 0.0000 0.0000 /s
3 print_glyphs
57.0342 -5.6767 moveto magfontemmentaler-18mDWo /noteheads.s2 glyphshow 
57.0342 -4.6767 moveto magfontemmentaler-18mDWo /noteheads.s2 glyphshow 
52.0396 -19.3178 moveto 0.0500 2.5701 -0.0250 -2.7731 0.0800 draw_round_box
53.0937 -19.3178 moveto 0.0500 2.4520 -0.0250 3.7030 0.0800 draw_round_box
63.2061 -4.1767 moveto 0.0500 3.2570 -0.0250 -0.2970 0.0800 draw_round_box
62.0870 -18.8178 moveto magfontemmentaler-18mDWo /noteheads.s2 glyphshow 
62.0870 -16.3178 moveto magfontemmentaler-18mDWo /noteheads.s2 glyphshow 
61.1255 -11.0693 moveto /TeXGyrePagella-Regular 3.90625000 output-scale div selectfont
1.0584 0.0000 0.0000 /e
1.2974 0.0000 0.0000 /h
0.7512 0.0000 0.0000 /t
3 print_glyphs
62.0870 -5.6767 moveto magfontemmentaler-18mDWo /noteheads.s2 glyphshow 
62.0870 -4.6767 moveto magfontemmentaler-18mDWo /noteheads.s2 glyphshow 
57.0992 -19.3178 moveto 0.0500 3.2570 -0.0250 -2.4600 0.0800 draw_round_box
58.1533 -19.3178 moveto 0.0500 2.2570 -0.0250 3.2030 0.0800 draw_round_box
16.9822 -20.8178 moveto magfontemmentaler-18mDWo /noteheads.s2 glyphshow 
17.0472 -4.1767 moveto 0.0500 2.2570 -0.0250 -4.4600 0.0800 draw_round_box
18.1013 -4.1767 moveto 0.0500 2.0670 -0.0250 0.7030 0.0800 draw_round_box
16.9822 -17.3178 moveto magfontemmentaler-18mDWo /noteheads.s2 glyphshow 
16.5841 -11.0693 moveto /TeXGyrePagella-Regular 3.90625000 output-scale div selectfont
0.7512 0.0000 0.0000 /f
1.2292 0.0000 0.0000 /o
2 print_glyphs
16.9822 -6.1767 moveto magfontemmentaler-18mDWo /noteheads.s2 glyphshow 
16.9822 -3.6767 moveto magfontemmentaler-18mDWo /noteheads.s2 glyphshow 
11.9190 -19.3178 moveto 0.0500 2.9237 -0.0250 -3.6267 0.0800 draw_round_box
21.8293 -4.1767 moveto 0.0500 2.0670 -0.0250 0.7030 0.0800 draw_round_box
20.7103 -20.8178 moveto magfontemmentaler-18mDWo /noteheads.s2 glyphshow 
20.7103 -17.3178 moveto magfontemmentaler-18mDWo /noteheads.s2 glyphshow 
19.7488 -11.0693 moveto /TeXGyrePagella-Regular 3.90625000 output-scale div selectfont
1.0584 0.0000 0.0000 /e
1.2974 0.0000 0.0000 /h
0.7512 0.0000 0.0000 /t
3 print_glyphs
20.7103 -6.1767 moveto magfontemmentaler-18mDWo /noteheads.s2 glyphshow 
20.7103 -3.6767 moveto magfontemmentaler-18mDWo /noteheads.s2 glyphshow 
17.0472 -19.3178 moveto 0.0500 2.0670 -0.0250 -3.7700 0.0800 draw_round_box
18.1013 -19.3178 moveto 0.0500 2.2570 -0.0250 2.2030 0.0800 draw_round_box
-0.7853 -1.0926 moveto /TeXGyrePagella-Regular 2.76074219 output-scale div selectfont
0.7853 0.0000 0.0000 /three
1 print_glyphs
4.3000 -18.3178 moveto magfontemmentaler-18mDWo /accidentals.sharp glyphshow 
5.2900 -19.8178 moveto magfontemmentaler-18mDWo /accidentals.sharp glyphshow 
6.2800 -17.8178 moveto magfontemmentaler-18mDWo /accidentals.sharp glyphshow 
0.8000 -18.3178 moveto magfontemmentaler-18mDWo /clefs.F glyphshow 
4.3000 -2.1767 moveto magfontemmentaler-18mDWo /accidentals.sharp glyphshow 
5.2900 -3.6767 moveto magfontemmentaler-18mDWo /accidentals.sharp glyphshow 
6.2800 -1.6767 moveto magfontemmentaler-18mDWo /accidentals.sharp glyphshow 
0.8000 -5.1767 moveto magfontemmentaler-18mDWo /clefs.G glyphshow 
8.4200 -21.1616 moveto /Emmentaler-18 6.32617188 output-scale div selectfont
1.4340 0.0000 0.0000 /four
1 print_glyphs
8.4712 -19.3178 moveto /Emmentaler-18 6.32617188 output-scale div selectfont
1.3316 0.0000 0.0000 /two
1 print_glyphs
8.4200 -6.0205 moveto /Emmentaler-18 6.32617188 output-scale div selectfont
1.4340 0.0000 0.0000 /four
1 print_glyphs
8.4712 -4.1767 moveto /Emmentaler-18 6.32617188 output-scale div selectfont
1.3316 0.0000 0.0000 /two
1 print_glyphs
-0.0600 -11.7473 moveto 0.0600 19.1411 0.0500 -9.5706 0.1000 draw_round_box
12.9731 -4.1767 moveto 0.0500 3.2570 -0.0250 -0.2970 0.0800 draw_round_box
12.9731 -19.3178 moveto 0.0500 2.4237 -0.0250 2.2030 0.0800 draw_round_box
11.9190 -4.1767 moveto 0.0500 2.4237 -0.0250 -4.6267 0.0800 draw_round_box
11.8540 -19.8178 moveto magfontemmentaler-18mDWo /noteheads.s2 glyphshow 
11.8540 -17.3178 moveto magfontemmentaler-18mDWo /noteheads.s2 glyphshow 
10.2268 -11.0693 moveto /TeXGyrePagella-Regular 3.90625000 output-scale div selectfont
1.3657 0.0000 0.0000 /d
1.2974 0.0000 0.0000 /n
1.1267 0.0000 0.0000 /a
0.6487 0.0000 0.0000 /l
4 print_glyphs
11.8540 -6.1767 moveto magfontemmentaler-18mDWo /noteheads.s2 glyphshow 
11.8540 -4.6767 moveto magfontemmentaler-18mDWo /noteheads.s2 glyphshow 
33.3621 -6.1767 moveto magfontemmentaler-18mDWo /noteheads.s1 glyphshow 
33.3621 -4.1767 moveto magfontemmentaler-18mDWo /noteheads.s1 glyphshow 
32.1287 -11.0693 moveto /TeXGyrePagella-Regular 3.90625000 output-scale div selectfont
0.5463 0.0000 0.0000 /period
1.2292 0.0000 0.0000 /g
1.2974 0.0000 0.0000 /n
0.6487 0.0000 0.0000 /i
4 print_glyphs
28.3743 -19.3178 moveto 0.0500 3.2570 -0.0250 -2.9600 0.0800 draw_round_box
29.4284 -19.3178 moveto 0.0500 2.5903 -0.0250 1.7030 0.0800 draw_round_box
33.4271 -19.3178 moveto 0.0500 3.1901 -0.0250 -2.9600 0.0800 draw_round_box
35.0182 -18.8178 moveto magfontemmentaler-18mDWo /dots.dot glyphshow 
34.5519 -19.3178 moveto 0.0500 2.5234 -0.0250 1.7699 0.0800 draw_round_box
35.0182 -17.8178 moveto magfontemmentaler-18mDWo /dots.dot glyphshow 
33.4271 -4.1767 moveto 0.0500 2.3568 -0.0250 -4.6267 0.0800 draw_round_box
35.0182 -6.6767 moveto magfontemmentaler-18mDWo /dots.dot glyphshow 
34.5519 -4.1767 moveto 0.0500 3.0234 -0.0250 0.2699 0.0800 draw_round_box
35.0182 -3.6767 moveto magfontemmentaler-18mDWo /dots.dot glyphshow 
33.3621 -18.8178 moveto magfontemmentaler-18mDWo /noteheads.s1 glyphshow 
33.3621 -17.8178 moveto magfontemmentaler-18mDWo /noteheads.s1 glyphshow 
24.7865 -4.1767 moveto magfontemmentaler-18mDWo /timesig.C44 glyphshow 
28.3093 -6.1767 moveto magfontemmentaler-18mDWo /noteheads.s2 glyphshow 
20.7753 -19.3178 moveto 0.0500 2.0670 -0.0250 -3.7700 0.0800 draw_round_box
28.3093 -4.1767 moveto magfontemmentaler-18mDWo /noteheads.s2 glyphshow 
21.8293 -19.3178 moveto 0.0500 2.2570 -0.0250 2.2030 0.0800 draw_round_box
20.7753 -4.1767 moveto 0.0500 2.2570 -0.0250 -4.4600 0.0800 draw_round_box
28.3743 -4.1767 moveto 0.0500 2.4237 -0.0250 -4.6267 0.0800 draw_round_box
27.6210 -11.0693 moveto /TeXGyrePagella-Regular 3.90625000 output-scale div selectfont
1.2633 0.0000 0.0000 /v
0.6487 0.0000 0.0000 /i
0.6487 0.0000 0.0000 /l
3 print_glyphs
24.7865 -19.3178 moveto magfontemmentaler-18mDWo /timesig.C44 glyphshow 
29.4284 -4.1767 moveto 0.0500 3.0903 -0.0250 0.2030 0.0800 draw_round_box
28.3093 -17.8178 moveto magfontemmentaler-18mDWo /noteheads.s2 glyphshow 
28.3093 -18.8178 moveto magfontemmentaler-18mDWo /noteheads.s2 glyphshow 
stroke grestore
%%Trailer
%%EOF
