%!PS-Adobe-2.0 EPSF-2.0
%%Creator: LilyPond 2.18.2
%%BoundingBox: -9 -115 336 0
%%Orientation: Portrait
%%DocumentSuppliedResources: font Emmentaler-18
%%DocumentSuppliedResources: font TeXGyrePagella-Regular
%%EndComments
%%BeginProlog
/lilypond-datadir where {pop} {userdict /lilypond-datadir (/usr/share/lilypond/2.18.2) put } ifelse
%%BeginFont: Emmentaler-18
lilypond-datadir (/fonts/otf/emmentaler-18.otf) concatstrings (r) file .loadfont
%%EndFont

%%BeginFont: Emmentaler-18
lilypond-datadir (/fonts/otf/emmentaler-18.otf) concatstrings (r) file .loadfont
%%EndFont

%%BeginFont: TeXGyrePagella-Regular
(/usr/share/texmf/fonts/opentype/public/tex-gyre/texgyrepagella-regular.otf) (r) file .loadfont
%%EndFont

/magfontemmentaler-18mDWo { /Emmentaler-18 6.3263 output-scale div selectfont } bind def
/lily-output-units 2.83464566929134 def %% millimeter
/staff-line-thickness 0.1 def
/line-width 67.3237795275591 def
/paper-size (a4) def
/staff-height 4.0 def
/output-scale 1.75729901757299 def
/page-height 169.00937007874 def
/page-width 119.50157480315 def
%%BeginResource: procset (music-drawing-routines.ps) 1 0
%!PS-Adobe-2.0
%
% Functions for direct and embedded PostScript

% Careful with double % as comment prefix.
% Any %%X comment is interpreted as DSC comments.

% TODO: use dicts or prefixes to prevent namespace pollution.

/pdfmark where
{pop} {userdict /pdfmark /cleartomark load put} ifelse


% llx lly urx ury URI
/mark_URI
{
    /uri exch def
    /ury exch def
    /urx exch def
    /lly exch def
    /llx exch def
    [
	/Rect [ llx lly urx ury ]
	
	/Border [ 0 0 0 ]

        /Action
	    <<
		/Subtype /URI
		/URI uri
	    >>
        /Subtype /Link
    /ANN
    pdfmark
}
bind def

% llx lly urx ury page
/mark_page_link
{
    /page exch def
    /ury exch def
    /urx exch def
    /lly exch def
    /llx exch def
    [
        /Rect [ llx lly urx ury ]
        /Border [ 0 0 0 ]
        /Page page
        /Subtype /Link
    /ANN
    pdfmark
}
bind def

% from adobe tech note 5002.
/BeginEPSF { %def
    /b4_Inc_state save def % Save state for cleanup
    /dict_count countdictstack def % Count objects on dict stack
    /op_count count 1 sub def % Count objects on operand stack
    userdict begin % Push userdict on dict stack
    /showpage { } def % Redefine showpage, { } = null proc
    0 setgray 0 setlinecap % Prepare graphics state
    1 setlinewidth 0 setlinejoin
    10 setmiterlimit [ ] 0 setdash newpath
    false setoverprint
} bind def

/EndEPSF { %def
  count op_count sub {pop} repeat % Clean up stacks
  countdictstack dict_count sub {end} repeat
  b4_Inc_state restore
} bind def

/stroke_and_fill? {
    {
	gsave
	    false setstrokeadjust
	    stroke
	grestore
	fill
    }
    {
	stroke
    }
    ifelse
} bind def

/vector_add { % x1 y1 x2 y2 vector_add x1+x2 y1+y2
	exch
	4 1 roll
	add
	3 1 roll
	add
	exch
} bind def

/draw_round_box % width height x y blot
{
    0 max setlinewidth
    matrix currentmatrix 5 1 roll
    currentpoint translate newpath translate
    2 copy 0 min exch 0 min exch translate
    abs exch abs exch
    currentlinewidth 0 eq
    { % straight corners
	2 copy 2 mul gt
	{ % horizontal
	    0 1 index 2 div moveto
	    setlinewidth
	    0 rlineto
	    0 setlinecap
	    stroke
	}
	{
	    2 copy exch 2 mul gt
	    { % vertical
		1 index 2 div 0 moveto
		exch setlinewidth
		0 exch rlineto
		0 setlinecap
		stroke
	    }
	    {
		0 0 4 2 roll rectfill
	    }
	    ifelse
	}
	ifelse
    }
    { % rounded corners
	2 copy 0 eq exch 0 eq or
	{ % line shape
	    0 0 moveto
	    rlineto
	    1 setlinecap
	    stroke
	    0 setlinecap
	}
	{ % full shape
	    currentstrokeadjust {
		currentlinewidth 2 div
		0 0 2 index 180 270 arc
		2 index 0 2 index 270 360 arc
		3 copy 0 90 arc
		0 2 index 3 -1 roll 90 180 arc
		closepath
		2 copy 2 mul gt
		{ % horizontal
		    2 copy add currentlinewidth add 10 add % large enough
		    0 1 index neg moveto
		    2 index 1 index neg lineto
		    2 index 1 index lineto
		    0 exch lineto closepath
		    gsave clip newpath
		    0 1 index 2 div moveto
		    currentlinewidth add setlinewidth
		    0 rlineto
		    2 setlinecap
		    stroke
		    grestore
		}
		{
		    2 copy exch 2 mul gt
		    { % vertical
			2 copy add currentlinewidth add 10 add % large enough
			dup neg 0 moveto
			dup 0 lineto
			dup 2 index lineto
			neg 1 index lineto closepath
			gsave clip newpath
			1 index 2 div 0 moveto
			exch currentlinewidth add setlinewidth
			0 exch rlineto
			2 setlinecap
			stroke
			grestore
		    }
		    {
			pop pop
			fill
		    }
		    ifelse
		}
		ifelse
		newpath
	    }
	    {
		1 setlinejoin
		0 0 4 2 roll 4 copy rectstroke rectfill
	    }
	    ifelse
	}
	ifelse
    }
    ifelse
    setmatrix
} bind def

/draw_polygon % fill? x(n) y(n) x(n-1) y(n-1) ... x(0) y(0) n blot
{
	setlinewidth %set to blot

	0 setlinecap
	1 setlinejoin

	3 1 roll
	/polygon_x
	currentpoint
	/polygon_y exch def
	def
	rmoveto % x(0) y(0)
	{ polygon_x polygon_y vector_add lineto } repeat % n times
	closepath
	stroke_and_fill?
} bind def

/draw_circle % filled? radius thickness draw_circle
{
	setlinewidth	% f? r
	currentpoint	% f? r x0 y0
	3 2 roll	% f? x0 y0 r
	dup 0 rmoveto
	0 360 arc closepath
	stroke_and_fill?
} bind def

/draw_ellipse % filled? x-radius y-radius thickness draw_ellipse
{
  setlinewidth % f? x-r y-r
  /savematrix matrix currentmatrix def
  scale % f?
  currentpoint
  1 0 rmoveto
  1 0 360  arc closepath
  savematrix setmatrix
  stroke_and_fill?
} bind def

/draw_partial_ellipse % filled connect x-radius y-radius startangle endangle thickness draw_partial_ellipse
% Note that filled is not boolean to permit for different graylevels (ie for trill keys)
{
  gsave
  currentpoint translate
  /thickness exch def
  /endangle exch def
  /startangle exch def
  /y_radius exch def
  /x_radius exch def
  /endrad x_radius y_radius mul
    x_radius x_radius mul
    endangle cos endangle cos mul mul
    y_radius y_radius mul
    endangle sin endangle sin mul mul add sqrt div def
  /endangle endangle sin endrad mul y_radius div
    endangle cos endrad mul x_radius div atan def
  /startrad x_radius y_radius mul
    x_radius x_radius mul
      startangle cos startangle cos mul mul
    y_radius y_radius mul
      startangle sin startangle sin mul mul add sqrt div def
  /startangle startangle sin startrad mul y_radius div
    startangle cos startrad mul x_radius div atan def
  /connect exch def
  /filled exch def
  /savematrix matrix currentmatrix def
  thickness setlinewidth
  x_radius y_radius scale
  startangle cos startangle sin moveto
  0 0 1 startangle
    startangle endangle eq { endangle 360 add } { endangle } ifelse
    arc
  connect {
    startangle cos startangle sin moveto endangle cos endangle sin lineto }
    if
  savematrix setmatrix filled stroke_and_fill?
  grestore
} bind def

/draw_line % dx dy x1 y1 thickness draw_line
{
	setlinewidth % dx dy x1 y1
	1 setlinecap
	rmoveto % dx dy
	rlineto
	stroke
} bind def

/draw_dashed_line % dx dy thickness dashpattern offset draw_dashed_line
{
	1 setlinecap
	setdash % dx dy thickness
	setlinewidth %dx dy
	rlineto
	stroke
	[] 0 setdash % reset dash pattern
} bind def

/print_glyphs % w dx dy glyph print_glyphs
{
	{
		currentpoint %w dx dy glyph x0 y0
		5 2 roll %w x0 y0 dx dy glyph
		3 1 roll %w x0 y0 glyph dx dy
		rmoveto %w x0 y0 glyph
		glyphshow %w x0 y0
		moveto %w
		0 rmoveto
	}repeat
}bind def
%end music-drawing-routines.ps

%%EndResource
%%BeginResource: procset (lilyponddefs.ps) 1 0
%!PS-Adobe-2.0: lilyponddefs.ps
%
% Functions for direct PostScript output

% /setgray { 1 add } bind def

/set-ps-scale-to-lily-scale {
	lily-output-units output-scale mul dup scale
} bind def


/init-paper {
	gsave
	clippath pathbbox newpath
	/paper-height exch def
	/paper-width exch def pop pop pop
	% FIXME
	/top-margin 2 def
	paper-width line-width sub 2 div /left-margin exch def
	grestore
} bind def

/init-lilypond-parameters {
	staff-line-thickness setlinewidth
	staff-height init-paper
} bind def


% end lilyponddefs.ps

%%EndResource
%%EndProlog
%%BeginSetup
init-lilypond-parameters
%%EndSetup

/mark_page_link { pop pop pop pop pop } bind def
gsave set-ps-scale-to-lily-scale
0.0000 -6.1767 moveto 67.2238 0.0000 0.0500 0.0000 0.1000 draw_line
0.0000 -5.1767 moveto 67.2238 0.0000 0.0500 0.0000 0.1000 draw_line
0.0000 -4.1767 moveto 67.2238 0.0000 0.0500 0.0000 0.1000 draw_line
0.0000 -3.1767 moveto 67.2238 0.0000 0.0500 0.0000 0.1000 draw_line
0.0000 -2.1767 moveto 67.2238 0.0000 0.0500 0.0000 0.1000 draw_line
35.9187 -4.1767 moveto 0.1900 4.0000 0.0000 -2.0000 0.0000 draw_round_box
53.0213 -18.7372 moveto 0.1900 4.0000 0.0000 -2.0000 0.0000 draw_round_box
65.5324 -3.6767 moveto magfontemmentaler-18mDWo /dots.dot glyphshow 
65.5324 -4.6767 moveto magfontemmentaler-18mDWo /dots.dot glyphshow 
66.7238 -4.1767 moveto 0.6000 4.0000 0.0000 -2.0000 0.0000 draw_round_box
66.2338 -4.1767 moveto 0.1900 4.0000 0.0000 -2.0000 0.0000 draw_round_box
53.0213 -4.1767 moveto 0.1900 4.0000 0.0000 -2.0000 0.0000 draw_round_box
65.5324 -18.2372 moveto magfontemmentaler-18mDWo /dots.dot glyphshow 
65.5324 -19.2372 moveto magfontemmentaler-18mDWo /dots.dot glyphshow 
66.7238 -18.7372 moveto 0.6000 4.0000 0.0000 -2.0000 0.0000 draw_round_box
66.2338 -18.7372 moveto 0.1900 4.0000 0.0000 -2.0000 0.0000 draw_round_box
35.9187 -18.7372 moveto 0.1900 4.0000 0.0000 -2.0000 0.0000 draw_round_box
0.0000 -20.7372 moveto 67.2238 0.0000 0.0500 0.0000 0.1000 draw_line
0.0000 -19.7372 moveto 67.2238 0.0000 0.0500 0.0000 0.1000 draw_line
0.0000 -18.7372 moveto 67.2238 0.0000 0.0500 0.0000 0.1000 draw_line
0.0000 -17.7372 moveto 67.2238 0.0000 0.0500 0.0000 0.1000 draw_line
0.0000 -16.7372 moveto 67.2238 0.0000 0.0500 0.0000 0.1000 draw_line
0.0000 -15.7372 moveto 1.5761 0.0000 31.5710 0.0000 0.2000 draw_round_box
0.0000 -15.7372 moveto 1.6821 0.0000 36.9102 0.0000 0.2000 draw_round_box
50.8651 -18.7372 moveto 0.0500 2.0670 -0.0250 2.7030 0.0800 draw_round_box
49.8111 -4.1767 moveto 0.0500 2.4595 -0.0250 -4.1625 0.0800 draw_round_box
50.8651 -4.1767 moveto 0.0500 3.0545 -0.0250 -0.2970 0.0800 draw_round_box
49.7461 -19.7372 moveto magfontemmentaler-18mDWo /noteheads.s2 glyphshow 
49.7461 -16.2372 moveto magfontemmentaler-18mDWo /noteheads.s2 glyphshow 
48.7846 -11.7031 moveto /TeXGyrePagella-Regular 3.90625000 output-scale div selectfont
1.0584 0.0000 0.0000 /e
1.2974 0.0000 0.0000 /h
0.7512 0.0000 0.0000 /t
3 print_glyphs
49.7461 -5.6767 moveto magfontemmentaler-18mDWo /noteheads.s2 glyphshow 
49.7461 -4.6767 moveto magfontemmentaler-18mDWo /noteheads.s2 glyphshow 
55.7572 -4.1767 moveto 0.0500 3.0234 -0.0250 0.2699 0.0800 draw_round_box
54.6325 -4.1767 moveto 0.0500 2.3568 -0.0250 -4.6267 0.0800 draw_round_box
56.2236 -6.6767 moveto magfontemmentaler-18mDWo /dots.dot glyphshow 
49.8111 -18.7372 moveto 0.0500 2.2570 -0.0250 -3.4600 0.0800 draw_round_box
56.2236 -3.6767 moveto magfontemmentaler-18mDWo /dots.dot glyphshow 
54.5675 -18.2372 moveto magfontemmentaler-18mDWo /noteheads.s1 glyphshow 
54.5675 -17.2372 moveto magfontemmentaler-18mDWo /noteheads.s1 glyphshow 
52.5146 -11.7031 moveto /TeXGyrePagella-Regular 3.90625000 output-scale div selectfont
0.5463 0.0000 0.0000 /period
1.3657 0.0000 0.0000 /d
0.8536 0.0000 0.0000 /r
1.2292 0.0000 0.0000 /o
1.3657 0.0000 0.0000 /L
5 print_glyphs
54.5675 -6.1767 moveto magfontemmentaler-18mDWo /noteheads.s1 glyphshow 
54.5675 -4.1767 moveto magfontemmentaler-18mDWo /noteheads.s1 glyphshow 
42.6643 -18.7372 moveto magfontemmentaler-18mDWo /noteheads.s2 glyphshow 
43.7834 -18.7372 moveto 0.0500 2.2570 -0.0250 2.7030 0.0800 draw_round_box
42.7293 -4.1767 moveto 0.0500 2.5903 -0.0250 -4.2933 0.0800 draw_round_box
43.7834 -4.1767 moveto 0.0500 3.2570 -0.0250 -0.2970 0.0800 draw_round_box
42.7293 -18.7372 moveto 0.0500 3.0903 -0.0250 -3.2933 0.0800 draw_round_box
42.6643 -16.2372 moveto magfontemmentaler-18mDWo /noteheads.s2 glyphshow 
40.9517 -11.7031 moveto /TeXGyrePagella-Regular 3.90625000 output-scale div selectfont
0.7170 0.0000 0.0000 /t
0.9219 0.0000 0.0000 /s
1.3316 0.0000 0.0000 /u
0.9219 0.0000 0.0000 /r
0.7170 0.0000 0.0000 /t
5 print_glyphs
42.6643 -5.6767 moveto magfontemmentaler-18mDWo /noteheads.s2 glyphshow 
42.6643 -4.6767 moveto magfontemmentaler-18mDWo /noteheads.s2 glyphshow 
46.7087 -18.7372 moveto 0.0500 2.2570 -0.0250 -3.4600 0.0800 draw_round_box
47.7627 -18.7372 moveto 0.0500 2.0670 -0.0250 2.7030 0.0800 draw_round_box
46.7087 -4.1767 moveto 0.0500 2.0545 -0.0250 -4.7575 0.0800 draw_round_box
47.7627 -4.1767 moveto 0.0500 3.4595 -0.0250 -1.2970 0.0800 draw_round_box
46.6437 -19.7372 moveto magfontemmentaler-18mDWo /noteheads.s2 glyphshow 
46.6437 -16.2372 moveto magfontemmentaler-18mDWo /noteheads.s2 glyphshow 
46.2626 -11.7031 moveto /TeXGyrePagella-Regular 3.90625000 output-scale div selectfont
1.2974 0.0000 0.0000 /n
0.6487 0.0000 0.0000 /i
2 print_glyphs
46.6437 -6.6767 moveto magfontemmentaler-18mDWo /noteheads.s2 glyphshow 
46.6437 -5.6767 moveto magfontemmentaler-18mDWo /noteheads.s2 glyphshow 
63.0875 -18.7372 moveto 0.0500 3.0670 -0.0250 -2.7700 0.0800 draw_round_box
64.1416 -18.7372 moveto 0.0500 2.0670 -0.0250 1.7030 0.0800 draw_round_box
63.0875 -4.1767 moveto 0.0500 2.2570 -0.0250 -4.4600 0.0800 draw_round_box
47.6977 -1.9867 moveto true 3.1924 0.8200 3.1924 0.4200 0.0400 -0.2000 0.0400 0.2000 3 0.0800 draw_polygon
10.8241 -1.1767 moveto true 11.9665 -0.8000 11.9665 -1.2000 0.0400 -0.2000 0.0400 0.2000 3 0.0800 draw_polygon
9.7700 -8.6767 moveto true 11.9665 -0.4900 11.9665 -0.8900 0.0400 -0.2000 0.0400 0.2000 3 0.0800 draw_polygon
10.8241 -13.5472 moveto true 11.9665 -0.1800 11.9665 -0.5800 0.0400 -0.2000 0.0400 0.2000 3 0.0800 draw_polygon
9.7700 -21.5472 moveto true 11.9665 0.8200 11.9665 0.4200 0.0400 -0.2000 0.0400 0.2000 3 0.0800 draw_polygon
46.6437 -8.9867 moveto true 3.1924 0.8200 3.1924 0.4200 0.0400 -0.2000 0.0400 0.2000 3 0.0800 draw_polygon
47.6977 -13.9272 moveto true 3.1924 0.2000 3.1924 -0.2000 0.0400 -0.2000 0.0400 0.2000 3 0.0800 draw_polygon
46.6437 -22.2372 moveto true 3.1924 0.2000 3.1924 -0.2000 0.0400 -0.2000 0.0400 0.2000 3 0.0800 draw_polygon
61.5667 -2.1767 moveto true 2.5999 0.2000 2.5999 -0.2000 0.0400 -0.2000 0.0400 0.2000 3 0.0800 draw_polygon
60.5127 -8.6767 moveto true 2.5999 0.2000 2.5999 -0.2000 0.0400 -0.2000 0.0400 0.2000 3 0.0800 draw_polygon
61.5667 -14.9272 moveto true 2.5999 0.2000 2.5999 -0.2000 0.0400 -0.2000 0.0400 0.2000 3 0.0800 draw_polygon
60.5127 -21.5472 moveto true 2.5999 0.2000 2.5999 -0.2000 0.0400 -0.2000 0.0400 0.2000 3 0.0800 draw_polygon
61.6317 -4.1767 moveto 0.0500 2.7570 -0.0250 -0.7970 0.0800 draw_round_box
60.5127 -18.2372 moveto magfontemmentaler-18mDWo /noteheads.s2 glyphshow 
60.5127 -17.2372 moveto magfontemmentaler-18mDWo /noteheads.s2 glyphshow 
60.7291 -11.7031 moveto /TeXGyrePagella-Regular 3.90625000 output-scale div selectfont
0.7512 0.0000 0.0000 /I
1 print_glyphs
60.5127 -6.1767 moveto magfontemmentaler-18mDWo /noteheads.s2 glyphshow 
60.5127 -5.1767 moveto magfontemmentaler-18mDWo /noteheads.s2 glyphshow 
54.6325 -18.7372 moveto 0.0500 3.1901 -0.0250 -2.9600 0.0800 draw_round_box
56.2236 -18.2372 moveto magfontemmentaler-18mDWo /dots.dot glyphshow 
55.7572 -18.7372 moveto 0.0500 2.5234 -0.0250 1.7699 0.0800 draw_round_box
64.1416 -4.1767 moveto 0.0500 2.7570 -0.0250 -0.7970 0.0800 draw_round_box
63.0225 -18.2372 moveto magfontemmentaler-18mDWo /noteheads.s2 glyphshow 
63.0225 -17.2372 moveto magfontemmentaler-18mDWo /noteheads.s2 glyphshow 
62.0781 -11.7031 moveto /TeXGyrePagella-Regular 3.90625000 output-scale div selectfont
1.9462 0.0000 0.0000 /m
1.1267 0.0000 0.0000 /a
2 print_glyphs
63.0225 -6.1767 moveto magfontemmentaler-18mDWo /noteheads.s2 glyphshow 
63.0225 -5.1767 moveto magfontemmentaler-18mDWo /noteheads.s2 glyphshow 
60.5777 -18.7372 moveto 0.0500 3.0670 -0.0250 -2.7700 0.0800 draw_round_box
56.2236 -17.2372 moveto magfontemmentaler-18mDWo /dots.dot glyphshow 
61.6317 -18.7372 moveto 0.0500 2.0670 -0.0250 1.7030 0.0800 draw_round_box
60.5777 -4.1767 moveto 0.0500 2.2570 -0.0250 -4.4600 0.0800 draw_round_box
19.4754 -4.1767 moveto 0.0500 3.5364 -0.0250 -1.2970 0.0800 draw_round_box
18.3563 -17.7372 moveto magfontemmentaler-18mDWo /noteheads.s2 glyphshow 
18.3563 -16.7372 moveto magfontemmentaler-18mDWo /noteheads.s2 glyphshow 
17.9582 -11.7031 moveto /TeXGyrePagella-Regular 3.90625000 output-scale div selectfont
0.7512 0.0000 0.0000 /f
1.2292 0.0000 0.0000 /o
2 print_glyphs
18.3563 -6.6767 moveto magfontemmentaler-18mDWo /noteheads.s2 glyphshow 
18.3563 -5.6767 moveto magfontemmentaler-18mDWo /noteheads.s2 glyphshow 
14.7214 -18.7372 moveto 0.0500 2.3113 -0.0250 -2.5143 0.0800 draw_round_box
15.7755 -18.7372 moveto 0.0500 2.2903 -0.0250 2.7030 0.0800 draw_round_box
14.7214 -4.1767 moveto 0.0500 3.0415 -0.0250 -4.7445 0.0800 draw_round_box
18.4213 -18.7372 moveto 0.0500 3.1202 -0.0250 -2.3233 0.0800 draw_round_box
22.7656 -4.1767 moveto 0.0500 3.2624 -0.0250 -1.2970 0.0800 draw_round_box
21.6465 -16.7372 moveto magfontemmentaler-18mDWo /noteheads.s2 glyphshow 
20.5143 -11.7031 moveto /TeXGyrePagella-Regular 3.90625000 output-scale div selectfont
0.8877 0.0000 0.0000 /r
1.3316 0.0000 0.0000 /u
1.2292 0.0000 0.0000 /o
3 print_glyphs
21.6465 -6.6767 moveto magfontemmentaler-18mDWo /noteheads.s2 glyphshow 
21.6465 -5.6767 moveto magfontemmentaler-18mDWo /noteheads.s2 glyphshow 
19.4754 -18.7372 moveto 0.0500 2.6732 -0.0250 2.2030 0.0800 draw_round_box
18.4213 -4.1767 moveto 0.0500 2.2542 -0.0250 -4.9572 0.0800 draw_round_box
9.7700 -18.7372 moveto magfontemmentaler-18mDWo /noteheads.s2 glyphshow 
9.7700 -16.2372 moveto magfontemmentaler-18mDWo /noteheads.s2 glyphshow 
7.8354 -11.7031 moveto /TeXGyrePagella-Regular 3.90625000 output-scale div selectfont
1.3657 0.0000 0.0000 /d
1.2292 0.0000 0.0000 /o
1.2292 0.0000 0.0000 /o
1.2292 0.0000 0.0000 /g
4 print_glyphs
9.7700 -5.6767 moveto magfontemmentaler-18mDWo /noteheads.s2 glyphshow 
9.7700 -4.1767 moveto magfontemmentaler-18mDWo /noteheads.s2 glyphshow 
4.3000 -17.7372 moveto magfontemmentaler-18mDWo /accidentals.sharp glyphshow 
5.2900 -19.2372 moveto magfontemmentaler-18mDWo /accidentals.sharp glyphshow 
6.2800 -17.2372 moveto magfontemmentaler-18mDWo /accidentals.sharp glyphshow 
0.8000 -17.7372 moveto magfontemmentaler-18mDWo /clefs.F glyphshow 
10.8891 -4.1767 moveto 0.0500 2.7516 -0.0250 0.2030 0.0800 draw_round_box
4.3000 -2.1767 moveto magfontemmentaler-18mDWo /accidentals.sharp glyphshow 
5.2900 -3.6767 moveto magfontemmentaler-18mDWo /accidentals.sharp glyphshow 
6.2800 -1.6767 moveto magfontemmentaler-18mDWo /accidentals.sharp glyphshow 
0.8000 -5.1767 moveto magfontemmentaler-18mDWo /clefs.G glyphshow 
-0.7853 -1.0926 moveto /TeXGyrePagella-Regular 2.76074219 output-scale div selectfont
0.7853 0.0000 0.0000 /six
1 print_glyphs
-0.0600 -11.4570 moveto 0.0600 18.5605 0.0500 -9.2803 0.1000 draw_round_box
15.7755 -4.1767 moveto 0.0500 2.3446 -0.0250 0.2030 0.0800 draw_round_box
14.6564 -18.7372 moveto magfontemmentaler-18mDWo /noteheads.s2 glyphshow 
14.6564 -16.2372 moveto magfontemmentaler-18mDWo /noteheads.s2 glyphshow 
13.1145 -11.7031 moveto /TeXGyrePagella-Regular 3.90625000 output-scale div selectfont
0.9560 0.0000 0.0000 /s
0.9560 0.0000 0.0000 /s
1.0584 0.0000 0.0000 /e
1.2974 0.0000 0.0000 /n
4 print_glyphs
14.6564 -5.6767 moveto magfontemmentaler-18mDWo /noteheads.s2 glyphshow 
14.6564 -4.1767 moveto magfontemmentaler-18mDWo /noteheads.s2 glyphshow 
9.8350 -18.7372 moveto 0.0500 2.5636 -0.0250 -2.7666 0.0800 draw_round_box
21.6465 -17.7372 moveto magfontemmentaler-18mDWo /noteheads.s2 glyphshow 
10.8891 -18.7372 moveto 0.0500 2.4449 -0.0250 2.7030 0.0800 draw_round_box
9.8350 -4.1767 moveto 0.0500 2.7607 -0.0250 -4.4637 0.0800 draw_round_box
31.8320 -18.7372 moveto 0.0500 2.7570 -0.0250 -3.9600 0.0800 draw_round_box
32.8861 -18.7372 moveto 0.0500 2.2570 -0.0250 3.2030 0.0800 draw_round_box
31.8320 -4.1767 moveto 0.0500 2.4237 -0.0250 -4.6267 0.0800 draw_round_box
32.8861 -4.1767 moveto 0.0500 3.2570 -0.0250 -0.7970 0.0800 draw_round_box
31.7670 -19.7372 moveto magfontemmentaler-18mDWo /noteheads.s2 glyphshow 
31.7670 -15.7372 moveto magfontemmentaler-18mDWo /noteheads.s2 glyphshow 
30.3170 -16.7372 moveto magfontemmentaler-18mDWo /scripts.rcomma glyphshow 
30.0885 -11.7031 moveto /TeXGyrePagella-Regular 3.90625000 output-scale div selectfont
1.3657 0.0000 0.0000 /d
0.6487 0.0000 0.0000 /l
1.2292 0.0000 0.0000 /o
1.2974 0.0000 0.0000 /h
4 print_glyphs
37.1889 -18.7372 moveto 0.0500 2.5234 -0.0250 -4.2933 0.0800 draw_round_box
38.3137 -18.7372 moveto 0.0500 2.1901 -0.0250 3.2699 0.0800 draw_round_box
30.3170 -16.7372 moveto magfontemmentaler-18mDWo /scripts.rcomma glyphshow 
37.1889 -4.1767 moveto 0.0500 2.5234 -0.0250 -4.2933 0.0800 draw_round_box
38.3137 -4.1767 moveto 0.0500 3.1901 -0.0250 -0.2301 0.0800 draw_round_box
37.1239 -20.2372 moveto magfontemmentaler-18mDWo /noteheads.s1 glyphshow 
37.1239 -15.7372 moveto magfontemmentaler-18mDWo /noteheads.s1 glyphshow 
35.3783 -11.7031 moveto /TeXGyrePagella-Regular 3.90625000 output-scale div selectfont
0.5463 0.0000 0.0000 /comma
1.9462 0.0000 0.0000 /m
0.9219 0.0000 0.0000 /r
1.3316 0.0000 0.0000 /f_i
4 print_glyphs
37.1239 -5.6767 moveto magfontemmentaler-18mDWo /noteheads.s1 glyphshow 
37.1239 -4.6767 moveto magfontemmentaler-18mDWo /noteheads.s1 glyphshow 
21.7115 -18.7372 moveto 0.0500 2.9503 -0.0250 -2.1534 0.0800 draw_round_box
27.4898 -4.1767 moveto 0.0500 3.2570 -0.0250 -0.7970 0.0800 draw_round_box
26.3707 -19.2372 moveto magfontemmentaler-18mDWo /noteheads.s2 glyphshow 
31.7670 -6.1767 moveto magfontemmentaler-18mDWo /noteheads.s2 glyphshow 
24.5386 -11.7031 moveto /TeXGyrePagella-Regular 3.90625000 output-scale div selectfont
0.5463 0.0000 0.0000 /comma
1.3657 0.0000 0.0000 /d
1.2292 0.0000 0.0000 /o
1.7072 0.0000 0.0000 /G
4 print_glyphs
26.3707 -6.1767 moveto magfontemmentaler-18mDWo /noteheads.s2 glyphshow 
26.3707 -5.1767 moveto magfontemmentaler-18mDWo /noteheads.s2 glyphshow 
26.3707 -17.2372 moveto magfontemmentaler-18mDWo /noteheads.s2 glyphshow 
22.7656 -18.7372 moveto 0.0500 2.5690 -0.0250 2.2030 0.0800 draw_round_box
21.7115 -4.1767 moveto 0.0500 2.4433 -0.0250 -5.1463 0.0800 draw_round_box
30.3170 -2.1767 moveto magfontemmentaler-18mDWo /scripts.rcomma glyphshow 
31.7670 -5.1767 moveto magfontemmentaler-18mDWo /noteheads.s2 glyphshow 
30.3170 -2.1767 moveto magfontemmentaler-18mDWo /scripts.rcomma glyphshow 
26.4357 -18.7372 moveto 0.0500 2.9237 -0.0250 -3.6267 0.0800 draw_round_box
27.4898 -18.7372 moveto 0.0500 2.5903 -0.0250 1.7030 0.0800 draw_round_box
26.4357 -4.1767 moveto 0.0500 2.4237 -0.0250 -4.6267 0.0800 draw_round_box
stroke grestore
%%Trailer
%%EOF
