%!PS-Adobe-2.0 EPSF-2.0
%%Creator: LilyPond 2.18.2
%%BoundingBox: -9 -148 336 0
%%Orientation: Portrait
%%DocumentSuppliedResources: font Emmentaler-18
%%DocumentSuppliedResources: font TeXGyrePagella-Italic
%%DocumentSuppliedResources: font TeXGyrePagella-Regular
%%EndComments
%%BeginProlog
/lilypond-datadir where {pop} {userdict /lilypond-datadir (/usr/share/lilypond/2.18.2) put } ifelse
%%BeginFont: Emmentaler-18
lilypond-datadir (/fonts/otf/emmentaler-18.otf) concatstrings (r) file .loadfont
%%EndFont

%%BeginFont: TeXGyrePagella-Italic
(/usr/share/texmf/fonts/opentype/public/tex-gyre/texgyrepagella-italic.otf) (r) file .loadfont
%%EndFont

%%BeginFont: TeXGyrePagella-Regular
(/usr/share/texmf/fonts/opentype/public/tex-gyre/texgyrepagella-regular.otf) (r) file .loadfont
%%EndFont

/magfontemmentaler-18mDWo { /Emmentaler-18 6.3263 output-scale div selectfont } bind def
/lily-output-units 2.83464566929134 def %% millimeter
/staff-line-thickness 0.1 def
/line-width 67.3237795275591 def
/paper-size (a4) def
/staff-height 4.0 def
/output-scale 1.75729901757299 def
/page-height 169.00937007874 def
/page-width 119.50157480315 def
%%BeginResource: procset (music-drawing-routines.ps) 1 0
%!PS-Adobe-2.0
%
% Functions for direct and embedded PostScript

% Careful with double % as comment prefix.
% Any %%X comment is interpreted as DSC comments.

% TODO: use dicts or prefixes to prevent namespace pollution.

/pdfmark where
{pop} {userdict /pdfmark /cleartomark load put} ifelse


% llx lly urx ury URI
/mark_URI
{
    /uri exch def
    /ury exch def
    /urx exch def
    /lly exch def
    /llx exch def
    [
	/Rect [ llx lly urx ury ]
	
	/Border [ 0 0 0 ]

        /Action
	    <<
		/Subtype /URI
		/URI uri
	    >>
        /Subtype /Link
    /ANN
    pdfmark
}
bind def

% llx lly urx ury page
/mark_page_link
{
    /page exch def
    /ury exch def
    /urx exch def
    /lly exch def
    /llx exch def
    [
        /Rect [ llx lly urx ury ]
        /Border [ 0 0 0 ]
        /Page page
        /Subtype /Link
    /ANN
    pdfmark
}
bind def

% from adobe tech note 5002.
/BeginEPSF { %def
    /b4_Inc_state save def % Save state for cleanup
    /dict_count countdictstack def % Count objects on dict stack
    /op_count count 1 sub def % Count objects on operand stack
    userdict begin % Push userdict on dict stack
    /showpage { } def % Redefine showpage, { } = null proc
    0 setgray 0 setlinecap % Prepare graphics state
    1 setlinewidth 0 setlinejoin
    10 setmiterlimit [ ] 0 setdash newpath
    false setoverprint
} bind def

/EndEPSF { %def
  count op_count sub {pop} repeat % Clean up stacks
  countdictstack dict_count sub {end} repeat
  b4_Inc_state restore
} bind def

/stroke_and_fill? {
    {
	gsave
	    false setstrokeadjust
	    stroke
	grestore
	fill
    }
    {
	stroke
    }
    ifelse
} bind def

/vector_add { % x1 y1 x2 y2 vector_add x1+x2 y1+y2
	exch
	4 1 roll
	add
	3 1 roll
	add
	exch
} bind def

/draw_round_box % width height x y blot
{
    0 max setlinewidth
    matrix currentmatrix 5 1 roll
    currentpoint translate newpath translate
    2 copy 0 min exch 0 min exch translate
    abs exch abs exch
    currentlinewidth 0 eq
    { % straight corners
	2 copy 2 mul gt
	{ % horizontal
	    0 1 index 2 div moveto
	    setlinewidth
	    0 rlineto
	    0 setlinecap
	    stroke
	}
	{
	    2 copy exch 2 mul gt
	    { % vertical
		1 index 2 div 0 moveto
		exch setlinewidth
		0 exch rlineto
		0 setlinecap
		stroke
	    }
	    {
		0 0 4 2 roll rectfill
	    }
	    ifelse
	}
	ifelse
    }
    { % rounded corners
	2 copy 0 eq exch 0 eq or
	{ % line shape
	    0 0 moveto
	    rlineto
	    1 setlinecap
	    stroke
	    0 setlinecap
	}
	{ % full shape
	    currentstrokeadjust {
		currentlinewidth 2 div
		0 0 2 index 180 270 arc
		2 index 0 2 index 270 360 arc
		3 copy 0 90 arc
		0 2 index 3 -1 roll 90 180 arc
		closepath
		2 copy 2 mul gt
		{ % horizontal
		    2 copy add currentlinewidth add 10 add % large enough
		    0 1 index neg moveto
		    2 index 1 index neg lineto
		    2 index 1 index lineto
		    0 exch lineto closepath
		    gsave clip newpath
		    0 1 index 2 div moveto
		    currentlinewidth add setlinewidth
		    0 rlineto
		    2 setlinecap
		    stroke
		    grestore
		}
		{
		    2 copy exch 2 mul gt
		    { % vertical
			2 copy add currentlinewidth add 10 add % large enough
			dup neg 0 moveto
			dup 0 lineto
			dup 2 index lineto
			neg 1 index lineto closepath
			gsave clip newpath
			1 index 2 div 0 moveto
			exch currentlinewidth add setlinewidth
			0 exch rlineto
			2 setlinecap
			stroke
			grestore
		    }
		    {
			pop pop
			fill
		    }
		    ifelse
		}
		ifelse
		newpath
	    }
	    {
		1 setlinejoin
		0 0 4 2 roll 4 copy rectstroke rectfill
	    }
	    ifelse
	}
	ifelse
    }
    ifelse
    setmatrix
} bind def

/draw_polygon % fill? x(n) y(n) x(n-1) y(n-1) ... x(0) y(0) n blot
{
	setlinewidth %set to blot

	0 setlinecap
	1 setlinejoin

	3 1 roll
	/polygon_x
	currentpoint
	/polygon_y exch def
	def
	rmoveto % x(0) y(0)
	{ polygon_x polygon_y vector_add lineto } repeat % n times
	closepath
	stroke_and_fill?
} bind def

/draw_circle % filled? radius thickness draw_circle
{
	setlinewidth	% f? r
	currentpoint	% f? r x0 y0
	3 2 roll	% f? x0 y0 r
	dup 0 rmoveto
	0 360 arc closepath
	stroke_and_fill?
} bind def

/draw_ellipse % filled? x-radius y-radius thickness draw_ellipse
{
  setlinewidth % f? x-r y-r
  /savematrix matrix currentmatrix def
  scale % f?
  currentpoint
  1 0 rmoveto
  1 0 360  arc closepath
  savematrix setmatrix
  stroke_and_fill?
} bind def

/draw_partial_ellipse % filled connect x-radius y-radius startangle endangle thickness draw_partial_ellipse
% Note that filled is not boolean to permit for different graylevels (ie for trill keys)
{
  gsave
  currentpoint translate
  /thickness exch def
  /endangle exch def
  /startangle exch def
  /y_radius exch def
  /x_radius exch def
  /endrad x_radius y_radius mul
    x_radius x_radius mul
    endangle cos endangle cos mul mul
    y_radius y_radius mul
    endangle sin endangle sin mul mul add sqrt div def
  /endangle endangle sin endrad mul y_radius div
    endangle cos endrad mul x_radius div atan def
  /startrad x_radius y_radius mul
    x_radius x_radius mul
      startangle cos startangle cos mul mul
    y_radius y_radius mul
      startangle sin startangle sin mul mul add sqrt div def
  /startangle startangle sin startrad mul y_radius div
    startangle cos startrad mul x_radius div atan def
  /connect exch def
  /filled exch def
  /savematrix matrix currentmatrix def
  thickness setlinewidth
  x_radius y_radius scale
  startangle cos startangle sin moveto
  0 0 1 startangle
    startangle endangle eq { endangle 360 add } { endangle } ifelse
    arc
  connect {
    startangle cos startangle sin moveto endangle cos endangle sin lineto }
    if
  savematrix setmatrix filled stroke_and_fill?
  grestore
} bind def

/draw_line % dx dy x1 y1 thickness draw_line
{
	setlinewidth % dx dy x1 y1
	1 setlinecap
	rmoveto % dx dy
	rlineto
	stroke
} bind def

/draw_dashed_line % dx dy thickness dashpattern offset draw_dashed_line
{
	1 setlinecap
	setdash % dx dy thickness
	setlinewidth %dx dy
	rlineto
	stroke
	[] 0 setdash % reset dash pattern
} bind def

/print_glyphs % w dx dy glyph print_glyphs
{
	{
		currentpoint %w dx dy glyph x0 y0
		5 2 roll %w x0 y0 dx dy glyph
		3 1 roll %w x0 y0 glyph dx dy
		rmoveto %w x0 y0 glyph
		glyphshow %w x0 y0
		moveto %w
		0 rmoveto
	}repeat
}bind def
%end music-drawing-routines.ps

%%EndResource
%%BeginResource: procset (lilyponddefs.ps) 1 0
%!PS-Adobe-2.0: lilyponddefs.ps
%
% Functions for direct PostScript output

% /setgray { 1 add } bind def

/set-ps-scale-to-lily-scale {
	lily-output-units output-scale mul dup scale
} bind def


/init-paper {
	gsave
	clippath pathbbox newpath
	/paper-height exch def
	/paper-width exch def pop pop pop
	% FIXME
	/top-margin 2 def
	paper-width line-width sub 2 div /left-margin exch def
	grestore
} bind def

/init-lilypond-parameters {
	staff-line-thickness setlinewidth
	staff-height init-paper
} bind def


% end lilyponddefs.ps

%%EndResource
%%EndProlog
%%BeginSetup
init-lilypond-parameters
%%EndSetup

/mark_page_link { pop pop pop pop pop } bind def
gsave set-ps-scale-to-lily-scale
0.0000 -6.1767 moveto 67.2238 0.0000 0.0500 0.0000 0.1000 draw_line
0.0000 -5.1767 moveto 67.2238 0.0000 0.0500 0.0000 0.1000 draw_line
0.0000 -4.1767 moveto 67.2238 0.0000 0.0500 0.0000 0.1000 draw_line
0.0000 -3.1767 moveto 67.2238 0.0000 0.0500 0.0000 0.1000 draw_line
0.0000 -2.1767 moveto 67.2238 0.0000 0.0500 0.0000 0.1000 draw_line
28.7210 -4.1767 moveto 0.1900 4.0000 0.0000 -2.0000 0.0000 draw_round_box
67.1338 -24.0051 moveto 0.1900 4.0000 0.0000 -2.0000 0.0000 draw_round_box
47.1105 -24.0051 moveto 0.1900 4.0000 0.0000 -2.0000 0.0000 draw_round_box
67.1338 -4.1767 moveto 0.1900 4.0000 0.0000 -2.0000 0.0000 draw_round_box
47.1105 -4.1767 moveto 0.1900 4.0000 0.0000 -2.0000 0.0000 draw_round_box
28.7210 -24.0051 moveto 0.1900 4.0000 0.0000 -2.0000 0.0000 draw_round_box
0.0000 -26.0051 moveto 67.2238 0.0000 0.0500 0.0000 0.1000 draw_line
0.0000 -25.0051 moveto 67.2238 0.0000 0.0500 0.0000 0.1000 draw_line
0.0000 -24.0051 moveto 67.2238 0.0000 0.0500 0.0000 0.1000 draw_line
0.0000 -23.0051 moveto 67.2238 0.0000 0.0500 0.0000 0.1000 draw_line
0.0000 -22.0051 moveto 67.2238 0.0000 0.0500 0.0000 0.1000 draw_line
0.0000 -7.1767 moveto 1.5761 0.0000 7.5940 0.0000 0.2000 draw_round_box
0.0000 -7.1767 moveto 1.5761 0.0000 11.9378 0.0000 0.2000 draw_round_box
0.0000 -7.1767 moveto 1.5761 0.0000 16.5035 0.0000 0.2000 draw_round_box
0.0000 -7.1767 moveto 1.5761 0.0000 20.8046 0.0000 0.2000 draw_round_box
0.0000 -7.1767 moveto 1.5761 0.0000 24.6377 0.0000 0.2000 draw_round_box
0.0000 -8.1767 moveto 1.5761 0.0000 24.6377 0.0000 0.2000 draw_round_box
48.5064 -4.1767 moveto 0.0500 2.2570 -0.0250 -4.9600 0.0800 draw_round_box
48.5064 -24.0051 moveto 0.0500 3.2570 -0.0250 -1.9600 0.0800 draw_round_box
49.5604 -24.0051 moveto 0.0500 2.5903 -0.0250 1.7030 0.0800 draw_round_box
41.1918 -24.0051 moveto magfontemmentaler-18mDWo /noteheads.s2 glyphshow 
57.1076 -26.0051 moveto magfontemmentaler-18mDWo /rests.2 glyphshow 
57.1076 -22.0051 moveto magfontemmentaler-18mDWo /rests.2 glyphshow 
57.1076 -6.1767 moveto magfontemmentaler-18mDWo /rests.2 glyphshow 
57.1076 -2.1767 moveto magfontemmentaler-18mDWo /rests.2 glyphshow 
53.3211 -24.0051 moveto 0.0500 3.2570 -0.0250 -1.9600 0.0800 draw_round_box
54.3751 -24.0051 moveto 0.0500 2.5903 -0.0250 1.7030 0.0800 draw_round_box
53.3211 -4.1767 moveto 0.0500 2.2570 -0.0250 -4.9600 0.0800 draw_round_box
54.3751 -4.1767 moveto 0.0500 3.0903 -0.0250 0.2030 0.0800 draw_round_box
53.2561 -22.5051 moveto magfontemmentaler-18mDWo /noteheads.s2 glyphshow 
53.2561 -22.5051 moveto magfontemmentaler-18mDWo /noteheads.s2 glyphshow 
51.3044 -16.7905 moveto /TeXGyrePagella-Regular 3.90625000 output-scale div selectfont
0.5463 0.0000 0.0000 /comma
0.7170 0.0000 0.0000 /t
1.2974 0.0000 0.0000 /h
1.2292 0.0000 0.0000 /g
0.6487 0.0000 0.0000 /i
0.6487 0.0000 0.0000 /l
6 print_glyphs
51.7483 -13.9905 moveto /TeXGyrePagella-Regular 3.90625000 output-scale div selectfont
0.5463 0.0000 0.0000 /comma
1.9462 0.0000 0.0000 /m
1.0584 0.0000 0.0000 /e
0.6487 0.0000 0.0000 /l
4 print_glyphs
53.2561 -6.6767 moveto magfontemmentaler-18mDWo /noteheads.s2 glyphshow 
53.2561 -4.1767 moveto magfontemmentaler-18mDWo /noteheads.s2 glyphshow 
45.7028 -4.1767 moveto 0.0500 2.4435 -0.0250 -0.2970 0.0800 draw_round_box
44.5838 -24.0051 moveto magfontemmentaler-18mDWo /noteheads.s2 glyphshow 
44.5838 -22.0051 moveto magfontemmentaler-18mDWo /noteheads.s2 glyphshow 
44.2881 -13.9905 moveto /TeXGyrePagella-Regular 3.90625000 output-scale div selectfont
1.0584 0.0000 0.0000 /e
0.7170 0.0000 0.0000 /t
2 print_glyphs
44.5838 -6.6767 moveto magfontemmentaler-18mDWo /noteheads.s2 glyphshow 
44.5838 -4.6767 moveto magfontemmentaler-18mDWo /noteheads.s2 glyphshow 
41.2568 -24.0051 moveto 0.0500 2.7570 -0.0250 -2.9600 0.0800 draw_round_box
42.3108 -24.0051 moveto 0.0500 2.2570 -0.0250 2.2030 0.0800 draw_round_box
41.2568 -4.1767 moveto 0.0500 2.0670 -0.0250 -4.7700 0.0800 draw_round_box
42.3108 -4.1767 moveto 0.0500 2.7605 -0.0250 -0.7970 0.0800 draw_round_box
8.8441 -0.7767 moveto 0.0000 -0.7000 9.2396 0.0000 0.1600 draw_line
8.8441 -0.7767 moveto -3.7271 0.0000 9.2396 0.0000 0.1600 draw_line
8.8441 -0.7767 moveto 0.0000 -0.7000 -0.2000 0.0000 0.1600 draw_line
8.8441 -0.7767 moveto 3.9271 0.0000 -0.2000 0.0000 0.1600 draw_line
49.5604 -4.1767 moveto 0.0500 3.0903 -0.0250 0.2030 0.0800 draw_round_box
48.4414 -22.5051 moveto magfontemmentaler-18mDWo /noteheads.s2 glyphshow 
48.4414 -22.5051 moveto magfontemmentaler-18mDWo /noteheads.s2 glyphshow 
47.4799 -16.7905 moveto /TeXGyrePagella-Regular 3.90625000 output-scale div selectfont
1.0584 0.0000 0.0000 /e
1.2974 0.0000 0.0000 /h
0.7512 0.0000 0.0000 /t
3 print_glyphs
47.0872 -13.9905 moveto /TeXGyrePagella-Regular 3.90625000 output-scale div selectfont
0.7170 0.0000 0.0000 /t
1.0584 0.0000 0.0000 /ecaron
1.1609 0.0000 0.0000 /v
0.9560 0.0000 0.0000 /s
4 print_glyphs
48.4414 -6.6767 moveto magfontemmentaler-18mDWo /noteheads.s2 glyphshow 
48.4414 -4.1767 moveto magfontemmentaler-18mDWo /noteheads.s2 glyphshow 
44.6488 -24.0051 moveto 0.0500 2.7570 -0.0250 -2.9600 0.0800 draw_round_box
45.7028 -24.0051 moveto 0.0500 2.2570 -0.0250 2.2030 0.0800 draw_round_box
44.6488 -4.1767 moveto 0.0500 2.0670 -0.0250 -4.7700 0.0800 draw_round_box
61.6842 -1.1767 moveto true 4.0966 0.0100 4.0966 -0.3900 0.0400 -0.2000 0.0400 0.2000 3 0.0800 draw_polygon
60.6301 -8.9867 moveto true 4.0966 0.2000 4.0966 -0.2000 0.0400 -0.2000 0.0400 0.2000 3 0.0800 draw_polygon
61.6842 -20.1951 moveto true 4.0966 0.2000 4.0966 -0.2000 0.0400 -0.2000 0.0400 0.2000 3 0.0800 draw_polygon
60.6301 -25.8151 moveto true 4.0966 0.2000 4.0966 -0.2000 0.0400 -0.2000 0.0400 0.2000 3 0.0800 draw_polygon
64.7017 -24.0051 moveto 0.0500 3.0670 -0.0250 -1.7700 0.0800 draw_round_box
12.9712 -1.3230 moveto /TeXGyrePagella-Italic 2.76074219 output-scale div selectfont
0.7853 0.0000 0.0000 /three
1 print_glyphs
7.7900 -11.2767 moveto 0.0000 0.7000 9.2396 0.0000 0.1600 draw_line
7.7900 -11.2767 moveto -3.7271 0.0000 9.2396 0.0000 0.1600 draw_line
7.7900 -11.2767 moveto 0.0000 0.7000 -0.2000 0.0000 0.1600 draw_line
7.7900 -11.2767 moveto 3.9271 0.0000 -0.2000 0.0000 0.1600 draw_line
11.9171 -11.8230 moveto /TeXGyrePagella-Italic 2.76074219 output-scale div selectfont
0.7853 0.0000 0.0000 /three
1 print_glyphs
10.2410 -13.9905 moveto 0.5800 0.0500 0.0400 0.4600 0.0800 draw_round_box
8.8441 -18.9051 moveto 0.0000 -0.7000 9.2396 0.0000 0.1600 draw_line
8.8441 -18.9051 moveto -3.7271 0.0000 9.2396 0.0000 0.1600 draw_line
8.8441 -18.9051 moveto 0.0000 -0.7000 -0.2000 0.0000 0.1600 draw_line
8.8441 -18.9051 moveto 3.9271 0.0000 -0.2000 0.0000 0.1600 draw_line
12.9712 -19.4514 moveto /TeXGyrePagella-Italic 2.76074219 output-scale div selectfont
0.7853 0.0000 0.0000 /three
1 print_glyphs
7.7900 -29.1051 moveto 0.0000 0.7000 9.2396 0.0000 0.1600 draw_line
7.7900 -29.1051 moveto -3.7271 0.0000 9.2396 0.0000 0.1600 draw_line
7.7900 -29.1051 moveto 0.0000 0.7000 -0.2000 0.0000 0.1600 draw_line
7.7900 -29.1051 moveto 3.9271 0.0000 -0.2000 0.0000 0.1600 draw_line
11.9171 -29.6514 moveto /TeXGyrePagella-Italic 2.76074219 output-scale div selectfont
0.7853 0.0000 0.0000 /three
1 print_glyphs
14.9689 -13.9905 moveto 0.5800 0.0500 0.0400 0.4600 0.0800 draw_round_box
22.9068 -13.9905 moveto 0.2200 0.0500 0.0400 0.4600 0.0800 draw_round_box
65.7558 -24.0051 moveto 0.0500 2.0670 -0.0250 1.7030 0.0800 draw_round_box
32.0088 -13.9905 moveto 0.5800 0.0500 0.0400 0.4600 0.0800 draw_round_box
42.2458 -2.1767 moveto true 3.4820 0.3900 3.4820 -0.0100 0.0400 -0.2000 0.0400 0.2000 3 0.0800 draw_polygon
41.1918 -8.9867 moveto true 3.4820 0.2000 3.4820 -0.2000 0.0400 -0.2000 0.0400 0.2000 3 0.0800 draw_polygon
51.0496 -13.9905 moveto 0.5487 0.0500 0.0400 0.4600 0.0800 draw_round_box
42.2458 -19.5051 moveto true 3.4820 0.2000 3.4820 -0.2000 0.0400 -0.2000 0.0400 0.2000 3 0.0800 draw_polygon
41.1918 -27.0051 moveto true 3.4820 0.2000 3.4820 -0.2000 0.0400 -0.2000 0.0400 0.2000 3 0.0800 draw_polygon
60.6951 -4.1767 moveto 0.0500 2.0670 -0.0250 -4.7700 0.0800 draw_round_box
61.7492 -4.1767 moveto 0.0500 2.2540 -0.0250 0.7030 0.0800 draw_round_box
60.6301 -22.5051 moveto magfontemmentaler-18mDWo /noteheads.s2 glyphshow 
60.6301 -22.5051 moveto magfontemmentaler-18mDWo /noteheads.s2 glyphshow 
58.9516 -16.7905 moveto /TeXGyrePagella-Regular 3.90625000 output-scale div selectfont
0.7170 0.0000 0.0000 /t
1.2974 0.0000 0.0000 /h
1.2292 0.0000 0.0000 /g
0.6487 0.0000 0.0000 /i
0.6487 0.0000 0.0000 /l
5 print_glyphs
59.2760 -13.9905 moveto /TeXGyrePagella-Regular 3.90625000 output-scale div selectfont
0.7170 0.0000 0.0000 /t
1.0584 0.0000 0.0000 /ecaron
1.1609 0.0000 0.0000 /v
0.9560 0.0000 0.0000 /s
4 print_glyphs
60.6301 -6.6767 moveto magfontemmentaler-18mDWo /noteheads.s2 glyphshow 
60.6301 -3.6767 moveto magfontemmentaler-18mDWo /noteheads.s2 glyphshow 
63.4021 -13.9905 moveto /TeXGyrePagella-Regular 3.90625000 output-scale div selectfont
1.9462 0.0000 0.0000 /m
1.0584 0.0000 0.0000 /e
0.6487 0.0000 0.0000 /l
3 print_glyphs
64.7017 -4.1767 moveto 0.0500 2.0670 -0.0250 -4.7700 0.0800 draw_round_box
65.7558 -4.1767 moveto 0.0500 2.5700 -0.0250 0.2030 0.0800 draw_round_box
64.6367 -22.5051 moveto magfontemmentaler-18mDWo /noteheads.s2 glyphshow 
64.6367 -22.5051 moveto magfontemmentaler-18mDWo /noteheads.s2 glyphshow 
64.2386 -16.7905 moveto /TeXGyrePagella-Regular 3.90625000 output-scale div selectfont
0.7512 0.0000 0.0000 /f
1.2292 0.0000 0.0000 /o
2 print_glyphs
64.6367 -6.6767 moveto magfontemmentaler-18mDWo /noteheads.s2 glyphshow 
64.6367 -4.1767 moveto magfontemmentaler-18mDWo /noteheads.s2 glyphshow 
60.6951 -24.0051 moveto 0.0500 3.0670 -0.0250 -1.7700 0.0800 draw_round_box
61.7492 -24.0051 moveto 0.0500 2.0670 -0.0250 1.7030 0.0800 draw_round_box
16.6996 -7.6767 moveto magfontemmentaler-18mDWo /noteheads.s2 glyphshow 
17.8186 -24.0051 moveto 0.0500 2.7570 -0.0250 1.2030 0.0800 draw_round_box
16.7646 -4.1767 moveto 0.0500 2.2570 -0.0250 -5.9600 0.0800 draw_round_box
17.8186 -4.1767 moveto 0.0500 3.2570 -0.0250 -2.2970 0.0800 draw_round_box
16.6996 -25.0051 moveto magfontemmentaler-18mDWo /noteheads.s2 glyphshow 
16.6996 -23.0051 moveto magfontemmentaler-18mDWo /noteheads.s2 glyphshow 
14.9186 -16.7905 moveto /TeXGyrePagella-Regular 3.90625000 output-scale div selectfont
0.9560 0.0000 0.0000 /s
1.1267 0.0000 0.0000 /a
1.0584 0.0000 0.0000 /e
0.8877 0.0000 0.0000 /r
0.7170 0.0000 0.0000 /t
5 print_glyphs
16.4039 -13.9905 moveto /TeXGyrePagella-Regular 3.90625000 output-scale div selectfont
1.0584 0.0000 0.0000 /e
0.7170 0.0000 0.0000 /t
2 print_glyphs
16.6996 -6.6767 moveto magfontemmentaler-18mDWo /noteheads.s2 glyphshow 
12.1988 -24.0051 moveto 0.0500 2.7570 -0.0250 -3.9600 0.0800 draw_round_box
13.2529 -24.0051 moveto 0.0500 2.7570 -0.0250 1.2030 0.0800 draw_round_box
41.1918 -22.0051 moveto magfontemmentaler-18mDWo /noteheads.s2 glyphshow 
22.1197 -24.0051 moveto 0.0500 2.5903 -0.0250 1.7030 0.0800 draw_round_box
21.0657 -4.1767 moveto 0.0500 2.2570 -0.0250 -5.9600 0.0800 draw_round_box
12.1988 -4.1767 moveto 0.0500 2.2570 -0.0250 -5.9600 0.0800 draw_round_box
22.1197 -4.1767 moveto 0.0500 3.2570 -0.0250 -1.7970 0.0800 draw_round_box
21.0007 -23.5051 moveto magfontemmentaler-18mDWo /noteheads.s2 glyphshow 
21.0007 -22.5051 moveto magfontemmentaler-18mDWo /noteheads.s2 glyphshow 
19.9538 -16.7905 moveto /TeXGyrePagella-Regular 3.90625000 output-scale div selectfont
1.0584 0.0000 0.0000 /e
0.8877 0.0000 0.0000 /r
1.3316 0.0000 0.0000 /u
3 print_glyphs
20.3123 -13.9905 moveto /TeXGyrePagella-Regular 3.90625000 output-scale div selectfont
1.2292 0.0000 0.0000 /o
1.3316 0.0000 0.0000 /p
2 print_glyphs
21.0007 -7.6767 moveto magfontemmentaler-18mDWo /noteheads.s2 glyphshow 
21.0007 -6.1767 moveto magfontemmentaler-18mDWo /noteheads.s2 glyphshow 
16.7646 -24.0051 moveto 0.0500 2.7570 -0.0250 -3.9600 0.0800 draw_round_box
0.8000 -5.1767 moveto magfontemmentaler-18mDWo /clefs.G glyphshow 
6.2310 -16.7905 moveto /TeXGyrePagella-Regular 3.90625000 output-scale div selectfont
1.2292 0.0000 0.0000 /k
1.0584 0.0000 0.0000 /e
1.0584 0.0000 0.0000 /e
0.9560 0.0000 0.0000 /s
4 print_glyphs
6.8797 -13.9905 moveto /TeXGyrePagella-Regular 3.90625000 output-scale div selectfont
1.0584 0.0000 0.0000 /e
0.6487 0.0000 0.0000 /l
1.2974 0.0000 0.0000 /h
3 print_glyphs
7.7900 -7.6767 moveto magfontemmentaler-18mDWo /noteheads.s2 glyphshow 
7.7900 -6.6767 moveto magfontemmentaler-18mDWo /noteheads.s2 glyphshow 
4.3000 -23.0051 moveto magfontemmentaler-18mDWo /accidentals.sharp glyphshow 
0.8000 -23.0051 moveto magfontemmentaler-18mDWo /clefs.F glyphshow 
4.3000 -2.1767 moveto magfontemmentaler-18mDWo /accidentals.sharp glyphshow 
7.7900 -23.0051 moveto magfontemmentaler-18mDWo /noteheads.s2 glyphshow 
-0.7853 -1.0926 moveto /TeXGyrePagella-Regular 2.76074219 output-scale div selectfont
0.7853 0.0000 0.0000 /three
1 print_glyphs
-0.0600 -14.0909 moveto 0.0600 23.8284 0.0500 -11.9142 0.1000 draw_round_box
7.8550 -24.0051 moveto 0.0500 2.7570 -0.0250 -3.9600 0.0800 draw_round_box
13.2529 -4.1767 moveto 0.0500 3.2570 -0.0250 -2.2970 0.0800 draw_round_box
12.1338 -25.0051 moveto magfontemmentaler-18mDWo /noteheads.s2 glyphshow 
12.1338 -23.0051 moveto magfontemmentaler-18mDWo /noteheads.s2 glyphshow 
11.1723 -16.7905 moveto /TeXGyrePagella-Regular 3.90625000 output-scale div selectfont
1.0584 0.0000 0.0000 /e
1.2974 0.0000 0.0000 /h
0.7512 0.0000 0.0000 /t
3 print_glyphs
11.2577 -13.9905 moveto /TeXGyrePagella-Regular 3.90625000 output-scale div selectfont
0.5121 0.0000 0.0000 /j
1.0584 0.0000 0.0000 /e
1.3657 0.0000 0.0000 /d
3 print_glyphs
12.1338 -7.6767 moveto magfontemmentaler-18mDWo /noteheads.s2 glyphshow 
12.1338 -6.6767 moveto magfontemmentaler-18mDWo /noteheads.s2 glyphshow 
21.0657 -24.0051 moveto 0.0500 3.2570 -0.0250 -2.9600 0.0800 draw_round_box
8.9091 -24.0051 moveto 0.0500 2.7570 -0.0250 1.2030 0.0800 draw_round_box
7.8550 -4.1767 moveto 0.0500 2.2570 -0.0250 -5.9600 0.0800 draw_round_box
8.9091 -4.1767 moveto 0.0500 3.2570 -0.0250 -2.2970 0.0800 draw_round_box
7.7900 -25.0051 moveto magfontemmentaler-18mDWo /noteheads.s2 glyphshow 
33.8177 -24.0051 moveto magfontemmentaler-18mDWo /noteheads.s2 glyphshow 
33.8827 -24.0051 moveto 0.0500 3.0903 -0.0250 -3.2933 0.0800 draw_round_box
34.9368 -24.0051 moveto 0.0500 2.4237 -0.0250 2.2030 0.0800 draw_round_box
33.8827 -4.1767 moveto 0.0500 2.2570 -0.0250 -4.9600 0.0800 draw_round_box
34.9368 -4.1767 moveto 0.0500 3.2570 -0.0250 -1.2970 0.0800 draw_round_box
33.8177 -22.0051 moveto magfontemmentaler-18mDWo /noteheads.s2 glyphshow 
33.1635 -13.9905 moveto /TeXGyrePagella-Regular 3.90625000 output-scale div selectfont
0.5463 0.0000 0.0000 /period
1.0243 0.0000 0.0000 /y
0.9219 0.0000 0.0000 /r
3 print_glyphs
33.8177 -6.6767 moveto magfontemmentaler-18mDWo /noteheads.s2 glyphshow 
33.8177 -5.6767 moveto magfontemmentaler-18mDWo /noteheads.s2 glyphshow 
41.1918 -16.7905 moveto /TeXGyrePagella-Regular 3.90625000 output-scale div selectfont
0.5463 0.0000 0.0000 /space
1.0584 0.0000 0.0000 /e
1.3657 0.0000 0.0000 /B
3 print_glyphs
39.5133 -13.9905 moveto /TeXGyrePagella-Regular 3.90625000 output-scale div selectfont
0.4780 0.0000 0.0000 /quotesingle
1.3657 0.0000 0.0000 /d
1.3316 0.0000 0.0000 /u
1.3657 0.0000 0.0000 /B
4 print_glyphs
41.1918 -6.6767 moveto magfontemmentaler-18mDWo /noteheads.s2 glyphshow 
41.1918 -5.1767 moveto magfontemmentaler-18mDWo /noteheads.s2 glyphshow 
37.6693 -26.0051 moveto magfontemmentaler-18mDWo /rests.2 glyphshow 
37.6693 -22.0051 moveto magfontemmentaler-18mDWo /rests.2 glyphshow 
37.6693 -6.1767 moveto magfontemmentaler-18mDWo /rests.2 glyphshow 
37.6693 -2.1767 moveto magfontemmentaler-18mDWo /rests.2 glyphshow 
29.9661 -24.0051 moveto magfontemmentaler-18mDWo /noteheads.s2 glyphshow 
29.9661 -22.0051 moveto magfontemmentaler-18mDWo /noteheads.s2 glyphshow 
29.9661 -16.7905 moveto /TeXGyrePagella-Regular 3.90625000 output-scale div selectfont
0.5463 0.0000 0.0000 /period
1.2974 0.0000 0.0000 /h
0.7512 0.0000 0.0000 /t
0.6487 0.0000 0.0000 /i
1.1267 0.0000 0.0000 /a
0.7170 0.0000 0.0000 /f
6 print_glyphs
29.6021 -13.9905 moveto /TeXGyrePagella-Regular 3.90625000 output-scale div selectfont
0.6487 0.0000 0.0000 /iacute
1.2633 0.0000 0.0000 /v
2 print_glyphs
29.9661 -6.6767 moveto magfontemmentaler-18mDWo /noteheads.s2 glyphshow 
24.8337 -22.0051 moveto magfontemmentaler-18mDWo /noteheads.s2 glyphshow 
29.9661 -5.6767 moveto magfontemmentaler-18mDWo /noteheads.s2 glyphshow 
24.8337 -24.5051 moveto magfontemmentaler-18mDWo /noteheads.s2 glyphshow 
25.9528 -4.1767 moveto 0.0500 3.2570 -0.0250 -1.7970 0.0800 draw_round_box
24.8987 -24.0051 moveto 0.0500 2.9237 -0.0250 -3.6267 0.0800 draw_round_box
25.9528 -24.0051 moveto 0.0500 2.4237 -0.0250 2.2030 0.0800 draw_round_box
24.8987 -4.1767 moveto 0.0500 2.2570 -0.0250 -6.4600 0.0800 draw_round_box
31.0852 -4.1767 moveto 0.0500 3.2570 -0.0250 -1.2970 0.0800 draw_round_box
30.0311 -24.0051 moveto 0.0500 3.0903 -0.0250 -3.2933 0.0800 draw_round_box
31.0852 -24.0051 moveto 0.0500 2.4237 -0.0250 2.2030 0.0800 draw_round_box
24.8337 -6.1767 moveto magfontemmentaler-18mDWo /noteheads.s2 glyphshow 
24.8337 -8.1767 moveto magfontemmentaler-18mDWo /noteheads.s2 glyphshow 
23.2406 -13.9905 moveto /TeXGyrePagella-Regular 3.90625000 output-scale div selectfont
1.3657 0.0000 0.0000 /d
1.1267 0.0000 0.0000 /a
0.6487 0.0000 0.0000 /l
1.2292 0.0000 0.0000 /k
4 print_glyphs
24.4356 -16.7905 moveto /TeXGyrePagella-Regular 3.90625000 output-scale div selectfont
0.7512 0.0000 0.0000 /f
1.2292 0.0000 0.0000 /o
2 print_glyphs
30.0311 -4.1767 moveto 0.0500 2.2570 -0.0250 -4.9600 0.0800 draw_round_box
stroke grestore
%%Trailer
%%EOF
