%!PS-Adobe-2.0 EPSF-2.0
%%Creator: LilyPond 2.18.2
%%BoundingBox: -9 -125 336 1
%%Orientation: Portrait
%%DocumentSuppliedResources: font Emmentaler-18
%%DocumentSuppliedResources: font TeXGyrePagella-Regular
%%EndComments
%%BeginProlog
/lilypond-datadir where {pop} {userdict /lilypond-datadir (/usr/share/lilypond/2.18.2) put } ifelse
%%BeginFont: Emmentaler-18
lilypond-datadir (/fonts/otf/emmentaler-18.otf) concatstrings (r) file .loadfont
%%EndFont

%%BeginFont: TeXGyrePagella-Regular
(/usr/share/texmf/fonts/opentype/public/tex-gyre/texgyrepagella-regular.otf) (r) file .loadfont
%%EndFont

/magfontemmentaler-18mDWo { /Emmentaler-18 6.3263 output-scale div selectfont } bind def
/lily-output-units 2.83464566929134 def %% millimeter
/staff-line-thickness 0.1 def
/line-width 67.3237795275591 def
/paper-size (a4) def
/staff-height 4.0 def
/output-scale 1.75729901757299 def
/page-height 169.00937007874 def
/page-width 119.50157480315 def
%%BeginResource: procset (music-drawing-routines.ps) 1 0
%!PS-Adobe-2.0
%
% Functions for direct and embedded PostScript

% Careful with double % as comment prefix.
% Any %%X comment is interpreted as DSC comments.

% TODO: use dicts or prefixes to prevent namespace pollution.

/pdfmark where
{pop} {userdict /pdfmark /cleartomark load put} ifelse


% llx lly urx ury URI
/mark_URI
{
    /uri exch def
    /ury exch def
    /urx exch def
    /lly exch def
    /llx exch def
    [
	/Rect [ llx lly urx ury ]
	
	/Border [ 0 0 0 ]

        /Action
	    <<
		/Subtype /URI
		/URI uri
	    >>
        /Subtype /Link
    /ANN
    pdfmark
}
bind def

% llx lly urx ury page
/mark_page_link
{
    /page exch def
    /ury exch def
    /urx exch def
    /lly exch def
    /llx exch def
    [
        /Rect [ llx lly urx ury ]
        /Border [ 0 0 0 ]
        /Page page
        /Subtype /Link
    /ANN
    pdfmark
}
bind def

% from adobe tech note 5002.
/BeginEPSF { %def
    /b4_Inc_state save def % Save state for cleanup
    /dict_count countdictstack def % Count objects on dict stack
    /op_count count 1 sub def % Count objects on operand stack
    userdict begin % Push userdict on dict stack
    /showpage { } def % Redefine showpage, { } = null proc
    0 setgray 0 setlinecap % Prepare graphics state
    1 setlinewidth 0 setlinejoin
    10 setmiterlimit [ ] 0 setdash newpath
    false setoverprint
} bind def

/EndEPSF { %def
  count op_count sub {pop} repeat % Clean up stacks
  countdictstack dict_count sub {end} repeat
  b4_Inc_state restore
} bind def

/stroke_and_fill? {
    {
	gsave
	    false setstrokeadjust
	    stroke
	grestore
	fill
    }
    {
	stroke
    }
    ifelse
} bind def

/vector_add { % x1 y1 x2 y2 vector_add x1+x2 y1+y2
	exch
	4 1 roll
	add
	3 1 roll
	add
	exch
} bind def

/draw_round_box % width height x y blot
{
    0 max setlinewidth
    matrix currentmatrix 5 1 roll
    currentpoint translate newpath translate
    2 copy 0 min exch 0 min exch translate
    abs exch abs exch
    currentlinewidth 0 eq
    { % straight corners
	2 copy 2 mul gt
	{ % horizontal
	    0 1 index 2 div moveto
	    setlinewidth
	    0 rlineto
	    0 setlinecap
	    stroke
	}
	{
	    2 copy exch 2 mul gt
	    { % vertical
		1 index 2 div 0 moveto
		exch setlinewidth
		0 exch rlineto
		0 setlinecap
		stroke
	    }
	    {
		0 0 4 2 roll rectfill
	    }
	    ifelse
	}
	ifelse
    }
    { % rounded corners
	2 copy 0 eq exch 0 eq or
	{ % line shape
	    0 0 moveto
	    rlineto
	    1 setlinecap
	    stroke
	    0 setlinecap
	}
	{ % full shape
	    currentstrokeadjust {
		currentlinewidth 2 div
		0 0 2 index 180 270 arc
		2 index 0 2 index 270 360 arc
		3 copy 0 90 arc
		0 2 index 3 -1 roll 90 180 arc
		closepath
		2 copy 2 mul gt
		{ % horizontal
		    2 copy add currentlinewidth add 10 add % large enough
		    0 1 index neg moveto
		    2 index 1 index neg lineto
		    2 index 1 index lineto
		    0 exch lineto closepath
		    gsave clip newpath
		    0 1 index 2 div moveto
		    currentlinewidth add setlinewidth
		    0 rlineto
		    2 setlinecap
		    stroke
		    grestore
		}
		{
		    2 copy exch 2 mul gt
		    { % vertical
			2 copy add currentlinewidth add 10 add % large enough
			dup neg 0 moveto
			dup 0 lineto
			dup 2 index lineto
			neg 1 index lineto closepath
			gsave clip newpath
			1 index 2 div 0 moveto
			exch currentlinewidth add setlinewidth
			0 exch rlineto
			2 setlinecap
			stroke
			grestore
		    }
		    {
			pop pop
			fill
		    }
		    ifelse
		}
		ifelse
		newpath
	    }
	    {
		1 setlinejoin
		0 0 4 2 roll 4 copy rectstroke rectfill
	    }
	    ifelse
	}
	ifelse
    }
    ifelse
    setmatrix
} bind def

/draw_polygon % fill? x(n) y(n) x(n-1) y(n-1) ... x(0) y(0) n blot
{
	setlinewidth %set to blot

	0 setlinecap
	1 setlinejoin

	3 1 roll
	/polygon_x
	currentpoint
	/polygon_y exch def
	def
	rmoveto % x(0) y(0)
	{ polygon_x polygon_y vector_add lineto } repeat % n times
	closepath
	stroke_and_fill?
} bind def

/draw_circle % filled? radius thickness draw_circle
{
	setlinewidth	% f? r
	currentpoint	% f? r x0 y0
	3 2 roll	% f? x0 y0 r
	dup 0 rmoveto
	0 360 arc closepath
	stroke_and_fill?
} bind def

/draw_ellipse % filled? x-radius y-radius thickness draw_ellipse
{
  setlinewidth % f? x-r y-r
  /savematrix matrix currentmatrix def
  scale % f?
  currentpoint
  1 0 rmoveto
  1 0 360  arc closepath
  savematrix setmatrix
  stroke_and_fill?
} bind def

/draw_partial_ellipse % filled connect x-radius y-radius startangle endangle thickness draw_partial_ellipse
% Note that filled is not boolean to permit for different graylevels (ie for trill keys)
{
  gsave
  currentpoint translate
  /thickness exch def
  /endangle exch def
  /startangle exch def
  /y_radius exch def
  /x_radius exch def
  /endrad x_radius y_radius mul
    x_radius x_radius mul
    endangle cos endangle cos mul mul
    y_radius y_radius mul
    endangle sin endangle sin mul mul add sqrt div def
  /endangle endangle sin endrad mul y_radius div
    endangle cos endrad mul x_radius div atan def
  /startrad x_radius y_radius mul
    x_radius x_radius mul
      startangle cos startangle cos mul mul
    y_radius y_radius mul
      startangle sin startangle sin mul mul add sqrt div def
  /startangle startangle sin startrad mul y_radius div
    startangle cos startrad mul x_radius div atan def
  /connect exch def
  /filled exch def
  /savematrix matrix currentmatrix def
  thickness setlinewidth
  x_radius y_radius scale
  startangle cos startangle sin moveto
  0 0 1 startangle
    startangle endangle eq { endangle 360 add } { endangle } ifelse
    arc
  connect {
    startangle cos startangle sin moveto endangle cos endangle sin lineto }
    if
  savematrix setmatrix filled stroke_and_fill?
  grestore
} bind def

/draw_line % dx dy x1 y1 thickness draw_line
{
	setlinewidth % dx dy x1 y1
	1 setlinecap
	rmoveto % dx dy
	rlineto
	stroke
} bind def

/draw_dashed_line % dx dy thickness dashpattern offset draw_dashed_line
{
	1 setlinecap
	setdash % dx dy thickness
	setlinewidth %dx dy
	rlineto
	stroke
	[] 0 setdash % reset dash pattern
} bind def

/print_glyphs % w dx dy glyph print_glyphs
{
	{
		currentpoint %w dx dy glyph x0 y0
		5 2 roll %w x0 y0 dx dy glyph
		3 1 roll %w x0 y0 glyph dx dy
		rmoveto %w x0 y0 glyph
		glyphshow %w x0 y0
		moveto %w
		0 rmoveto
	}repeat
}bind def
%end music-drawing-routines.ps

%%EndResource
%%BeginResource: procset (lilyponddefs.ps) 1 0
%!PS-Adobe-2.0: lilyponddefs.ps
%
% Functions for direct PostScript output

% /setgray { 1 add } bind def

/set-ps-scale-to-lily-scale {
	lily-output-units output-scale mul dup scale
} bind def


/init-paper {
	gsave
	clippath pathbbox newpath
	/paper-height exch def
	/paper-width exch def pop pop pop
	% FIXME
	/top-margin 2 def
	paper-width line-width sub 2 div /left-margin exch def
	grestore
} bind def

/init-lilypond-parameters {
	staff-line-thickness setlinewidth
	staff-height init-paper
} bind def


% end lilyponddefs.ps

%%EndResource
%%EndProlog
%%BeginSetup
init-lilypond-parameters
%%EndSetup

/mark_page_link { pop pop pop pop pop } bind def
gsave set-ps-scale-to-lily-scale
39.8481 -20.9176 moveto 0.1900 4.0000 0.0000 -2.0000 0.0000 draw_round_box
67.1338 -3.2984 moveto 0.1900 4.0000 0.0000 -2.0000 0.0000 draw_round_box
15.9131 -2.7984 moveto magfontemmentaler-18mDWo /dots.dot glyphshow 
15.9131 -3.7984 moveto magfontemmentaler-18mDWo /dots.dot glyphshow 
15.4231 -3.2984 moveto 0.1900 4.0000 0.0000 -2.0000 0.0000 draw_round_box
14.5231 -3.2984 moveto 0.6000 4.0000 0.0000 -2.0000 0.0000 draw_round_box
67.1338 -20.9176 moveto 0.1900 4.0000 0.0000 -2.0000 0.0000 draw_round_box
39.8481 -3.2984 moveto 0.1900 4.0000 0.0000 -2.0000 0.0000 draw_round_box
15.9131 -20.4176 moveto magfontemmentaler-18mDWo /dots.dot glyphshow 
15.9131 -21.4176 moveto magfontemmentaler-18mDWo /dots.dot glyphshow 
15.4231 -20.9176 moveto 0.1900 4.0000 0.0000 -2.0000 0.0000 draw_round_box
14.5231 -20.9176 moveto 0.6000 4.0000 0.0000 -2.0000 0.0000 draw_round_box
0.0000 -22.9176 moveto 67.2238 0.0000 0.0500 0.0000 0.1000 draw_line
0.0000 -21.9176 moveto 67.2238 0.0000 0.0500 0.0000 0.1000 draw_line
0.0000 -20.9176 moveto 67.2238 0.0000 0.0500 0.0000 0.1000 draw_line
0.0000 -19.9176 moveto 67.2238 0.0000 0.0500 0.0000 0.1000 draw_line
0.0000 -18.9176 moveto 67.2238 0.0000 0.0500 0.0000 0.1000 draw_line
0.0000 -6.2984 moveto 1.6821 0.0000 32.9246 0.0000 0.2000 draw_round_box
0.0000 -6.2984 moveto 1.5761 0.0000 41.0453 0.0000 0.2000 draw_round_box
0.0000 -6.2984 moveto 1.5761 0.0000 45.1218 0.0000 0.2000 draw_round_box
0.0000 -6.2984 moveto 1.5761 0.0000 49.3947 0.0000 0.2000 draw_round_box
0.0000 -5.2984 moveto 67.2238 0.0000 0.0500 0.0000 0.1000 draw_line
0.0000 -4.2984 moveto 67.2238 0.0000 0.0500 0.0000 0.1000 draw_line
0.0000 -3.2984 moveto 67.2238 0.0000 0.0500 0.0000 0.1000 draw_line
0.0000 -2.2984 moveto 67.2238 0.0000 0.0500 0.0000 0.1000 draw_line
0.0000 -1.2984 moveto 67.2238 0.0000 0.0500 0.0000 0.1000 draw_line
53.8721 -4.2984 moveto magfontemmentaler-18mDWo /noteheads.s2 glyphshow 
49.6557 -20.9176 moveto 0.0500 3.2876 -0.0250 -2.4906 0.0800 draw_round_box
50.7098 -20.9176 moveto 0.0500 2.6964 -0.0250 1.2030 0.0800 draw_round_box
49.6557 -3.2984 moveto 0.0500 2.2570 -0.0250 -5.4600 0.0800 draw_round_box
41.3063 -20.9176 moveto 0.0500 2.4419 -0.0250 -3.1449 0.0800 draw_round_box
53.9371 -20.9176 moveto 0.0500 2.9521 -0.0250 -2.1551 0.0800 draw_round_box
54.9912 -20.9176 moveto 0.0500 2.5689 -0.0250 1.2030 0.0800 draw_round_box
53.8721 -5.2984 moveto magfontemmentaler-18mDWo /noteheads.s2 glyphshow 
53.9371 -3.2984 moveto 0.0500 3.2570 -0.0250 -5.4600 0.0800 draw_round_box
54.9912 -3.2984 moveto 0.0500 3.5638 -0.0250 -0.7970 0.0800 draw_round_box
53.8721 -19.9176 moveto magfontemmentaler-18mDWo /noteheads.s2 glyphshow 
53.8721 -19.9176 moveto magfontemmentaler-18mDWo /noteheads.s2 glyphshow 
53.4910 -13.9353 moveto /TeXGyrePagella-Regular 3.90625000 output-scale div selectfont
1.2974 0.0000 0.0000 /n
0.6487 0.0000 0.0000 /i
2 print_glyphs
53.9349 -11.1353 moveto /TeXGyrePagella-Regular 3.90625000 output-scale div selectfont
1.0584 0.0000 0.0000 /e
1 print_glyphs
46.4369 -3.2984 moveto 0.0500 4.1482 -0.0250 -1.7970 0.0800 draw_round_box
45.3179 -21.4176 moveto magfontemmentaler-18mDWo /noteheads.s2 glyphshow 
45.3179 -19.4176 moveto magfontemmentaler-18mDWo /noteheads.s2 glyphshow 
45.5343 -13.9353 moveto /TeXGyrePagella-Regular 3.90625000 output-scale div selectfont
0.7512 0.0000 0.0000 /I
1 print_glyphs
44.3564 -11.1353 moveto /TeXGyrePagella-Regular 3.90625000 output-scale div selectfont
0.8877 0.0000 0.0000 /r
1.0584 0.0000 0.0000 /e
1.1609 0.0000 0.0000 /v
3 print_glyphs
45.3179 -6.2984 moveto magfontemmentaler-18mDWo /noteheads.s2 glyphshow 
45.3179 -5.2984 moveto magfontemmentaler-18mDWo /noteheads.s2 glyphshow 
14.7397 -11.1353 moveto 0.5800 0.0500 0.0400 0.4600 0.0800 draw_round_box
49.5907 -19.9176 moveto magfontemmentaler-18mDWo /noteheads.s2 glyphshow 
49.5907 -19.9176 moveto magfontemmentaler-18mDWo /noteheads.s2 glyphshow 
47.9293 -13.9353 moveto /TeXGyrePagella-Regular 3.90625000 output-scale div selectfont
0.7170 0.0000 0.0000 /t
0.9219 0.0000 0.0000 /s
1.2292 0.0000 0.0000 /y
0.9219 0.0000 0.0000 /r
0.7170 0.0000 0.0000 /t
5 print_glyphs
48.1683 -11.1353 moveto /TeXGyrePagella-Regular 3.90625000 output-scale div selectfont
1.3316 0.0000 0.0000 /u
1.1267 0.0000 0.0000 /a
0.8536 0.0000 0.0000 /r
0.7170 0.0000 0.0000 /t
4 print_glyphs
49.5907 -6.2984 moveto magfontemmentaler-18mDWo /noteheads.s2 glyphshow 
49.5907 -3.7984 moveto magfontemmentaler-18mDWo /noteheads.s2 glyphshow 
45.3829 -20.9176 moveto 0.0500 2.1224 -0.0250 -2.8254 0.0800 draw_round_box
50.7098 -3.2984 moveto 0.0500 2.8558 -0.0250 -0.2970 0.0800 draw_round_box
46.4369 -20.9176 moveto 0.0500 2.3237 -0.0250 1.7030 0.0800 draw_round_box
45.3829 -3.2984 moveto 0.0500 2.2570 -0.0250 -5.4600 0.0800 draw_round_box
41.2413 -24.1076 moveto true 12.7208 1.2000 12.7208 0.8000 0.0400 -0.2000 0.0400 0.2000 3 0.0800 draw_polygon
42.2954 -16.7276 moveto true 12.7208 -0.1800 12.7208 -0.5800 0.0400 -0.2000 0.0400 0.2000 3 0.0800 draw_polygon
64.2235 -25.0026 moveto magfontemmentaler-18mDWo /flags.d3 glyphshow 
64.1585 -20.9176 moveto 0.0500 2.8820 -0.0250 -4.0850 0.0800 draw_round_box
65.2775 -16.8326 moveto magfontemmentaler-18mDWo /flags.u3 glyphshow 
20.4159 -11.1353 moveto 0.5800 0.0500 0.0400 0.4600 0.0800 draw_round_box
23.3602 -1.4884 moveto true 4.7470 0.3900 4.7470 -0.0100 0.0400 -0.2000 0.0400 0.2000 3 0.0800 draw_polygon
22.3061 -8.1084 moveto true 4.7470 0.2000 4.7470 -0.2000 0.0400 -0.2000 0.0400 0.2000 3 0.0800 draw_polygon
23.3602 -16.1076 moveto true 4.7470 0.2000 4.7470 -0.2000 0.0400 -0.2000 0.0400 0.2000 3 0.0800 draw_polygon
22.3061 -24.4176 moveto true 4.7470 0.2000 4.7470 -0.2000 0.0400 -0.2000 0.0400 0.2000 3 0.0800 draw_polygon
65.2125 -20.9176 moveto 0.0500 2.8820 -0.0250 1.2030 0.0800 draw_round_box
47.5334 -11.1353 moveto 0.4849 0.0500 0.0400 0.4600 0.0800 draw_round_box
52.7360 -11.1353 moveto 0.5800 0.0500 0.0400 0.4600 0.0800 draw_round_box
42.2954 -1.1084 moveto true 12.7208 0.8200 12.7208 0.4200 0.0400 -0.2000 0.0400 0.2000 3 0.0800 draw_polygon
41.2413 -8.7984 moveto true 12.7208 0.2000 12.7208 -0.2000 0.0400 -0.2000 0.0400 0.2000 3 0.0800 draw_polygon
59.1530 -20.9176 moveto 0.0500 2.7570 -0.0250 1.2030 0.0800 draw_round_box
59.6194 -19.4176 moveto magfontemmentaler-18mDWo /dots.dot glyphshow 
58.0990 -3.2984 moveto 0.0500 2.2570 -0.0250 -4.9600 0.0800 draw_round_box
59.6194 -5.7984 moveto magfontemmentaler-18mDWo /dots.dot glyphshow 
59.6194 -22.4176 moveto magfontemmentaler-18mDWo /dots.dot glyphshow 
59.1530 -3.2984 moveto 0.0500 3.2570 -0.0250 -1.2970 0.0800 draw_round_box
59.6194 -4.7984 moveto magfontemmentaler-18mDWo /dots.dot glyphshow 
58.0340 -21.9176 moveto magfontemmentaler-18mDWo /noteheads.s2 glyphshow 
58.0340 -19.9176 moveto magfontemmentaler-18mDWo /noteheads.s2 glyphshow 
56.4921 -13.9353 moveto /TeXGyrePagella-Regular 3.90625000 output-scale div selectfont
0.5463 0.0000 0.0000 /period
1.3316 0.0000 0.0000 /u
1.2292 0.0000 0.0000 /o
1.1609 0.0000 0.0000 /y
4 print_glyphs
56.9871 -11.1353 moveto /TeXGyrePagella-Regular 3.90625000 output-scale div selectfont
0.5463 0.0000 0.0000 /comma
0.7170 0.0000 0.0000 /r
0.6487 0.0000 0.0000 /i
1.3657 0.0000 0.0000 /d
4 print_glyphs
58.0340 -5.7984 moveto magfontemmentaler-18mDWo /noteheads.s2 glyphshow 
58.0340 -4.7984 moveto magfontemmentaler-18mDWo /noteheads.s2 glyphshow 
64.0935 -21.9176 moveto magfontemmentaler-18mDWo /noteheads.s2 glyphshow 
64.2235 -8.7584 moveto magfontemmentaler-18mDWo /flags.d3 glyphshow 
64.1585 -3.2984 moveto 0.0500 2.7570 -0.0250 -5.4600 0.0800 draw_round_box
65.2775 -1.3384 moveto magfontemmentaler-18mDWo /flags.u3 glyphshow 
65.2125 -3.2984 moveto 0.0500 3.2570 -0.0250 -1.2970 0.0800 draw_round_box
64.0935 -19.9176 moveto magfontemmentaler-18mDWo /noteheads.s2 glyphshow 
62.7735 -13.9353 moveto /TeXGyrePagella-Regular 3.90625000 output-scale div selectfont
1.3316 0.0000 0.0000 /u
1.2292 0.0000 0.0000 /o
1.2633 0.0000 0.0000 /Y
3 print_glyphs
63.3368 -11.1353 moveto /TeXGyrePagella-Regular 3.90625000 output-scale div selectfont
1.3316 0.0000 0.0000 /u
1.3657 0.0000 0.0000 /d
2 print_glyphs
64.0935 -5.7984 moveto magfontemmentaler-18mDWo /noteheads.s2 glyphshow 
64.0935 -4.7984 moveto magfontemmentaler-18mDWo /noteheads.s2 glyphshow 
58.0990 -20.9176 moveto 0.0500 2.7570 -0.0250 -3.9600 0.0800 draw_round_box
17.6399 -3.2984 moveto 0.0500 2.4237 -0.0250 -4.6267 0.0800 draw_round_box
17.6399 -20.9176 moveto 0.0500 3.2570 -0.0250 -2.9600 0.0800 draw_round_box
18.6939 -20.9176 moveto 0.0500 2.2570 -0.0250 2.7030 0.0800 draw_round_box
18.6939 -3.2984 moveto 0.0500 3.2570 -0.0250 -0.7970 0.0800 draw_round_box
17.5749 -20.4176 moveto magfontemmentaler-18mDWo /noteheads.s2 glyphshow 
17.5749 -18.4176 moveto magfontemmentaler-18mDWo /noteheads.s2 glyphshow 
16.3915 -13.9353 moveto /TeXGyrePagella-Regular 3.90625000 output-scale div selectfont
0.5463 0.0000 0.0000 /comma
1.0584 0.0000 0.0000 /e
1.9462 0.0000 0.0000 /m
3 print_glyphs
16.8524 -11.1353 moveto /TeXGyrePagella-Regular 3.90625000 output-scale div selectfont
1.3316 0.0000 0.0000 /udieresis
1.2974 0.0000 0.0000 /h
2 print_glyphs
17.5749 -5.2984 moveto magfontemmentaler-18mDWo /noteheads.s2 glyphshow 
17.5749 -4.2984 moveto magfontemmentaler-18mDWo /noteheads.s2 glyphshow 
22.3711 -3.2984 moveto 0.0500 2.0670 -0.0250 -4.7700 0.0800 draw_round_box
23.4252 -3.2984 moveto 0.0500 3.0696 -0.0250 -1.2970 0.0800 draw_round_box
22.3061 -21.9176 moveto magfontemmentaler-18mDWo /noteheads.s2 glyphshow 
22.3061 -18.4176 moveto magfontemmentaler-18mDWo /noteheads.s2 glyphshow 
22.3061 -13.9353 moveto /TeXGyrePagella-Regular 3.90625000 output-scale div selectfont
0.5463 0.0000 0.0000 /space
0.5463 0.0000 0.0000 /space
1.7413 0.0000 0.0000 /O
3 print_glyphs
22.0105 -11.1353 moveto /TeXGyrePagella-Regular 3.90625000 output-scale div selectfont
1.0584 0.0000 0.0000 /e
0.7170 0.0000 0.0000 /t
2 print_glyphs
22.3061 -5.7984 moveto magfontemmentaler-18mDWo /noteheads.s2 glyphshow 
22.3061 -4.7984 moveto magfontemmentaler-18mDWo /noteheads.s2 glyphshow 
0.8000 -4.2984 moveto magfontemmentaler-18mDWo /clefs.G glyphshow 
12.6669 -0.8384 moveto magfontemmentaler-18mDWo /flags.u3 glyphshow 
12.6019 -3.2984 moveto 0.0500 3.2570 -0.0250 -0.7970 0.0800 draw_round_box
7.9601 -20.9176 moveto magfontemmentaler-18mDWo /timesig.C44 glyphshow 
4.4167 -21.9176 moveto magfontemmentaler-18mDWo /accidentals.flat glyphshow 
5.2534 -20.4176 moveto magfontemmentaler-18mDWo /accidentals.flat glyphshow 
6.0901 -22.4176 moveto magfontemmentaler-18mDWo /accidentals.flat glyphshow 
0.8000 -19.9176 moveto magfontemmentaler-18mDWo /clefs.F glyphshow 
11.4828 -20.4176 moveto magfontemmentaler-18mDWo /noteheads.s2 glyphshow 
11.4828 -18.4176 moveto magfontemmentaler-18mDWo /noteheads.s2 glyphshow 
9.1898 -13.9353 moveto /TeXGyrePagella-Regular 3.90625000 output-scale div selectfont
1.3316 0.0000 0.0000 /p
1.0584 0.0000 0.0000 /e
1.0584 0.0000 0.0000 /e
1.5706 0.0000 0.0000 /K
0.7512 0.0000 0.0000 /parenleft
5 print_glyphs
10.8628 -11.1353 moveto /TeXGyrePagella-Regular 3.90625000 output-scale div selectfont
1.0584 0.0000 0.0000 /e
1.3657 0.0000 0.0000 /B
2 print_glyphs
7.9601 -3.2984 moveto magfontemmentaler-18mDWo /timesig.C44 glyphshow 
4.4167 -3.2984 moveto magfontemmentaler-18mDWo /accidentals.flat glyphshow 
5.2534 -1.7984 moveto magfontemmentaler-18mDWo /accidentals.flat glyphshow 
6.0901 -3.7984 moveto magfontemmentaler-18mDWo /accidentals.flat glyphshow 
11.4828 -5.2984 moveto magfontemmentaler-18mDWo /noteheads.s2 glyphshow 
11.4828 -4.2984 moveto magfontemmentaler-18mDWo /noteheads.s2 glyphshow 
-0.0600 -12.1080 moveto 0.0600 21.6192 0.0500 -10.8096 0.1000 draw_round_box
11.6128 -23.8776 moveto magfontemmentaler-18mDWo /flags.d3 glyphshow 
11.5478 -20.9176 moveto 0.0500 3.2570 -0.0250 -2.9600 0.0800 draw_round_box
12.6669 -15.4576 moveto magfontemmentaler-18mDWo /flags.u3 glyphshow 
12.6019 -20.9176 moveto 0.0500 2.7570 -0.0250 2.7030 0.0800 draw_round_box
11.6128 -8.2584 moveto magfontemmentaler-18mDWo /flags.d3 glyphshow 
11.5478 -3.2984 moveto 0.0500 2.7570 -0.0250 -4.9600 0.0800 draw_round_box
41.2413 -5.2984 moveto magfontemmentaler-18mDWo /noteheads.s2 glyphshow 
33.2033 -20.9176 moveto 0.0500 2.8568 -0.0250 -3.6267 0.0800 draw_round_box
34.3280 -20.9176 moveto 0.0500 2.5234 -0.0250 1.7699 0.0800 draw_round_box
41.2413 -6.2984 moveto magfontemmentaler-18mDWo /noteheads.s2 glyphshow 
33.2033 -3.2984 moveto 0.0500 2.1901 -0.0250 -5.4600 0.0800 draw_round_box
34.3280 -3.2984 moveto 0.0500 3.1901 -0.0250 -1.7301 0.0800 draw_round_box
33.1383 -21.4176 moveto magfontemmentaler-18mDWo /noteheads.s1 glyphshow 
33.1383 -19.4176 moveto magfontemmentaler-18mDWo /noteheads.s1 glyphshow 
31.3415 -13.9353 moveto /TeXGyrePagella-Regular 3.90625000 output-scale div selectfont
0.5463 0.0000 0.0000 /comma
1.3657 0.0000 0.0000 /d
1.2292 0.0000 0.0000 /o
1.7072 0.0000 0.0000 /G
4 print_glyphs
33.1383 -6.2984 moveto magfontemmentaler-18mDWo /noteheads.s1 glyphshow 
42.3604 -20.9176 moveto 0.0500 2.4451 -0.0250 1.7030 0.0800 draw_round_box
31.3244 -11.1353 moveto /TeXGyrePagella-Regular 3.90625000 output-scale div selectfont
0.5463 0.0000 0.0000 /comma
0.7170 0.0000 0.0000 /t
0.7170 0.0000 0.0000 /t
1.1950 0.0000 0.0000 /o
1.7072 0.0000 0.0000 /G
5 print_glyphs
41.3063 -3.2984 moveto 0.0500 2.2570 -0.0250 -5.4600 0.0800 draw_round_box
42.3604 -3.2984 moveto 0.0500 3.9501 -0.0250 -1.7970 0.0800 draw_round_box
41.2413 -21.4176 moveto magfontemmentaler-18mDWo /noteheads.s2 glyphshow 
41.2413 -19.4176 moveto magfontemmentaler-18mDWo /noteheads.s2 glyphshow 
40.4164 -13.9353 moveto /TeXGyrePagella-Regular 3.90625000 output-scale div selectfont
0.8877 0.0000 0.0000 /r
1.2292 0.0000 0.0000 /o
0.7170 0.0000 0.0000 /f
3 print_glyphs
40.3652 -11.1353 moveto /TeXGyrePagella-Regular 3.90625000 output-scale div selectfont
1.2974 0.0000 0.0000 /h
0.9902 0.0000 0.0000 /c
0.6487 0.0000 0.0000 /i
3 print_glyphs
24.8408 -11.1353 moveto /TeXGyrePagella-Regular 3.90625000 output-scale div selectfont
0.5463 0.0000 0.0000 /comma
1.2974 0.0000 0.0000 /h
0.9902 0.0000 0.0000 /c
0.6487 0.0000 0.0000 /i
1.9462 0.0000 0.0000 /m
5 print_glyphs
33.1383 -5.2984 moveto magfontemmentaler-18mDWo /noteheads.s1 glyphshow 
28.0822 -3.2984 moveto 0.0500 2.7544 -0.0250 -0.7970 0.0800 draw_round_box
26.9631 -21.9176 moveto magfontemmentaler-18mDWo /noteheads.s2 glyphshow 
26.9631 -18.4176 moveto magfontemmentaler-18mDWo /noteheads.s2 glyphshow 
27.0281 -3.2984 moveto 0.0500 2.0670 -0.0250 -4.7700 0.0800 draw_round_box
26.9631 -5.7984 moveto magfontemmentaler-18mDWo /noteheads.s2 glyphshow 
26.9631 -4.2984 moveto magfontemmentaler-18mDWo /noteheads.s2 glyphshow 
22.3711 -20.9176 moveto 0.0500 2.2570 -0.0250 -3.4600 0.0800 draw_round_box
27.0281 -20.9176 moveto 0.0500 2.2570 -0.0250 -3.4600 0.0800 draw_round_box
28.0822 -20.9176 moveto 0.0500 2.0670 -0.0250 2.7030 0.0800 draw_round_box
23.4252 -20.9176 moveto 0.0500 2.0670 -0.0250 2.7030 0.0800 draw_round_box
stroke grestore
%%Trailer
%%EOF
