%!PS-Adobe-2.0 EPSF-2.0
%%Creator: LilyPond 2.18.2
%%BoundingBox: -9 -131 336 0
%%Orientation: Portrait
%%DocumentSuppliedResources: font Emmentaler-18
%%DocumentSuppliedResources: font TeXGyrePagella-Italic
%%DocumentSuppliedResources: font TeXGyrePagella-Regular
%%EndComments
%%BeginProlog
/lilypond-datadir where {pop} {userdict /lilypond-datadir (/usr/share/lilypond/2.18.2) put } ifelse
%%BeginFont: Emmentaler-18
lilypond-datadir (/fonts/otf/emmentaler-18.otf) concatstrings (r) file .loadfont
%%EndFont

%%BeginFont: TeXGyrePagella-Italic
(/usr/share/texmf/fonts/opentype/public/tex-gyre/texgyrepagella-italic.otf) (r) file .loadfont
%%EndFont

%%BeginFont: TeXGyrePagella-Regular
(/usr/share/texmf/fonts/opentype/public/tex-gyre/texgyrepagella-regular.otf) (r) file .loadfont
%%EndFont

/magfontemmentaler-18mDWo { /Emmentaler-18 6.3263 output-scale div selectfont } bind def
/lily-output-units 2.83464566929134 def %% millimeter
/staff-line-thickness 0.1 def
/line-width 67.3237795275591 def
/paper-size (a4) def
/staff-height 4.0 def
/output-scale 1.75729901757299 def
/page-height 169.00937007874 def
/page-width 119.50157480315 def
%%BeginResource: procset (music-drawing-routines.ps) 1 0
%!PS-Adobe-2.0
%
% Functions for direct and embedded PostScript

% Careful with double % as comment prefix.
% Any %%X comment is interpreted as DSC comments.

% TODO: use dicts or prefixes to prevent namespace pollution.

/pdfmark where
{pop} {userdict /pdfmark /cleartomark load put} ifelse


% llx lly urx ury URI
/mark_URI
{
    /uri exch def
    /ury exch def
    /urx exch def
    /lly exch def
    /llx exch def
    [
	/Rect [ llx lly urx ury ]
	
	/Border [ 0 0 0 ]

        /Action
	    <<
		/Subtype /URI
		/URI uri
	    >>
        /Subtype /Link
    /ANN
    pdfmark
}
bind def

% llx lly urx ury page
/mark_page_link
{
    /page exch def
    /ury exch def
    /urx exch def
    /lly exch def
    /llx exch def
    [
        /Rect [ llx lly urx ury ]
        /Border [ 0 0 0 ]
        /Page page
        /Subtype /Link
    /ANN
    pdfmark
}
bind def

% from adobe tech note 5002.
/BeginEPSF { %def
    /b4_Inc_state save def % Save state for cleanup
    /dict_count countdictstack def % Count objects on dict stack
    /op_count count 1 sub def % Count objects on operand stack
    userdict begin % Push userdict on dict stack
    /showpage { } def % Redefine showpage, { } = null proc
    0 setgray 0 setlinecap % Prepare graphics state
    1 setlinewidth 0 setlinejoin
    10 setmiterlimit [ ] 0 setdash newpath
    false setoverprint
} bind def

/EndEPSF { %def
  count op_count sub {pop} repeat % Clean up stacks
  countdictstack dict_count sub {end} repeat
  b4_Inc_state restore
} bind def

/stroke_and_fill? {
    {
	gsave
	    false setstrokeadjust
	    stroke
	grestore
	fill
    }
    {
	stroke
    }
    ifelse
} bind def

/vector_add { % x1 y1 x2 y2 vector_add x1+x2 y1+y2
	exch
	4 1 roll
	add
	3 1 roll
	add
	exch
} bind def

/draw_round_box % width height x y blot
{
    0 max setlinewidth
    matrix currentmatrix 5 1 roll
    currentpoint translate newpath translate
    2 copy 0 min exch 0 min exch translate
    abs exch abs exch
    currentlinewidth 0 eq
    { % straight corners
	2 copy 2 mul gt
	{ % horizontal
	    0 1 index 2 div moveto
	    setlinewidth
	    0 rlineto
	    0 setlinecap
	    stroke
	}
	{
	    2 copy exch 2 mul gt
	    { % vertical
		1 index 2 div 0 moveto
		exch setlinewidth
		0 exch rlineto
		0 setlinecap
		stroke
	    }
	    {
		0 0 4 2 roll rectfill
	    }
	    ifelse
	}
	ifelse
    }
    { % rounded corners
	2 copy 0 eq exch 0 eq or
	{ % line shape
	    0 0 moveto
	    rlineto
	    1 setlinecap
	    stroke
	    0 setlinecap
	}
	{ % full shape
	    currentstrokeadjust {
		currentlinewidth 2 div
		0 0 2 index 180 270 arc
		2 index 0 2 index 270 360 arc
		3 copy 0 90 arc
		0 2 index 3 -1 roll 90 180 arc
		closepath
		2 copy 2 mul gt
		{ % horizontal
		    2 copy add currentlinewidth add 10 add % large enough
		    0 1 index neg moveto
		    2 index 1 index neg lineto
		    2 index 1 index lineto
		    0 exch lineto closepath
		    gsave clip newpath
		    0 1 index 2 div moveto
		    currentlinewidth add setlinewidth
		    0 rlineto
		    2 setlinecap
		    stroke
		    grestore
		}
		{
		    2 copy exch 2 mul gt
		    { % vertical
			2 copy add currentlinewidth add 10 add % large enough
			dup neg 0 moveto
			dup 0 lineto
			dup 2 index lineto
			neg 1 index lineto closepath
			gsave clip newpath
			1 index 2 div 0 moveto
			exch currentlinewidth add setlinewidth
			0 exch rlineto
			2 setlinecap
			stroke
			grestore
		    }
		    {
			pop pop
			fill
		    }
		    ifelse
		}
		ifelse
		newpath
	    }
	    {
		1 setlinejoin
		0 0 4 2 roll 4 copy rectstroke rectfill
	    }
	    ifelse
	}
	ifelse
    }
    ifelse
    setmatrix
} bind def

/draw_polygon % fill? x(n) y(n) x(n-1) y(n-1) ... x(0) y(0) n blot
{
	setlinewidth %set to blot

	0 setlinecap
	1 setlinejoin

	3 1 roll
	/polygon_x
	currentpoint
	/polygon_y exch def
	def
	rmoveto % x(0) y(0)
	{ polygon_x polygon_y vector_add lineto } repeat % n times
	closepath
	stroke_and_fill?
} bind def

/draw_circle % filled? radius thickness draw_circle
{
	setlinewidth	% f? r
	currentpoint	% f? r x0 y0
	3 2 roll	% f? x0 y0 r
	dup 0 rmoveto
	0 360 arc closepath
	stroke_and_fill?
} bind def

/draw_ellipse % filled? x-radius y-radius thickness draw_ellipse
{
  setlinewidth % f? x-r y-r
  /savematrix matrix currentmatrix def
  scale % f?
  currentpoint
  1 0 rmoveto
  1 0 360  arc closepath
  savematrix setmatrix
  stroke_and_fill?
} bind def

/draw_partial_ellipse % filled connect x-radius y-radius startangle endangle thickness draw_partial_ellipse
% Note that filled is not boolean to permit for different graylevels (ie for trill keys)
{
  gsave
  currentpoint translate
  /thickness exch def
  /endangle exch def
  /startangle exch def
  /y_radius exch def
  /x_radius exch def
  /endrad x_radius y_radius mul
    x_radius x_radius mul
    endangle cos endangle cos mul mul
    y_radius y_radius mul
    endangle sin endangle sin mul mul add sqrt div def
  /endangle endangle sin endrad mul y_radius div
    endangle cos endrad mul x_radius div atan def
  /startrad x_radius y_radius mul
    x_radius x_radius mul
      startangle cos startangle cos mul mul
    y_radius y_radius mul
      startangle sin startangle sin mul mul add sqrt div def
  /startangle startangle sin startrad mul y_radius div
    startangle cos startrad mul x_radius div atan def
  /connect exch def
  /filled exch def
  /savematrix matrix currentmatrix def
  thickness setlinewidth
  x_radius y_radius scale
  startangle cos startangle sin moveto
  0 0 1 startangle
    startangle endangle eq { endangle 360 add } { endangle } ifelse
    arc
  connect {
    startangle cos startangle sin moveto endangle cos endangle sin lineto }
    if
  savematrix setmatrix filled stroke_and_fill?
  grestore
} bind def

/draw_line % dx dy x1 y1 thickness draw_line
{
	setlinewidth % dx dy x1 y1
	1 setlinecap
	rmoveto % dx dy
	rlineto
	stroke
} bind def

/draw_dashed_line % dx dy thickness dashpattern offset draw_dashed_line
{
	1 setlinecap
	setdash % dx dy thickness
	setlinewidth %dx dy
	rlineto
	stroke
	[] 0 setdash % reset dash pattern
} bind def

/print_glyphs % w dx dy glyph print_glyphs
{
	{
		currentpoint %w dx dy glyph x0 y0
		5 2 roll %w x0 y0 dx dy glyph
		3 1 roll %w x0 y0 glyph dx dy
		rmoveto %w x0 y0 glyph
		glyphshow %w x0 y0
		moveto %w
		0 rmoveto
	}repeat
}bind def
%end music-drawing-routines.ps

%%EndResource
%%BeginResource: procset (lilyponddefs.ps) 1 0
%!PS-Adobe-2.0: lilyponddefs.ps
%
% Functions for direct PostScript output

% /setgray { 1 add } bind def

/set-ps-scale-to-lily-scale {
	lily-output-units output-scale mul dup scale
} bind def


/init-paper {
	gsave
	clippath pathbbox newpath
	/paper-height exch def
	/paper-width exch def pop pop pop
	% FIXME
	/top-margin 2 def
	paper-width line-width sub 2 div /left-margin exch def
	grestore
} bind def

/init-lilypond-parameters {
	staff-line-thickness setlinewidth
	staff-height init-paper
} bind def


% end lilyponddefs.ps

%%EndResource
%%EndProlog
%%BeginSetup
init-lilypond-parameters
%%EndSetup

/mark_page_link { pop pop pop pop pop } bind def
gsave set-ps-scale-to-lily-scale
0.0000 -6.1767 moveto 67.2238 0.0000 0.0500 0.0000 0.1000 draw_line
0.0000 -5.1767 moveto 67.2238 0.0000 0.0500 0.0000 0.1000 draw_line
0.0000 -4.1767 moveto 67.2238 0.0000 0.0500 0.0000 0.1000 draw_line
0.0000 -3.1767 moveto 67.2238 0.0000 0.0500 0.0000 0.1000 draw_line
0.0000 -2.1767 moveto 67.2238 0.0000 0.0500 0.0000 0.1000 draw_line
27.0830 -21.8565 moveto 0.1900 4.0000 0.0000 -2.0000 0.0000 draw_round_box
27.0830 -4.1767 moveto 0.1900 4.0000 0.0000 -2.0000 0.0000 draw_round_box
49.9393 -4.1767 moveto 0.1900 4.0000 0.0000 -2.0000 0.0000 draw_round_box
49.9393 -21.8565 moveto 0.1900 4.0000 0.0000 -2.0000 0.0000 draw_round_box
66.7238 -4.1767 moveto 0.6000 4.0000 0.0000 -2.0000 0.0000 draw_round_box
66.2338 -4.1767 moveto 0.1900 4.0000 0.0000 -2.0000 0.0000 draw_round_box
66.7238 -21.8565 moveto 0.6000 4.0000 0.0000 -2.0000 0.0000 draw_round_box
66.2338 -21.8565 moveto 0.1900 4.0000 0.0000 -2.0000 0.0000 draw_round_box
0.0000 -23.8565 moveto 67.2238 0.0000 0.0500 0.0000 0.1000 draw_line
0.0000 -22.8565 moveto 67.2238 0.0000 0.0500 0.0000 0.1000 draw_line
0.0000 -21.8565 moveto 67.2238 0.0000 0.0500 0.0000 0.1000 draw_line
0.0000 -20.8565 moveto 67.2238 0.0000 0.0500 0.0000 0.1000 draw_line
0.0000 -19.8565 moveto 67.2238 0.0000 0.0500 0.0000 0.1000 draw_line
0.0000 -7.1767 moveto 1.5761 0.0000 14.3671 0.0000 0.2000 draw_round_box
0.0000 -18.8565 moveto 1.5761 0.0000 39.2836 0.0000 0.2000 draw_round_box
0.0000 -18.8565 moveto 1.5761 0.0000 44.5203 0.0000 0.2000 draw_round_box
44.7163 -23.3565 moveto magfontemmentaler-18mDWo /noteheads.s2 glyphshow 
44.7813 -4.1767 moveto 0.0500 2.4237 -0.0250 -4.6267 0.0800 draw_round_box
45.8354 -4.1767 moveto 0.0500 3.2570 -0.0250 -0.7970 0.0800 draw_round_box
44.7163 -18.8565 moveto magfontemmentaler-18mDWo /noteheads.s2 glyphshow 
44.3352 -14.8223 moveto /TeXGyrePagella-Regular 3.90625000 output-scale div selectfont
1.2974 0.0000 0.0000 /n
0.6487 0.0000 0.0000 /i
2 print_glyphs
43.4134 -12.0223 moveto /TeXGyrePagella-Regular 3.90625000 output-scale div selectfont
1.2292 0.0000 0.0000 /y
1.8437 0.0000 0.0000 /m
0.7170 0.0000 0.0000 /t
3 print_glyphs
44.7163 -6.1767 moveto magfontemmentaler-18mDWo /noteheads.s2 glyphshow 
44.7163 -5.1767 moveto magfontemmentaler-18mDWo /noteheads.s2 glyphshow 
39.5446 -21.8565 moveto 0.0500 2.9237 -0.0250 -3.6267 0.0800 draw_round_box
52.5523 -4.1767 moveto 0.0500 3.2570 -0.0250 -0.2970 0.0800 draw_round_box
51.4332 -21.8565 moveto magfontemmentaler-18mDWo /noteheads.s2 glyphshow 
51.4332 -19.8565 moveto magfontemmentaler-18mDWo /noteheads.s2 glyphshow 
50.4717 -14.8223 moveto /TeXGyrePagella-Regular 3.90625000 output-scale div selectfont
1.0584 0.0000 0.0000 /e
1.2974 0.0000 0.0000 /h
0.7512 0.0000 0.0000 /t
3 print_glyphs
50.5912 -12.0223 moveto /TeXGyrePagella-Regular 3.90625000 output-scale div selectfont
0.6487 0.0000 0.0000 /iacute
1.2633 0.0000 0.0000 /v
0.9560 0.0000 0.0000 /s
3 print_glyphs
51.4332 -5.6767 moveto magfontemmentaler-18mDWo /noteheads.s2 glyphshow 
51.4332 -4.6767 moveto magfontemmentaler-18mDWo /noteheads.s2 glyphshow 
44.7813 -21.8565 moveto 0.0500 2.5903 -0.0250 -4.2933 0.0800 draw_round_box
45.8354 -21.8565 moveto 0.0500 2.2570 -0.0250 3.2030 0.0800 draw_round_box
39.4796 -6.1767 moveto magfontemmentaler-18mDWo /noteheads.s2 glyphshow 
39.4796 -6.1767 moveto magfontemmentaler-18mDWo /noteheads.s2 glyphshow 
33.1979 -21.8565 moveto 0.0500 2.9237 -0.0250 -3.6267 0.0800 draw_round_box
34.7184 -22.3565 moveto magfontemmentaler-18mDWo /dots.dot glyphshow 
38.7742 -12.0223 moveto /TeXGyrePagella-Regular 3.90625000 output-scale div selectfont
1.2292 0.0000 0.0000 /o
1.3657 0.0000 0.0000 /d
2 print_glyphs
34.2520 -21.8565 moveto 0.0500 2.5903 -0.0250 1.7030 0.0800 draw_round_box
34.7184 -20.3565 moveto magfontemmentaler-18mDWo /dots.dot glyphshow 
39.5446 -4.1767 moveto 0.0500 2.4237 -0.0250 -4.6267 0.0800 draw_round_box
51.4982 -4.1767 moveto 0.0500 2.5903 -0.0250 -4.2933 0.0800 draw_round_box
40.5987 -21.8565 moveto 0.0500 2.2570 -0.0250 3.2030 0.0800 draw_round_box
11.6349 -12.0223 moveto 0.5800 0.0500 0.0400 0.4600 0.0800 draw_round_box
40.5987 -4.1767 moveto 0.0500 3.2570 -0.0250 -1.7970 0.0800 draw_round_box
39.4796 -22.3565 moveto magfontemmentaler-18mDWo /noteheads.s2 glyphshow 
39.4796 -18.8565 moveto magfontemmentaler-18mDWo /noteheads.s2 glyphshow 
38.4327 -14.8223 moveto /TeXGyrePagella-Regular 3.90625000 output-scale div selectfont
0.7170 0.0000 0.0000 /t
1.3316 0.0000 0.0000 /u
1.2292 0.0000 0.0000 /o
3 print_glyphs
60.1492 -21.8565 moveto 0.0500 3.0903 -0.0250 -3.2933 0.0800 draw_round_box
61.2033 -21.8565 moveto 0.0500 2.4237 -0.0250 2.2030 0.0800 draw_round_box
60.1492 -4.1767 moveto 0.0500 2.5903 -0.0250 -4.2933 0.0800 draw_round_box
31.3673 -12.0223 moveto 0.5800 0.0500 0.0400 0.4600 0.0800 draw_round_box
31.3587 -14.8223 moveto 0.5800 0.0500 0.0400 0.4600 0.0800 draw_round_box
56.2598 -12.0223 moveto 0.5800 0.0500 0.0400 0.4600 0.0800 draw_round_box
51.4982 -21.8565 moveto 0.0500 3.0903 -0.0250 -3.2933 0.0800 draw_round_box
52.5523 -21.8565 moveto 0.0500 2.4237 -0.0250 2.2030 0.0800 draw_round_box
61.2033 -4.1767 moveto 0.0500 3.2570 -0.0250 -0.2970 0.0800 draw_round_box
60.0842 -21.8565 moveto magfontemmentaler-18mDWo /noteheads.s2 glyphshow 
60.0842 -19.8565 moveto magfontemmentaler-18mDWo /noteheads.s2 glyphshow 
55.6231 -14.8223 moveto /TeXGyrePagella-Regular 3.90625000 output-scale div selectfont
0.7512 0.0000 0.0000 /parenright
0.5463 0.0000 0.0000 /period
0.9560 0.0000 0.0000 /s
0.9560 0.0000 0.0000 /s
1.0584 0.0000 0.0000 /e
1.2974 0.0000 0.0000 /n
1.2292 0.0000 0.0000 /k
0.8194 0.0000 0.0000 /r
1.1267 0.0000 0.0000 /a
1.3657 0.0000 0.0000 /d
10 print_glyphs
59.7203 -12.0223 moveto /TeXGyrePagella-Regular 3.90625000 output-scale div selectfont
0.5463 0.0000 0.0000 /period
0.6487 0.0000 0.0000 /iacute
0.7170 0.0000 0.0000 /t
3 print_glyphs
60.0842 -5.6767 moveto magfontemmentaler-18mDWo /noteheads.s2 glyphshow 
60.0842 -4.6767 moveto magfontemmentaler-18mDWo /noteheads.s2 glyphshow 
14.5632 -5.1767 moveto magfontemmentaler-18mDWo /noteheads.s2 glyphshow 
15.6822 -4.1767 moveto 0.0500 3.2570 -0.0250 -0.7970 0.0800 draw_round_box
14.5632 -21.3565 moveto magfontemmentaler-18mDWo /noteheads.s2 glyphshow 
14.5632 -20.3565 moveto magfontemmentaler-18mDWo /noteheads.s2 glyphshow 
11.9799 -14.8223 moveto /TeXGyrePagella-Regular 3.90625000 output-scale div selectfont
0.5463 0.0000 0.0000 /comma
1.3657 0.0000 0.0000 /d
0.6487 0.0000 0.0000 /l
0.8194 0.0000 0.0000 /r
1.2292 0.0000 0.0000 /o
1.7413 0.0000 0.0000 /w
6 print_glyphs
13.9602 -12.0223 moveto /TeXGyrePagella-Regular 3.90625000 output-scale div selectfont
0.5463 0.0000 0.0000 /comma
1.1267 0.0000 0.0000 /a
0.7170 0.0000 0.0000 /t
3 print_glyphs
14.5632 -7.6767 moveto magfontemmentaler-18mDWo /noteheads.s2 glyphshow 
14.6282 -4.1767 moveto 0.0500 2.2570 -0.0250 -5.9600 0.0800 draw_round_box
7.8550 -21.8565 moveto 0.0500 3.0903 -0.0250 -3.2933 0.0800 draw_round_box
8.9091 -21.8565 moveto 0.0500 2.7570 -0.0250 1.2030 0.0800 draw_round_box
14.6282 -21.8565 moveto 0.0500 3.2570 -0.0250 -2.9600 0.0800 draw_round_box
19.7415 -23.8565 moveto magfontemmentaler-18mDWo /rests.1 glyphshow 
19.7415 -6.1767 moveto magfontemmentaler-18mDWo /rests.1 glyphshow 
19.7415 -2.1767 moveto magfontemmentaler-18mDWo /rests.1 glyphshow 
15.6822 -21.8565 moveto 0.0500 2.5903 -0.0250 1.7030 0.0800 draw_round_box
-0.7853 -1.0926 moveto /TeXGyrePagella-Regular 2.76074219 output-scale div selectfont
0.7853 0.0000 0.0000 /six
1 print_glyphs
4.3000 -20.8565 moveto magfontemmentaler-18mDWo /accidentals.sharp glyphshow 
0.8000 -20.8565 moveto magfontemmentaler-18mDWo /clefs.F glyphshow 
4.3000 -2.1767 moveto magfontemmentaler-18mDWo /accidentals.sharp glyphshow 
0.8000 -5.1767 moveto magfontemmentaler-18mDWo /clefs.G glyphshow 
-0.0600 -13.0166 moveto 0.0600 21.6797 0.0500 -10.8399 0.1000 draw_round_box
7.7900 -20.8565 moveto magfontemmentaler-18mDWo /noteheads.s2 glyphshow 
7.8550 -4.1767 moveto 0.0500 2.2570 -0.0250 -4.9600 0.0800 draw_round_box
8.9091 -4.1767 moveto 0.0500 3.2570 -0.0250 -0.2970 0.0800 draw_round_box
7.7900 -21.8565 moveto magfontemmentaler-18mDWo /noteheads.s2 glyphshow 
19.7415 -19.8565 moveto magfontemmentaler-18mDWo /rests.1 glyphshow 
6.8285 -14.8223 moveto /TeXGyrePagella-Regular 3.90625000 output-scale div selectfont
1.0584 0.0000 0.0000 /e
1.2974 0.0000 0.0000 /h
0.7512 0.0000 0.0000 /t
3 print_glyphs
6.7944 -12.0223 moveto /TeXGyrePagella-Regular 3.90625000 output-scale div selectfont
1.0584 0.0000 0.0000 /ecaron
1.1609 0.0000 0.0000 /v
0.9560 0.0000 0.0000 /s
3 print_glyphs
7.7900 -6.6767 moveto magfontemmentaler-18mDWo /noteheads.s2 glyphshow 
7.7900 -4.6767 moveto magfontemmentaler-18mDWo /noteheads.s2 glyphshow 
28.6783 -25.5665 moveto magfontemmentaler-18mDWo /flags.d3 glyphshow 
28.6133 -21.8565 moveto 0.0500 3.0070 -0.0250 -3.7100 0.0800 draw_round_box
29.7324 -17.3965 moveto magfontemmentaler-18mDWo /flags.u3 glyphshow 
29.6674 -21.8565 moveto 0.0500 2.7570 -0.0250 1.7030 0.0800 draw_round_box
32.1373 -14.8223 moveto /TeXGyrePagella-Regular 3.90625000 output-scale div selectfont
1.2292 0.0000 0.0000 /g
1.2974 0.0000 0.0000 /n
0.6487 0.0000 0.0000 /i
3 print_glyphs
33.1979 -4.1767 moveto 0.0500 2.4237 -0.0250 -4.6267 0.0800 draw_round_box
34.7184 -6.6767 moveto magfontemmentaler-18mDWo /dots.dot glyphshow 
34.2520 -4.1767 moveto 0.0500 3.2570 -0.0250 -0.7970 0.0800 draw_round_box
34.7184 -4.6767 moveto magfontemmentaler-18mDWo /dots.dot glyphshow 
33.1329 -22.3565 moveto magfontemmentaler-18mDWo /noteheads.s2 glyphshow 
33.1329 -20.3565 moveto magfontemmentaler-18mDWo /noteheads.s2 glyphshow 
32.7519 -12.0223 moveto /TeXGyrePagella-Regular 3.90625000 output-scale div selectfont
1.0584 0.0000 0.0000 /eacute
0.8877 0.0000 0.0000 /r
2 print_glyphs
33.1329 -6.1767 moveto magfontemmentaler-18mDWo /noteheads.s2 glyphshow 
33.1329 -5.1767 moveto magfontemmentaler-18mDWo /noteheads.s2 glyphshow 
28.5483 -5.1767 moveto magfontemmentaler-18mDWo /noteheads.s2 glyphshow 
28.5483 -20.3565 moveto magfontemmentaler-18mDWo /noteheads.s2 glyphshow 
29.6674 -4.1767 moveto 0.0500 3.2570 -0.0250 -0.7970 0.0800 draw_round_box
28.5483 -6.1767 moveto magfontemmentaler-18mDWo /noteheads.s2 glyphshow 
29.7324 -1.7167 moveto magfontemmentaler-18mDWo /flags.u3 glyphshow 
28.5483 -22.3565 moveto magfontemmentaler-18mDWo /noteheads.s2 glyphshow 
27.0405 -14.8223 moveto /TeXGyrePagella-Regular 3.90625000 output-scale div selectfont
1.2974 0.0000 0.0000 /n
0.6487 0.0000 0.0000 /i
1.2974 0.0000 0.0000 /h
0.9560 0.0000 0.0000 /s
4 print_glyphs
28.6133 -4.1767 moveto 0.0500 2.7570 -0.0250 -4.9600 0.0800 draw_round_box
27.6380 -12.0223 moveto /TeXGyrePagella-Regular 3.90625000 output-scale div selectfont
1.0584 0.0000 0.0000 /e
0.7170 0.0000 0.0000 /t
1.2292 0.0000 0.0000 /k
3 print_glyphs
28.6783 -9.1367 moveto magfontemmentaler-18mDWo /flags.d3 glyphshow 
stroke grestore
%%Trailer
%%EOF
