%!PS-Adobe-2.0 EPSF-2.0
%%Creator: LilyPond 2.18.2
%%BoundingBox: -9 -427 336 0
%%Orientation: Portrait
%%DocumentSuppliedResources: font Emmentaler-18
%%DocumentSuppliedResources: font TeXGyrePagella-Italic
%%DocumentSuppliedResources: font TeXGyrePagella-Regular
%%EndComments
%%BeginProlog
/lilypond-datadir where {pop} {userdict /lilypond-datadir (/usr/share/lilypond/2.18.2) put } ifelse
%%BeginFont: Emmentaler-18
lilypond-datadir (/fonts/otf/emmentaler-18.otf) concatstrings (r) file .loadfont
%%EndFont

%%BeginFont: TeXGyrePagella-Italic
(/usr/share/texmf/fonts/opentype/public/tex-gyre/texgyrepagella-italic.otf) (r) file .loadfont
%%EndFont

%%BeginFont: TeXGyrePagella-Regular
(/usr/share/texmf/fonts/opentype/public/tex-gyre/texgyrepagella-regular.otf) (r) file .loadfont
%%EndFont

/magfontemmentaler-18mDWo { /Emmentaler-18 6.3263 output-scale div selectfont } bind def
/lily-output-units 2.83464566929134 def %% millimeter
/staff-line-thickness 0.1 def
/line-width 67.3237795275591 def
/paper-size (a4) def
/staff-height 4.0 def
/output-scale 1.75729901757299 def
/page-height 169.00937007874 def
/page-width 119.50157480315 def
%%BeginResource: procset (music-drawing-routines.ps) 1 0
%!PS-Adobe-2.0
%
% Functions for direct and embedded PostScript

% Careful with double % as comment prefix.
% Any %%X comment is interpreted as DSC comments.

% TODO: use dicts or prefixes to prevent namespace pollution.

/pdfmark where
{pop} {userdict /pdfmark /cleartomark load put} ifelse


% llx lly urx ury URI
/mark_URI
{
    /uri exch def
    /ury exch def
    /urx exch def
    /lly exch def
    /llx exch def
    [
	/Rect [ llx lly urx ury ]
	
	/Border [ 0 0 0 ]

        /Action
	    <<
		/Subtype /URI
		/URI uri
	    >>
        /Subtype /Link
    /ANN
    pdfmark
}
bind def

% llx lly urx ury page
/mark_page_link
{
    /page exch def
    /ury exch def
    /urx exch def
    /lly exch def
    /llx exch def
    [
        /Rect [ llx lly urx ury ]
        /Border [ 0 0 0 ]
        /Page page
        /Subtype /Link
    /ANN
    pdfmark
}
bind def

% from adobe tech note 5002.
/BeginEPSF { %def
    /b4_Inc_state save def % Save state for cleanup
    /dict_count countdictstack def % Count objects on dict stack
    /op_count count 1 sub def % Count objects on operand stack
    userdict begin % Push userdict on dict stack
    /showpage { } def % Redefine showpage, { } = null proc
    0 setgray 0 setlinecap % Prepare graphics state
    1 setlinewidth 0 setlinejoin
    10 setmiterlimit [ ] 0 setdash newpath
    false setoverprint
} bind def

/EndEPSF { %def
  count op_count sub {pop} repeat % Clean up stacks
  countdictstack dict_count sub {end} repeat
  b4_Inc_state restore
} bind def

/stroke_and_fill? {
    {
	gsave
	    false setstrokeadjust
	    stroke
	grestore
	fill
    }
    {
	stroke
    }
    ifelse
} bind def

/vector_add { % x1 y1 x2 y2 vector_add x1+x2 y1+y2
	exch
	4 1 roll
	add
	3 1 roll
	add
	exch
} bind def

/draw_round_box % width height x y blot
{
    0 max setlinewidth
    matrix currentmatrix 5 1 roll
    currentpoint translate newpath translate
    2 copy 0 min exch 0 min exch translate
    abs exch abs exch
    currentlinewidth 0 eq
    { % straight corners
	2 copy 2 mul gt
	{ % horizontal
	    0 1 index 2 div moveto
	    setlinewidth
	    0 rlineto
	    0 setlinecap
	    stroke
	}
	{
	    2 copy exch 2 mul gt
	    { % vertical
		1 index 2 div 0 moveto
		exch setlinewidth
		0 exch rlineto
		0 setlinecap
		stroke
	    }
	    {
		0 0 4 2 roll rectfill
	    }
	    ifelse
	}
	ifelse
    }
    { % rounded corners
	2 copy 0 eq exch 0 eq or
	{ % line shape
	    0 0 moveto
	    rlineto
	    1 setlinecap
	    stroke
	    0 setlinecap
	}
	{ % full shape
	    currentstrokeadjust {
		currentlinewidth 2 div
		0 0 2 index 180 270 arc
		2 index 0 2 index 270 360 arc
		3 copy 0 90 arc
		0 2 index 3 -1 roll 90 180 arc
		closepath
		2 copy 2 mul gt
		{ % horizontal
		    2 copy add currentlinewidth add 10 add % large enough
		    0 1 index neg moveto
		    2 index 1 index neg lineto
		    2 index 1 index lineto
		    0 exch lineto closepath
		    gsave clip newpath
		    0 1 index 2 div moveto
		    currentlinewidth add setlinewidth
		    0 rlineto
		    2 setlinecap
		    stroke
		    grestore
		}
		{
		    2 copy exch 2 mul gt
		    { % vertical
			2 copy add currentlinewidth add 10 add % large enough
			dup neg 0 moveto
			dup 0 lineto
			dup 2 index lineto
			neg 1 index lineto closepath
			gsave clip newpath
			1 index 2 div 0 moveto
			exch currentlinewidth add setlinewidth
			0 exch rlineto
			2 setlinecap
			stroke
			grestore
		    }
		    {
			pop pop
			fill
		    }
		    ifelse
		}
		ifelse
		newpath
	    }
	    {
		1 setlinejoin
		0 0 4 2 roll 4 copy rectstroke rectfill
	    }
	    ifelse
	}
	ifelse
    }
    ifelse
    setmatrix
} bind def

/draw_polygon % fill? x(n) y(n) x(n-1) y(n-1) ... x(0) y(0) n blot
{
	setlinewidth %set to blot

	0 setlinecap
	1 setlinejoin

	3 1 roll
	/polygon_x
	currentpoint
	/polygon_y exch def
	def
	rmoveto % x(0) y(0)
	{ polygon_x polygon_y vector_add lineto } repeat % n times
	closepath
	stroke_and_fill?
} bind def

/draw_circle % filled? radius thickness draw_circle
{
	setlinewidth	% f? r
	currentpoint	% f? r x0 y0
	3 2 roll	% f? x0 y0 r
	dup 0 rmoveto
	0 360 arc closepath
	stroke_and_fill?
} bind def

/draw_ellipse % filled? x-radius y-radius thickness draw_ellipse
{
  setlinewidth % f? x-r y-r
  /savematrix matrix currentmatrix def
  scale % f?
  currentpoint
  1 0 rmoveto
  1 0 360  arc closepath
  savematrix setmatrix
  stroke_and_fill?
} bind def

/draw_partial_ellipse % filled connect x-radius y-radius startangle endangle thickness draw_partial_ellipse
% Note that filled is not boolean to permit for different graylevels (ie for trill keys)
{
  gsave
  currentpoint translate
  /thickness exch def
  /endangle exch def
  /startangle exch def
  /y_radius exch def
  /x_radius exch def
  /endrad x_radius y_radius mul
    x_radius x_radius mul
    endangle cos endangle cos mul mul
    y_radius y_radius mul
    endangle sin endangle sin mul mul add sqrt div def
  /endangle endangle sin endrad mul y_radius div
    endangle cos endrad mul x_radius div atan def
  /startrad x_radius y_radius mul
    x_radius x_radius mul
      startangle cos startangle cos mul mul
    y_radius y_radius mul
      startangle sin startangle sin mul mul add sqrt div def
  /startangle startangle sin startrad mul y_radius div
    startangle cos startrad mul x_radius div atan def
  /connect exch def
  /filled exch def
  /savematrix matrix currentmatrix def
  thickness setlinewidth
  x_radius y_radius scale
  startangle cos startangle sin moveto
  0 0 1 startangle
    startangle endangle eq { endangle 360 add } { endangle } ifelse
    arc
  connect {
    startangle cos startangle sin moveto endangle cos endangle sin lineto }
    if
  savematrix setmatrix filled stroke_and_fill?
  grestore
} bind def

/draw_line % dx dy x1 y1 thickness draw_line
{
	setlinewidth % dx dy x1 y1
	1 setlinecap
	rmoveto % dx dy
	rlineto
	stroke
} bind def

/draw_dashed_line % dx dy thickness dashpattern offset draw_dashed_line
{
	1 setlinecap
	setdash % dx dy thickness
	setlinewidth %dx dy
	rlineto
	stroke
	[] 0 setdash % reset dash pattern
} bind def

/print_glyphs % w dx dy glyph print_glyphs
{
	{
		currentpoint %w dx dy glyph x0 y0
		5 2 roll %w x0 y0 dx dy glyph
		3 1 roll %w x0 y0 glyph dx dy
		rmoveto %w x0 y0 glyph
		glyphshow %w x0 y0
		moveto %w
		0 rmoveto
	}repeat
}bind def
%end music-drawing-routines.ps

%%EndResource
%%BeginResource: procset (lilyponddefs.ps) 1 0
%!PS-Adobe-2.0: lilyponddefs.ps
%
% Functions for direct PostScript output

% /setgray { 1 add } bind def

/set-ps-scale-to-lily-scale {
	lily-output-units output-scale mul dup scale
} bind def


/init-paper {
	gsave
	clippath pathbbox newpath
	/paper-height exch def
	/paper-width exch def pop pop pop
	% FIXME
	/top-margin 2 def
	paper-width line-width sub 2 div /left-margin exch def
	grestore
} bind def

/init-lilypond-parameters {
	staff-line-thickness setlinewidth
	staff-height init-paper
} bind def


% end lilyponddefs.ps

%%EndResource
%%EndProlog
%%BeginSetup
init-lilypond-parameters
%%EndSetup

/mark_page_link { pop pop pop pop pop } bind def
gsave set-ps-scale-to-lily-scale
0.0000 -5.4292 moveto 67.2238 0.0000 0.0500 0.0000 0.1000 draw_line
0.0000 -4.4292 moveto 67.2238 0.0000 0.0500 0.0000 0.1000 draw_line
0.0000 -3.4292 moveto 67.2238 0.0000 0.0500 0.0000 0.1000 draw_line
0.0000 -2.4292 moveto 67.2238 0.0000 0.0500 0.0000 0.1000 draw_line
0.0000 -1.4292 moveto 67.2238 0.0000 0.0500 0.0000 0.1000 draw_line
0.0000 -6.4292 moveto 1.5761 0.0000 54.4210 0.0000 0.2000 draw_round_box
0.0000 -6.4292 moveto 1.5761 0.0000 64.0475 0.0000 0.2000 draw_round_box
25.5718 -20.7446 moveto 0.1900 4.0000 0.0000 -2.0000 0.0000 draw_round_box
0.0000 -22.7446 moveto 67.2238 0.0000 0.0500 0.0000 0.1000 draw_line
0.0000 -21.7446 moveto 67.2238 0.0000 0.0500 0.0000 0.1000 draw_line
0.0000 -20.7446 moveto 67.2238 0.0000 0.0500 0.0000 0.1000 draw_line
0.0000 -19.7446 moveto 67.2238 0.0000 0.0500 0.0000 0.1000 draw_line
0.0000 -18.7446 moveto 67.2238 0.0000 0.0500 0.0000 0.1000 draw_line
47.5330 -3.4292 moveto 0.1900 4.0000 0.0000 -2.0000 0.0000 draw_round_box
25.5718 -3.4292 moveto 0.1900 4.0000 0.0000 -2.0000 0.0000 draw_round_box
47.5330 -20.7446 moveto 0.1900 4.0000 0.0000 -2.0000 0.0000 draw_round_box
67.1338 -20.7446 moveto 0.1900 4.0000 0.0000 -2.0000 0.0000 draw_round_box
67.1338 -3.4292 moveto 0.1900 4.0000 0.0000 -2.0000 0.0000 draw_round_box
49.9890 -3.4292 moveto 0.0500 3.2570 -0.0250 -0.2970 0.0800 draw_round_box
48.9349 -3.4292 moveto 0.0500 2.4237 -0.0250 -4.6267 0.0800 draw_round_box
48.8699 -21.2446 moveto magfontemmentaler-18mDWo /noteheads.s2 glyphshow 
48.8699 -18.7446 moveto magfontemmentaler-18mDWo /noteheads.s2 glyphshow 
47.9084 -13.7104 moveto /TeXGyrePagella-Regular 3.90625000 output-scale div selectfont
1.0584 0.0000 0.0000 /e
1.2974 0.0000 0.0000 /h
0.7512 0.0000 0.0000 /t
3 print_glyphs
48.3694 -10.9104 moveto /TeXGyrePagella-Regular 3.90625000 output-scale div selectfont
1.0584 0.0000 0.0000 /e
1.1267 0.0000 0.0000 /z
2 print_glyphs
48.8699 -5.4292 moveto magfontemmentaler-18mDWo /noteheads.s2 glyphshow 
48.8699 -3.9292 moveto magfontemmentaler-18mDWo /noteheads.s2 glyphshow 
44.7352 -20.7446 moveto 0.0500 2.0670 -0.0250 -2.7700 0.0800 draw_round_box
55.7361 -3.4292 moveto 0.0500 3.2570 -0.0250 -1.7970 0.0800 draw_round_box
54.6170 -22.2446 moveto magfontemmentaler-18mDWo /noteheads.s2 glyphshow 
54.6170 -18.7446 moveto magfontemmentaler-18mDWo /noteheads.s2 glyphshow 
52.3752 -13.7104 moveto /TeXGyrePagella-Regular 3.90625000 output-scale div selectfont
0.5463 0.0000 0.0000 /comma
1.2974 0.0000 0.0000 /h
0.7512 0.0000 0.0000 /t
0.8877 0.0000 0.0000 /r
1.1267 0.0000 0.0000 /a
1.0584 0.0000 0.0000 /e
6 print_glyphs
53.4336 -10.9104 moveto /TeXGyrePagella-Regular 3.90625000 output-scale div selectfont
0.5463 0.0000 0.0000 /comma
1.0584 0.0000 0.0000 /ecaron
1.9462 0.0000 0.0000 /m
3 print_glyphs
54.6170 -6.4292 moveto magfontemmentaler-18mDWo /noteheads.s2 glyphshow 
54.6170 -5.4292 moveto magfontemmentaler-18mDWo /noteheads.s2 glyphshow 
48.9349 -20.7446 moveto 0.0500 2.9237 -0.0250 -3.6267 0.0800 draw_round_box
49.9890 -20.7446 moveto 0.0500 2.4237 -0.0250 2.2030 0.0800 draw_round_box
42.1700 -3.4292 moveto 0.0500 3.0670 -0.0250 -0.2970 0.0800 draw_round_box
42.1700 -20.7446 moveto 0.0500 2.0670 -0.0250 1.7030 0.0800 draw_round_box
41.1159 -3.4292 moveto 0.0500 2.2570 -0.0250 -4.4600 0.0800 draw_round_box
41.0509 -21.2446 moveto magfontemmentaler-18mDWo /noteheads.s2 glyphshow 
41.0509 -19.2446 moveto magfontemmentaler-18mDWo /noteheads.s2 glyphshow 
39.9187 -13.7104 moveto /TeXGyrePagella-Regular 3.90625000 output-scale div selectfont
0.7170 0.0000 0.0000 /t
0.6487 0.0000 0.0000 /l
1.1267 0.0000 0.0000 /a
0.9560 0.0000 0.0000 /s
4 print_glyphs
40.5504 -10.9104 moveto /TeXGyrePagella-Regular 3.90625000 output-scale div selectfont
1.2292 0.0000 0.0000 /o
0.9560 0.0000 0.0000 /s
2 print_glyphs
41.0509 -5.4292 moveto magfontemmentaler-18mDWo /noteheads.s2 glyphshow 
41.0509 -3.9292 moveto magfontemmentaler-18mDWo /noteheads.s2 glyphshow 
15.6093 -10.9104 moveto 0.5800 0.0500 0.0400 0.4600 0.0800 draw_round_box
45.7892 -3.4292 moveto 0.0500 3.0670 -0.0250 -0.2970 0.0800 draw_round_box
45.7892 -20.7446 moveto 0.0500 2.0670 -0.0250 1.7030 0.0800 draw_round_box
44.7352 -3.4292 moveto 0.0500 2.2570 -0.0250 -4.4600 0.0800 draw_round_box
44.6702 -21.2446 moveto magfontemmentaler-18mDWo /noteheads.s2 glyphshow 
44.6702 -19.2446 moveto magfontemmentaler-18mDWo /noteheads.s2 glyphshow 
44.2720 -13.7104 moveto /TeXGyrePagella-Regular 3.90625000 output-scale div selectfont
0.7512 0.0000 0.0000 /f
1.2292 0.0000 0.0000 /o
2 print_glyphs
44.6135 -10.9104 moveto /TeXGyrePagella-Regular 3.90625000 output-scale div selectfont
0.6487 0.0000 0.0000 /iacute
0.6487 0.0000 0.0000 /l
2 print_glyphs
44.6702 -5.4292 moveto magfontemmentaler-18mDWo /noteheads.s2 glyphshow 
44.6702 -3.9292 moveto magfontemmentaler-18mDWo /noteheads.s2 glyphshow 
41.1159 -20.7446 moveto 0.0500 2.0670 -0.0250 -2.7700 0.0800 draw_round_box
64.3735 -25.2046 moveto magfontemmentaler-18mDWo /flags.d3 glyphshow 
64.3085 -20.7446 moveto 0.0500 2.7570 -0.0250 -4.4600 0.0800 draw_round_box
65.4276 -15.7846 moveto magfontemmentaler-18mDWo /flags.u3 glyphshow 
65.3626 -20.7446 moveto 0.0500 2.7570 -0.0250 2.2030 0.0800 draw_round_box
64.3735 -9.3892 moveto magfontemmentaler-18mDWo /flags.d3 glyphshow 
64.3085 -3.4292 moveto 0.0500 2.7570 -0.0250 -5.9600 0.0800 draw_round_box
43.3445 -10.9104 moveto 0.5800 0.0500 0.0400 0.4600 0.0800 draw_round_box
14.7673 -13.7104 moveto 0.3348 0.0500 0.0400 0.4600 0.0800 draw_round_box
13.5717 -0.6192 moveto true 9.9148 -0.4200 9.9148 -0.8200 0.0400 -0.2000 0.0400 0.2000 3 0.0800 draw_polygon
12.5176 -8.2392 moveto true 9.9148 0.2000 9.9148 -0.2000 0.0400 -0.2000 0.0400 0.2000 3 0.0800 draw_polygon
29.5440 -10.9104 moveto 0.5800 0.0500 0.0400 0.4600 0.0800 draw_round_box
13.5717 -16.2446 moveto true 9.9148 0.2000 9.9148 -0.2000 0.0400 -0.2000 0.0400 0.2000 3 0.0800 draw_polygon
12.5176 -23.7446 moveto true 9.9148 0.2000 9.9148 -0.2000 0.0400 -0.2000 0.0400 0.2000 3 0.0800 draw_polygon
42.1050 -0.6192 moveto true 3.7092 0.2000 3.7092 -0.2000 0.0400 -0.2000 0.0400 0.2000 3 0.0800 draw_polygon
41.0509 -7.9292 moveto true 3.7092 0.2000 3.7092 -0.2000 0.0400 -0.2000 0.0400 0.2000 3 0.0800 draw_polygon
51.6641 -10.9104 moveto 0.5800 0.0500 0.0400 0.4600 0.0800 draw_round_box
42.1050 -16.9346 moveto true 3.7092 0.2000 3.7092 -0.2000 0.0400 -0.2000 0.0400 0.2000 3 0.0800 draw_polygon
41.0509 -23.5546 moveto true 3.7092 0.2000 3.7092 -0.2000 0.0400 -0.2000 0.0400 0.2000 3 0.0800 draw_polygon
60.3672 -4.9292 moveto magfontemmentaler-18mDWo /dots.dot glyphshow 
60.3672 -0.9292 moveto magfontemmentaler-18mDWo /dots.dot glyphshow 
59.1108 -22.7446 moveto magfontemmentaler-18mDWo /rests.2 glyphshow 
59.1108 -18.7446 moveto magfontemmentaler-18mDWo /rests.2 glyphshow 
59.1108 -5.4292 moveto magfontemmentaler-18mDWo /rests.2 glyphshow 
59.1108 -1.4292 moveto magfontemmentaler-18mDWo /rests.2 glyphshow 
54.6820 -20.7446 moveto 0.0500 2.5903 -0.0250 -4.2933 0.0800 draw_round_box
55.7361 -20.7446 moveto 0.0500 2.4237 -0.0250 2.2030 0.0800 draw_round_box
54.6820 -3.4292 moveto 0.0500 2.2570 -0.0250 -5.4600 0.0800 draw_round_box
65.4276 -1.9692 moveto magfontemmentaler-18mDWo /flags.u3 glyphshow 
65.3626 -3.4292 moveto 0.0500 3.2570 -0.0250 -1.7970 0.0800 draw_round_box
64.2435 -22.2446 moveto magfontemmentaler-18mDWo /noteheads.s2 glyphshow 
64.2435 -18.7446 moveto magfontemmentaler-18mDWo /noteheads.s2 glyphshow 
62.9406 -13.7104 moveto /TeXGyrePagella-Regular 3.90625000 output-scale div selectfont
1.3657 0.0000 0.0000 /d
1.2974 0.0000 0.0000 /n
1.1267 0.0000 0.0000 /a
3 print_glyphs
64.2722 -10.9104 moveto /TeXGyrePagella-Regular 3.90625000 output-scale div selectfont
1.1267 0.0000 0.0000 /a
1 print_glyphs
64.2435 -6.4292 moveto magfontemmentaler-18mDWo /noteheads.s2 glyphshow 
64.2435 -5.4292 moveto magfontemmentaler-18mDWo /noteheads.s2 glyphshow 
60.3672 -22.2446 moveto magfontemmentaler-18mDWo /dots.dot glyphshow 
60.3672 -18.2446 moveto magfontemmentaler-18mDWo /dots.dot glyphshow 
18.3912 -3.4292 moveto 0.0500 3.2668 -0.0250 -0.7970 0.0800 draw_round_box
17.2721 -20.7446 moveto magfontemmentaler-18mDWo /noteheads.s2 glyphshow 
17.2721 -18.7446 moveto magfontemmentaler-18mDWo /noteheads.s2 glyphshow 
15.2522 -13.7104 moveto /TeXGyrePagella-Regular 3.90625000 output-scale div selectfont
1.0584 0.0000 0.0000 /e
1.9462 0.0000 0.0000 /m
1.2292 0.0000 0.0000 /o
0.9902 0.0000 0.0000 /c
4 print_glyphs
16.9764 -10.9104 moveto /TeXGyrePagella-Regular 3.90625000 output-scale div selectfont
1.0584 0.0000 0.0000 /e
0.7170 0.0000 0.0000 /t
2 print_glyphs
17.2721 -5.9292 moveto magfontemmentaler-18mDWo /noteheads.s2 glyphshow 
17.2721 -4.4292 moveto magfontemmentaler-18mDWo /noteheads.s2 glyphshow 
12.5826 -20.7446 moveto 0.0500 2.7570 -0.0250 -2.9600 0.0800 draw_round_box
13.6367 -20.7446 moveto 0.0500 2.2570 -0.0250 2.2030 0.0800 draw_round_box
12.5826 -3.4292 moveto 0.0500 2.0670 -0.0250 -4.7700 0.0800 draw_round_box
22.3424 -20.7446 moveto magfontemmentaler-18mDWo /noteheads.s2 glyphshow 
22.3424 -18.7446 moveto magfontemmentaler-18mDWo /noteheads.s2 glyphshow 
21.3809 -13.7104 moveto /TeXGyrePagella-Regular 3.90625000 output-scale div selectfont
1.0584 0.0000 0.0000 /e
1.2974 0.0000 0.0000 /h
0.7512 0.0000 0.0000 /t
3 print_glyphs
21.9272 -10.9104 moveto /TeXGyrePagella-Regular 3.90625000 output-scale div selectfont
1.0584 0.0000 0.0000 /e
0.9560 0.0000 0.0000 /s
2 print_glyphs
22.3424 -5.9292 moveto magfontemmentaler-18mDWo /noteheads.s2 glyphshow 
22.3424 -4.9292 moveto magfontemmentaler-18mDWo /noteheads.s2 glyphshow 
17.3371 -20.7446 moveto 0.0500 2.7570 -0.0250 -2.9600 0.0800 draw_round_box
18.3912 -20.7446 moveto 0.0500 2.2570 -0.0250 2.2030 0.0800 draw_round_box
17.3371 -3.4292 moveto 0.0500 2.0670 -0.0250 -4.7700 0.0800 draw_round_box
6.4400 -3.4292 moveto magfontemmentaler-18mDWo /timesig.C44 glyphshow 
6.4400 -20.7446 moveto magfontemmentaler-18mDWo /timesig.C44 glyphshow 
4.3000 -19.7446 moveto magfontemmentaler-18mDWo /accidentals.sharp glyphshow 
0.8000 -19.7446 moveto magfontemmentaler-18mDWo /clefs.F glyphshow 
9.9628 -22.7446 moveto magfontemmentaler-18mDWo /rests.3 glyphshow 
9.9628 -18.7446 moveto magfontemmentaler-18mDWo /rests.3 glyphshow 
4.3000 -1.4292 moveto magfontemmentaler-18mDWo /accidentals.sharp glyphshow 
0.8000 -4.4292 moveto magfontemmentaler-18mDWo /clefs.G glyphshow 
9.9628 -5.4292 moveto magfontemmentaler-18mDWo /rests.3 glyphshow 
9.9628 -1.4292 moveto magfontemmentaler-18mDWo /rests.3 glyphshow 
-0.0600 -12.0869 moveto 0.0600 21.3154 0.0500 -10.6577 0.1000 draw_round_box
13.6367 -3.4292 moveto 0.0500 3.0629 -0.0250 -0.2970 0.0800 draw_round_box
12.5176 -20.7446 moveto magfontemmentaler-18mDWo /noteheads.s2 glyphshow 
12.5176 -18.7446 moveto magfontemmentaler-18mDWo /noteheads.s2 glyphshow 
11.5220 -13.7104 moveto /TeXGyrePagella-Regular 3.90625000 output-scale div selectfont
1.0584 0.0000 0.0000 /e
1.3657 0.0000 0.0000 /B
0.7512 0.0000 0.0000 /parenleft
3 print_glyphs
11.3171 -10.9104 moveto /TeXGyrePagella-Regular 3.90625000 output-scale div selectfont
1.2974 0.0000 0.0000 /ncaron
1.1267 0.0000 0.0000 /a
1.1609 0.0000 0.0000 /S
3 print_glyphs
12.5176 -5.9292 moveto magfontemmentaler-18mDWo /noteheads.s2 glyphshow 
12.5176 -3.9292 moveto magfontemmentaler-18mDWo /noteheads.s2 glyphshow 
23.4615 -3.4292 moveto 0.0500 3.4510 -0.0250 -1.2970 0.0800 draw_round_box
31.0946 -10.9104 moveto /TeXGyrePagella-Regular 3.90625000 output-scale div selectfont
0.5463 0.0000 0.0000 /comma
0.6487 0.0000 0.0000 /iacute
0.6487 0.0000 0.0000 /l
3 print_glyphs
31.4895 -3.4292 moveto 0.0500 2.2570 -0.0250 -4.9600 0.0800 draw_round_box
33.0099 -5.9292 moveto magfontemmentaler-18mDWo /dots.dot glyphshow 
32.5435 -3.4292 moveto 0.0500 3.2570 -0.0250 -0.7970 0.0800 draw_round_box
33.0099 -3.9292 moveto magfontemmentaler-18mDWo /dots.dot glyphshow 
31.4245 -22.7446 moveto magfontemmentaler-18mDWo /noteheads.s2 glyphshow 
31.4245 -18.2446 moveto magfontemmentaler-18mDWo /noteheads.s2 glyphshow 
30.4630 -13.7104 moveto /TeXGyrePagella-Regular 3.90625000 output-scale div selectfont
1.0584 0.0000 0.0000 /e
1.2974 0.0000 0.0000 /h
0.7512 0.0000 0.0000 /t
3 print_glyphs
31.4245 -5.9292 moveto magfontemmentaler-18mDWo /noteheads.s2 glyphshow 
31.4245 -4.4292 moveto magfontemmentaler-18mDWo /noteheads.s2 glyphshow 
36.8862 -1.4292 moveto magfontemmentaler-18mDWo /rests.2 glyphshow 
36.8862 -22.7446 moveto magfontemmentaler-18mDWo /rests.2 glyphshow 
36.8862 -18.7446 moveto magfontemmentaler-18mDWo /rests.2 glyphshow 
36.8862 -5.4292 moveto magfontemmentaler-18mDWo /rests.2 glyphshow 
31.4895 -20.7446 moveto 0.0500 2.4237 -0.0250 -4.6267 0.0800 draw_round_box
33.0099 -23.2446 moveto magfontemmentaler-18mDWo /dots.dot glyphshow 
32.5435 -20.7446 moveto 0.0500 2.2570 -0.0250 2.7030 0.0800 draw_round_box
33.0099 -18.2446 moveto magfontemmentaler-18mDWo /dots.dot glyphshow 
28.1528 -0.9692 moveto magfontemmentaler-18mDWo /flags.u3 glyphshow 
28.0878 -3.4292 moveto 0.0500 3.2570 -0.0250 -0.7970 0.0800 draw_round_box
26.9687 -18.2446 moveto magfontemmentaler-18mDWo /noteheads.s2 glyphshow 
25.5634 -13.7104 moveto /TeXGyrePagella-Regular 3.90625000 output-scale div selectfont
0.5463 0.0000 0.0000 /comma
0.7170 0.0000 0.0000 /t
0.6487 0.0000 0.0000 /l
1.1267 0.0000 0.0000 /a
0.9560 0.0000 0.0000 /s
5 print_glyphs
26.4682 -10.9104 moveto /TeXGyrePagella-Regular 3.90625000 output-scale div selectfont
1.2292 0.0000 0.0000 /o
0.9560 0.0000 0.0000 /s
2 print_glyphs
26.9687 -5.9292 moveto magfontemmentaler-18mDWo /noteheads.s2 glyphshow 
26.9687 -4.4292 moveto magfontemmentaler-18mDWo /noteheads.s2 glyphshow 
26.9687 -22.7446 moveto magfontemmentaler-18mDWo /noteheads.s2 glyphshow 
22.4074 -20.7446 moveto 0.0500 2.7570 -0.0250 -2.9600 0.0800 draw_round_box
23.4615 -20.7446 moveto 0.0500 2.2570 -0.0250 2.2030 0.0800 draw_round_box
22.4074 -3.4292 moveto 0.0500 2.0670 -0.0250 -4.7700 0.0800 draw_round_box
27.0987 -25.7046 moveto magfontemmentaler-18mDWo /flags.d3 glyphshow 
27.0337 -20.7446 moveto 0.0500 2.7570 -0.0250 -4.9600 0.0800 draw_round_box
28.1528 -15.2846 moveto magfontemmentaler-18mDWo /flags.u3 glyphshow 
28.0878 -20.7446 moveto 0.0500 2.7570 -0.0250 2.7030 0.0800 draw_round_box
27.0987 -8.8892 moveto magfontemmentaler-18mDWo /flags.d3 glyphshow 
27.0337 -3.4292 moveto 0.0500 2.7570 -0.0250 -5.4600 0.0800 draw_round_box
0.0000 -33.9445 moveto 67.2238 0.0000 0.0500 0.0000 0.1000 draw_line
0.0000 -32.9445 moveto 67.2238 0.0000 0.0500 0.0000 0.1000 draw_line
0.0000 -31.9445 moveto 67.2238 0.0000 0.0500 0.0000 0.1000 draw_line
0.0000 -30.9445 moveto 67.2238 0.0000 0.0500 0.0000 0.1000 draw_line
0.0000 -29.9445 moveto 67.2238 0.0000 0.0500 0.0000 0.1000 draw_line
28.7210 -31.9445 moveto 0.1900 4.0000 0.0000 -2.0000 0.0000 draw_round_box
67.1338 -51.7729 moveto 0.1900 4.0000 0.0000 -2.0000 0.0000 draw_round_box
47.1105 -51.7729 moveto 0.1900 4.0000 0.0000 -2.0000 0.0000 draw_round_box
67.1338 -31.9445 moveto 0.1900 4.0000 0.0000 -2.0000 0.0000 draw_round_box
47.1105 -31.9445 moveto 0.1900 4.0000 0.0000 -2.0000 0.0000 draw_round_box
28.7210 -51.7729 moveto 0.1900 4.0000 0.0000 -2.0000 0.0000 draw_round_box
0.0000 -53.7729 moveto 67.2238 0.0000 0.0500 0.0000 0.1000 draw_line
0.0000 -52.7729 moveto 67.2238 0.0000 0.0500 0.0000 0.1000 draw_line
0.0000 -51.7729 moveto 67.2238 0.0000 0.0500 0.0000 0.1000 draw_line
0.0000 -50.7729 moveto 67.2238 0.0000 0.0500 0.0000 0.1000 draw_line
0.0000 -49.7729 moveto 67.2238 0.0000 0.0500 0.0000 0.1000 draw_line
0.0000 -34.9445 moveto 1.5761 0.0000 7.5940 0.0000 0.2000 draw_round_box
0.0000 -34.9445 moveto 1.5761 0.0000 11.9378 0.0000 0.2000 draw_round_box
0.0000 -34.9445 moveto 1.5761 0.0000 16.5035 0.0000 0.2000 draw_round_box
0.0000 -34.9445 moveto 1.5761 0.0000 20.8046 0.0000 0.2000 draw_round_box
0.0000 -34.9445 moveto 1.5761 0.0000 24.6377 0.0000 0.2000 draw_round_box
0.0000 -35.9445 moveto 1.5761 0.0000 24.6377 0.0000 0.2000 draw_round_box
48.5064 -31.9445 moveto 0.0500 2.2570 -0.0250 -4.9600 0.0800 draw_round_box
48.5064 -51.7729 moveto 0.0500 3.2570 -0.0250 -1.9600 0.0800 draw_round_box
49.5604 -51.7729 moveto 0.0500 2.5903 -0.0250 1.7030 0.0800 draw_round_box
41.1918 -51.7729 moveto magfontemmentaler-18mDWo /noteheads.s2 glyphshow 
57.1076 -53.7729 moveto magfontemmentaler-18mDWo /rests.2 glyphshow 
57.1076 -49.7729 moveto magfontemmentaler-18mDWo /rests.2 glyphshow 
57.1076 -33.9445 moveto magfontemmentaler-18mDWo /rests.2 glyphshow 
57.1076 -29.9445 moveto magfontemmentaler-18mDWo /rests.2 glyphshow 
53.3211 -51.7729 moveto 0.0500 3.2570 -0.0250 -1.9600 0.0800 draw_round_box
54.3751 -51.7729 moveto 0.0500 2.5903 -0.0250 1.7030 0.0800 draw_round_box
53.3211 -31.9445 moveto 0.0500 2.2570 -0.0250 -4.9600 0.0800 draw_round_box
54.3751 -31.9445 moveto 0.0500 3.0903 -0.0250 0.2030 0.0800 draw_round_box
53.2561 -50.2729 moveto magfontemmentaler-18mDWo /noteheads.s2 glyphshow 
53.2561 -50.2729 moveto magfontemmentaler-18mDWo /noteheads.s2 glyphshow 
51.3044 -44.5583 moveto /TeXGyrePagella-Regular 3.90625000 output-scale div selectfont
0.5463 0.0000 0.0000 /comma
0.7170 0.0000 0.0000 /t
1.2974 0.0000 0.0000 /h
1.2292 0.0000 0.0000 /g
0.6487 0.0000 0.0000 /i
0.6487 0.0000 0.0000 /l
6 print_glyphs
51.7483 -41.7583 moveto /TeXGyrePagella-Regular 3.90625000 output-scale div selectfont
0.5463 0.0000 0.0000 /comma
1.9462 0.0000 0.0000 /m
1.0584 0.0000 0.0000 /e
0.6487 0.0000 0.0000 /l
4 print_glyphs
53.2561 -34.4445 moveto magfontemmentaler-18mDWo /noteheads.s2 glyphshow 
53.2561 -31.9445 moveto magfontemmentaler-18mDWo /noteheads.s2 glyphshow 
45.7028 -31.9445 moveto 0.0500 2.4435 -0.0250 -0.2970 0.0800 draw_round_box
44.5838 -51.7729 moveto magfontemmentaler-18mDWo /noteheads.s2 glyphshow 
44.5838 -49.7729 moveto magfontemmentaler-18mDWo /noteheads.s2 glyphshow 
44.2881 -41.7583 moveto /TeXGyrePagella-Regular 3.90625000 output-scale div selectfont
1.0584 0.0000 0.0000 /e
0.7170 0.0000 0.0000 /t
2 print_glyphs
44.5838 -34.4445 moveto magfontemmentaler-18mDWo /noteheads.s2 glyphshow 
44.5838 -32.4445 moveto magfontemmentaler-18mDWo /noteheads.s2 glyphshow 
41.2568 -51.7729 moveto 0.0500 2.7570 -0.0250 -2.9600 0.0800 draw_round_box
42.3108 -51.7729 moveto 0.0500 2.2570 -0.0250 2.2030 0.0800 draw_round_box
41.2568 -31.9445 moveto 0.0500 2.0670 -0.0250 -4.7700 0.0800 draw_round_box
42.3108 -31.9445 moveto 0.0500 2.7605 -0.0250 -0.7970 0.0800 draw_round_box
8.8441 -28.5445 moveto 0.0000 -0.7000 9.2396 0.0000 0.1600 draw_line
8.8441 -28.5445 moveto -3.7271 0.0000 9.2396 0.0000 0.1600 draw_line
8.8441 -28.5445 moveto 0.0000 -0.7000 -0.2000 0.0000 0.1600 draw_line
8.8441 -28.5445 moveto 3.9271 0.0000 -0.2000 0.0000 0.1600 draw_line
49.5604 -31.9445 moveto 0.0500 3.0903 -0.0250 0.2030 0.0800 draw_round_box
48.4414 -50.2729 moveto magfontemmentaler-18mDWo /noteheads.s2 glyphshow 
48.4414 -50.2729 moveto magfontemmentaler-18mDWo /noteheads.s2 glyphshow 
47.4799 -44.5583 moveto /TeXGyrePagella-Regular 3.90625000 output-scale div selectfont
1.0584 0.0000 0.0000 /e
1.2974 0.0000 0.0000 /h
0.7512 0.0000 0.0000 /t
3 print_glyphs
47.0872 -41.7583 moveto /TeXGyrePagella-Regular 3.90625000 output-scale div selectfont
0.7170 0.0000 0.0000 /t
1.0584 0.0000 0.0000 /ecaron
1.1609 0.0000 0.0000 /v
0.9560 0.0000 0.0000 /s
4 print_glyphs
48.4414 -34.4445 moveto magfontemmentaler-18mDWo /noteheads.s2 glyphshow 
48.4414 -31.9445 moveto magfontemmentaler-18mDWo /noteheads.s2 glyphshow 
44.6488 -51.7729 moveto 0.0500 2.7570 -0.0250 -2.9600 0.0800 draw_round_box
45.7028 -51.7729 moveto 0.0500 2.2570 -0.0250 2.2030 0.0800 draw_round_box
44.6488 -31.9445 moveto 0.0500 2.0670 -0.0250 -4.7700 0.0800 draw_round_box
61.6842 -28.9445 moveto true 4.0966 0.0100 4.0966 -0.3900 0.0400 -0.2000 0.0400 0.2000 3 0.0800 draw_polygon
60.6301 -36.7545 moveto true 4.0966 0.2000 4.0966 -0.2000 0.0400 -0.2000 0.0400 0.2000 3 0.0800 draw_polygon
61.6842 -47.9629 moveto true 4.0966 0.2000 4.0966 -0.2000 0.0400 -0.2000 0.0400 0.2000 3 0.0800 draw_polygon
60.6301 -53.5829 moveto true 4.0966 0.2000 4.0966 -0.2000 0.0400 -0.2000 0.0400 0.2000 3 0.0800 draw_polygon
64.7017 -51.7729 moveto 0.0500 3.0670 -0.0250 -1.7700 0.0800 draw_round_box
12.9712 -29.0908 moveto /TeXGyrePagella-Italic 2.76074219 output-scale div selectfont
0.7853 0.0000 0.0000 /three
1 print_glyphs
7.7900 -39.0445 moveto 0.0000 0.7000 9.2396 0.0000 0.1600 draw_line
7.7900 -39.0445 moveto -3.7271 0.0000 9.2396 0.0000 0.1600 draw_line
7.7900 -39.0445 moveto 0.0000 0.7000 -0.2000 0.0000 0.1600 draw_line
7.7900 -39.0445 moveto 3.9271 0.0000 -0.2000 0.0000 0.1600 draw_line
11.9171 -39.5908 moveto /TeXGyrePagella-Italic 2.76074219 output-scale div selectfont
0.7853 0.0000 0.0000 /three
1 print_glyphs
10.2410 -41.7583 moveto 0.5800 0.0500 0.0400 0.4600 0.0800 draw_round_box
8.8441 -46.6729 moveto 0.0000 -0.7000 9.2396 0.0000 0.1600 draw_line
8.8441 -46.6729 moveto -3.7271 0.0000 9.2396 0.0000 0.1600 draw_line
8.8441 -46.6729 moveto 0.0000 -0.7000 -0.2000 0.0000 0.1600 draw_line
8.8441 -46.6729 moveto 3.9271 0.0000 -0.2000 0.0000 0.1600 draw_line
12.9712 -47.2192 moveto /TeXGyrePagella-Italic 2.76074219 output-scale div selectfont
0.7853 0.0000 0.0000 /three
1 print_glyphs
7.7900 -56.8729 moveto 0.0000 0.7000 9.2396 0.0000 0.1600 draw_line
7.7900 -56.8729 moveto -3.7271 0.0000 9.2396 0.0000 0.1600 draw_line
7.7900 -56.8729 moveto 0.0000 0.7000 -0.2000 0.0000 0.1600 draw_line
7.7900 -56.8729 moveto 3.9271 0.0000 -0.2000 0.0000 0.1600 draw_line
11.9171 -57.4192 moveto /TeXGyrePagella-Italic 2.76074219 output-scale div selectfont
0.7853 0.0000 0.0000 /three
1 print_glyphs
14.9689 -41.7583 moveto 0.5800 0.0500 0.0400 0.4600 0.0800 draw_round_box
22.9068 -41.7583 moveto 0.2200 0.0500 0.0400 0.4600 0.0800 draw_round_box
65.7558 -51.7729 moveto 0.0500 2.0670 -0.0250 1.7030 0.0800 draw_round_box
32.0088 -41.7583 moveto 0.5800 0.0500 0.0400 0.4600 0.0800 draw_round_box
42.2458 -29.9445 moveto true 3.4820 0.3900 3.4820 -0.0100 0.0400 -0.2000 0.0400 0.2000 3 0.0800 draw_polygon
41.1918 -36.7545 moveto true 3.4820 0.2000 3.4820 -0.2000 0.0400 -0.2000 0.0400 0.2000 3 0.0800 draw_polygon
51.0496 -41.7583 moveto 0.5487 0.0500 0.0400 0.4600 0.0800 draw_round_box
42.2458 -47.2729 moveto true 3.4820 0.2000 3.4820 -0.2000 0.0400 -0.2000 0.0400 0.2000 3 0.0800 draw_polygon
41.1918 -54.7729 moveto true 3.4820 0.2000 3.4820 -0.2000 0.0400 -0.2000 0.0400 0.2000 3 0.0800 draw_polygon
60.6951 -31.9445 moveto 0.0500 2.0670 -0.0250 -4.7700 0.0800 draw_round_box
61.7492 -31.9445 moveto 0.0500 2.2540 -0.0250 0.7030 0.0800 draw_round_box
60.6301 -50.2729 moveto magfontemmentaler-18mDWo /noteheads.s2 glyphshow 
60.6301 -50.2729 moveto magfontemmentaler-18mDWo /noteheads.s2 glyphshow 
58.9516 -44.5583 moveto /TeXGyrePagella-Regular 3.90625000 output-scale div selectfont
0.7170 0.0000 0.0000 /t
1.2974 0.0000 0.0000 /h
1.2292 0.0000 0.0000 /g
0.6487 0.0000 0.0000 /i
0.6487 0.0000 0.0000 /l
5 print_glyphs
59.2760 -41.7583 moveto /TeXGyrePagella-Regular 3.90625000 output-scale div selectfont
0.7170 0.0000 0.0000 /t
1.0584 0.0000 0.0000 /ecaron
1.1609 0.0000 0.0000 /v
0.9560 0.0000 0.0000 /s
4 print_glyphs
60.6301 -34.4445 moveto magfontemmentaler-18mDWo /noteheads.s2 glyphshow 
60.6301 -31.4445 moveto magfontemmentaler-18mDWo /noteheads.s2 glyphshow 
63.4021 -41.7583 moveto /TeXGyrePagella-Regular 3.90625000 output-scale div selectfont
1.9462 0.0000 0.0000 /m
1.0584 0.0000 0.0000 /e
0.6487 0.0000 0.0000 /l
3 print_glyphs
64.7017 -31.9445 moveto 0.0500 2.0670 -0.0250 -4.7700 0.0800 draw_round_box
65.7558 -31.9445 moveto 0.0500 2.5700 -0.0250 0.2030 0.0800 draw_round_box
64.6367 -50.2729 moveto magfontemmentaler-18mDWo /noteheads.s2 glyphshow 
64.6367 -50.2729 moveto magfontemmentaler-18mDWo /noteheads.s2 glyphshow 
64.2386 -44.5583 moveto /TeXGyrePagella-Regular 3.90625000 output-scale div selectfont
0.7512 0.0000 0.0000 /f
1.2292 0.0000 0.0000 /o
2 print_glyphs
64.6367 -34.4445 moveto magfontemmentaler-18mDWo /noteheads.s2 glyphshow 
64.6367 -31.9445 moveto magfontemmentaler-18mDWo /noteheads.s2 glyphshow 
60.6951 -51.7729 moveto 0.0500 3.0670 -0.0250 -1.7700 0.0800 draw_round_box
61.7492 -51.7729 moveto 0.0500 2.0670 -0.0250 1.7030 0.0800 draw_round_box
16.6996 -35.4445 moveto magfontemmentaler-18mDWo /noteheads.s2 glyphshow 
17.8186 -51.7729 moveto 0.0500 2.7570 -0.0250 1.2030 0.0800 draw_round_box
16.7646 -31.9445 moveto 0.0500 2.2570 -0.0250 -5.9600 0.0800 draw_round_box
17.8186 -31.9445 moveto 0.0500 3.2570 -0.0250 -2.2970 0.0800 draw_round_box
16.6996 -52.7729 moveto magfontemmentaler-18mDWo /noteheads.s2 glyphshow 
16.6996 -50.7729 moveto magfontemmentaler-18mDWo /noteheads.s2 glyphshow 
14.9186 -44.5583 moveto /TeXGyrePagella-Regular 3.90625000 output-scale div selectfont
0.9560 0.0000 0.0000 /s
1.1267 0.0000 0.0000 /a
1.0584 0.0000 0.0000 /e
0.8877 0.0000 0.0000 /r
0.7170 0.0000 0.0000 /t
5 print_glyphs
16.4039 -41.7583 moveto /TeXGyrePagella-Regular 3.90625000 output-scale div selectfont
1.0584 0.0000 0.0000 /e
0.7170 0.0000 0.0000 /t
2 print_glyphs
16.6996 -34.4445 moveto magfontemmentaler-18mDWo /noteheads.s2 glyphshow 
12.1988 -51.7729 moveto 0.0500 2.7570 -0.0250 -3.9600 0.0800 draw_round_box
13.2529 -51.7729 moveto 0.0500 2.7570 -0.0250 1.2030 0.0800 draw_round_box
41.1918 -49.7729 moveto magfontemmentaler-18mDWo /noteheads.s2 glyphshow 
22.1197 -51.7729 moveto 0.0500 2.5903 -0.0250 1.7030 0.0800 draw_round_box
21.0657 -31.9445 moveto 0.0500 2.2570 -0.0250 -5.9600 0.0800 draw_round_box
12.1988 -31.9445 moveto 0.0500 2.2570 -0.0250 -5.9600 0.0800 draw_round_box
22.1197 -31.9445 moveto 0.0500 3.2570 -0.0250 -1.7970 0.0800 draw_round_box
21.0007 -51.2729 moveto magfontemmentaler-18mDWo /noteheads.s2 glyphshow 
21.0007 -50.2729 moveto magfontemmentaler-18mDWo /noteheads.s2 glyphshow 
19.9538 -44.5583 moveto /TeXGyrePagella-Regular 3.90625000 output-scale div selectfont
1.0584 0.0000 0.0000 /e
0.8877 0.0000 0.0000 /r
1.3316 0.0000 0.0000 /u
3 print_glyphs
20.3123 -41.7583 moveto /TeXGyrePagella-Regular 3.90625000 output-scale div selectfont
1.2292 0.0000 0.0000 /o
1.3316 0.0000 0.0000 /p
2 print_glyphs
21.0007 -35.4445 moveto magfontemmentaler-18mDWo /noteheads.s2 glyphshow 
21.0007 -33.9445 moveto magfontemmentaler-18mDWo /noteheads.s2 glyphshow 
16.7646 -51.7729 moveto 0.0500 2.7570 -0.0250 -3.9600 0.0800 draw_round_box
0.8000 -32.9445 moveto magfontemmentaler-18mDWo /clefs.G glyphshow 
6.2310 -44.5583 moveto /TeXGyrePagella-Regular 3.90625000 output-scale div selectfont
1.2292 0.0000 0.0000 /k
1.0584 0.0000 0.0000 /e
1.0584 0.0000 0.0000 /e
0.9560 0.0000 0.0000 /s
4 print_glyphs
6.8797 -41.7583 moveto /TeXGyrePagella-Regular 3.90625000 output-scale div selectfont
1.0584 0.0000 0.0000 /e
0.6487 0.0000 0.0000 /l
1.2974 0.0000 0.0000 /h
3 print_glyphs
7.7900 -35.4445 moveto magfontemmentaler-18mDWo /noteheads.s2 glyphshow 
7.7900 -34.4445 moveto magfontemmentaler-18mDWo /noteheads.s2 glyphshow 
4.3000 -50.7729 moveto magfontemmentaler-18mDWo /accidentals.sharp glyphshow 
0.8000 -50.7729 moveto magfontemmentaler-18mDWo /clefs.F glyphshow 
4.3000 -29.9445 moveto magfontemmentaler-18mDWo /accidentals.sharp glyphshow 
7.7900 -50.7729 moveto magfontemmentaler-18mDWo /noteheads.s2 glyphshow 
-0.7853 -28.8603 moveto /TeXGyrePagella-Regular 2.76074219 output-scale div selectfont
0.7853 0.0000 0.0000 /three
1 print_glyphs
-0.0600 -41.8587 moveto 0.0600 23.8284 0.0500 -11.9142 0.1000 draw_round_box
7.8550 -51.7729 moveto 0.0500 2.7570 -0.0250 -3.9600 0.0800 draw_round_box
13.2529 -31.9445 moveto 0.0500 3.2570 -0.0250 -2.2970 0.0800 draw_round_box
12.1338 -52.7729 moveto magfontemmentaler-18mDWo /noteheads.s2 glyphshow 
12.1338 -50.7729 moveto magfontemmentaler-18mDWo /noteheads.s2 glyphshow 
11.1723 -44.5583 moveto /TeXGyrePagella-Regular 3.90625000 output-scale div selectfont
1.0584 0.0000 0.0000 /e
1.2974 0.0000 0.0000 /h
0.7512 0.0000 0.0000 /t
3 print_glyphs
11.2577 -41.7583 moveto /TeXGyrePagella-Regular 3.90625000 output-scale div selectfont
0.5121 0.0000 0.0000 /j
1.0584 0.0000 0.0000 /e
1.3657 0.0000 0.0000 /d
3 print_glyphs
12.1338 -35.4445 moveto magfontemmentaler-18mDWo /noteheads.s2 glyphshow 
12.1338 -34.4445 moveto magfontemmentaler-18mDWo /noteheads.s2 glyphshow 
21.0657 -51.7729 moveto 0.0500 3.2570 -0.0250 -2.9600 0.0800 draw_round_box
8.9091 -51.7729 moveto 0.0500 2.7570 -0.0250 1.2030 0.0800 draw_round_box
7.8550 -31.9445 moveto 0.0500 2.2570 -0.0250 -5.9600 0.0800 draw_round_box
8.9091 -31.9445 moveto 0.0500 3.2570 -0.0250 -2.2970 0.0800 draw_round_box
7.7900 -52.7729 moveto magfontemmentaler-18mDWo /noteheads.s2 glyphshow 
33.8177 -51.7729 moveto magfontemmentaler-18mDWo /noteheads.s2 glyphshow 
33.8827 -51.7729 moveto 0.0500 3.0903 -0.0250 -3.2933 0.0800 draw_round_box
34.9368 -51.7729 moveto 0.0500 2.4237 -0.0250 2.2030 0.0800 draw_round_box
33.8827 -31.9445 moveto 0.0500 2.2570 -0.0250 -4.9600 0.0800 draw_round_box
34.9368 -31.9445 moveto 0.0500 3.2570 -0.0250 -1.2970 0.0800 draw_round_box
33.8177 -49.7729 moveto magfontemmentaler-18mDWo /noteheads.s2 glyphshow 
33.1635 -41.7583 moveto /TeXGyrePagella-Regular 3.90625000 output-scale div selectfont
0.5463 0.0000 0.0000 /period
1.0243 0.0000 0.0000 /y
0.9219 0.0000 0.0000 /r
3 print_glyphs
33.8177 -34.4445 moveto magfontemmentaler-18mDWo /noteheads.s2 glyphshow 
33.8177 -33.4445 moveto magfontemmentaler-18mDWo /noteheads.s2 glyphshow 
41.1918 -44.5583 moveto /TeXGyrePagella-Regular 3.90625000 output-scale div selectfont
0.5463 0.0000 0.0000 /space
1.0584 0.0000 0.0000 /e
1.3657 0.0000 0.0000 /B
3 print_glyphs
39.5133 -41.7583 moveto /TeXGyrePagella-Regular 3.90625000 output-scale div selectfont
0.4780 0.0000 0.0000 /quotesingle
1.3657 0.0000 0.0000 /d
1.3316 0.0000 0.0000 /u
1.3657 0.0000 0.0000 /B
4 print_glyphs
41.1918 -34.4445 moveto magfontemmentaler-18mDWo /noteheads.s2 glyphshow 
41.1918 -32.9445 moveto magfontemmentaler-18mDWo /noteheads.s2 glyphshow 
37.6693 -53.7729 moveto magfontemmentaler-18mDWo /rests.2 glyphshow 
37.6693 -49.7729 moveto magfontemmentaler-18mDWo /rests.2 glyphshow 
37.6693 -33.9445 moveto magfontemmentaler-18mDWo /rests.2 glyphshow 
37.6693 -29.9445 moveto magfontemmentaler-18mDWo /rests.2 glyphshow 
29.9661 -51.7729 moveto magfontemmentaler-18mDWo /noteheads.s2 glyphshow 
29.9661 -49.7729 moveto magfontemmentaler-18mDWo /noteheads.s2 glyphshow 
29.9661 -44.5583 moveto /TeXGyrePagella-Regular 3.90625000 output-scale div selectfont
0.5463 0.0000 0.0000 /period
1.2974 0.0000 0.0000 /h
0.7512 0.0000 0.0000 /t
0.6487 0.0000 0.0000 /i
1.1267 0.0000 0.0000 /a
0.7170 0.0000 0.0000 /f
6 print_glyphs
29.6021 -41.7583 moveto /TeXGyrePagella-Regular 3.90625000 output-scale div selectfont
0.6487 0.0000 0.0000 /iacute
1.2633 0.0000 0.0000 /v
2 print_glyphs
29.9661 -34.4445 moveto magfontemmentaler-18mDWo /noteheads.s2 glyphshow 
24.8337 -49.7729 moveto magfontemmentaler-18mDWo /noteheads.s2 glyphshow 
29.9661 -33.4445 moveto magfontemmentaler-18mDWo /noteheads.s2 glyphshow 
24.8337 -52.2729 moveto magfontemmentaler-18mDWo /noteheads.s2 glyphshow 
25.9528 -31.9445 moveto 0.0500 3.2570 -0.0250 -1.7970 0.0800 draw_round_box
24.8987 -51.7729 moveto 0.0500 2.9237 -0.0250 -3.6267 0.0800 draw_round_box
25.9528 -51.7729 moveto 0.0500 2.4237 -0.0250 2.2030 0.0800 draw_round_box
24.8987 -31.9445 moveto 0.0500 2.2570 -0.0250 -6.4600 0.0800 draw_round_box
31.0852 -31.9445 moveto 0.0500 3.2570 -0.0250 -1.2970 0.0800 draw_round_box
30.0311 -51.7729 moveto 0.0500 3.0903 -0.0250 -3.2933 0.0800 draw_round_box
31.0852 -51.7729 moveto 0.0500 2.4237 -0.0250 2.2030 0.0800 draw_round_box
24.8337 -33.9445 moveto magfontemmentaler-18mDWo /noteheads.s2 glyphshow 
24.8337 -35.9445 moveto magfontemmentaler-18mDWo /noteheads.s2 glyphshow 
23.2406 -41.7583 moveto /TeXGyrePagella-Regular 3.90625000 output-scale div selectfont
1.3657 0.0000 0.0000 /d
1.1267 0.0000 0.0000 /a
0.6487 0.0000 0.0000 /l
1.2292 0.0000 0.0000 /k
4 print_glyphs
24.4356 -44.5583 moveto /TeXGyrePagella-Regular 3.90625000 output-scale div selectfont
0.7512 0.0000 0.0000 /f
1.2292 0.0000 0.0000 /o
2 print_glyphs
30.0311 -31.9445 moveto 0.0500 2.2570 -0.0250 -4.9600 0.0800 draw_round_box
0.0000 -65.6300 moveto 67.2238 0.0000 0.0500 0.0000 0.1000 draw_line
0.0000 -64.6300 moveto 67.2238 0.0000 0.0500 0.0000 0.1000 draw_line
0.0000 -63.6300 moveto 67.2238 0.0000 0.0500 0.0000 0.1000 draw_line
0.0000 -62.6300 moveto 67.2238 0.0000 0.0500 0.0000 0.1000 draw_line
0.0000 -61.6300 moveto 67.2238 0.0000 0.0500 0.0000 0.1000 draw_line
27.0830 -81.3098 moveto 0.1900 4.0000 0.0000 -2.0000 0.0000 draw_round_box
27.0830 -63.6300 moveto 0.1900 4.0000 0.0000 -2.0000 0.0000 draw_round_box
49.9393 -63.6300 moveto 0.1900 4.0000 0.0000 -2.0000 0.0000 draw_round_box
49.9393 -81.3098 moveto 0.1900 4.0000 0.0000 -2.0000 0.0000 draw_round_box
66.7238 -63.6300 moveto 0.6000 4.0000 0.0000 -2.0000 0.0000 draw_round_box
66.2338 -63.6300 moveto 0.1900 4.0000 0.0000 -2.0000 0.0000 draw_round_box
66.7238 -81.3098 moveto 0.6000 4.0000 0.0000 -2.0000 0.0000 draw_round_box
66.2338 -81.3098 moveto 0.1900 4.0000 0.0000 -2.0000 0.0000 draw_round_box
0.0000 -83.3098 moveto 67.2238 0.0000 0.0500 0.0000 0.1000 draw_line
0.0000 -82.3098 moveto 67.2238 0.0000 0.0500 0.0000 0.1000 draw_line
0.0000 -81.3098 moveto 67.2238 0.0000 0.0500 0.0000 0.1000 draw_line
0.0000 -80.3098 moveto 67.2238 0.0000 0.0500 0.0000 0.1000 draw_line
0.0000 -79.3098 moveto 67.2238 0.0000 0.0500 0.0000 0.1000 draw_line
0.0000 -66.6300 moveto 1.5761 0.0000 14.3671 0.0000 0.2000 draw_round_box
0.0000 -78.3098 moveto 1.5761 0.0000 39.2836 0.0000 0.2000 draw_round_box
0.0000 -78.3098 moveto 1.5761 0.0000 44.5203 0.0000 0.2000 draw_round_box
44.7163 -82.8098 moveto magfontemmentaler-18mDWo /noteheads.s2 glyphshow 
44.7813 -63.6300 moveto 0.0500 2.4237 -0.0250 -4.6267 0.0800 draw_round_box
45.8354 -63.6300 moveto 0.0500 3.2570 -0.0250 -0.7970 0.0800 draw_round_box
44.7163 -78.3098 moveto magfontemmentaler-18mDWo /noteheads.s2 glyphshow 
44.3352 -74.2756 moveto /TeXGyrePagella-Regular 3.90625000 output-scale div selectfont
1.2974 0.0000 0.0000 /n
0.6487 0.0000 0.0000 /i
2 print_glyphs
43.4134 -71.4756 moveto /TeXGyrePagella-Regular 3.90625000 output-scale div selectfont
1.2292 0.0000 0.0000 /y
1.8437 0.0000 0.0000 /m
0.7170 0.0000 0.0000 /t
3 print_glyphs
44.7163 -65.6300 moveto magfontemmentaler-18mDWo /noteheads.s2 glyphshow 
44.7163 -64.6300 moveto magfontemmentaler-18mDWo /noteheads.s2 glyphshow 
39.5446 -81.3098 moveto 0.0500 2.9237 -0.0250 -3.6267 0.0800 draw_round_box
52.5523 -63.6300 moveto 0.0500 3.2570 -0.0250 -0.2970 0.0800 draw_round_box
51.4332 -81.3098 moveto magfontemmentaler-18mDWo /noteheads.s2 glyphshow 
51.4332 -79.3098 moveto magfontemmentaler-18mDWo /noteheads.s2 glyphshow 
50.4717 -74.2756 moveto /TeXGyrePagella-Regular 3.90625000 output-scale div selectfont
1.0584 0.0000 0.0000 /e
1.2974 0.0000 0.0000 /h
0.7512 0.0000 0.0000 /t
3 print_glyphs
50.5912 -71.4756 moveto /TeXGyrePagella-Regular 3.90625000 output-scale div selectfont
0.6487 0.0000 0.0000 /iacute
1.2633 0.0000 0.0000 /v
0.9560 0.0000 0.0000 /s
3 print_glyphs
51.4332 -65.1300 moveto magfontemmentaler-18mDWo /noteheads.s2 glyphshow 
51.4332 -64.1300 moveto magfontemmentaler-18mDWo /noteheads.s2 glyphshow 
44.7813 -81.3098 moveto 0.0500 2.5903 -0.0250 -4.2933 0.0800 draw_round_box
45.8354 -81.3098 moveto 0.0500 2.2570 -0.0250 3.2030 0.0800 draw_round_box
39.4796 -65.6300 moveto magfontemmentaler-18mDWo /noteheads.s2 glyphshow 
39.4796 -65.6300 moveto magfontemmentaler-18mDWo /noteheads.s2 glyphshow 
33.1979 -81.3098 moveto 0.0500 2.9237 -0.0250 -3.6267 0.0800 draw_round_box
34.7184 -81.8098 moveto magfontemmentaler-18mDWo /dots.dot glyphshow 
38.7742 -71.4756 moveto /TeXGyrePagella-Regular 3.90625000 output-scale div selectfont
1.2292 0.0000 0.0000 /o
1.3657 0.0000 0.0000 /d
2 print_glyphs
34.2520 -81.3098 moveto 0.0500 2.5903 -0.0250 1.7030 0.0800 draw_round_box
34.7184 -79.8098 moveto magfontemmentaler-18mDWo /dots.dot glyphshow 
39.5446 -63.6300 moveto 0.0500 2.4237 -0.0250 -4.6267 0.0800 draw_round_box
51.4982 -63.6300 moveto 0.0500 2.5903 -0.0250 -4.2933 0.0800 draw_round_box
40.5987 -81.3098 moveto 0.0500 2.2570 -0.0250 3.2030 0.0800 draw_round_box
11.6349 -71.4756 moveto 0.5800 0.0500 0.0400 0.4600 0.0800 draw_round_box
40.5987 -63.6300 moveto 0.0500 3.2570 -0.0250 -1.7970 0.0800 draw_round_box
39.4796 -81.8098 moveto magfontemmentaler-18mDWo /noteheads.s2 glyphshow 
39.4796 -78.3098 moveto magfontemmentaler-18mDWo /noteheads.s2 glyphshow 
38.4327 -74.2756 moveto /TeXGyrePagella-Regular 3.90625000 output-scale div selectfont
0.7170 0.0000 0.0000 /t
1.3316 0.0000 0.0000 /u
1.2292 0.0000 0.0000 /o
3 print_glyphs
60.1492 -81.3098 moveto 0.0500 3.0903 -0.0250 -3.2933 0.0800 draw_round_box
61.2033 -81.3098 moveto 0.0500 2.4237 -0.0250 2.2030 0.0800 draw_round_box
60.1492 -63.6300 moveto 0.0500 2.5903 -0.0250 -4.2933 0.0800 draw_round_box
31.3673 -71.4756 moveto 0.5800 0.0500 0.0400 0.4600 0.0800 draw_round_box
31.3587 -74.2756 moveto 0.5800 0.0500 0.0400 0.4600 0.0800 draw_round_box
56.2598 -71.4756 moveto 0.5800 0.0500 0.0400 0.4600 0.0800 draw_round_box
51.4982 -81.3098 moveto 0.0500 3.0903 -0.0250 -3.2933 0.0800 draw_round_box
52.5523 -81.3098 moveto 0.0500 2.4237 -0.0250 2.2030 0.0800 draw_round_box
61.2033 -63.6300 moveto 0.0500 3.2570 -0.0250 -0.2970 0.0800 draw_round_box
60.0842 -81.3098 moveto magfontemmentaler-18mDWo /noteheads.s2 glyphshow 
60.0842 -79.3098 moveto magfontemmentaler-18mDWo /noteheads.s2 glyphshow 
55.6231 -74.2756 moveto /TeXGyrePagella-Regular 3.90625000 output-scale div selectfont
0.7512 0.0000 0.0000 /parenright
0.5463 0.0000 0.0000 /period
0.9560 0.0000 0.0000 /s
0.9560 0.0000 0.0000 /s
1.0584 0.0000 0.0000 /e
1.2974 0.0000 0.0000 /n
1.2292 0.0000 0.0000 /k
0.8194 0.0000 0.0000 /r
1.1267 0.0000 0.0000 /a
1.3657 0.0000 0.0000 /d
10 print_glyphs
59.7203 -71.4756 moveto /TeXGyrePagella-Regular 3.90625000 output-scale div selectfont
0.5463 0.0000 0.0000 /period
0.6487 0.0000 0.0000 /iacute
0.7170 0.0000 0.0000 /t
3 print_glyphs
60.0842 -65.1300 moveto magfontemmentaler-18mDWo /noteheads.s2 glyphshow 
60.0842 -64.1300 moveto magfontemmentaler-18mDWo /noteheads.s2 glyphshow 
14.5632 -64.6300 moveto magfontemmentaler-18mDWo /noteheads.s2 glyphshow 
15.6822 -63.6300 moveto 0.0500 3.2570 -0.0250 -0.7970 0.0800 draw_round_box
14.5632 -80.8098 moveto magfontemmentaler-18mDWo /noteheads.s2 glyphshow 
14.5632 -79.8098 moveto magfontemmentaler-18mDWo /noteheads.s2 glyphshow 
11.9799 -74.2756 moveto /TeXGyrePagella-Regular 3.90625000 output-scale div selectfont
0.5463 0.0000 0.0000 /comma
1.3657 0.0000 0.0000 /d
0.6487 0.0000 0.0000 /l
0.8194 0.0000 0.0000 /r
1.2292 0.0000 0.0000 /o
1.7413 0.0000 0.0000 /w
6 print_glyphs
13.9602 -71.4756 moveto /TeXGyrePagella-Regular 3.90625000 output-scale div selectfont
0.5463 0.0000 0.0000 /comma
1.1267 0.0000 0.0000 /a
0.7170 0.0000 0.0000 /t
3 print_glyphs
14.5632 -67.1300 moveto magfontemmentaler-18mDWo /noteheads.s2 glyphshow 
14.6282 -63.6300 moveto 0.0500 2.2570 -0.0250 -5.9600 0.0800 draw_round_box
7.8550 -81.3098 moveto 0.0500 3.0903 -0.0250 -3.2933 0.0800 draw_round_box
8.9091 -81.3098 moveto 0.0500 2.7570 -0.0250 1.2030 0.0800 draw_round_box
14.6282 -81.3098 moveto 0.0500 3.2570 -0.0250 -2.9600 0.0800 draw_round_box
19.7415 -83.3098 moveto magfontemmentaler-18mDWo /rests.1 glyphshow 
19.7415 -65.6300 moveto magfontemmentaler-18mDWo /rests.1 glyphshow 
19.7415 -61.6300 moveto magfontemmentaler-18mDWo /rests.1 glyphshow 
15.6822 -81.3098 moveto 0.0500 2.5903 -0.0250 1.7030 0.0800 draw_round_box
-0.7853 -60.5459 moveto /TeXGyrePagella-Regular 2.76074219 output-scale div selectfont
0.7853 0.0000 0.0000 /six
1 print_glyphs
4.3000 -80.3098 moveto magfontemmentaler-18mDWo /accidentals.sharp glyphshow 
0.8000 -80.3098 moveto magfontemmentaler-18mDWo /clefs.F glyphshow 
4.3000 -61.6300 moveto magfontemmentaler-18mDWo /accidentals.sharp glyphshow 
0.8000 -64.6300 moveto magfontemmentaler-18mDWo /clefs.G glyphshow 
-0.0600 -72.4699 moveto 0.0600 21.6797 0.0500 -10.8399 0.1000 draw_round_box
7.7900 -80.3098 moveto magfontemmentaler-18mDWo /noteheads.s2 glyphshow 
7.8550 -63.6300 moveto 0.0500 2.2570 -0.0250 -4.9600 0.0800 draw_round_box
8.9091 -63.6300 moveto 0.0500 3.2570 -0.0250 -0.2970 0.0800 draw_round_box
7.7900 -81.3098 moveto magfontemmentaler-18mDWo /noteheads.s2 glyphshow 
19.7415 -79.3098 moveto magfontemmentaler-18mDWo /rests.1 glyphshow 
6.8285 -74.2756 moveto /TeXGyrePagella-Regular 3.90625000 output-scale div selectfont
1.0584 0.0000 0.0000 /e
1.2974 0.0000 0.0000 /h
0.7512 0.0000 0.0000 /t
3 print_glyphs
6.7944 -71.4756 moveto /TeXGyrePagella-Regular 3.90625000 output-scale div selectfont
1.0584 0.0000 0.0000 /ecaron
1.1609 0.0000 0.0000 /v
0.9560 0.0000 0.0000 /s
3 print_glyphs
7.7900 -66.1300 moveto magfontemmentaler-18mDWo /noteheads.s2 glyphshow 
7.7900 -64.1300 moveto magfontemmentaler-18mDWo /noteheads.s2 glyphshow 
28.6783 -85.0198 moveto magfontemmentaler-18mDWo /flags.d3 glyphshow 
28.6133 -81.3098 moveto 0.0500 3.0070 -0.0250 -3.7100 0.0800 draw_round_box
29.7324 -76.8498 moveto magfontemmentaler-18mDWo /flags.u3 glyphshow 
29.6674 -81.3098 moveto 0.0500 2.7570 -0.0250 1.7030 0.0800 draw_round_box
32.1373 -74.2756 moveto /TeXGyrePagella-Regular 3.90625000 output-scale div selectfont
1.2292 0.0000 0.0000 /g
1.2974 0.0000 0.0000 /n
0.6487 0.0000 0.0000 /i
3 print_glyphs
33.1979 -63.6300 moveto 0.0500 2.4237 -0.0250 -4.6267 0.0800 draw_round_box
34.7184 -66.1300 moveto magfontemmentaler-18mDWo /dots.dot glyphshow 
34.2520 -63.6300 moveto 0.0500 3.2570 -0.0250 -0.7970 0.0800 draw_round_box
34.7184 -64.1300 moveto magfontemmentaler-18mDWo /dots.dot glyphshow 
33.1329 -81.8098 moveto magfontemmentaler-18mDWo /noteheads.s2 glyphshow 
33.1329 -79.8098 moveto magfontemmentaler-18mDWo /noteheads.s2 glyphshow 
32.7519 -71.4756 moveto /TeXGyrePagella-Regular 3.90625000 output-scale div selectfont
1.0584 0.0000 0.0000 /eacute
0.8877 0.0000 0.0000 /r
2 print_glyphs
33.1329 -65.6300 moveto magfontemmentaler-18mDWo /noteheads.s2 glyphshow 
33.1329 -64.6300 moveto magfontemmentaler-18mDWo /noteheads.s2 glyphshow 
28.5483 -64.6300 moveto magfontemmentaler-18mDWo /noteheads.s2 glyphshow 
28.5483 -79.8098 moveto magfontemmentaler-18mDWo /noteheads.s2 glyphshow 
29.6674 -63.6300 moveto 0.0500 3.2570 -0.0250 -0.7970 0.0800 draw_round_box
28.5483 -65.6300 moveto magfontemmentaler-18mDWo /noteheads.s2 glyphshow 
29.7324 -61.1700 moveto magfontemmentaler-18mDWo /flags.u3 glyphshow 
28.5483 -81.8098 moveto magfontemmentaler-18mDWo /noteheads.s2 glyphshow 
27.0405 -74.2756 moveto /TeXGyrePagella-Regular 3.90625000 output-scale div selectfont
1.2974 0.0000 0.0000 /n
0.6487 0.0000 0.0000 /i
1.2974 0.0000 0.0000 /h
0.9560 0.0000 0.0000 /s
4 print_glyphs
28.6133 -63.6300 moveto 0.0500 2.7570 -0.0250 -4.9600 0.0800 draw_round_box
27.6380 -71.4756 moveto /TeXGyrePagella-Regular 3.90625000 output-scale div selectfont
1.0584 0.0000 0.0000 /e
0.7170 0.0000 0.0000 /t
1.2292 0.0000 0.0000 /k
3 print_glyphs
28.6783 -68.5900 moveto magfontemmentaler-18mDWo /flags.d3 glyphshow 
stroke grestore
%%Trailer
%%EOF
