%% Generated by lilypond-book
%% Options: [indent=0\mm,line-width=348\pt]
\include "lilypond-book-preamble.ly"


% ****************************************************************
% Start cut-&-pastable-section
% ****************************************************************



\paper {
  indent = 0\mm
  line-width = 348\pt
  % offset the left padding, also add 1mm as lilypond creates cropped
  % images with a little space on the right
  line-width = #(- line-width (* mm  3.000000) (* mm 1))
}

\layout {
  
}





% ****************************************************************
% ly snippet:
% ****************************************************************
\sourcefilename "./wait_for_the_lord/wait.ly"
\sourcefileline 0

%% LilyPond file generated by Denemo version 2.0.8

%%http://www.gnu.org/software/denemo/

\version "2.18.0"

CompactChordSymbols = {}
#(define DenemoTransposeStep 0)
#(define DenemoTransposeAccidental 0)
DenemoGlobalTranspose = \void #0
titledPiece = {}
AutoBarline = {}
AutoEndMovementBarline = \bar "|."
				% The music follows

MvmntIVoiceI = {
  \voiceOne
  \relative c''{
    g2  g4. e8 \AutoBarline
    g2 r4 g
    fis2 fis
    fis2. r4
    g2 g4. g8
    b2 r4 b
    c2 b
    e,2. r4
    }
  \bar ":|."
  }


MvmntIVoiceILyricsVerseI = \lyricmode {
  Wait for the Lord, whose day is near.
  Wait for the Lord: keep watch, take heart!
				      }


MvmntIVoiceII = {
  \voiceTwo
  \relative c'{
    e2 e4. e8
    e2 r4 e4 e2 e dis2. r4
    e2 fis4. fis8
    g2 r4 g
    e2 dis2
    e2.r4
  }
  \bar ":|."}


MvmntIVoiceIII = {
  \voiceThree
  \relative c' {
    b2 b4. b8
    c2 r4 c
    c2 c
    b2. r4
    b2 d4. d8
    d2 r4 g,
    a( g) fis2
    g2. r4
  }\bar ":|."}


MvmntIVoiceIV = {
  \voiceFour
  \relative c {
    e2 e4. e8
    c2 r4 c4
    a2 a
    b2. r4
    e2 d4. d8
    g2 r4 e
    a,2 b
    e2. r4
    }
  \bar ":|."}



MvmntIVoiceIVerseIContext = \context Lyrics = MvmntIVoiceIVerseI \lyricsto VoiceIMvmntI \MvmntIVoiceILyricsVerseI


#(set-global-staff-size 18)
\paper {
  myStaffSize = #18
    #(define fonts
    (make-pango-font-tree "TeX Gyre Pagella"
                          "TeX Gyre Pagella"
     "TeX Gyre Pagella"
     (/ myStaffSize 20)
                           ))
   indent = 0\cm} 

\score { %Start of Movement
  <<
    \new ChoirStaff <<

				%Start of Staff
      \new Staff = "Soprano"  << \set Staff.instrumentName = ""\set Staff.shortInstrumentName = ""
				 \new Voice = "VoiceIMvmntI"  { 
				   \clef treble    \key e \minor    \time 2/2   \MvmntIVoiceI
				 } %End of voice
				 \new Voice = "VoiceIIMvmntI"  { 
				   \MvmntIVoiceII
				 } %End of voice

			       >> %End of Staff

      \new Lyrics = MvmntIVoiceIVerseI

      \MvmntIVoiceIVerseIContext
				%Start of Staff
      \new Staff = "Tenor"  << \set Staff.instrumentName = ""\set Staff.shortInstrumentName = ""
			       \new Voice = "VoiceIIIMvmntI"  { 
				 \clef bass    \key e \minor    \time 2/2   \MvmntIVoiceIII
			       } %End of voice
			       \new Voice = "VoiceIVMvmntI"  { 
				 \MvmntIVoiceIV
			       } %End of voice

			     >> %End of Staff
    >>
  >>
  \midi { }
  \layout { }

}







% ****************************************************************
% end ly snippet
% ****************************************************************
