%!PS-Adobe-2.0 EPSF-2.0
%%Creator: LilyPond 2.18.2
%%BoundingBox: -9 -106 336 1
%%Orientation: Portrait
%%DocumentSuppliedResources: font Emmentaler-18
%%DocumentSuppliedResources: font TeXGyrePagella-Regular
%%EndComments
%%BeginProlog
/lilypond-datadir where {pop} {userdict /lilypond-datadir (/usr/share/lilypond/2.18.2) put } ifelse
%%BeginFont: Emmentaler-18
lilypond-datadir (/fonts/otf/emmentaler-18.otf) concatstrings (r) file .loadfont
%%EndFont

%%BeginFont: TeXGyrePagella-Regular
(/usr/share/texmf/fonts/opentype/public/tex-gyre/texgyrepagella-regular.otf) (r) file .loadfont
%%EndFont

/magfontemmentaler-18mPYo { /Emmentaler-18 6.3263 output-scale div selectfont } bind def
/lily-output-units 2.83464566929134 def %% millimeter
/staff-line-thickness 0.107301587301587 def
/line-width 74.8041994750656 def
/paper-size (a4) def
/staff-height 4.0 def
/output-scale 1.58156911581569 def
/page-height 187.788188976378 def
/page-width 132.779527559055 def
%%BeginResource: procset (music-drawing-routines.ps) 1 0
%!PS-Adobe-2.0
%
% Functions for direct and embedded PostScript

% Careful with double % as comment prefix.
% Any %%X comment is interpreted as DSC comments.

% TODO: use dicts or prefixes to prevent namespace pollution.

/pdfmark where
{pop} {userdict /pdfmark /cleartomark load put} ifelse


% llx lly urx ury URI
/mark_URI
{
    /uri exch def
    /ury exch def
    /urx exch def
    /lly exch def
    /llx exch def
    [
	/Rect [ llx lly urx ury ]
	
	/Border [ 0 0 0 ]

        /Action
	    <<
		/Subtype /URI
		/URI uri
	    >>
        /Subtype /Link
    /ANN
    pdfmark
}
bind def

% llx lly urx ury page
/mark_page_link
{
    /page exch def
    /ury exch def
    /urx exch def
    /lly exch def
    /llx exch def
    [
        /Rect [ llx lly urx ury ]
        /Border [ 0 0 0 ]
        /Page page
        /Subtype /Link
    /ANN
    pdfmark
}
bind def

% from adobe tech note 5002.
/BeginEPSF { %def
    /b4_Inc_state save def % Save state for cleanup
    /dict_count countdictstack def % Count objects on dict stack
    /op_count count 1 sub def % Count objects on operand stack
    userdict begin % Push userdict on dict stack
    /showpage { } def % Redefine showpage, { } = null proc
    0 setgray 0 setlinecap % Prepare graphics state
    1 setlinewidth 0 setlinejoin
    10 setmiterlimit [ ] 0 setdash newpath
    false setoverprint
} bind def

/EndEPSF { %def
  count op_count sub {pop} repeat % Clean up stacks
  countdictstack dict_count sub {end} repeat
  b4_Inc_state restore
} bind def

/stroke_and_fill? {
    {
	gsave
	    false setstrokeadjust
	    stroke
	grestore
	fill
    }
    {
	stroke
    }
    ifelse
} bind def

/vector_add { % x1 y1 x2 y2 vector_add x1+x2 y1+y2
	exch
	4 1 roll
	add
	3 1 roll
	add
	exch
} bind def

/draw_round_box % width height x y blot
{
    0 max setlinewidth
    matrix currentmatrix 5 1 roll
    currentpoint translate newpath translate
    2 copy 0 min exch 0 min exch translate
    abs exch abs exch
    currentlinewidth 0 eq
    { % straight corners
	2 copy 2 mul gt
	{ % horizontal
	    0 1 index 2 div moveto
	    setlinewidth
	    0 rlineto
	    0 setlinecap
	    stroke
	}
	{
	    2 copy exch 2 mul gt
	    { % vertical
		1 index 2 div 0 moveto
		exch setlinewidth
		0 exch rlineto
		0 setlinecap
		stroke
	    }
	    {
		0 0 4 2 roll rectfill
	    }
	    ifelse
	}
	ifelse
    }
    { % rounded corners
	2 copy 0 eq exch 0 eq or
	{ % line shape
	    0 0 moveto
	    rlineto
	    1 setlinecap
	    stroke
	    0 setlinecap
	}
	{ % full shape
	    currentstrokeadjust {
		currentlinewidth 2 div
		0 0 2 index 180 270 arc
		2 index 0 2 index 270 360 arc
		3 copy 0 90 arc
		0 2 index 3 -1 roll 90 180 arc
		closepath
		2 copy 2 mul gt
		{ % horizontal
		    2 copy add currentlinewidth add 10 add % large enough
		    0 1 index neg moveto
		    2 index 1 index neg lineto
		    2 index 1 index lineto
		    0 exch lineto closepath
		    gsave clip newpath
		    0 1 index 2 div moveto
		    currentlinewidth add setlinewidth
		    0 rlineto
		    2 setlinecap
		    stroke
		    grestore
		}
		{
		    2 copy exch 2 mul gt
		    { % vertical
			2 copy add currentlinewidth add 10 add % large enough
			dup neg 0 moveto
			dup 0 lineto
			dup 2 index lineto
			neg 1 index lineto closepath
			gsave clip newpath
			1 index 2 div 0 moveto
			exch currentlinewidth add setlinewidth
			0 exch rlineto
			2 setlinecap
			stroke
			grestore
		    }
		    {
			pop pop
			fill
		    }
		    ifelse
		}
		ifelse
		newpath
	    }
	    {
		1 setlinejoin
		0 0 4 2 roll 4 copy rectstroke rectfill
	    }
	    ifelse
	}
	ifelse
    }
    ifelse
    setmatrix
} bind def

/draw_polygon % fill? x(n) y(n) x(n-1) y(n-1) ... x(0) y(0) n blot
{
	setlinewidth %set to blot

	0 setlinecap
	1 setlinejoin

	3 1 roll
	/polygon_x
	currentpoint
	/polygon_y exch def
	def
	rmoveto % x(0) y(0)
	{ polygon_x polygon_y vector_add lineto } repeat % n times
	closepath
	stroke_and_fill?
} bind def

/draw_circle % filled? radius thickness draw_circle
{
	setlinewidth	% f? r
	currentpoint	% f? r x0 y0
	3 2 roll	% f? x0 y0 r
	dup 0 rmoveto
	0 360 arc closepath
	stroke_and_fill?
} bind def

/draw_ellipse % filled? x-radius y-radius thickness draw_ellipse
{
  setlinewidth % f? x-r y-r
  /savematrix matrix currentmatrix def
  scale % f?
  currentpoint
  1 0 rmoveto
  1 0 360  arc closepath
  savematrix setmatrix
  stroke_and_fill?
} bind def

/draw_partial_ellipse % filled connect x-radius y-radius startangle endangle thickness draw_partial_ellipse
% Note that filled is not boolean to permit for different graylevels (ie for trill keys)
{
  gsave
  currentpoint translate
  /thickness exch def
  /endangle exch def
  /startangle exch def
  /y_radius exch def
  /x_radius exch def
  /endrad x_radius y_radius mul
    x_radius x_radius mul
    endangle cos endangle cos mul mul
    y_radius y_radius mul
    endangle sin endangle sin mul mul add sqrt div def
  /endangle endangle sin endrad mul y_radius div
    endangle cos endrad mul x_radius div atan def
  /startrad x_radius y_radius mul
    x_radius x_radius mul
      startangle cos startangle cos mul mul
    y_radius y_radius mul
      startangle sin startangle sin mul mul add sqrt div def
  /startangle startangle sin startrad mul y_radius div
    startangle cos startrad mul x_radius div atan def
  /connect exch def
  /filled exch def
  /savematrix matrix currentmatrix def
  thickness setlinewidth
  x_radius y_radius scale
  startangle cos startangle sin moveto
  0 0 1 startangle
    startangle endangle eq { endangle 360 add } { endangle } ifelse
    arc
  connect {
    startangle cos startangle sin moveto endangle cos endangle sin lineto }
    if
  savematrix setmatrix filled stroke_and_fill?
  grestore
} bind def

/draw_line % dx dy x1 y1 thickness draw_line
{
	setlinewidth % dx dy x1 y1
	1 setlinecap
	rmoveto % dx dy
	rlineto
	stroke
} bind def

/draw_dashed_line % dx dy thickness dashpattern offset draw_dashed_line
{
	1 setlinecap
	setdash % dx dy thickness
	setlinewidth %dx dy
	rlineto
	stroke
	[] 0 setdash % reset dash pattern
} bind def

/print_glyphs % w dx dy glyph print_glyphs
{
	{
		currentpoint %w dx dy glyph x0 y0
		5 2 roll %w x0 y0 dx dy glyph
		3 1 roll %w x0 y0 glyph dx dy
		rmoveto %w x0 y0 glyph
		glyphshow %w x0 y0
		moveto %w
		0 rmoveto
	}repeat
}bind def
%end music-drawing-routines.ps

%%EndResource
%%BeginResource: procset (lilyponddefs.ps) 1 0
%!PS-Adobe-2.0: lilyponddefs.ps
%
% Functions for direct PostScript output

% /setgray { 1 add } bind def

/set-ps-scale-to-lily-scale {
	lily-output-units output-scale mul dup scale
} bind def


/init-paper {
	gsave
	clippath pathbbox newpath
	/paper-height exch def
	/paper-width exch def pop pop pop
	% FIXME
	/top-margin 2 def
	paper-width line-width sub 2 div /left-margin exch def
	grestore
} bind def

/init-lilypond-parameters {
	staff-line-thickness setlinewidth
	staff-height init-paper
} bind def


% end lilyponddefs.ps

%%EndResource
%%EndProlog
%%BeginSetup
init-lilypond-parameters
%%EndSetup

/mark_page_link { pop pop pop pop pop } bind def
gsave set-ps-scale-to-lily-scale
0.0000 -6.3019 moveto 74.6969 0.0000 0.0537 0.0000 0.1073 draw_line
0.0000 -5.3019 moveto 74.6969 0.0000 0.0537 0.0000 0.1073 draw_line
0.0000 -4.3019 moveto 74.6969 0.0000 0.0537 0.0000 0.1073 draw_line
0.0000 -3.3019 moveto 74.6969 0.0000 0.0537 0.0000 0.1073 draw_line
0.0000 -2.3019 moveto 74.6969 0.0000 0.0537 0.0000 0.1073 draw_line
72.8667 -18.7018 moveto magfontemmentaler-18mPYo /dots.dot glyphshow 
72.8667 -19.7018 moveto magfontemmentaler-18mPYo /dots.dot glyphshow 
74.1604 -19.2018 moveto 0.6438 4.0000 0.0000 -2.0000 0.0000 draw_round_box
73.6346 -19.2018 moveto 0.2039 4.0000 0.0000 -2.0000 0.0000 draw_round_box
42.5803 -4.3019 moveto 0.2039 4.0000 0.0000 -2.0000 0.0000 draw_round_box
59.8952 -19.2018 moveto 0.2039 4.0000 0.0000 -2.0000 0.0000 draw_round_box
59.8952 -4.3019 moveto 0.2039 4.0000 0.0000 -2.0000 0.0000 draw_round_box
24.4051 -4.3019 moveto 0.2039 4.0000 0.0000 -2.0000 0.0000 draw_round_box
24.4051 -19.2018 moveto 0.2039 4.0000 0.0000 -2.0000 0.0000 draw_round_box
72.8667 -3.8019 moveto magfontemmentaler-18mPYo /dots.dot glyphshow 
72.8667 -4.8019 moveto magfontemmentaler-18mPYo /dots.dot glyphshow 
74.1604 -4.3019 moveto 0.6438 4.0000 0.0000 -2.0000 0.0000 draw_round_box
73.6346 -4.3019 moveto 0.2039 4.0000 0.0000 -2.0000 0.0000 draw_round_box
0.0000 -21.2018 moveto 74.6969 0.0000 0.0537 0.0000 0.1073 draw_line
0.0000 -20.2018 moveto 74.6969 0.0000 0.0537 0.0000 0.1073 draw_line
0.0000 -19.2018 moveto 74.6969 0.0000 0.0537 0.0000 0.1073 draw_line
0.0000 -18.2018 moveto 74.6969 0.0000 0.0537 0.0000 0.1073 draw_line
0.0000 -17.2018 moveto 74.6969 0.0000 0.0537 0.0000 0.1073 draw_line
0.0000 -16.2018 moveto 1.7662 0.0000 14.3040 0.0000 0.2073 draw_round_box
0.0000 -16.2018 moveto 1.7662 0.0000 20.0402 0.0000 0.2073 draw_round_box
0.0000 -16.2018 moveto 1.8840 0.0000 26.0166 0.0000 0.2073 draw_round_box
42.5803 -19.2018 moveto 0.2039 4.0000 0.0000 -2.0000 0.0000 draw_round_box
50.1295 -19.2018 moveto 0.0506 2.5633 -0.0253 1.7256 0.0889 draw_round_box
48.8836 -17.7018 moveto magfontemmentaler-18mPYo /noteheads.s2 glyphshow 
53.2361 -4.3019 moveto magfontemmentaler-18mPYo /noteheads.s1 glyphshow 
37.6873 -4.3019 moveto 0.0506 3.0633 -0.0253 0.2256 0.0889 draw_round_box
53.3059 -19.2018 moveto 0.0506 2.6557 -0.0253 -3.9556 0.0889 draw_round_box
54.5606 -19.2018 moveto 0.0506 2.6557 -0.0253 1.2999 0.0889 draw_round_box
51.7861 -6.8019 moveto magfontemmentaler-18mPYo /accidentals.sharp glyphshow 
53.2361 -6.8019 moveto magfontemmentaler-18mPYo /noteheads.s1 glyphshow 
53.3059 -4.3019 moveto 0.0506 2.1557 -0.0253 -4.9556 0.0889 draw_round_box
54.5606 -4.3019 moveto 0.0506 2.9890 -0.0253 0.2999 0.0889 draw_round_box
53.2361 -20.2018 moveto magfontemmentaler-18mPYo /noteheads.s1 glyphshow 
53.2361 -18.2018 moveto magfontemmentaler-18mPYo /noteheads.s1 glyphshow 
51.6570 -11.2018 moveto /TeXGyrePagella-Regular 3.90625000 output-scale div selectfont
1.1760 0.0000 0.0000 /e
1.3278 0.0000 0.0000 /k
1.2519 0.0000 0.0000 /a
0.7967 0.0000 0.0000 /t
4 print_glyphs
41.6431 -11.2018 moveto /TeXGyrePagella-Regular 3.90625000 output-scale div selectfont
0.6070 0.0000 0.0000 /comma
1.4416 0.0000 0.0000 /h
1.1002 0.0000 0.0000 /c
0.7967 0.0000 0.0000 /t
1.2519 0.0000 0.0000 /a
1.9727 0.0000 0.0000 /w
6 print_glyphs
44.5310 -6.3019 moveto magfontemmentaler-18mPYo /noteheads.s1 glyphshow 
44.5310 -3.8019 moveto magfontemmentaler-18mPYo /noteheads.s1 glyphshow 
36.5112 -19.2018 moveto 0.0506 3.2300 -0.0253 -2.9556 0.0889 draw_round_box
44.5310 -17.2018 moveto magfontemmentaler-18mPYo /noteheads.s2 glyphshow 
37.6873 -19.2018 moveto 0.0506 2.5633 -0.0253 1.7256 0.0889 draw_round_box
36.5112 -4.3019 moveto 0.0506 2.7300 -0.0253 -3.9556 0.0889 draw_round_box
44.6008 -19.2018 moveto 0.0506 2.4890 -0.0253 -4.2889 0.0889 draw_round_box
45.7769 -19.2018 moveto 0.0506 2.3967 -0.0253 2.2256 0.0889 draw_round_box
44.6008 -4.3019 moveto 0.0506 2.3223 -0.0253 -4.6222 0.0889 draw_round_box
45.8555 -4.3019 moveto 0.0506 2.8223 -0.0253 0.7999 0.0889 draw_round_box
44.5310 -20.7018 moveto magfontemmentaler-18mPYo /noteheads.s1 glyphshow 
69.0218 -21.2018 moveto magfontemmentaler-18mPYo /rests.2 glyphshow 
69.0218 -17.2018 moveto magfontemmentaler-18mPYo /rests.2 glyphshow 
69.0218 -6.3019 moveto magfontemmentaler-18mPYo /rests.2 glyphshow 
69.0218 -2.3019 moveto magfontemmentaler-18mPYo /rests.2 glyphshow 
44.5310 -19.2018 moveto gsave currentpoint translate
1 setlinecap 1 setlinejoin 0.08584127 setlinewidth
1.61563636 3.05402245 moveto  2.63352750 3.77701903 4.44540001 3.52627926 5.22868996 2.55402245 curveto  4.42774924 3.39873288 2.61587673 3.64947266 1.61563636 3.05402245 curveto   closepath  gsave stroke grestore fill grestore
61.5598 -4.3019 moveto 0.0506 2.3223 -0.0253 -4.6222 0.0889 draw_round_box
62.8145 -4.3019 moveto 0.0506 3.1557 -0.0253 -1.7001 0.0889 draw_round_box
63.3302 -5.8019 moveto magfontemmentaler-18mPYo /dots.dot glyphshow 
61.4900 -18.7018 moveto magfontemmentaler-18mPYo /noteheads.s1 glyphshow 
61.4900 -17.7018 moveto magfontemmentaler-18mPYo /noteheads.s1 glyphshow 
59.0194 -11.2018 moveto /TeXGyrePagella-Regular 3.90625000 output-scale div selectfont
0.6829 0.0000 0.0000 /exclam
0.7967 0.0000 0.0000 /t
0.9864 0.0000 0.0000 /r
1.2519 0.0000 0.0000 /a
1.1760 0.0000 0.0000 /e
1.4416 0.0000 0.0000 /h
6 print_glyphs
61.4900 -6.3019 moveto magfontemmentaler-18mPYo /noteheads.s1 glyphshow 
61.4900 -6.3019 moveto magfontemmentaler-18mPYo /noteheads.s1 glyphshow 
61.5598 -19.2018 moveto 0.0506 3.1557 -0.0253 -2.9556 0.0889 draw_round_box
63.3302 -18.7018 moveto magfontemmentaler-18mPYo /dots.dot glyphshow 
62.8145 -19.2018 moveto 0.0506 2.4890 -0.0253 1.7999 0.0889 draw_round_box
63.3302 -17.7018 moveto magfontemmentaler-18mPYo /dots.dot glyphshow 
17.6065 -4.8019 moveto magfontemmentaler-18mPYo /dots.dot glyphshow 
15.9146 -4.3019 moveto 0.0506 2.5633 -0.0253 -4.2889 0.0889 draw_round_box
17.6065 -5.8019 moveto magfontemmentaler-18mPYo /dots.dot glyphshow 
15.7751 -4.3019 moveto 0.0506 3.2300 -0.0253 -0.7744 0.0889 draw_round_box
14.5292 -19.2018 moveto magfontemmentaler-18mPYo /noteheads.s2 glyphshow 
14.5292 -15.7018 moveto magfontemmentaler-18mPYo /noteheads.s2 glyphshow 
13.6127 -11.2018 moveto /TeXGyrePagella-Regular 3.90625000 output-scale div selectfont
0.9864 0.0000 0.0000 /r
1.3657 0.0000 0.0000 /o
0.7967 0.0000 0.0000 /f
3 print_glyphs
15.8449 -5.8019 moveto magfontemmentaler-18mPYo /noteheads.s2 glyphshow 
14.5292 -5.3019 moveto magfontemmentaler-18mPYo /noteheads.s2 glyphshow 
7.9698 -19.2018 moveto 0.0506 3.1557 -0.0253 -2.9556 0.0889 draw_round_box
21.5811 -1.8464 moveto magfontemmentaler-18mPYo /flags.u3 glyphshow 
21.5114 -4.3019 moveto 0.0506 3.2300 -0.0253 -0.7744 0.0889 draw_round_box
20.2655 -19.2018 moveto magfontemmentaler-18mPYo /noteheads.s2 glyphshow 
20.2655 -15.7018 moveto magfontemmentaler-18mPYo /noteheads.s2 glyphshow 
19.1972 -11.2018 moveto /TeXGyrePagella-Regular 3.90625000 output-scale div selectfont
1.1760 0.0000 0.0000 /e
1.4416 0.0000 0.0000 /h
0.8346 0.0000 0.0000 /t
3 print_glyphs
21.5811 -5.8019 moveto magfontemmentaler-18mPYo /noteheads.s2 glyphshow 
20.2655 -5.3019 moveto magfontemmentaler-18mPYo /noteheads.s2 glyphshow 
14.5990 -19.2018 moveto 0.0506 3.0633 -0.0253 -3.2889 0.0889 draw_round_box
16.2908 -19.7018 moveto magfontemmentaler-18mPYo /dots.dot glyphshow 
15.7751 -19.2018 moveto 0.0506 2.2300 -0.0253 3.7256 0.0889 draw_round_box
16.2908 -15.7018 moveto magfontemmentaler-18mPYo /dots.dot glyphshow 
4.3000 -18.2018 moveto magfontemmentaler-18mPYo /accidentals.sharp glyphshow 
0.8000 -18.2018 moveto magfontemmentaler-18mPYo /clefs.F glyphshow 
4.3000 -2.3019 moveto magfontemmentaler-18mPYo /accidentals.sharp glyphshow 
0.8000 -5.3019 moveto magfontemmentaler-18mPYo /clefs.G glyphshow 
-0.8726 -1.2140 moveto /TeXGyrePagella-Regular 2.76074219 output-scale div selectfont
0.8726 0.0000 0.0000 /five
1 print_glyphs
-0.0717 -11.7518 moveto 0.0644 18.8998 0.0537 -9.4499 0.1073 draw_round_box
-1.3217 -2.0233 moveto magfontemmentaler-18mPYo /brackettips.up glyphshow 
-1.3217 -21.4804 moveto magfontemmentaler-18mPYo /brackettips.down glyphshow 
-1.3217 -11.7518 moveto 0.4500 19.0971 0.0000 -9.5486 0.0000 draw_round_box
9.2244 -19.2018 moveto 0.0506 2.1557 -0.0253 2.7999 0.0889 draw_round_box
7.9698 -4.3019 moveto 0.0506 2.3223 -0.0253 -4.6222 0.0889 draw_round_box
36.4414 -17.7018 moveto magfontemmentaler-18mPYo /noteheads.s2 glyphshow 
9.2244 -4.3019 moveto 0.0506 3.1557 -0.0253 -0.7001 0.0889 draw_round_box
7.9000 -18.7018 moveto magfontemmentaler-18mPYo /noteheads.s1 glyphshow 
7.9000 -16.7018 moveto magfontemmentaler-18mPYo /noteheads.s1 glyphshow 
6.0743 -11.2018 moveto /TeXGyrePagella-Regular 3.90625000 output-scale div selectfont
0.7967 0.0000 0.0000 /t
0.7208 0.0000 0.0000 /i
1.2519 0.0000 0.0000 /a
2.2762 0.0000 0.0000 /W
4 print_glyphs
7.9000 -6.3019 moveto magfontemmentaler-18mPYo /noteheads.s1 glyphshow 
7.9000 -5.3019 moveto magfontemmentaler-18mPYo /noteheads.s1 glyphshow 
32.5965 -21.2018 moveto magfontemmentaler-18mPYo /rests.2 glyphshow 
32.5965 -17.2018 moveto magfontemmentaler-18mPYo /rests.2 glyphshow 
32.5965 -6.3019 moveto magfontemmentaler-18mPYo /rests.2 glyphshow 
32.5965 -2.3019 moveto magfontemmentaler-18mPYo /rests.2 glyphshow 
36.4414 -18.7018 moveto magfontemmentaler-18mPYo /noteheads.s2 glyphshow 
34.5195 -11.2018 moveto /TeXGyrePagella-Regular 3.90625000 output-scale div selectfont
1.4795 0.0000 0.0000 /p
1.1760 0.0000 0.0000 /e
1.1760 0.0000 0.0000 /e
1.3278 0.0000 0.0000 /k
4 print_glyphs
36.4414 -5.3019 moveto magfontemmentaler-18mPYo /noteheads.s2 glyphshow 
36.4414 -4.3019 moveto magfontemmentaler-18mPYo /noteheads.s2 glyphshow 
26.3312 -19.2018 moveto 0.0506 3.1557 -0.0253 -1.9556 0.0889 draw_round_box
23.9805 -11.2018 moveto /TeXGyrePagella-Regular 3.90625000 output-scale div selectfont
0.6070 0.0000 0.0000 /colon
1.5175 0.0000 0.0000 /d
0.9484 0.0000 0.0000 /r
1.3657 0.0000 0.0000 /o
1.5175 0.0000 0.0000 /L
5 print_glyphs
26.2615 -5.3019 moveto magfontemmentaler-18mPYo /noteheads.s1 glyphshow 
26.2615 -4.3019 moveto magfontemmentaler-18mPYo /noteheads.s1 glyphshow 
20.4050 -22.5323 moveto magfontemmentaler-18mPYo /flags.d3 glyphshow 
20.3352 -19.2018 moveto 0.0506 3.1050 -0.0253 -3.3306 0.0889 draw_round_box
21.5811 -12.7462 moveto magfontemmentaler-18mPYo /flags.u3 glyphshow 
21.5114 -19.2018 moveto 0.0506 2.7300 -0.0253 3.7256 0.0889 draw_round_box
21.7206 -8.7575 moveto magfontemmentaler-18mPYo /flags.d3 glyphshow 
21.6509 -4.3019 moveto 0.0506 2.7300 -0.0253 -4.4556 0.0889 draw_round_box
27.5859 -19.2018 moveto 0.0506 2.1557 -0.0253 3.7999 0.0889 draw_round_box
26.3312 -4.3019 moveto 0.0506 2.6557 -0.0253 -3.9556 0.0889 draw_round_box
27.5859 -4.3019 moveto 0.0506 2.9890 -0.0253 0.2999 0.0889 draw_round_box
26.2615 -17.7018 moveto magfontemmentaler-18mPYo /noteheads.s1 glyphshow 
26.2615 -15.7018 moveto magfontemmentaler-18mPYo /noteheads.s1 glyphshow 
stroke grestore
%%Trailer
%%EOF
