%!PS-Adobe-2.0 EPSF-2.0
%%Creator: LilyPond 2.18.2
%%BoundingBox: -9 -104 336 1
%%Orientation: Portrait
%%DocumentSuppliedResources: font Emmentaler-18
%%DocumentSuppliedResources: font TeXGyrePagella-Regular
%%EndComments
%%BeginProlog
/lilypond-datadir where {pop} {userdict /lilypond-datadir (/usr/share/lilypond/2.18.2) put } ifelse
%%BeginFont: Emmentaler-18
lilypond-datadir (/fonts/otf/emmentaler-18.otf) concatstrings (r) file .loadfont
%%EndFont

%%BeginFont: TeXGyrePagella-Regular
(/usr/share/texmf/fonts/opentype/public/tex-gyre/texgyrepagella-regular.otf) (r) file .loadfont
%%EndFont

/magfontemmentaler-18mPYo { /Emmentaler-18 6.3263 output-scale div selectfont } bind def
/lily-output-units 2.83464566929134 def %% millimeter
/staff-line-thickness 0.107301587301587 def
/line-width 74.8041994750656 def
/paper-size (a4) def
/staff-height 4.0 def
/output-scale 1.58156911581569 def
/page-height 187.788188976378 def
/page-width 132.779527559055 def
%%BeginResource: procset (music-drawing-routines.ps) 1 0
%!PS-Adobe-2.0
%
% Functions for direct and embedded PostScript

% Careful with double % as comment prefix.
% Any %%X comment is interpreted as DSC comments.

% TODO: use dicts or prefixes to prevent namespace pollution.

/pdfmark where
{pop} {userdict /pdfmark /cleartomark load put} ifelse


% llx lly urx ury URI
/mark_URI
{
    /uri exch def
    /ury exch def
    /urx exch def
    /lly exch def
    /llx exch def
    [
	/Rect [ llx lly urx ury ]
	
	/Border [ 0 0 0 ]

        /Action
	    <<
		/Subtype /URI
		/URI uri
	    >>
        /Subtype /Link
    /ANN
    pdfmark
}
bind def

% llx lly urx ury page
/mark_page_link
{
    /page exch def
    /ury exch def
    /urx exch def
    /lly exch def
    /llx exch def
    [
        /Rect [ llx lly urx ury ]
        /Border [ 0 0 0 ]
        /Page page
        /Subtype /Link
    /ANN
    pdfmark
}
bind def

% from adobe tech note 5002.
/BeginEPSF { %def
    /b4_Inc_state save def % Save state for cleanup
    /dict_count countdictstack def % Count objects on dict stack
    /op_count count 1 sub def % Count objects on operand stack
    userdict begin % Push userdict on dict stack
    /showpage { } def % Redefine showpage, { } = null proc
    0 setgray 0 setlinecap % Prepare graphics state
    1 setlinewidth 0 setlinejoin
    10 setmiterlimit [ ] 0 setdash newpath
    false setoverprint
} bind def

/EndEPSF { %def
  count op_count sub {pop} repeat % Clean up stacks
  countdictstack dict_count sub {end} repeat
  b4_Inc_state restore
} bind def

/stroke_and_fill? {
    {
	gsave
	    false setstrokeadjust
	    stroke
	grestore
	fill
    }
    {
	stroke
    }
    ifelse
} bind def

/vector_add { % x1 y1 x2 y2 vector_add x1+x2 y1+y2
	exch
	4 1 roll
	add
	3 1 roll
	add
	exch
} bind def

/draw_round_box % width height x y blot
{
    0 max setlinewidth
    matrix currentmatrix 5 1 roll
    currentpoint translate newpath translate
    2 copy 0 min exch 0 min exch translate
    abs exch abs exch
    currentlinewidth 0 eq
    { % straight corners
	2 copy 2 mul gt
	{ % horizontal
	    0 1 index 2 div moveto
	    setlinewidth
	    0 rlineto
	    0 setlinecap
	    stroke
	}
	{
	    2 copy exch 2 mul gt
	    { % vertical
		1 index 2 div 0 moveto
		exch setlinewidth
		0 exch rlineto
		0 setlinecap
		stroke
	    }
	    {
		0 0 4 2 roll rectfill
	    }
	    ifelse
	}
	ifelse
    }
    { % rounded corners
	2 copy 0 eq exch 0 eq or
	{ % line shape
	    0 0 moveto
	    rlineto
	    1 setlinecap
	    stroke
	    0 setlinecap
	}
	{ % full shape
	    currentstrokeadjust {
		currentlinewidth 2 div
		0 0 2 index 180 270 arc
		2 index 0 2 index 270 360 arc
		3 copy 0 90 arc
		0 2 index 3 -1 roll 90 180 arc
		closepath
		2 copy 2 mul gt
		{ % horizontal
		    2 copy add currentlinewidth add 10 add % large enough
		    0 1 index neg moveto
		    2 index 1 index neg lineto
		    2 index 1 index lineto
		    0 exch lineto closepath
		    gsave clip newpath
		    0 1 index 2 div moveto
		    currentlinewidth add setlinewidth
		    0 rlineto
		    2 setlinecap
		    stroke
		    grestore
		}
		{
		    2 copy exch 2 mul gt
		    { % vertical
			2 copy add currentlinewidth add 10 add % large enough
			dup neg 0 moveto
			dup 0 lineto
			dup 2 index lineto
			neg 1 index lineto closepath
			gsave clip newpath
			1 index 2 div 0 moveto
			exch currentlinewidth add setlinewidth
			0 exch rlineto
			2 setlinecap
			stroke
			grestore
		    }
		    {
			pop pop
			fill
		    }
		    ifelse
		}
		ifelse
		newpath
	    }
	    {
		1 setlinejoin
		0 0 4 2 roll 4 copy rectstroke rectfill
	    }
	    ifelse
	}
	ifelse
    }
    ifelse
    setmatrix
} bind def

/draw_polygon % fill? x(n) y(n) x(n-1) y(n-1) ... x(0) y(0) n blot
{
	setlinewidth %set to blot

	0 setlinecap
	1 setlinejoin

	3 1 roll
	/polygon_x
	currentpoint
	/polygon_y exch def
	def
	rmoveto % x(0) y(0)
	{ polygon_x polygon_y vector_add lineto } repeat % n times
	closepath
	stroke_and_fill?
} bind def

/draw_circle % filled? radius thickness draw_circle
{
	setlinewidth	% f? r
	currentpoint	% f? r x0 y0
	3 2 roll	% f? x0 y0 r
	dup 0 rmoveto
	0 360 arc closepath
	stroke_and_fill?
} bind def

/draw_ellipse % filled? x-radius y-radius thickness draw_ellipse
{
  setlinewidth % f? x-r y-r
  /savematrix matrix currentmatrix def
  scale % f?
  currentpoint
  1 0 rmoveto
  1 0 360  arc closepath
  savematrix setmatrix
  stroke_and_fill?
} bind def

/draw_partial_ellipse % filled connect x-radius y-radius startangle endangle thickness draw_partial_ellipse
% Note that filled is not boolean to permit for different graylevels (ie for trill keys)
{
  gsave
  currentpoint translate
  /thickness exch def
  /endangle exch def
  /startangle exch def
  /y_radius exch def
  /x_radius exch def
  /endrad x_radius y_radius mul
    x_radius x_radius mul
    endangle cos endangle cos mul mul
    y_radius y_radius mul
    endangle sin endangle sin mul mul add sqrt div def
  /endangle endangle sin endrad mul y_radius div
    endangle cos endrad mul x_radius div atan def
  /startrad x_radius y_radius mul
    x_radius x_radius mul
      startangle cos startangle cos mul mul
    y_radius y_radius mul
      startangle sin startangle sin mul mul add sqrt div def
  /startangle startangle sin startrad mul y_radius div
    startangle cos startrad mul x_radius div atan def
  /connect exch def
  /filled exch def
  /savematrix matrix currentmatrix def
  thickness setlinewidth
  x_radius y_radius scale
  startangle cos startangle sin moveto
  0 0 1 startangle
    startangle endangle eq { endangle 360 add } { endangle } ifelse
    arc
  connect {
    startangle cos startangle sin moveto endangle cos endangle sin lineto }
    if
  savematrix setmatrix filled stroke_and_fill?
  grestore
} bind def

/draw_line % dx dy x1 y1 thickness draw_line
{
	setlinewidth % dx dy x1 y1
	1 setlinecap
	rmoveto % dx dy
	rlineto
	stroke
} bind def

/draw_dashed_line % dx dy thickness dashpattern offset draw_dashed_line
{
	1 setlinecap
	setdash % dx dy thickness
	setlinewidth %dx dy
	rlineto
	stroke
	[] 0 setdash % reset dash pattern
} bind def

/print_glyphs % w dx dy glyph print_glyphs
{
	{
		currentpoint %w dx dy glyph x0 y0
		5 2 roll %w x0 y0 dx dy glyph
		3 1 roll %w x0 y0 glyph dx dy
		rmoveto %w x0 y0 glyph
		glyphshow %w x0 y0
		moveto %w
		0 rmoveto
	}repeat
}bind def
%end music-drawing-routines.ps

%%EndResource
%%BeginResource: procset (lilyponddefs.ps) 1 0
%!PS-Adobe-2.0: lilyponddefs.ps
%
% Functions for direct PostScript output

% /setgray { 1 add } bind def

/set-ps-scale-to-lily-scale {
	lily-output-units output-scale mul dup scale
} bind def


/init-paper {
	gsave
	clippath pathbbox newpath
	/paper-height exch def
	/paper-width exch def pop pop pop
	% FIXME
	/top-margin 2 def
	paper-width line-width sub 2 div /left-margin exch def
	grestore
} bind def

/init-lilypond-parameters {
	staff-line-thickness setlinewidth
	staff-height init-paper
} bind def


% end lilyponddefs.ps

%%EndResource
%%EndProlog
%%BeginSetup
init-lilypond-parameters
%%EndSetup

/mark_page_link { pop pop pop pop pop } bind def
gsave set-ps-scale-to-lily-scale
74.6003 -3.7640 moveto 0.2039 4.0000 0.0000 -2.0000 0.0000 draw_round_box
74.6003 -18.8416 moveto 0.2039 4.0000 0.0000 -2.0000 0.0000 draw_round_box
60.4550 -3.7640 moveto 0.2039 4.0000 0.0000 -2.0000 0.0000 draw_round_box
60.4550 -18.8416 moveto 0.2039 4.0000 0.0000 -2.0000 0.0000 draw_round_box
44.8967 -3.7640 moveto 0.2039 4.0000 0.0000 -2.0000 0.0000 draw_round_box
26.6696 -18.8416 moveto 0.2039 4.0000 0.0000 -2.0000 0.0000 draw_round_box
44.8967 -18.8416 moveto 0.2039 4.0000 0.0000 -2.0000 0.0000 draw_round_box
26.6696 -3.7640 moveto 0.2039 4.0000 0.0000 -2.0000 0.0000 draw_round_box
0.0000 -20.8416 moveto 74.6969 0.0000 0.0537 0.0000 0.1073 draw_line
0.0000 -19.8416 moveto 74.6969 0.0000 0.0537 0.0000 0.1073 draw_line
0.0000 -18.8416 moveto 74.6969 0.0000 0.0537 0.0000 0.1073 draw_line
0.0000 -17.8416 moveto 74.6969 0.0000 0.0537 0.0000 0.1073 draw_line
0.0000 -16.8416 moveto 74.6969 0.0000 0.0537 0.0000 0.1073 draw_line
0.0000 -15.8416 moveto 1.8840 0.0000 28.4035 0.0000 0.2073 draw_round_box
0.0000 -15.8416 moveto 1.7662 0.0000 38.9152 0.0000 0.2073 draw_round_box
0.0000 -15.8416 moveto 1.8840 0.0000 46.4894 0.0000 0.2073 draw_round_box
0.0000 -15.8416 moveto 1.8840 0.0000 53.3230 0.0000 0.2073 draw_round_box
0.0000 -5.7640 moveto 74.6969 0.0000 0.0537 0.0000 0.1073 draw_line
0.0000 -4.7640 moveto 74.6969 0.0000 0.0537 0.0000 0.1073 draw_line
0.0000 -3.7640 moveto 74.6969 0.0000 0.0537 0.0000 0.1073 draw_line
0.0000 -2.7640 moveto 74.6969 0.0000 0.0537 0.0000 0.1073 draw_line
0.0000 -1.7640 moveto 74.6969 0.0000 0.0537 0.0000 0.1073 draw_line
53.5679 -5.2640 moveto magfontemmentaler-18mPYo /noteheads.s1 glyphshow 
46.8040 -18.8416 moveto 0.0506 2.4890 -0.0253 -4.2889 0.0889 draw_round_box
36.2512 -11.1208 moveto /TeXGyrePagella-Regular 3.90625000 output-scale div selectfont
1.1760 0.0000 0.0000 /e
1.0622 0.0000 0.0000 /s
1.3657 0.0000 0.0000 /o
1.4416 0.0000 0.0000 /h
2.0486 0.0000 0.0000 /w
5 print_glyphs
53.6376 -18.8416 moveto 0.0506 2.4890 -0.0253 -4.2889 0.0889 draw_round_box
54.8923 -18.8416 moveto 0.0506 2.1557 -0.0253 3.2999 0.0889 draw_round_box
54.9620 -5.7640 moveto magfontemmentaler-18mPYo /noteheads.s1 glyphshow 
55.0318 -3.7640 moveto 0.0506 2.3223 -0.0253 -4.6222 0.0889 draw_round_box
54.8923 -3.7640 moveto 0.0506 3.1557 -0.0253 -1.2001 0.0889 draw_round_box
53.5679 -20.3416 moveto magfontemmentaler-18mPYo /noteheads.s1 glyphshow 
53.5679 -15.8416 moveto magfontemmentaler-18mPYo /noteheads.s1 glyphshow 
53.3734 -11.1208 moveto /TeXGyrePagella-Regular 3.90625000 output-scale div selectfont
1.0622 0.0000 0.0000 /s
0.7208 0.0000 0.0000 /i
2 print_glyphs
39.2102 -18.8416 moveto 0.0506 2.8967 -0.0253 -3.6222 0.0889 draw_round_box
40.3864 -18.8416 moveto 0.0506 2.2300 -0.0253 3.2256 0.0889 draw_round_box
39.2102 -3.7640 moveto 0.0506 2.3967 -0.0253 -4.6222 0.0889 draw_round_box
40.3864 -3.7640 moveto 0.0506 3.2300 -0.0253 -0.7744 0.0889 draw_round_box
39.1405 -19.3416 moveto magfontemmentaler-18mPYo /noteheads.s2 glyphshow 
39.1405 -15.8416 moveto magfontemmentaler-18mPYo /noteheads.s2 glyphshow 
48.0587 -18.8416 moveto 0.0506 2.1557 -0.0253 3.2999 0.0889 draw_round_box
48.1982 -3.7640 moveto 0.0506 2.3223 -0.0253 -4.6222 0.0889 draw_round_box
48.0587 -3.7640 moveto 0.0506 3.1557 -0.0253 -1.2001 0.0889 draw_round_box
46.7343 -20.3416 moveto magfontemmentaler-18mPYo /noteheads.s1 glyphshow 
46.7343 -15.8416 moveto magfontemmentaler-18mPYo /noteheads.s1 glyphshow 
45.4207 -11.1208 moveto /TeXGyrePagella-Regular 3.90625000 output-scale div selectfont
1.3657 0.0000 0.0000 /y
1.1381 0.0000 0.0000 /a
1.5175 0.0000 0.0000 /d
3 print_glyphs
48.1285 -5.7640 moveto magfontemmentaler-18mPYo /noteheads.s1 glyphshow 
46.7343 -5.2640 moveto magfontemmentaler-18mPYo /noteheads.s1 glyphshow 
70.6675 -20.8416 moveto magfontemmentaler-18mPYo /rests.2 glyphshow 
70.6675 -16.8416 moveto magfontemmentaler-18mPYo /rests.2 glyphshow 
70.6675 -5.7640 moveto magfontemmentaler-18mPYo /rests.2 glyphshow 
70.6675 -1.7640 moveto magfontemmentaler-18mPYo /rests.2 glyphshow 
63.0191 -3.7640 moveto 0.0506 2.1557 -0.0253 -4.9556 0.0889 draw_round_box
64.7895 -6.2640 moveto magfontemmentaler-18mPYo /dots.dot glyphshow 
61.4994 -6.2640 moveto magfontemmentaler-18mPYo /accidentals.sharp glyphshow 
64.2738 -3.7640 moveto 0.0506 3.1557 -0.0253 -1.2001 0.0889 draw_round_box
64.7895 -5.2640 moveto magfontemmentaler-18mPYo /dots.dot glyphshow 
62.9494 -19.8416 moveto magfontemmentaler-18mPYo /noteheads.s1 glyphshow 
62.9494 -16.3416 moveto magfontemmentaler-18mPYo /noteheads.s1 glyphshow 
60.9909 -11.1208 moveto /TeXGyrePagella-Regular 3.90625000 output-scale div selectfont
0.6070 0.0000 0.0000 /period
0.8346 0.0000 0.0000 /r
1.2519 0.0000 0.0000 /a
1.1760 0.0000 0.0000 /e
1.4416 0.0000 0.0000 /n
5 print_glyphs
62.9494 -6.2640 moveto magfontemmentaler-18mPYo /noteheads.s1 glyphshow 
62.9494 -5.2640 moveto magfontemmentaler-18mPYo /noteheads.s1 glyphshow 
63.0191 -18.8416 moveto 0.0506 2.6557 -0.0253 -3.9556 0.0889 draw_round_box
64.7895 -20.3416 moveto magfontemmentaler-18mPYo /dots.dot glyphshow 
64.2738 -18.8416 moveto 0.0506 2.1557 -0.0253 2.7999 0.0889 draw_round_box
64.7895 -16.3416 moveto magfontemmentaler-18mPYo /dots.dot glyphshow 
18.7828 -4.2640 moveto magfontemmentaler-18mPYo /dots.dot glyphshow 
17.0910 -3.7640 moveto 0.0506 2.3967 -0.0253 -4.6222 0.0889 draw_round_box
18.7828 -6.2640 moveto magfontemmentaler-18mPYo /dots.dot glyphshow 
18.2671 -3.7640 moveto 0.0506 3.2300 -0.0253 -0.7744 0.0889 draw_round_box
17.0212 -18.3416 moveto magfontemmentaler-18mPYo /noteheads.s2 glyphshow 
17.0212 -16.3416 moveto magfontemmentaler-18mPYo /noteheads.s2 glyphshow 
16.1047 -11.1208 moveto /TeXGyrePagella-Regular 3.90625000 output-scale div selectfont
0.9864 0.0000 0.0000 /r
1.3657 0.0000 0.0000 /o
0.7967 0.0000 0.0000 /f
3 print_glyphs
17.0212 -5.7640 moveto magfontemmentaler-18mPYo /noteheads.s2 glyphshow 
17.0212 -4.7640 moveto magfontemmentaler-18mPYo /noteheads.s2 glyphshow 
23.9033 -2.3084 moveto magfontemmentaler-18mPYo /flags.u3 glyphshow 
39.1405 -5.7640 moveto magfontemmentaler-18mPYo /noteheads.s2 glyphshow 
23.8336 -3.7640 moveto 0.0506 3.2300 -0.0253 -1.7744 0.0889 draw_round_box
22.5877 -18.3416 moveto magfontemmentaler-18mPYo /noteheads.s2 glyphshow 
22.5877 -16.3416 moveto magfontemmentaler-18mPYo /noteheads.s2 glyphshow 
21.5194 -11.1208 moveto /TeXGyrePagella-Regular 3.90625000 output-scale div selectfont
1.1760 0.0000 0.0000 /e
1.4416 0.0000 0.0000 /h
0.8346 0.0000 0.0000 /t
3 print_glyphs
22.5877 -5.7640 moveto magfontemmentaler-18mPYo /noteheads.s2 glyphshow 
22.5877 -5.7640 moveto magfontemmentaler-18mPYo /noteheads.s2 glyphshow 
17.0910 -18.8416 moveto 0.0506 3.2300 -0.0253 -2.9556 0.0889 draw_round_box
18.7828 -18.3416 moveto magfontemmentaler-18mPYo /dots.dot glyphshow 
18.2671 -18.8416 moveto 0.0506 2.2300 -0.0253 2.7256 0.0889 draw_round_box
18.7828 -16.3416 moveto magfontemmentaler-18mPYo /dots.dot glyphshow 
4.3000 -17.8416 moveto magfontemmentaler-18mPYo /accidentals.sharp glyphshow 
0.8000 -17.8416 moveto magfontemmentaler-18mPYo /clefs.F glyphshow 
10.2420 -18.3416 moveto magfontemmentaler-18mPYo /noteheads.s1 glyphshow 
10.2420 -16.3416 moveto magfontemmentaler-18mPYo /noteheads.s1 glyphshow 
8.4162 -11.1208 moveto /TeXGyrePagella-Regular 3.90625000 output-scale div selectfont
0.7967 0.0000 0.0000 /t
0.7208 0.0000 0.0000 /i
1.2519 0.0000 0.0000 /a
2.2762 0.0000 0.0000 /W
4 print_glyphs
6.5500 -3.7640 moveto magfontemmentaler-18mPYo /timesig.C22 glyphshow 
4.3000 -1.7640 moveto magfontemmentaler-18mPYo /accidentals.sharp glyphshow 
0.8000 -4.7640 moveto magfontemmentaler-18mPYo /clefs.G glyphshow 
10.2420 -5.7640 moveto magfontemmentaler-18mPYo /noteheads.s1 glyphshow 
10.2420 -4.7640 moveto magfontemmentaler-18mPYo /noteheads.s1 glyphshow 
6.5500 -18.8416 moveto magfontemmentaler-18mPYo /timesig.C22 glyphshow 
-0.0717 -11.3028 moveto 0.0644 19.0776 0.0537 -9.5388 0.1073 draw_round_box
-1.3217 -1.4854 moveto magfontemmentaler-18mPYo /brackettips.up glyphshow 
-1.3217 -21.1202 moveto magfontemmentaler-18mPYo /brackettips.down glyphshow 
-1.3217 -11.3028 moveto 0.4500 19.2749 0.0000 -9.6374 0.0000 draw_round_box
10.3117 -18.8416 moveto 0.0506 3.1557 -0.0253 -2.9556 0.0889 draw_round_box
11.5664 -18.8416 moveto 0.0506 2.1557 -0.0253 2.7999 0.0889 draw_round_box
10.3117 -3.7640 moveto 0.0506 2.3223 -0.0253 -4.6222 0.0889 draw_round_box
11.5664 -3.7640 moveto 0.0506 3.1557 -0.0253 -0.7001 0.0889 draw_round_box
28.7182 -18.8416 moveto 0.0506 2.8223 -0.0253 -3.6222 0.0889 draw_round_box
29.9729 -18.8416 moveto 0.0506 2.1557 -0.0253 3.2999 0.0889 draw_round_box
39.1405 -4.7640 moveto magfontemmentaler-18mPYo /noteheads.s2 glyphshow 
35.1802 -20.8416 moveto magfontemmentaler-18mPYo /rests.2 glyphshow 
35.1802 -16.8416 moveto magfontemmentaler-18mPYo /rests.2 glyphshow 
35.1802 -5.7640 moveto magfontemmentaler-18mPYo /rests.2 glyphshow 
35.1802 -1.7640 moveto magfontemmentaler-18mPYo /rests.2 glyphshow 
22.7272 -21.7971 moveto magfontemmentaler-18mPYo /flags.d3 glyphshow 
22.6574 -18.8416 moveto 0.0506 3.2300 -0.0253 -2.9556 0.0889 draw_round_box
23.9033 -13.3860 moveto magfontemmentaler-18mPYo /flags.u3 glyphshow 
23.8336 -18.8416 moveto 0.0506 2.7300 -0.0253 2.7256 0.0889 draw_round_box
22.7272 -8.7196 moveto magfontemmentaler-18mPYo /flags.d3 glyphshow 
22.6574 -3.7640 moveto 0.0506 2.7300 -0.0253 -4.9556 0.0889 draw_round_box
28.7182 -3.7640 moveto 0.0506 2.3223 -0.0253 -4.6222 0.0889 draw_round_box
29.9729 -3.7640 moveto 0.0506 3.1557 -0.0253 -0.7001 0.0889 draw_round_box
28.6484 -19.3416 moveto magfontemmentaler-18mPYo /noteheads.s1 glyphshow 
28.6484 -15.8416 moveto magfontemmentaler-18mPYo /noteheads.s1 glyphshow 
26.3675 -11.1208 moveto /TeXGyrePagella-Regular 3.90625000 output-scale div selectfont
0.6070 0.0000 0.0000 /comma
1.5175 0.0000 0.0000 /d
0.9484 0.0000 0.0000 /r
1.3657 0.0000 0.0000 /o
1.5175 0.0000 0.0000 /L
5 print_glyphs
28.6484 -5.7640 moveto magfontemmentaler-18mPYo /noteheads.s1 glyphshow 
28.6484 -4.7640 moveto magfontemmentaler-18mPYo /noteheads.s1 glyphshow 
stroke grestore
%%Trailer
%%EOF
