%!PS-Adobe-2.0 EPSF-2.0
%%Creator: LilyPond 2.18.2
%%BoundingBox: -9 -129 336 0
%%Orientation: Portrait
%%DocumentSuppliedResources: font Emmentaler-18
%%DocumentSuppliedResources: font TeXGyrePagella-Regular
%%EndComments
%%BeginProlog
/lilypond-datadir where {pop} {userdict /lilypond-datadir (/usr/share/lilypond/2.18.2) put } ifelse
%%BeginFont: Emmentaler-18
lilypond-datadir (/fonts/otf/emmentaler-18.otf) concatstrings (r) file .loadfont
%%EndFont

%%BeginFont: TeXGyrePagella-Regular
(/usr/share/texmf/fonts/opentype/public/tex-gyre/texgyrepagella-regular.otf) (r) file .loadfont
%%EndFont

/magfontemmentaler-18mDWo { /Emmentaler-18 6.3263 output-scale div selectfont } bind def
/lily-output-units 2.83464566929134 def %% millimeter
/staff-line-thickness 0.1 def
/line-width 67.3237795275591 def
/paper-size (a4) def
/staff-height 4.0 def
/output-scale 1.75729901757299 def
/page-height 169.00937007874 def
/page-width 119.50157480315 def
%%BeginResource: procset (music-drawing-routines.ps) 1 0
%!PS-Adobe-2.0
%
% Functions for direct and embedded PostScript

% Careful with double % as comment prefix.
% Any %%X comment is interpreted as DSC comments.

% TODO: use dicts or prefixes to prevent namespace pollution.

/pdfmark where
{pop} {userdict /pdfmark /cleartomark load put} ifelse


% llx lly urx ury URI
/mark_URI
{
    /uri exch def
    /ury exch def
    /urx exch def
    /lly exch def
    /llx exch def
    [
	/Rect [ llx lly urx ury ]
	
	/Border [ 0 0 0 ]

        /Action
	    <<
		/Subtype /URI
		/URI uri
	    >>
        /Subtype /Link
    /ANN
    pdfmark
}
bind def

% llx lly urx ury page
/mark_page_link
{
    /page exch def
    /ury exch def
    /urx exch def
    /lly exch def
    /llx exch def
    [
        /Rect [ llx lly urx ury ]
        /Border [ 0 0 0 ]
        /Page page
        /Subtype /Link
    /ANN
    pdfmark
}
bind def

% from adobe tech note 5002.
/BeginEPSF { %def
    /b4_Inc_state save def % Save state for cleanup
    /dict_count countdictstack def % Count objects on dict stack
    /op_count count 1 sub def % Count objects on operand stack
    userdict begin % Push userdict on dict stack
    /showpage { } def % Redefine showpage, { } = null proc
    0 setgray 0 setlinecap % Prepare graphics state
    1 setlinewidth 0 setlinejoin
    10 setmiterlimit [ ] 0 setdash newpath
    false setoverprint
} bind def

/EndEPSF { %def
  count op_count sub {pop} repeat % Clean up stacks
  countdictstack dict_count sub {end} repeat
  b4_Inc_state restore
} bind def

/stroke_and_fill? {
    {
	gsave
	    false setstrokeadjust
	    stroke
	grestore
	fill
    }
    {
	stroke
    }
    ifelse
} bind def

/vector_add { % x1 y1 x2 y2 vector_add x1+x2 y1+y2
	exch
	4 1 roll
	add
	3 1 roll
	add
	exch
} bind def

/draw_round_box % width height x y blot
{
    0 max setlinewidth
    matrix currentmatrix 5 1 roll
    currentpoint translate newpath translate
    2 copy 0 min exch 0 min exch translate
    abs exch abs exch
    currentlinewidth 0 eq
    { % straight corners
	2 copy 2 mul gt
	{ % horizontal
	    0 1 index 2 div moveto
	    setlinewidth
	    0 rlineto
	    0 setlinecap
	    stroke
	}
	{
	    2 copy exch 2 mul gt
	    { % vertical
		1 index 2 div 0 moveto
		exch setlinewidth
		0 exch rlineto
		0 setlinecap
		stroke
	    }
	    {
		0 0 4 2 roll rectfill
	    }
	    ifelse
	}
	ifelse
    }
    { % rounded corners
	2 copy 0 eq exch 0 eq or
	{ % line shape
	    0 0 moveto
	    rlineto
	    1 setlinecap
	    stroke
	    0 setlinecap
	}
	{ % full shape
	    currentstrokeadjust {
		currentlinewidth 2 div
		0 0 2 index 180 270 arc
		2 index 0 2 index 270 360 arc
		3 copy 0 90 arc
		0 2 index 3 -1 roll 90 180 arc
		closepath
		2 copy 2 mul gt
		{ % horizontal
		    2 copy add currentlinewidth add 10 add % large enough
		    0 1 index neg moveto
		    2 index 1 index neg lineto
		    2 index 1 index lineto
		    0 exch lineto closepath
		    gsave clip newpath
		    0 1 index 2 div moveto
		    currentlinewidth add setlinewidth
		    0 rlineto
		    2 setlinecap
		    stroke
		    grestore
		}
		{
		    2 copy exch 2 mul gt
		    { % vertical
			2 copy add currentlinewidth add 10 add % large enough
			dup neg 0 moveto
			dup 0 lineto
			dup 2 index lineto
			neg 1 index lineto closepath
			gsave clip newpath
			1 index 2 div 0 moveto
			exch currentlinewidth add setlinewidth
			0 exch rlineto
			2 setlinecap
			stroke
			grestore
		    }
		    {
			pop pop
			fill
		    }
		    ifelse
		}
		ifelse
		newpath
	    }
	    {
		1 setlinejoin
		0 0 4 2 roll 4 copy rectstroke rectfill
	    }
	    ifelse
	}
	ifelse
    }
    ifelse
    setmatrix
} bind def

/draw_polygon % fill? x(n) y(n) x(n-1) y(n-1) ... x(0) y(0) n blot
{
	setlinewidth %set to blot

	0 setlinecap
	1 setlinejoin

	3 1 roll
	/polygon_x
	currentpoint
	/polygon_y exch def
	def
	rmoveto % x(0) y(0)
	{ polygon_x polygon_y vector_add lineto } repeat % n times
	closepath
	stroke_and_fill?
} bind def

/draw_circle % filled? radius thickness draw_circle
{
	setlinewidth	% f? r
	currentpoint	% f? r x0 y0
	3 2 roll	% f? x0 y0 r
	dup 0 rmoveto
	0 360 arc closepath
	stroke_and_fill?
} bind def

/draw_ellipse % filled? x-radius y-radius thickness draw_ellipse
{
  setlinewidth % f? x-r y-r
  /savematrix matrix currentmatrix def
  scale % f?
  currentpoint
  1 0 rmoveto
  1 0 360  arc closepath
  savematrix setmatrix
  stroke_and_fill?
} bind def

/draw_partial_ellipse % filled connect x-radius y-radius startangle endangle thickness draw_partial_ellipse
% Note that filled is not boolean to permit for different graylevels (ie for trill keys)
{
  gsave
  currentpoint translate
  /thickness exch def
  /endangle exch def
  /startangle exch def
  /y_radius exch def
  /x_radius exch def
  /endrad x_radius y_radius mul
    x_radius x_radius mul
    endangle cos endangle cos mul mul
    y_radius y_radius mul
    endangle sin endangle sin mul mul add sqrt div def
  /endangle endangle sin endrad mul y_radius div
    endangle cos endrad mul x_radius div atan def
  /startrad x_radius y_radius mul
    x_radius x_radius mul
      startangle cos startangle cos mul mul
    y_radius y_radius mul
      startangle sin startangle sin mul mul add sqrt div def
  /startangle startangle sin startrad mul y_radius div
    startangle cos startrad mul x_radius div atan def
  /connect exch def
  /filled exch def
  /savematrix matrix currentmatrix def
  thickness setlinewidth
  x_radius y_radius scale
  startangle cos startangle sin moveto
  0 0 1 startangle
    startangle endangle eq { endangle 360 add } { endangle } ifelse
    arc
  connect {
    startangle cos startangle sin moveto endangle cos endangle sin lineto }
    if
  savematrix setmatrix filled stroke_and_fill?
  grestore
} bind def

/draw_line % dx dy x1 y1 thickness draw_line
{
	setlinewidth % dx dy x1 y1
	1 setlinecap
	rmoveto % dx dy
	rlineto
	stroke
} bind def

/draw_dashed_line % dx dy thickness dashpattern offset draw_dashed_line
{
	1 setlinecap
	setdash % dx dy thickness
	setlinewidth %dx dy
	rlineto
	stroke
	[] 0 setdash % reset dash pattern
} bind def

/print_glyphs % w dx dy glyph print_glyphs
{
	{
		currentpoint %w dx dy glyph x0 y0
		5 2 roll %w x0 y0 dx dy glyph
		3 1 roll %w x0 y0 glyph dx dy
		rmoveto %w x0 y0 glyph
		glyphshow %w x0 y0
		moveto %w
		0 rmoveto
	}repeat
}bind def
%end music-drawing-routines.ps

%%EndResource
%%BeginResource: procset (lilyponddefs.ps) 1 0
%!PS-Adobe-2.0: lilyponddefs.ps
%
% Functions for direct PostScript output

% /setgray { 1 add } bind def

/set-ps-scale-to-lily-scale {
	lily-output-units output-scale mul dup scale
} bind def


/init-paper {
	gsave
	clippath pathbbox newpath
	/paper-height exch def
	/paper-width exch def pop pop pop
	% FIXME
	/top-margin 2 def
	paper-width line-width sub 2 div /left-margin exch def
	grestore
} bind def

/init-lilypond-parameters {
	staff-line-thickness setlinewidth
	staff-height init-paper
} bind def


% end lilyponddefs.ps

%%EndResource
%%EndProlog
%%BeginSetup
init-lilypond-parameters
%%EndSetup

/mark_page_link { pop pop pop pop pop } bind def
gsave set-ps-scale-to-lily-scale
0.0000 -6.1767 moveto 67.2238 0.0000 0.0500 0.0000 0.1000 draw_line
0.0000 -5.1767 moveto 67.2238 0.0000 0.0500 0.0000 0.1000 draw_line
0.0000 -4.1767 moveto 67.2238 0.0000 0.0500 0.0000 0.1000 draw_line
0.0000 -3.1767 moveto 67.2238 0.0000 0.0500 0.0000 0.1000 draw_line
0.0000 -2.1767 moveto 67.2238 0.0000 0.0500 0.0000 0.1000 draw_line
67.1338 -21.1542 moveto 0.1900 4.0000 0.0000 -2.0000 0.0000 draw_round_box
0.0000 -18.1542 moveto 1.5761 0.0000 26.6611 0.0000 0.2000 draw_round_box
0.0000 -23.1542 moveto 67.2238 0.0000 0.0500 0.0000 0.1000 draw_line
0.0000 -22.1542 moveto 67.2238 0.0000 0.0500 0.0000 0.1000 draw_line
0.0000 -21.1542 moveto 67.2238 0.0000 0.0500 0.0000 0.1000 draw_line
0.0000 -20.1542 moveto 67.2238 0.0000 0.0500 0.0000 0.1000 draw_line
0.0000 -19.1542 moveto 67.2238 0.0000 0.0500 0.0000 0.1000 draw_line
67.1338 -4.1767 moveto 0.1900 4.0000 0.0000 -2.0000 0.0000 draw_round_box
37.7839 -4.1767 moveto 0.1900 4.0000 0.0000 -2.0000 0.0000 draw_round_box
37.7839 -21.1542 moveto 0.1900 4.0000 0.0000 -2.0000 0.0000 draw_round_box
51.8189 -3.6767 moveto magfontemmentaler-18mDWo /noteheads.s2 glyphshow 
51.8189 -6.1767 moveto magfontemmentaler-18mDWo /noteheads.s2 glyphshow 
50.8745 -11.3201 moveto /TeXGyrePagella-Regular 3.90625000 output-scale div selectfont
0.6487 0.0000 0.0000 /i
1.0584 0.0000 0.0000 /e
1.3657 0.0000 0.0000 /B
3 print_glyphs
50.1404 -14.1201 moveto /TeXGyrePagella-Regular 3.90625000 output-scale div selectfont
1.2974 0.0000 0.0000 /h
0.7512 0.0000 0.0000 /t
0.6487 0.0000 0.0000 /i
1.8437 0.0000 0.0000 /w
4 print_glyphs
51.8189 -19.6542 moveto magfontemmentaler-18mDWo /noteheads.s2 glyphshow 
51.8189 -20.6542 moveto magfontemmentaler-18mDWo /noteheads.s2 glyphshow 
52.9379 -4.1767 moveto 0.0500 2.7570 -0.0250 0.7030 0.0800 draw_round_box
46.5613 -19.6542 moveto magfontemmentaler-18mDWo /dots.dot glyphshow 
45.0409 -21.1542 moveto 0.0500 3.2570 -0.0250 -2.9600 0.0800 draw_round_box
46.5613 -20.6542 moveto magfontemmentaler-18mDWo /dots.dot glyphshow 
46.0949 -21.1542 moveto 0.0500 2.5903 -0.0250 1.7030 0.0800 draw_round_box
56.5303 -11.3201 moveto /TeXGyrePagella-Regular 3.90625000 output-scale div selectfont
0.8877 0.0000 0.0000 /r
0.6487 0.0000 0.0000 /i
1.3657 0.0000 0.0000 /d
3 print_glyphs
57.3894 -5.6767 moveto magfontemmentaler-18mDWo /noteheads.s2 glyphshow 
57.3894 -3.1767 moveto magfontemmentaler-18mDWo /noteheads.s2 glyphshow 
51.8839 -21.1542 moveto 0.0500 3.0681 -0.0250 -2.7711 0.0800 draw_round_box
52.9379 -21.1542 moveto 0.0500 2.7598 -0.0250 1.7030 0.0800 draw_round_box
51.8839 -4.1767 moveto 0.0500 2.2552 -0.0250 -4.4583 0.0800 draw_round_box
39.5410 -21.1542 moveto 0.0500 3.2570 -0.0250 -1.4600 0.0800 draw_round_box
40.5950 -21.1542 moveto 0.0500 2.4237 -0.0250 2.2030 0.0800 draw_round_box
39.5410 -4.1767 moveto 0.0500 2.4237 -0.0250 -4.6267 0.0800 draw_round_box
46.5613 -3.6767 moveto magfontemmentaler-18mDWo /dots.dot glyphshow 
45.0409 -4.1767 moveto 0.0500 2.4237 -0.0250 -4.6267 0.0800 draw_round_box
46.5613 -6.6767 moveto magfontemmentaler-18mDWo /dots.dot glyphshow 
46.0949 -4.1767 moveto 0.0500 3.0903 -0.0250 0.2030 0.0800 draw_round_box
44.9759 -20.6542 moveto magfontemmentaler-18mDWo /noteheads.s2 glyphshow 
44.9759 -19.6542 moveto magfontemmentaler-18mDWo /noteheads.s2 glyphshow 
43.5022 -11.3201 moveto /TeXGyrePagella-Regular 3.90625000 output-scale div selectfont
0.5463 0.0000 0.0000 /period
1.2974 0.0000 0.0000 /n
1.0584 0.0000 0.0000 /e
1.2292 0.0000 0.0000 /b
4 print_glyphs
44.9759 -6.1767 moveto magfontemmentaler-18mDWo /noteheads.s2 glyphshow 
44.9759 -4.1767 moveto magfontemmentaler-18mDWo /noteheads.s2 glyphshow 
52.8729 -16.6542 moveto true 11.4871 0.7000 11.4871 0.3000 0.0400 -0.2000 0.0400 0.2000 3 0.0800 draw_polygon
51.8189 -23.9642 moveto true 11.4871 0.0100 11.4871 -0.3900 0.0400 -0.2000 0.0400 0.2000 3 0.0800 draw_polygon
51.8189 -8.6767 moveto true 11.4871 0.5100 11.4871 0.1100 0.0400 -0.2000 0.0400 0.2000 3 0.0800 draw_polygon
63.2810 -21.1542 moveto 0.0500 2.7559 -0.0250 -2.9589 0.0800 draw_round_box
16.3307 -22.9642 moveto true 5.1313 0.2000 5.1313 -0.2000 0.0400 -0.2000 0.0400 0.2000 3 0.0800 draw_polygon
17.3848 -1.3667 moveto true 5.1313 -0.4200 5.1313 -0.8200 0.0400 -0.2000 0.0400 0.2000 3 0.0800 draw_polygon
16.3307 -8.9867 moveto true 5.1313 0.2000 5.1313 -0.2000 0.0400 -0.2000 0.0400 0.2000 3 0.0800 draw_polygon
17.3848 -16.3442 moveto true 5.1313 0.2000 5.1313 -0.2000 0.0400 -0.2000 0.0400 0.2000 3 0.0800 draw_polygon
42.0612 -11.3201 moveto 0.5800 0.0500 0.0400 0.4600 0.0800 draw_round_box
52.8729 -0.6767 moveto true 11.4871 0.2000 11.4871 -0.2000 0.0400 -0.2000 0.0400 0.2000 3 0.0800 draw_polygon
57.4544 -21.1542 moveto 0.0500 2.6599 -0.0250 -2.8629 0.0800 draw_round_box
58.5085 -21.1542 moveto 0.0500 2.0014 -0.0250 2.7030 0.0800 draw_round_box
57.4544 -4.1767 moveto 0.0500 2.6054 -0.0250 -4.3084 0.0800 draw_round_box
58.5085 -4.1767 moveto 0.0500 2.2570 -0.0250 1.2030 0.0800 draw_round_box
57.3894 -21.1542 moveto magfontemmentaler-18mDWo /noteheads.s2 glyphshow 
57.3894 -18.6542 moveto magfontemmentaler-18mDWo /noteheads.s2 glyphshow 
64.3350 -21.1542 moveto 0.0500 2.2542 -0.0250 2.7030 0.0800 draw_round_box
63.2810 -4.1767 moveto 0.0500 2.4487 -0.0250 -4.1517 0.0800 draw_round_box
56.1206 -14.1201 moveto /TeXGyrePagella-Regular 3.90625000 output-scale div selectfont
1.3316 0.0000 0.0000 /u
1.2292 0.0000 0.0000 /o
1.1609 0.0000 0.0000 /y
3 print_glyphs
64.3350 -4.1767 moveto 0.0500 3.2570 -0.0250 0.2030 0.0800 draw_round_box
63.2160 -21.1542 moveto magfontemmentaler-18mDWo /noteheads.s2 glyphshow 
63.2160 -18.6542 moveto magfontemmentaler-18mDWo /noteheads.s2 glyphshow 
61.2814 -14.1201 moveto /TeXGyrePagella-Regular 3.90625000 output-scale div selectfont
1.0584 0.0000 0.0000 /e
0.8877 0.0000 0.0000 /r
1.0584 0.0000 0.0000 /e
1.2974 0.0000 0.0000 /h
0.7512 0.0000 0.0000 /t
5 print_glyphs
62.6642 -11.3201 moveto /TeXGyrePagella-Regular 3.90625000 output-scale div selectfont
0.7170 0.0000 0.0000 /t
0.9219 0.0000 0.0000 /s
0.6487 0.0000 0.0000 /i
3 print_glyphs
63.2160 -5.6767 moveto magfontemmentaler-18mDWo /noteheads.s2 glyphshow 
63.2160 -4.1767 moveto magfontemmentaler-18mDWo /noteheads.s2 glyphshow 
16.3307 -19.6542 moveto magfontemmentaler-18mDWo /noteheads.s2 glyphshow 
16.3957 -4.1767 moveto 0.0500 2.0670 -0.0250 -4.7700 0.0800 draw_round_box
17.4498 -4.1767 moveto 0.0500 2.5592 -0.0250 0.2030 0.0800 draw_round_box
17.4498 -21.1542 moveto 0.0500 2.0670 -0.0250 2.7030 0.0800 draw_round_box
16.3307 -18.6542 moveto magfontemmentaler-18mDWo /noteheads.s2 glyphshow 
15.4204 -14.1201 moveto /TeXGyrePagella-Regular 3.90625000 output-scale div selectfont
1.0584 0.0000 0.0000 /e
1.9462 0.0000 0.0000 /m
2 print_glyphs
15.1814 -11.3201 moveto /TeXGyrePagella-Regular 3.90625000 output-scale div selectfont
0.8877 0.0000 0.0000 /r
0.6487 0.0000 0.0000 /i
1.9462 0.0000 0.0000 /m
3 print_glyphs
16.3307 -6.6767 moveto magfontemmentaler-18mDWo /noteheads.s2 glyphshow 
16.3307 -4.1767 moveto magfontemmentaler-18mDWo /noteheads.s2 glyphshow 
9.3751 -21.1542 moveto 0.0500 2.4237 -0.0250 -4.6267 0.0800 draw_round_box
21.3720 -5.1767 moveto magfontemmentaler-18mDWo /noteheads.s2 glyphshow 
21.4370 -4.1767 moveto 0.0500 2.0670 -0.0250 -4.7700 0.0800 draw_round_box
22.4910 -4.1767 moveto 0.0500 2.9548 -0.0250 -0.7970 0.0800 draw_round_box
21.3720 -19.6542 moveto magfontemmentaler-18mDWo /noteheads.s2 glyphshow 
21.3720 -18.6542 moveto magfontemmentaler-18mDWo /noteheads.s2 glyphshow 
20.4105 -14.1201 moveto /TeXGyrePagella-Regular 3.90625000 output-scale div selectfont
1.0584 0.0000 0.0000 /e
1.2974 0.0000 0.0000 /h
0.7512 0.0000 0.0000 /t
3 print_glyphs
20.1032 -11.3201 moveto /TeXGyrePagella-Regular 3.90625000 output-scale div selectfont
1.2974 0.0000 0.0000 /n
1.0584 0.0000 0.0000 /e
1.3657 0.0000 0.0000 /d
3 print_glyphs
21.3720 -6.6767 moveto magfontemmentaler-18mDWo /noteheads.s2 glyphshow 
16.3957 -21.1542 moveto 0.0500 3.0670 -0.0250 -1.7700 0.0800 draw_round_box
4.4167 -22.1542 moveto magfontemmentaler-18mDWo /accidentals.flat glyphshow 
5.2534 -20.6542 moveto magfontemmentaler-18mDWo /accidentals.flat glyphshow 
6.0901 -22.6542 moveto magfontemmentaler-18mDWo /accidentals.flat glyphshow 
0.8000 -20.1542 moveto magfontemmentaler-18mDWo /clefs.F glyphshow 
4.4167 -4.1767 moveto magfontemmentaler-18mDWo /accidentals.flat glyphshow 
5.2534 -2.6767 moveto magfontemmentaler-18mDWo /accidentals.flat glyphshow 
6.0901 -4.6767 moveto magfontemmentaler-18mDWo /accidentals.flat glyphshow 
0.8000 -5.1767 moveto magfontemmentaler-18mDWo /clefs.G glyphshow 
-0.7853 -1.0926 moveto /TeXGyrePagella-Regular 2.76074219 output-scale div selectfont
0.7853 0.0000 0.0000 /three
1 print_glyphs
-0.0600 -12.6655 moveto 0.0600 20.9775 0.0500 -10.4887 0.1000 draw_round_box
10.4291 -21.1542 moveto 0.0500 2.5903 -0.0250 1.7030 0.0800 draw_round_box
9.3751 -4.1767 moveto 0.0500 2.2570 -0.0250 -4.9600 0.0800 draw_round_box
10.4291 -4.1767 moveto 0.0500 3.0903 -0.0250 0.2030 0.0800 draw_round_box
9.3101 -23.1542 moveto magfontemmentaler-18mDWo /noteheads.s2 glyphshow 
9.3101 -19.6542 moveto magfontemmentaler-18mDWo /noteheads.s2 glyphshow 
7.2731 -14.1201 moveto /TeXGyrePagella-Regular 3.90625000 output-scale div selectfont
1.8437 0.0000 0.0000 /w
1.1609 0.0000 0.0000 /o
1.2974 0.0000 0.0000 /h
0.9560 0.0000 0.0000 /s
4 print_glyphs
7.0511 -11.3201 moveto /TeXGyrePagella-Regular 3.90625000 output-scale div selectfont
0.7170 0.0000 0.0000 /t
0.9219 0.0000 0.0000 /s
1.2292 0.0000 0.0000 /g
0.6487 0.0000 0.0000 /i
1.0584 0.0000 0.0000 /e
1.1267 0.0000 0.0000 /z
6 print_glyphs
9.3101 -6.6767 moveto magfontemmentaler-18mDWo /noteheads.s2 glyphshow 
9.3101 -4.1767 moveto magfontemmentaler-18mDWo /noteheads.s2 glyphshow 
33.8534 -14.1201 moveto /TeXGyrePagella-Regular 3.90625000 output-scale div selectfont
0.7512 0.0000 0.0000 /f
1.2292 0.0000 0.0000 /o
2 print_glyphs
34.3815 -9.1367 moveto magfontemmentaler-18mDWo /flags.d3 glyphshow 
34.3165 -4.1767 moveto 0.0500 2.7570 -0.0250 -4.9600 0.0800 draw_round_box
35.4356 -0.8417 moveto magfontemmentaler-18mDWo /flags.u3 glyphshow 
35.3706 -4.1767 moveto 0.0500 3.1320 -0.0250 0.2030 0.0800 draw_round_box
34.2515 -19.6542 moveto magfontemmentaler-18mDWo /noteheads.s2 glyphshow 
34.2515 -18.6542 moveto magfontemmentaler-18mDWo /noteheads.s2 glyphshow 
32.6413 -11.3201 moveto /TeXGyrePagella-Regular 3.90625000 output-scale div selectfont
1.9462 0.0000 0.0000 /m
1.3316 0.0000 0.0000 /u
1.1267 0.0000 0.0000 /z
3 print_glyphs
34.2515 -6.1767 moveto magfontemmentaler-18mDWo /noteheads.s2 glyphshow 
34.2515 -4.1767 moveto magfontemmentaler-18mDWo /noteheads.s2 glyphshow 
26.9221 -21.1542 moveto 0.0500 3.2570 -0.0250 -2.4600 0.0800 draw_round_box
28.4426 -20.6542 moveto magfontemmentaler-18mDWo /dots.dot glyphshow 
40.5950 -4.1767 moveto 0.0500 2.9237 -0.0250 0.7030 0.0800 draw_round_box
39.4760 -19.1542 moveto magfontemmentaler-18mDWo /noteheads.s2 glyphshow 
39.4760 -19.1542 moveto magfontemmentaler-18mDWo /noteheads.s2 glyphshow 
39.4760 -14.1201 moveto /TeXGyrePagella-Regular 3.90625000 output-scale div selectfont
0.5463 0.0000 0.0000 /period
1.0584 0.0000 0.0000 /e
0.7170 0.0000 0.0000 /f
0.6487 0.0000 0.0000 /i
0.6487 0.0000 0.0000 /l
5 print_glyphs
38.8559 -11.3201 moveto /TeXGyrePagella-Regular 3.90625000 output-scale div selectfont
1.0584 0.0000 0.0000 /e
1.3657 0.0000 0.0000 /L
2 print_glyphs
39.4760 -6.1767 moveto magfontemmentaler-18mDWo /noteheads.s2 glyphshow 
39.4760 -3.6767 moveto magfontemmentaler-18mDWo /noteheads.s2 glyphshow 
34.3815 -23.1142 moveto magfontemmentaler-18mDWo /flags.d3 glyphshow 
34.3165 -21.1542 moveto 0.0500 3.2570 -0.0250 -1.9600 0.0800 draw_round_box
35.4356 -15.6942 moveto magfontemmentaler-18mDWo /flags.u3 glyphshow 
35.3706 -21.1542 moveto 0.0500 2.7570 -0.0250 2.7030 0.0800 draw_round_box
26.8571 -20.1542 moveto magfontemmentaler-18mDWo /noteheads.s2 glyphshow 
25.1957 -14.1201 moveto /TeXGyrePagella-Regular 3.90625000 output-scale div selectfont
1.2974 0.0000 0.0000 /h
0.7512 0.0000 0.0000 /t
1.1267 0.0000 0.0000 /a
1.3316 0.0000 0.0000 /p
4 print_glyphs
25.2640 -11.3201 moveto /TeXGyrePagella-Regular 3.90625000 output-scale div selectfont
1.2292 0.0000 0.0000 /g
1.0584 0.0000 0.0000 /e
2.0827 0.0000 0.0000 /W
3 print_glyphs
26.8571 -5.6767 moveto magfontemmentaler-18mDWo /noteheads.s2 glyphshow 
26.8571 -4.6767 moveto magfontemmentaler-18mDWo /noteheads.s2 glyphshow 
26.8571 -18.1542 moveto magfontemmentaler-18mDWo /noteheads.s2 glyphshow 
21.4370 -21.1542 moveto 0.0500 3.0670 -0.0250 -1.7700 0.0800 draw_round_box
22.4910 -21.1542 moveto 0.0500 2.0670 -0.0250 2.7030 0.0800 draw_round_box
26.9221 -4.1767 moveto 0.0500 2.5903 -0.0250 -4.2933 0.0800 draw_round_box
28.4426 -17.6542 moveto magfontemmentaler-18mDWo /dots.dot glyphshow 
28.4426 -4.6767 moveto magfontemmentaler-18mDWo /dots.dot glyphshow 
27.9762 -21.1542 moveto 0.0500 2.2570 -0.0250 3.2030 0.0800 draw_round_box
28.4426 -5.6767 moveto magfontemmentaler-18mDWo /dots.dot glyphshow 
27.9762 -4.1767 moveto 0.0500 3.2570 -0.0250 -0.2970 0.0800 draw_round_box
stroke grestore
%%Trailer
%%EOF
