<?xml version="1.0" encoding="UTF-8"?>
<svg xmlns="http://www.w3.org/2000/svg" xmlns:xlink="http://www.w3.org/1999/xlink" width="342pt" height="52pt" viewBox="0 0 342 52" version="1.1">
<defs>
<g>
<symbol overflow="visible" id="glyph0-0">
<path style="stroke:none;" d="M 2 0 L 17.9375 0 L 17.9375 -19.28125 L 2 -19.28125 Z M 3.984375 -2 L 3.984375 -17.296875 L 15.9375 -17.296875 L 15.9375 -2 Z M 3.984375 -2 "/>
</symbol>
<symbol overflow="visible" id="glyph0-1">
<path style="stroke:none;" d="M 0.875 -26.375 L 2.46875 -26.25 C 4.296875 -26.140625 4.5 -25.78125 4.5 -22.671875 L 4.5 -3.78125 C 4.5 -2.625 4.140625 -1.75 3.5 -1.4375 L 2.265625 -0.796875 L 2.265625 0.125 C 4.109375 0.046875 5.984375 0 7.8125 0 C 9.71875 0 11.671875 0.125 13.59375 0.125 C 18.6875 0.125 22.515625 -1.203125 25.296875 -3.9375 C 28.171875 -6.78125 29.921875 -11.078125 29.921875 -15.34375 C 29.921875 -22.75 24.421875 -27.578125 16.015625 -27.578125 C 13.703125 -27.578125 11.390625 -27.453125 9.078125 -27.453125 C 6.328125 -27.453125 3.625 -27.5 0.875 -27.578125 Z M 8.28125 -1.953125 L 8.28125 -25.65625 C 9.328125 -25.859375 10.71875 -25.984375 12.703125 -25.984375 C 17.140625 -25.984375 20.71875 -25.1875 22.828125 -23.0625 C 24.75 -21.15625 25.65625 -18.28125 25.65625 -14.296875 C 25.65625 -9.84375 24.3125 -6.421875 21.671875 -4.265625 C 19.28125 -2.3125 16.890625 -1.640625 12.390625 -1.640625 C 10.5625 -1.640625 9.328125 -1.71875 8.28125 -1.953125 Z M 8.28125 -1.953125 "/>
</symbol>
<symbol overflow="visible" id="glyph1-0">
<path style="stroke:none;" d="M 0.5 0 L 4.484375 0 L 4.484375 -4.828125 L 0.5 -4.828125 Z M 1 -0.5 L 1 -4.328125 L 3.984375 -4.328125 L 3.984375 -0.5 Z M 1 -0.5 "/>
</symbol>
<symbol overflow="visible" id="glyph1-1">
<path style="stroke:none;" d="M 0.40625 0.03125 C 0.78125 0.015625 1.171875 0 1.546875 0 C 1.921875 0 2.3125 0.015625 2.6875 0.03125 L 2.6875 -0.34375 L 2.40625 -0.359375 C 2.171875 -0.375 2.15625 -0.671875 2.15625 -0.921875 L 2.15625 -3.59375 C 2.15625 -3.859375 2.171875 -4.140625 2.40625 -4.171875 L 2.6875 -4.1875 L 2.6875 -4.5625 C 2.3125 -4.53125 1.921875 -4.53125 1.546875 -4.53125 C 1.171875 -4.53125 0.78125 -4.53125 0.40625 -4.5625 L 0.40625 -4.1875 L 0.6875 -4.171875 C 0.921875 -4.140625 0.9375 -3.859375 0.9375 -3.59375 L 0.9375 -0.921875 C 0.9375 -0.671875 0.921875 -0.375 0.6875 -0.359375 L 0.40625 -0.34375 Z M 0.40625 0.03125 "/>
</symbol>
<symbol overflow="visible" id="glyph2-0">
<path style="stroke:none;" d="M 0.859375 0 L 0.859375 -17.21875 L 7.703125 -17.21875 L 7.703125 0 Z M 1.703125 -0.859375 L 6.84375 -0.859375 L 6.84375 -16.359375 L 1.703125 -16.359375 Z M 1.703125 -0.859375 "/>
</symbol>
<symbol overflow="visible" id="glyph2-1">
<path style="stroke:none;" d="M 0 -1.703125 L 0 -10.125 C 0 -10.988281 0.25 -11.648438 0.75 -12.109375 C 1.25 -12.566406 1.929688 -12.796875 2.796875 -12.796875 C 3.273438 -12.773438 3.644531 -12.644531 3.90625 -12.40625 C 4.164062 -12.175781 4.296875 -11.882812 4.296875 -11.53125 L 4.296875 -6.984375 L 4.03125 -7.203125 C 3.53125 -7.648438 2.894531 -7.875 2.125 -7.875 C 1.394531 -7.875 0.847656 -7.539062 0.484375 -6.875 C 0.335938 -6.582031 0.265625 -6.257812 0.265625 -5.90625 C 0.265625 -5.550781 0.347656 -5.222656 0.515625 -4.921875 C 0.691406 -4.617188 0.921875 -4.378906 1.203125 -4.203125 C 1.484375 -4.035156 1.789062 -3.953125 2.125 -3.953125 C 2.914062 -3.953125 3.550781 -4.160156 4.03125 -4.578125 L 4.296875 -4.828125 L 4.296875 -0.265625 C 4.296875 0.015625 4.21875 0.253906 4.0625 0.453125 C 3.914062 0.648438 3.726562 0.796875 3.5 0.890625 C 3.28125 0.984375 3.046875 1.03125 2.796875 1.03125 C 1.929688 1.019531 1.25 0.773438 0.75 0.296875 C 0.25 -0.171875 0 -0.835938 0 -1.703125 Z M 0 -1.703125 "/>
</symbol>
<symbol overflow="visible" id="glyph2-2">
<path style="stroke:none;" d="M 2.125 -4.375 C 2.601562 -4.375 3 -4.328125 3.3125 -4.234375 C 3.632812 -4.148438 3.878906 -4.015625 4.046875 -3.828125 C 4.210938 -3.648438 4.296875 -3.425781 4.296875 -3.15625 L 4.296875 0.9375 C 3.828125 0.445312 3.109375 0.203125 2.140625 0.203125 C 1.179688 0.203125 0.46875 0.445312 0 0.9375 L 0 -3.15625 C 0 -3.96875 0.707031 -4.375 2.125 -4.375 Z M 2.125 -4.375 "/>
</symbol>
<symbol overflow="visible" id="glyph2-3">
<path style="stroke:none;" d="M 0 0.109375 L 0 -3.84375 C 0 -4 0.0507812 -4.078125 0.15625 -4.078125 L 0.265625 -4.078125 C 0.804688 -3.972656 1.3125 -3.921875 1.78125 -3.921875 C 1.882812 -3.921875 1.988281 -3.921875 2.09375 -3.921875 C 2.195312 -3.921875 2.296875 -3.925781 2.390625 -3.9375 C 2.484375 -3.945312 2.566406 -3.953125 2.640625 -3.953125 C 3.015625 -3.953125 3.304688 -4.019531 3.515625 -4.15625 C 3.722656 -4.300781 3.828125 -4.484375 3.828125 -4.703125 L 3.828125 -6.953125 C 3.828125 -7.210938 3.773438 -7.441406 3.671875 -7.640625 C 3.566406 -7.835938 3.394531 -8.003906 3.15625 -8.140625 C 2.925781 -8.273438 2.640625 -8.34375 2.296875 -8.34375 C 1.472656 -8.34375 0.800781 -8.164062 0.28125 -7.8125 L 0.28125 -11.140625 C 0.28125 -11.984375 0.953125 -12.40625 2.296875 -12.40625 C 2.828125 -12.40625 3.289062 -12.3125 3.6875 -12.125 C 4.09375 -11.9375 4.296875 -11.609375 4.296875 -11.140625 L 4.296875 0.078125 C 4.296875 0.179688 4.132812 0.28125 3.8125 0.375 C 3.488281 0.46875 3.140625 0.515625 2.765625 0.515625 C 2.679688 0.515625 2.566406 0.507812 2.421875 0.5 C 2.285156 0.488281 2.113281 0.484375 1.90625 0.484375 C 1.34375 0.484375 0.941406 0.46875 0.703125 0.4375 C 0.234375 0.351562 0 0.242188 0 0.109375 Z M 0 0.109375 "/>
</symbol>
<symbol overflow="visible" id="glyph2-4">
<path style="stroke:none;" d="M 0 -2.203125 C 0.101562 -2.304688 0.253906 -2.359375 0.453125 -2.359375 C 0.648438 -2.359375 0.789062 -2.304688 0.875 -2.203125 L 0.875 0.3125 C 0.8125 0.414062 0.671875 0.46875 0.453125 0.46875 C 0.234375 0.46875 0.0820312 0.414062 0 0.3125 Z M 0 -2.203125 "/>
</symbol>
<symbol overflow="visible" id="glyph2-5">
<path style="stroke:none;" d="M -0.125 -0.40625 L 4.46875 -0.40625 L 4.421875 0.40625 L -0.1875 0.40625 Z M -0.125 -0.40625 "/>
</symbol>
<symbol overflow="visible" id="glyph2-6">
<path style="stroke:none;" d="M 0 -17.65625 L 0.484375 -17.65625 L 0.484375 -9.40625 C 0.242188 -9.425781 0.0820312 -9.488281 0 -9.59375 Z M 0 -17.65625 "/>
</symbol>
<symbol overflow="visible" id="glyph2-7">
<path style="stroke:none;" d="M 3.390625 0.703125 C 3.242188 0.703125 3.035156 0.695312 2.765625 0.6875 C 2.492188 0.675781 2.25 0.671875 2.03125 0.671875 C 1.8125 0.671875 1.5625 0.675781 1.28125 0.6875 C 1 0.695312 0.8125 0.703125 0.71875 0.703125 C 0.414062 0.703125 0.21875 0.6875 0.125 0.65625 C 0.0390625 0.632812 0 0.570312 0 0.46875 L 0 -3 C 0 -3.15625 0.0507812 -3.234375 0.15625 -3.234375 L 0.265625 -3.234375 C 0.378906 -3.210938 0.9375 -3.203125 1.9375 -3.203125 L 2.8125 -3.203125 C 3.101562 -3.203125 3.304688 -3.207031 3.421875 -3.21875 C 3.535156 -3.226562 3.628906 -3.257812 3.703125 -3.3125 C 3.785156 -3.375 3.828125 -3.484375 3.828125 -3.640625 C 3.828125 -4.421875 3.316406 -4.8125 2.296875 -4.8125 C 1.472656 -4.8125 0.800781 -4.628906 0.28125 -4.265625 L 0.28125 -7.59375 C 0.28125 -8.457031 0.953125 -8.890625 2.296875 -8.890625 C 2.828125 -8.890625 3.289062 -8.789062 3.6875 -8.59375 C 4.09375 -8.394531 4.296875 -8.0625 4.296875 -7.59375 L 4.296875 0.4375 C 4.296875 0.488281 4.28125 0.53125 4.25 0.5625 C 4.226562 0.601562 4.171875 0.628906 4.078125 0.640625 C 3.992188 0.660156 3.894531 0.675781 3.78125 0.6875 C 3.675781 0.695312 3.546875 0.703125 3.390625 0.703125 Z M 3.390625 0.703125 "/>
</symbol>
<symbol overflow="visible" id="glyph2-8">
<path style="stroke:none;" d="M 0 6.4375 L 0 -3.234375 C 0 -4.054688 0.722656 -4.46875 2.171875 -4.46875 C 2.890625 -4.46875 3.421875 -4.363281 3.765625 -4.15625 C 4.117188 -3.945312 4.296875 -3.640625 4.296875 -3.234375 L 4.296875 0.75 C 4.390625 0.0625 5.09375 -0.28125 6.40625 -0.28125 C 7.851562 -0.28125 8.578125 0.125 8.578125 0.9375 L 8.578125 4.984375 C 8.109375 4.523438 7.390625 4.296875 6.421875 4.296875 C 5.460938 4.296875 4.753906 4.523438 4.296875 4.984375 L 4.296875 0.828125 C 3.847656 0.378906 3.128906 0.15625 2.140625 0.15625 C 1.453125 0.15625 0.894531 0.34375 0.46875 0.71875 L 0.46875 5.765625 C 0.46875 6.078125 0.460938 6.304688 0.453125 6.453125 C 0.441406 6.609375 0.429688 6.722656 0.421875 6.796875 C 0.410156 6.878906 0.394531 6.929688 0.375 6.953125 C 0.363281 6.972656 0.332031 6.984375 0.28125 6.984375 C 0.195312 6.960938 0.128906 6.90625 0.078125 6.8125 C 0.0234375 6.71875 0 6.59375 0 6.4375 Z M 0 6.4375 "/>
</symbol>
<symbol overflow="visible" id="glyph2-9">
<path style="stroke:none;" d="M 1.546875 -1.484375 C 1.359375 -1.316406 1.144531 -1.234375 0.90625 -1.234375 C 0.675781 -1.234375 0.46875 -1.316406 0.28125 -1.484375 C 0.09375 -1.660156 0 -1.882812 0 -2.15625 C 0 -2.425781 0.09375 -2.644531 0.28125 -2.8125 C 0.46875 -2.988281 0.675781 -3.078125 0.90625 -3.078125 C 1.144531 -3.078125 1.359375 -2.988281 1.546875 -2.8125 C 1.734375 -2.644531 1.828125 -2.425781 1.828125 -2.15625 C 1.828125 -1.882812 1.734375 -1.660156 1.546875 -1.484375 Z M 1.546875 -1.484375 "/>
</symbol>
<symbol overflow="visible" id="glyph2-10">
<path style="stroke:none;" d="M 0 -14.234375 L 0.484375 -14.234375 L 0.484375 10.5625 L 0 10.5625 Z M 0 -14.234375 "/>
</symbol>
<symbol overflow="visible" id="glyph3-0">
<path style="stroke:none;" d="M 0.5 0 L 4.484375 0 L 4.484375 -4.828125 L 0.5 -4.828125 Z M 1 -0.5 L 1 -4.328125 L 3.984375 -4.328125 L 3.984375 -0.5 Z M 1 -0.5 "/>
</symbol>
<symbol overflow="visible" id="glyph3-1">
<path style="stroke:none;" d="M 0.21875 -3.40625 C 0.21875 -1.3125 1.671875 0.203125 3.6875 0.203125 C 5.921875 0.203125 7.609375 -1.46875 7.609375 -3.65625 C 7.609375 -5.75 6.21875 -7.0625 4 -7.0625 C 1.734375 -7.0625 0.21875 -5.59375 0.21875 -3.40625 Z M 1.28125 -3.765625 C 1.28125 -5.609375 2.203125 -6.65625 3.84375 -6.65625 C 5.546875 -6.65625 6.546875 -5.4375 6.546875 -3.359375 C 6.546875 -1.390625 5.625 -0.21875 4.09375 -0.21875 C 2.40625 -0.21875 1.28125 -1.640625 1.28125 -3.765625 Z M 1.28125 -3.765625 "/>
</symbol>
<symbol overflow="visible" id="glyph3-2">
<path style="stroke:none;" d="M 0.171875 -2.1875 L 0.21875 -2.140625 L 2.8125 -2.140625 L 3.109375 -2.8125 L 3.0625 -2.859375 L 0.4375 -2.859375 Z M 0.171875 -2.1875 "/>
</symbol>
<symbol overflow="visible" id="glyph3-3">
<path style="stroke:none;" d="M 0.15625 0.03125 C 0.578125 0.015625 1 0 1.421875 0 C 1.828125 0 2.21875 0.015625 2.609375 0.03125 L 2.609375 -0.265625 L 2.1875 -0.296875 C 1.859375 -0.3125 1.828125 -0.390625 1.828125 -1.015625 L 1.828125 -3.125 C 1.828125 -3.578125 2.484375 -4.0625 3.078125 -4.0625 C 3.625 -4.0625 3.984375 -3.5625 3.984375 -2.796875 L 3.984375 -1.015625 C 3.984375 -0.390625 3.953125 -0.3125 3.625 -0.296875 L 3.15625 -0.265625 L 3.15625 0.03125 C 3.578125 0.015625 3.984375 0 4.40625 0 C 4.828125 0 5.234375 0.015625 5.65625 0.03125 L 5.65625 -0.265625 L 5.1875 -0.296875 C 4.859375 -0.3125 4.828125 -0.390625 4.828125 -1.015625 L 4.828125 -3.125 C 4.828125 -3.578125 5.484375 -4.0625 6.078125 -4.0625 C 6.625 -4.0625 6.984375 -3.5625 6.984375 -2.796875 L 6.984375 0.03125 C 7.25 0.015625 7.515625 0 7.78125 0 C 8.078125 0 8.359375 0.015625 8.65625 0.03125 L 8.65625 -0.265625 L 8.1875 -0.296875 C 7.859375 -0.3125 7.828125 -0.390625 7.828125 -1.015625 L 7.828125 -3.078125 C 7.828125 -4.0625 7.25 -4.671875 6.328125 -4.671875 C 5.984375 -4.671875 5.6875 -4.578125 5.515625 -4.421875 L 4.75 -3.75 C 4.4375 -4.40625 4.03125 -4.671875 3.34375 -4.671875 C 2.96875 -4.671875 2.6875 -4.578125 2.515625 -4.421875 L 1.828125 -3.78125 L 1.828125 -4.640625 L 1.734375 -4.671875 C 1.21875 -4.46875 0.703125 -4.328125 0.171875 -4.265625 L 0.171875 -3.984375 L 0.546875 -3.984375 C 0.953125 -3.984375 0.984375 -3.921875 0.984375 -3.265625 L 0.984375 -1.015625 C 0.984375 -0.390625 0.953125 -0.3125 0.625 -0.296875 L 0.15625 -0.265625 Z M 0.15625 0.03125 "/>
</symbol>
<symbol overflow="visible" id="glyph3-4">
<path style="stroke:none;" d="M 0.203125 0.03125 C 0.625 0.015625 1.03125 0 1.453125 0 C 1.875 0 2.28125 0.015625 2.703125 0.03125 L 2.703125 -0.265625 L 2.25 -0.296875 C 1.90625 -0.3125 1.875 -0.390625 1.875 -1.015625 L 1.875 -4.640625 L 1.78125 -4.671875 C 1.28125 -4.46875 0.75 -4.328125 0.234375 -4.265625 L 0.234375 -3.984375 L 0.59375 -3.984375 C 1 -3.984375 1.03125 -3.921875 1.03125 -3.265625 L 1.03125 -1.015625 C 1.03125 -0.390625 1 -0.3125 0.671875 -0.296875 L 0.203125 -0.265625 Z M 0.953125 -5.90625 C 0.953125 -5.609375 1.15625 -5.40625 1.453125 -5.40625 C 1.75 -5.40625 1.953125 -5.609375 1.953125 -5.90625 C 1.953125 -6.1875 1.75 -6.40625 1.46875 -6.40625 C 1.15625 -6.40625 0.953125 -6.203125 0.953125 -5.90625 Z M 0.953125 -5.90625 "/>
</symbol>
<symbol overflow="visible" id="glyph3-5">
<path style="stroke:none;" d="M 0.0625 0.03125 C 0.46875 0.015625 0.890625 0 1.296875 0 C 1.703125 0 2.125 0.015625 2.53125 0.03125 L 2.53125 -0.265625 L 2.078125 -0.296875 C 1.75 -0.3125 1.71875 -0.390625 1.71875 -1.015625 L 1.71875 -3.125 C 1.71875 -3.578125 2.375 -4.0625 2.984375 -4.0625 C 3.65625 -4.0625 4.09375 -3.5625 4.09375 -2.796875 L 4.09375 0.03125 C 4.34375 0.015625 4.609375 0 4.875 0 C 5.15625 0 5.421875 0.015625 5.703125 0.03125 L 5.703125 -0.265625 L 5.296875 -0.296875 C 4.953125 -0.3125 4.921875 -0.375 4.921875 -1.015625 L 4.921875 -2.9375 C 4.921875 -4.109375 4.375 -4.671875 3.265625 -4.671875 C 2.890625 -4.671875 2.6875 -4.609375 2.46875 -4.421875 L 1.71875 -3.765625 L 1.71875 -4.640625 L 1.625 -4.671875 C 1.109375 -4.46875 0.59375 -4.328125 0.0625 -4.265625 L 0.0625 -3.984375 L 0.4375 -3.984375 C 0.84375 -3.984375 0.875 -3.921875 0.875 -3.265625 L 0.875 -1.015625 C 0.875 -0.390625 0.84375 -0.3125 0.515625 -0.296875 L 0.0625 -0.265625 Z M 0.0625 0.03125 "/>
</symbol>
<symbol overflow="visible" id="glyph3-6">
<path style="stroke:none;" d="M 0.265625 -2.1875 C 0.265625 -1.5625 0.40625 -1.015625 0.671875 -0.640625 C 1.0625 -0.109375 1.75 0.203125 2.5 0.203125 C 2.859375 0.203125 3.234375 0.125 3.640625 -0.0625 C 3.90625 -0.171875 4.109375 -0.296875 4.15625 -0.359375 L 4.359375 -0.703125 L 4.234375 -0.796875 C 3.59375 -0.421875 3.359375 -0.328125 2.9375 -0.328125 C 2.28125 -0.328125 1.75 -0.625 1.46875 -1.109375 C 1.28125 -1.4375 1.203125 -1.71875 1.1875 -2.296875 L 2.640625 -2.296875 C 3.328125 -2.296875 3.765625 -2.328125 4.453125 -2.4375 C 4.453125 -2.578125 4.46875 -2.65625 4.46875 -2.78125 C 4.46875 -3.921875 3.734375 -4.671875 2.609375 -4.671875 C 2.25 -4.671875 1.8125 -4.546875 1.40625 -4.3125 C 0.59375 -3.84375 0.265625 -3.21875 0.265625 -2.1875 Z M 1.203125 -2.6875 C 1.203125 -3.15625 1.25 -3.375 1.375 -3.640625 C 1.578125 -4.078125 2.015625 -4.34375 2.5 -4.34375 C 2.828125 -4.34375 3.078125 -4.21875 3.265625 -3.953125 C 3.484375 -3.625 3.578125 -3.328125 3.578125 -2.65625 L 2.46875 -2.625 C 2 -2.625 1.75 -2.640625 1.203125 -2.6875 Z M 1.203125 -2.6875 "/>
</symbol>
<symbol overflow="visible" id="glyph3-7">
<path style="stroke:none;" d="M 0.078125 2.5 L 0.078125 2.796875 C 0.5 2.78125 0.90625 2.765625 1.328125 2.765625 C 1.75 2.765625 2.15625 2.78125 2.578125 2.796875 L 2.578125 2.5 L 2.109375 2.46875 C 1.78125 2.453125 1.75 2.375 1.75 1.75 L 1.75 -0.125 C 2.046875 0.046875 2.359375 0.125 2.8125 0.125 C 3.09375 0.125 3.359375 0.0625 3.515625 -0.046875 L 4.65625 -0.78125 C 5.046875 -1.03125 5.515625 -2.0625 5.515625 -2.703125 C 5.515625 -3.8125 4.609375 -4.671875 3.453125 -4.671875 C 3.078125 -4.671875 2.71875 -4.578125 2.5625 -4.421875 L 1.75 -3.671875 L 1.75 -4.640625 L 1.65625 -4.671875 C 1.140625 -4.46875 0.625 -4.328125 0.09375 -4.265625 L 0.09375 -3.984375 L 0.46875 -3.984375 C 0.875 -3.984375 0.90625 -3.921875 0.90625 -3.265625 L 0.90625 1.75 C 0.90625 2.375 0.875 2.453125 0.53125 2.46875 Z M 1.75 -0.984375 L 1.75 -3.046875 C 1.75 -3.1875 1.796875 -3.296875 1.921875 -3.46875 C 2.21875 -3.84375 2.625 -4.03125 3.125 -4.03125 C 4.0625 -4.03125 4.65625 -3.375 4.65625 -2.328125 C 4.65625 -1.21875 3.984375 -0.390625 3.09375 -0.390625 C 2.546875 -0.390625 2.140625 -0.5625 1.75 -0.984375 Z M 1.75 -0.984375 "/>
</symbol>
<symbol overflow="visible" id="glyph3-8">
<path style="stroke:none;" d="M 0.203125 0.03125 C 0.625 0.015625 1.03125 0 1.4375 0 C 1.90625 0 2.375 0.015625 2.859375 0.03125 L 2.859375 -0.265625 L 2.34375 -0.296875 C 1.890625 -0.328125 1.875 -0.359375 1.875 -1.015625 L 1.875 -2.734375 C 1.875 -3.328125 2.265625 -3.828125 2.765625 -3.828125 C 3.0625 -3.828125 3.265625 -3.6875 3.421875 -3.375 L 3.640625 -3.375 L 3.734375 -4.5625 C 3.625 -4.640625 3.4375 -4.671875 3.265625 -4.671875 C 2.953125 -4.671875 2.640625 -4.515625 2.4375 -4.265625 L 1.875 -3.609375 L 1.875 -4.640625 L 1.78125 -4.671875 C 1.28125 -4.46875 0.75 -4.328125 0.234375 -4.265625 L 0.234375 -3.984375 L 0.59375 -3.984375 C 1 -3.984375 1.03125 -3.921875 1.03125 -3.265625 L 1.03125 -1.015625 C 1.03125 -0.390625 1 -0.3125 0.671875 -0.296875 L 0.203125 -0.265625 Z M 0.203125 0.03125 "/>
</symbol>
<symbol overflow="visible" id="glyph3-9">
<path style="stroke:none;" d="M 0.3125 -2.15625 C 0.3125 -0.75 1.203125 0.203125 2.5 0.203125 C 4.03125 0.203125 5.125 -0.875 5.125 -2.359375 C 5.125 -3.703125 4.140625 -4.671875 2.78125 -4.671875 C 1.328125 -4.671875 0.3125 -3.65625 0.3125 -2.15625 Z M 1.25 -2.5 C 1.25 -3.703125 1.71875 -4.34375 2.609375 -4.34375 C 3.515625 -4.34375 4.203125 -3.34375 4.203125 -2 C 4.203125 -0.84375 3.6875 -0.125 2.875 -0.125 C 1.90625 -0.125 1.25 -1.09375 1.25 -2.5 Z M 1.25 -2.5 "/>
</symbol>
<symbol overflow="visible" id="glyph3-10">
<path style="stroke:none;" d="M -0.15625 -6.59375 L 0.40625 -6.59375 C 0.59375 -6.59375 0.65625 -6.484375 0.65625 -6.1875 L 0.65625 -1.53125 C 0.65625 -0.90625 0.640625 -0.640625 0.578125 0.0625 L 0.734375 0.125 L 1.140625 -0.234375 C 1.53125 0.015625 1.890625 0.125 2.421875 0.125 C 2.8125 0.125 3.078125 0.046875 3.28125 -0.09375 L 4.28125 -0.8125 C 4.71875 -1.140625 5.0625 -1.96875 5.0625 -2.6875 C 5.0625 -3.84375 4.3125 -4.671875 3.265625 -4.671875 C 2.796875 -4.671875 2.296875 -4.5 2.046875 -4.234375 L 1.5 -3.671875 L 1.5 -7.15625 L 1.40625 -7.234375 C 0.96875 -7.0625 0.640625 -6.984375 -0.15625 -6.875 Z M 1.5 -0.921875 L 1.5 -3.078125 C 1.5 -3.203125 1.59375 -3.390625 1.75 -3.5625 C 2.03125 -3.859375 2.421875 -4.03125 2.828125 -4.03125 C 3.671875 -4.03125 4.203125 -3.34375 4.203125 -2.28125 C 4.203125 -1.171875 3.59375 -0.390625 2.75 -0.390625 C 2.234375 -0.390625 1.5 -0.703125 1.5 -0.921875 Z M 1.5 -0.921875 "/>
</symbol>
<symbol overflow="visible" id="glyph3-11">
<path style="stroke:none;" d="M 0.3125 -1.109375 C 0.3125 -0.328125 0.78125 0.125 1.578125 0.125 C 1.75 0.125 1.921875 0.09375 2 0.046875 L 3.234375 -0.8125 L 3.1875 0.03125 C 3.4375 0.015625 3.703125 0 3.953125 0 C 4.203125 0 4.453125 0.015625 4.6875 0.03125 L 4.6875 -0.265625 L 4.3125 -0.296875 C 4.0625 -0.296875 4.03125 -0.375 4.03125 -0.875 L 4.03125 -2.6875 C 4.03125 -4.140625 3.609375 -4.671875 2.453125 -4.671875 C 2.03125 -4.671875 1.625 -4.5625 1.25 -4.34375 L 0.71875 -4.015625 L 0.71875 -3.375 L 0.984375 -3.296875 L 1.109375 -3.609375 C 1.3125 -4.078125 1.421875 -4.140625 1.875 -4.140625 C 2.8125 -4.140625 3.203125 -3.78125 3.234375 -2.875 L 2.25 -2.6875 C 0.890625 -2.4375 0.3125 -1.96875 0.3125 -1.109375 Z M 1.171875 -1.25 C 1.171875 -1.609375 1.375 -1.96875 1.671875 -2.15625 C 1.921875 -2.296875 2.46875 -2.4375 3.234375 -2.546875 L 3.234375 -1.234375 C 2.9375 -0.828125 2.3125 -0.453125 1.921875 -0.453125 C 1.53125 -0.453125 1.171875 -0.8125 1.171875 -1.25 Z M 1.5625 -5.046875 L 1.96875 -5.046875 L 3.40625 -5.9375 C 3.734375 -6.15625 3.796875 -6.234375 3.796875 -6.40625 C 3.796875 -6.59375 3.65625 -6.75 3.484375 -6.75 C 3.34375 -6.75 3.15625 -6.640625 2.9375 -6.421875 Z M 1.5625 -5.046875 "/>
</symbol>
<symbol overflow="visible" id="glyph3-12">
<path style="stroke:none;" d="M 0.296875 -0.046875 C 0.8125 0.125 1.203125 0.203125 1.671875 0.203125 C 2.96875 0.203125 3.890625 -0.5 3.890625 -1.46875 C 3.890625 -1.78125 3.8125 -2.015625 3.625 -2.21875 C 3.359375 -2.46875 3.03125 -2.578125 2.15625 -2.75 C 1.328125 -2.90625 1.0625 -3.109375 1.0625 -3.5625 C 1.0625 -4.0625 1.421875 -4.34375 2.03125 -4.34375 C 2.6875 -4.34375 3.203125 -4 3.203125 -3.53125 L 3.203125 -3.296875 L 3.484375 -3.296875 C 3.484375 -3.875 3.5 -4.109375 3.53125 -4.421875 C 3 -4.609375 2.640625 -4.671875 2.234375 -4.671875 C 1.078125 -4.671875 0.375 -4.125 0.375 -3.234375 C 0.375 -2.75 0.59375 -2.40625 1.046875 -2.203125 C 1.3125 -2.078125 1.84375 -1.921875 2.515625 -1.78125 C 2.96875 -1.671875 3.15625 -1.46875 3.15625 -1.09375 C 3.15625 -0.546875 2.65625 -0.171875 1.953125 -0.171875 C 1.21875 -0.171875 0.703125 -0.515625 0.703125 -1.015625 L 0.703125 -1.421875 L 0.40625 -1.421875 C 0.40625 -0.734375 0.375 -0.4375 0.296875 -0.046875 Z M 0.296875 -0.046875 "/>
</symbol>
<symbol overflow="visible" id="glyph3-13">
<path style="stroke:none;" d="M 0.21875 -3.765625 L 0.984375 -3.8125 L 0.984375 -0.9375 C 0.984375 -0.203125 1.3125 0.125 2.078125 0.125 C 2.296875 0.125 2.546875 0.0625 2.609375 0 L 3.078125 -0.53125 L 2.953125 -0.703125 C 2.703125 -0.5625 2.546875 -0.515625 2.359375 -0.515625 C 1.96875 -0.515625 1.8125 -0.703125 1.8125 -1.203125 L 1.8125 -3.8125 L 3.09375 -3.8125 L 3.1875 -4.34375 L 1.8125 -4.28125 L 1.8125 -4.671875 C 1.8125 -5.078125 1.84375 -5.4375 1.921875 -6.078125 L 1.796875 -6.1875 C 1.5625 -6.046875 1.265625 -5.90625 0.953125 -5.8125 C 0.984375 -5.515625 1 -5.328125 1 -5.03125 L 1 -4.328125 L 0.21875 -3.984375 Z M 0.21875 -3.765625 "/>
</symbol>
<symbol overflow="visible" id="glyph3-14">
<path style="stroke:none;" d="M 0.265625 -2.09375 C 0.265625 -0.75 1.203125 0.203125 2.546875 0.203125 C 3.0625 0.203125 3.8125 0.015625 3.90625 -0.140625 L 4.109375 -0.453125 L 4.015625 -0.609375 C 3.65625 -0.40625 3.328125 -0.3125 2.96875 -0.3125 C 1.859375 -0.3125 1.140625 -1.171875 1.140625 -2.5 C 1.140625 -3.5625 1.640625 -4.15625 2.53125 -4.15625 C 2.96875 -4.15625 3.453125 -3.953125 3.625 -3.703125 L 3.703125 -3.09375 L 3.984375 -3.09375 C 3.984375 -3.5625 4.03125 -3.96875 4.109375 -4.328125 C 3.71875 -4.5625 3.375 -4.671875 2.953125 -4.671875 C 2.484375 -4.671875 1.921875 -4.484375 1.328125 -4.109375 C 0.625 -3.671875 0.265625 -2.96875 0.265625 -2.09375 Z M 0.265625 -2.09375 "/>
</symbol>
<symbol overflow="visible" id="glyph3-15">
<path style="stroke:none;" d="M 0.3125 1.28125 C 0.3125 2.1875 1.203125 2.828125 2.46875 2.828125 C 3.984375 2.828125 5.15625 1.875 5.15625 0.65625 C 5.15625 -0.0625 4.6875 -0.5625 3.984375 -0.5625 L 2.390625 -0.5625 C 1.875 -0.5625 1.640625 -0.671875 1.640625 -0.953125 C 1.640625 -1.078125 1.71875 -1.1875 1.96875 -1.40625 C 2.03125 -1.453125 2.046875 -1.46875 2.09375 -1.515625 C 2.1875 -1.5 2.25 -1.5 2.328125 -1.5 C 2.765625 -1.5 3.296875 -1.6875 3.703125 -1.96875 C 4.140625 -2.296875 4.359375 -2.703125 4.359375 -3.234375 C 4.359375 -3.421875 4.34375 -3.5625 4.25 -3.765625 L 5.171875 -3.765625 L 5.421875 -4.171875 L 5.390625 -4.296875 L 3.96875 -4.25 C 3.59375 -4.5625 3.234375 -4.671875 2.75 -4.671875 C 2.3125 -4.671875 1.796875 -4.53125 1.390625 -4.296875 C 0.84375 -3.984375 0.546875 -3.484375 0.546875 -2.875 C 0.546875 -2.140625 1 -1.640625 1.75 -1.5625 L 0.953125 -0.953125 C 0.859375 -0.796875 0.8125 -0.671875 0.8125 -0.515625 C 0.8125 -0.234375 0.984375 -0.078125 1.46875 0.0625 L 0.59375 0.53125 C 0.453125 0.609375 0.3125 0.984375 0.3125 1.28125 Z M 1.078125 1.265625 C 1.078125 0.8125 1.328125 0.421875 1.734375 0.234375 C 1.890625 0.171875 2.171875 0.140625 2.859375 0.140625 C 3.984375 0.140625 4.375 0.375 4.375 1.015625 C 4.375 1.875 3.59375 2.515625 2.546875 2.515625 C 1.671875 2.515625 1.078125 2 1.078125 1.265625 Z M 1.390625 -3.125 C 1.390625 -3.890625 1.75 -4.34375 2.390625 -4.34375 C 3.078125 -4.34375 3.53125 -3.78125 3.53125 -2.9375 C 3.53125 -2.28125 3.109375 -1.828125 2.5 -1.828125 C 1.828125 -1.828125 1.390625 -2.359375 1.390625 -3.125 Z M 1.390625 -3.125 "/>
</symbol>
<symbol overflow="visible" id="glyph3-16">
<path style="stroke:none;" d="M 0.0625 -4.296875 L 0.40625 -4.28125 C 0.578125 -4.265625 0.609375 -4.171875 0.703125 -3.953125 L 2.421875 0.0625 L 2.921875 0.0625 C 2.984375 -0.265625 3.125 -0.5625 3.328125 -1.015625 L 4.5 -3.609375 C 4.734375 -4.109375 4.859375 -4.265625 5.0625 -4.28125 L 5.375 -4.296875 L 5.375 -4.578125 C 5.0625 -4.5625 4.75 -4.546875 4.4375 -4.546875 C 4.125 -4.546875 3.8125 -4.5625 3.5 -4.578125 L 3.5 -4.296875 L 3.90625 -4.28125 C 4.234375 -4.25 4.234375 -3.96875 3.953125 -3.296875 L 3.53125 -2.234375 L 2.921875 -0.84375 L 1.734375 -3.703125 C 1.625 -3.984375 1.578125 -4.265625 1.890625 -4.28125 L 2.375 -4.296875 L 2.375 -4.578125 C 2 -4.5625 1.609375 -4.546875 1.21875 -4.546875 C 0.828125 -4.546875 0.453125 -4.5625 0.0625 -4.578125 Z M 0.0625 -4.296875 "/>
</symbol>
<symbol overflow="visible" id="glyph3-17">
<path style="stroke:none;" d="M 0.203125 0.03125 C 0.625 0.015625 1.03125 0 1.453125 0 C 1.875 0 2.28125 0.015625 2.703125 0.03125 L 2.703125 -0.265625 L 2.25 -0.296875 C 1.90625 -0.3125 1.875 -0.390625 1.875 -1.015625 L 1.875 -4.640625 L 1.78125 -4.671875 C 1.28125 -4.46875 0.75 -4.328125 0.234375 -4.265625 L 0.234375 -3.984375 L 0.59375 -3.984375 C 1 -3.984375 1.03125 -3.921875 1.03125 -3.265625 L 1.03125 -1.015625 C 1.03125 -0.390625 1 -0.3125 0.671875 -0.296875 L 0.203125 -0.265625 Z M 0.5625 -5.046875 L 0.96875 -5.046875 L 2.40625 -5.9375 C 2.734375 -6.15625 2.796875 -6.234375 2.796875 -6.40625 C 2.796875 -6.59375 2.65625 -6.75 2.5 -6.75 C 2.34375 -6.75 2.15625 -6.640625 1.9375 -6.421875 Z M 0.5625 -5.046875 "/>
</symbol>
<symbol overflow="visible" id="glyph3-18">
<path style="stroke:none;" d="M 0.671875 -0.53125 C 0.671875 -0.234375 0.9375 0.046875 1.21875 0.046875 C 1.546875 0.046875 1.828125 -0.21875 1.828125 -0.53125 C 1.828125 -0.828125 1.546875 -1.109375 1.234375 -1.109375 C 0.9375 -1.109375 0.671875 -0.828125 0.671875 -0.53125 Z M 0.671875 -0.53125 "/>
</symbol>
<symbol overflow="visible" id="glyph4-0">
<path style="stroke:none;" d="M 0.328125 0 L 0.328125 -6.640625 L 2.96875 -6.640625 L 2.96875 0 Z M 0.65625 -0.328125 L 2.640625 -0.328125 L 2.640625 -6.3125 L 0.65625 -6.3125 Z M 0.65625 -0.328125 "/>
</symbol>
<symbol overflow="visible" id="glyph4-1">
<path style="stroke:none;" d="M 2.40625 -3.875 L 2.40625 -3.953125 C 2.132812 -3.785156 1.960938 -3.664062 1.890625 -3.59375 C 1.816406 -3.53125 1.675781 -3.378906 1.46875 -3.140625 C 1.320312 -2.984375 1.179688 -2.90625 1.046875 -2.90625 C 0.828125 -2.9375 0.707031 -3.050781 0.6875 -3.25 C 0.6875 -3.4375 0.816406 -3.570312 1.078125 -3.65625 C 1.140625 -3.664062 1.21875 -3.679688 1.3125 -3.703125 C 1.65625 -3.765625 1.957031 -3.875 2.21875 -4.03125 C 2.25 -4.050781 2.285156 -4.070312 2.328125 -4.09375 L 2.21875 -4.171875 C 2.03125 -4.296875 1.742188 -4.394531 1.359375 -4.46875 C 0.921875 -4.539062 0.695312 -4.695312 0.6875 -4.9375 C 0.6875 -5.101562 0.765625 -5.21875 0.921875 -5.28125 C 0.960938 -5.289062 1 -5.296875 1.03125 -5.296875 C 1.164062 -5.296875 1.320312 -5.1875 1.5 -4.96875 C 1.78125 -4.664062 2.066406 -4.429688 2.359375 -4.265625 L 2.40625 -4.25 L 2.40625 -4.375 C 2.40625 -4.644531 2.351562 -4.945312 2.25 -5.28125 C 2.1875 -5.507812 2.15625 -5.679688 2.15625 -5.796875 C 2.15625 -5.960938 2.234375 -6.070312 2.390625 -6.125 C 2.421875 -6.132812 2.457031 -6.140625 2.5 -6.140625 C 2.664062 -6.140625 2.78125 -6.0625 2.84375 -5.90625 C 2.851562 -5.863281 2.859375 -5.816406 2.859375 -5.765625 C 2.859375 -5.671875 2.828125 -5.519531 2.765625 -5.3125 C 2.648438 -4.988281 2.59375 -4.710938 2.59375 -4.484375 L 2.59375 -4.234375 L 2.65625 -4.265625 C 2.882812 -4.390625 3.125 -4.601562 3.375 -4.90625 C 3.613281 -5.175781 3.800781 -5.3125 3.9375 -5.3125 C 4.125 -5.3125 4.238281 -5.222656 4.28125 -5.046875 C 4.289062 -5.003906 4.296875 -4.960938 4.296875 -4.921875 C 4.296875 -4.734375 4.191406 -4.609375 3.984375 -4.546875 C 3.921875 -4.535156 3.851562 -4.519531 3.78125 -4.5 C 3.445312 -4.445312 3.125 -4.335938 2.8125 -4.171875 L 2.671875 -4.09375 L 2.75 -4.03125 C 3.019531 -3.863281 3.34375 -3.753906 3.71875 -3.703125 C 4.0625 -3.648438 4.253906 -3.539062 4.296875 -3.375 L 4.3125 -3.265625 C 4.3125 -3.054688 4.21875 -2.9375 4.03125 -2.90625 L 3.953125 -2.890625 C 3.785156 -2.890625 3.585938 -3.03125 3.359375 -3.3125 C 3.097656 -3.625 2.863281 -3.828125 2.65625 -3.921875 L 2.59375 -3.953125 L 2.59375 -3.875 C 2.59375 -3.488281 2.660156 -3.117188 2.796875 -2.765625 C 2.847656 -2.617188 2.875 -2.507812 2.875 -2.4375 C 2.875 -2.269531 2.789062 -2.148438 2.625 -2.078125 C 2.582031 -2.054688 2.535156 -2.046875 2.484375 -2.046875 C 2.328125 -2.046875 2.21875 -2.117188 2.15625 -2.265625 C 2.144531 -2.316406 2.140625 -2.363281 2.140625 -2.40625 C 2.140625 -2.53125 2.175781 -2.6875 2.25 -2.875 C 2.351562 -3.164062 2.40625 -3.414062 2.40625 -3.625 Z M 2.40625 -3.875 "/>
</symbol>
</g>
<clipPath id="clip1">
  <path d="M 35 6 L 341.761719 6 L 341.761719 8 L 35 8 Z M 35 6 "/>
</clipPath>
<clipPath id="clip2">
  <path d="M 35 14 L 341.761719 14 L 341.761719 16 L 35 16 Z M 35 14 "/>
</clipPath>
<clipPath id="clip3">
  <path d="M 35 23 L 341.761719 23 L 341.761719 24 L 35 24 Z M 35 23 "/>
</clipPath>
<clipPath id="clip4">
  <path d="M 35 31 L 341.761719 31 L 341.761719 32 L 35 32 Z M 35 31 "/>
</clipPath>
</defs>
<g id="surface1">
<g style="fill:rgb(0%,0%,0%);fill-opacity:1;">
  <use xlink:href="#glyph0-1" x="-0.331" y="48.711"/>
</g>
<g style="fill:rgb(0%,0%,0%);fill-opacity:1;">
  <use xlink:href="#glyph1-1" x="10.459" y="12.388"/>
  <use xlink:href="#glyph1-1" x="13.547418" y="12.388"/>
  <use xlink:href="#glyph1-1" x="16.635837" y="12.388"/>
</g>
<g clip-path="url(#clip1)" clip-rule="nonzero">
<path style="fill:none;stroke-width:0.388;stroke-linecap:butt;stroke-linejoin:miter;stroke:rgb(0%,0%,0%);stroke-opacity:1;stroke-miterlimit:10;" d="M 0.00059375 -0.0010625 L 305.578719 -0.0010625 " transform="matrix(1,0,0,-1,36.183,6.913)"/>
</g>
<g clip-path="url(#clip2)" clip-rule="nonzero">
<path style="fill:none;stroke-width:0.388;stroke-linecap:butt;stroke-linejoin:miter;stroke:rgb(0%,0%,0%);stroke-opacity:1;stroke-miterlimit:10;" d="M 0.00059375 -0.0006875 L 305.578719 -0.0006875 " transform="matrix(1,0,0,-1,36.183,15.054)"/>
</g>
<g clip-path="url(#clip3)" clip-rule="nonzero">
<path style="fill:none;stroke-width:0.388;stroke-linecap:butt;stroke-linejoin:miter;stroke:rgb(0%,0%,0%);stroke-opacity:1;stroke-miterlimit:10;" d="M 0.00059375 -0.0013125 L 305.578719 -0.0013125 " transform="matrix(1,0,0,-1,36.183,23.194)"/>
</g>
<g clip-path="url(#clip4)" clip-rule="nonzero">
<path style="fill:none;stroke-width:0.388;stroke-linecap:butt;stroke-linejoin:miter;stroke:rgb(0%,0%,0%);stroke-opacity:1;stroke-miterlimit:10;" d="M 0.00059375 -0.0009375 L 305.578719 -0.0009375 " transform="matrix(1,0,0,-1,36.183,31.335)"/>
</g>
<g style="fill:rgb(0%,0%,0%);fill-opacity:1;">
  <use xlink:href="#glyph2-1" x="36.183" y="12.792"/>
</g>
<g style="fill:rgb(0%,0%,0%);fill-opacity:1;">
  <use xlink:href="#glyph3-1" x="45.222" y="48.711"/>
  <use xlink:href="#glyph3-2" x="53.052635" y="48.711"/>
</g>
<g style="fill:rgb(0%,0%,0%);fill-opacity:1;">
  <use xlink:href="#glyph2-2" x="46.992" y="20.933"/>
</g>
<g style="fill:rgb(0%,0%,0%);fill-opacity:1;">
  <use xlink:href="#glyph3-3" x="56.37" y="48.711"/>
  <use xlink:href="#glyph3-4" x="65.167011" y="48.711"/>
</g>
<g style="fill:rgb(0%,0%,0%);fill-opacity:1;">
  <use xlink:href="#glyph2-2" x="60.053" y="16.863"/>
</g>
<g style="fill:rgb(0%,0%,0%);fill-opacity:1;">
  <use xlink:href="#glyph3-5" x="68.026" y="48.711"/>
  <use xlink:href="#glyph3-6" x="73.824256" y="48.711"/>
</g>
<g style="fill:rgb(0%,0%,0%);fill-opacity:1;">
  <use xlink:href="#glyph2-3" x="71.167" y="16.863"/>
</g>
<g style="fill:rgb(0%,0%,0%);fill-opacity:1;">
  <use xlink:href="#glyph4-1" x="83.699" y="48.711"/>
</g>
<g style="fill:rgb(0%,0%,0%);fill-opacity:1;">
  <use xlink:href="#glyph3-7" x="93.623" y="48.711"/>
  <use xlink:href="#glyph3-8" x="99.610547" y="48.711"/>
  <use xlink:href="#glyph3-9" x="103.545789" y="48.711"/>
</g>
<g style="fill:rgb(0%,0%,0%);fill-opacity:1;">
  <use xlink:href="#glyph2-2" x="99.159" y="12.792"/>
</g>
<g style="fill:rgb(0%,0%,0%);fill-opacity:1;">
  <use xlink:href="#glyph3-10" x="108.985" y="48.711"/>
  <use xlink:href="#glyph3-11" x="114.49434" y="48.711"/>
  <use xlink:href="#glyph3-2" x="119.47566" y="48.711"/>
</g>
<g style="fill:rgb(0%,0%,0%);fill-opacity:1;">
  <use xlink:href="#glyph2-2" x="112.086" y="16.863"/>
</g>
<g style="fill:rgb(0%,0%,0%);fill-opacity:1;">
  <use xlink:href="#glyph2-4" x="113.791" y="21.291"/>
</g>
<g style="fill:rgb(0%,0%,0%);fill-opacity:1;">
  <use xlink:href="#glyph3-12" x="122.794" y="48.711"/>
</g>
<g style="fill:rgb(0%,0%,0%);fill-opacity:1;">
  <use xlink:href="#glyph3-13" x="126.86872" y="48.711"/>
  <use xlink:href="#glyph3-4" x="130.11654" y="48.711"/>
</g>
<g style="fill:rgb(0%,0%,0%);fill-opacity:1;">
  <use xlink:href="#glyph2-2" x="125.74" y="20.933"/>
</g>
<g style="fill:rgb(0%,0%,0%);fill-opacity:1;">
  <use xlink:href="#glyph3-3" x="137.794" y="48.711"/>
  <use xlink:href="#glyph3-6" x="146.591011" y="48.711"/>
</g>
<g style="fill:rgb(0%,0%,0%);fill-opacity:1;">
  <use xlink:href="#glyph2-2" x="142.434" y="16.863"/>
</g>
<g style="fill:rgb(0%,0%,0%);fill-opacity:1;">
  <use xlink:href="#glyph2-5" x="142.434" y="9.939"/>
</g>
<g style="fill:rgb(0%,0%,0%);fill-opacity:1;">
  <use xlink:href="#glyph2-4" x="144.139" y="21.291"/>
</g>
<g style="fill:rgb(0%,0%,0%);fill-opacity:1;">
  <use xlink:href="#glyph2-6" x="152.423" y="20.933"/>
</g>
<g style="fill:rgb(0%,0%,0%);fill-opacity:1;">
  <use xlink:href="#glyph3-6" x="156.749" y="48.711"/>
  <use xlink:href="#glyph3-13" x="161.521105" y="48.711"/>
</g>
<g style="fill:rgb(0%,0%,0%);fill-opacity:1;">
  <use xlink:href="#glyph2-2" x="158.614" y="20.933"/>
</g>
<g style="fill:rgb(0%,0%,0%);fill-opacity:1;">
  <use xlink:href="#glyph3-14" x="169.588" y="48.711"/>
  <use xlink:href="#glyph3-9" x="174.011412" y="48.711"/>
</g>
<g style="fill:rgb(0%,0%,0%);fill-opacity:1;">
  <use xlink:href="#glyph2-2" x="172.375" y="29.073"/>
</g>
<g style="fill:rgb(0%,0%,0%);fill-opacity:1;">
  <use xlink:href="#glyph2-4" x="174.08" y="35.333"/>
</g>
<g style="fill:rgb(0%,0%,0%);fill-opacity:1;">
  <use xlink:href="#glyph3-15" x="179.451" y="48.711"/>
  <use xlink:href="#glyph3-5" x="184.990228" y="48.711"/>
  <use xlink:href="#glyph3-9" x="190.788484" y="48.711"/>
</g>
<g style="fill:rgb(0%,0%,0%);fill-opacity:1;">
  <use xlink:href="#glyph2-2" x="185.695" y="25.003"/>
</g>
<g style="fill:rgb(0%,0%,0%);fill-opacity:1;">
  <use xlink:href="#glyph3-16" x="196.228" y="48.711"/>
  <use xlink:href="#glyph3-17" x="201.856892" y="48.711"/>
  <use xlink:href="#glyph3-2" x="204.716169" y="48.711"/>
</g>
<g style="fill:rgb(0%,0%,0%);fill-opacity:1;">
  <use xlink:href="#glyph2-7" x="198.327" y="20.933"/>
</g>
<g style="fill:rgb(0%,0%,0%);fill-opacity:1;">
  <use xlink:href="#glyph3-12" x="208.62" y="48.711"/>
</g>
<g style="fill:rgb(0%,0%,0%);fill-opacity:1;">
  <use xlink:href="#glyph3-13" x="212.69472" y="48.711"/>
  <use xlink:href="#glyph3-4" x="215.94254" y="48.711"/>
</g>
<g style="fill:rgb(0%,0%,0%);fill-opacity:1;">
  <use xlink:href="#glyph2-8" x="209.42" y="20.933"/>
</g>
<g style="fill:rgb(0%,0%,0%);fill-opacity:1;">
  <use xlink:href="#glyph3-3" x="223.62" y="48.711"/>
  <use xlink:href="#glyph3-6" x="232.417011" y="48.711"/>
  <use xlink:href="#glyph3-18" x="237.189116" y="48.711"/>
</g>
<g style="fill:rgb(0%,0%,0%);fill-opacity:1;">
  <use xlink:href="#glyph2-2" x="229.505" y="29.073"/>
</g>
<g style="fill:rgb(0%,0%,0%);fill-opacity:1;">
  <use xlink:href="#glyph2-9" x="235.212" y="29.644"/>
</g>
<g style="fill:rgb(0%,0%,0%);fill-opacity:1;">
  <use xlink:href="#glyph2-10" x="243.481" y="20.933"/>
</g>
<g style="fill:rgb(0%,0%,0%);fill-opacity:1;">
  <use xlink:href="#glyph2-10" x="247.073181" y="20.933"/>
</g>
</g>
</svg>
