<?xml version="1.0" encoding="UTF-8"?>
<svg xmlns="http://www.w3.org/2000/svg" xmlns:xlink="http://www.w3.org/1999/xlink" width="348pt" height="159pt" viewBox="0 0 348 159" version="1.1">
<defs>
<g>
<symbol overflow="visible" id="glyph0-0">
<path style="stroke:none;" d="M 2 0 L 17.9375 0 L 17.9375 -19.28125 L 2 -19.28125 Z M 3.984375 -2 L 3.984375 -17.296875 L 15.9375 -17.296875 L 15.9375 -2 Z M 3.984375 -2 "/>
</symbol>
<symbol overflow="visible" id="glyph0-1">
<path style="stroke:none;" d="M 0.59375 0.125 C 2.03125 0.046875 3.5 0 4.9375 0 C 6.53125 0 8.171875 0.046875 9.765625 0.125 L 9.765625 -1.078125 L 8.28125 -1.203125 C 6.890625 -1.3125 6.375 -1.59375 6.375 -2.234375 C 6.375 -2.75 6.9375 -4.46875 7.765625 -6.453125 L 8.890625 -9.125 L 20.359375 -9.125 L 22.1875 -4.546875 C 22.875 -2.875 23.03125 -2.34375 23.03125 -2 C 23.03125 -1.546875 22.390625 -1.28125 21.390625 -1.203125 L 19.53125 -1.078125 L 19.53125 0.125 C 21.359375 0.046875 23.234375 0 25.0625 0 C 26.734375 0 28.453125 0.046875 30.125 0.125 L 30.125 -1.078125 L 28.765625 -1.203125 C 27.734375 -1.28125 27.296875 -2.03125 25.90625 -5.265625 L 16.25 -27.890625 L 14.984375 -27.890625 C 14.984375 -27.890625 14.546875 -26.53125 13.03125 -23.15625 L 4.21875 -3.140625 C 3.703125 -2 2.953125 -1.28125 2.078125 -1.203125 L 0.59375 -1.078125 Z M 9.5625 -10.71875 L 14.625 -22.59375 L 19.640625 -10.71875 Z M 9.5625 -10.71875 "/>
</symbol>
<symbol overflow="visible" id="glyph1-0">
<path style="stroke:none;" d="M 0.5 0 L 4.484375 0 L 4.484375 -4.828125 L 0.5 -4.828125 Z M 1 -0.5 L 1 -4.328125 L 3.984375 -4.328125 L 3.984375 -0.5 Z M 1 -0.5 "/>
</symbol>
<symbol overflow="visible" id="glyph1-1">
<path style="stroke:none;" d="M 0.40625 0.03125 C 0.78125 0.015625 1.171875 0 1.546875 0 C 1.921875 0 2.3125 0.015625 2.6875 0.03125 L 2.6875 -0.34375 L 2.40625 -0.359375 C 2.171875 -0.375 2.15625 -0.671875 2.15625 -0.921875 L 2.15625 -3.59375 C 2.15625 -3.859375 2.171875 -4.140625 2.40625 -4.171875 L 2.6875 -4.1875 L 2.6875 -4.5625 C 2.3125 -4.53125 1.921875 -4.53125 1.546875 -4.53125 C 1.171875 -4.53125 0.78125 -4.53125 0.40625 -4.5625 L 0.40625 -4.1875 L 0.6875 -4.171875 C 0.921875 -4.140625 0.9375 -3.859375 0.9375 -3.59375 L 0.9375 -0.921875 C 0.9375 -0.671875 0.921875 -0.375 0.6875 -0.359375 L 0.40625 -0.34375 Z M 0.40625 0.03125 "/>
</symbol>
<symbol overflow="visible" id="glyph2-0">
<path style="stroke:none;" d="M 0.859375 0 L 0.859375 -17.21875 L 7.703125 -17.21875 L 7.703125 0 Z M 1.703125 -0.859375 L 6.84375 -0.859375 L 6.84375 -16.359375 L 1.703125 -16.359375 Z M 1.703125 -0.859375 "/>
</symbol>
<symbol overflow="visible" id="glyph2-1">
<path style="stroke:none;" d="M 0 -1.703125 L 0 -10.125 C 0 -10.988281 0.25 -11.648438 0.75 -12.109375 C 1.25 -12.566406 1.929688 -12.796875 2.796875 -12.796875 C 3.273438 -12.773438 3.644531 -12.644531 3.90625 -12.40625 C 4.164062 -12.175781 4.296875 -11.882812 4.296875 -11.53125 L 4.296875 -6.984375 L 4.03125 -7.203125 C 3.53125 -7.648438 2.894531 -7.875 2.125 -7.875 C 1.394531 -7.875 0.847656 -7.539062 0.484375 -6.875 C 0.335938 -6.582031 0.265625 -6.257812 0.265625 -5.90625 C 0.265625 -5.550781 0.347656 -5.222656 0.515625 -4.921875 C 0.691406 -4.617188 0.921875 -4.378906 1.203125 -4.203125 C 1.484375 -4.035156 1.789062 -3.953125 2.125 -3.953125 C 2.914062 -3.953125 3.550781 -4.160156 4.03125 -4.578125 L 4.296875 -4.828125 L 4.296875 -0.265625 C 4.296875 0.015625 4.21875 0.253906 4.0625 0.453125 C 3.914062 0.648438 3.726562 0.796875 3.5 0.890625 C 3.28125 0.984375 3.046875 1.03125 2.796875 1.03125 C 1.929688 1.019531 1.25 0.773438 0.75 0.296875 C 0.25 -0.171875 0 -0.835938 0 -1.703125 Z M 0 -1.703125 "/>
</symbol>
<symbol overflow="visible" id="glyph2-2">
<path style="stroke:none;" d="M 2.125 -4.375 C 2.601562 -4.375 3 -4.328125 3.3125 -4.234375 C 3.632812 -4.148438 3.878906 -4.015625 4.046875 -3.828125 C 4.210938 -3.648438 4.296875 -3.425781 4.296875 -3.15625 L 4.296875 0.9375 C 3.828125 0.445312 3.109375 0.203125 2.140625 0.203125 C 1.179688 0.203125 0.46875 0.445312 0 0.9375 L 0 -3.15625 C 0 -3.96875 0.707031 -4.375 2.125 -4.375 Z M 2.125 -4.375 "/>
</symbol>
<symbol overflow="visible" id="glyph2-3">
<path style="stroke:none;" d="M 0 -2.203125 C 0.101562 -2.304688 0.253906 -2.359375 0.453125 -2.359375 C 0.648438 -2.359375 0.789062 -2.304688 0.875 -2.203125 L 0.875 0.3125 C 0.8125 0.414062 0.671875 0.46875 0.453125 0.46875 C 0.234375 0.46875 0.0820312 0.414062 0 0.3125 Z M 0 -2.203125 "/>
</symbol>
<symbol overflow="visible" id="glyph2-4">
<path style="stroke:none;" d="M 0 8.625 L 0 -3.234375 C 0 -4.054688 0.722656 -4.46875 2.171875 -4.46875 C 2.890625 -4.46875 3.421875 -4.363281 3.765625 -4.15625 C 4.117188 -3.945312 4.296875 -3.640625 4.296875 -3.234375 L 4.296875 0.75 C 4.390625 0.0625 5.09375 -0.28125 6.40625 -0.28125 C 7.851562 -0.28125 8.578125 0.125 8.578125 0.9375 L 8.578125 4.984375 C 8.109375 4.523438 7.390625 4.296875 6.421875 4.296875 C 5.460938 4.296875 4.753906 4.523438 4.296875 4.984375 L 4.296875 0.828125 C 3.847656 0.378906 3.128906 0.15625 2.140625 0.15625 C 1.453125 0.15625 0.894531 0.34375 0.46875 0.71875 L 0.46875 7.953125 C 0.46875 8.265625 0.460938 8.5 0.453125 8.65625 C 0.441406 8.8125 0.429688 8.925781 0.421875 9 C 0.410156 9.082031 0.394531 9.128906 0.375 9.140625 C 0.363281 9.160156 0.332031 9.171875 0.28125 9.171875 C 0.21875 9.160156 0.160156 9.128906 0.109375 9.078125 C 0.0664062 9.035156 0.0351562 8.972656 0.015625 8.890625 C 0.00390625 8.816406 0 8.726562 0 8.625 Z M 0 8.625 "/>
</symbol>
<symbol overflow="visible" id="glyph2-5">
<path style="stroke:none;" d="M 0 4.578125 L 0 -3.234375 C 0 -4.054688 0.722656 -4.46875 2.171875 -4.46875 C 2.890625 -4.46875 3.421875 -4.363281 3.765625 -4.15625 C 4.117188 -3.945312 4.296875 -3.640625 4.296875 -3.234375 L 4.296875 0.75 C 4.390625 0.0625 5.09375 -0.28125 6.40625 -0.28125 C 7.851562 -0.28125 8.578125 0.125 8.578125 0.9375 L 8.578125 4.984375 C 8.109375 4.523438 7.390625 4.296875 6.421875 4.296875 C 5.460938 4.296875 4.753906 4.523438 4.296875 4.984375 L 4.296875 0.828125 C 3.847656 0.378906 3.128906 0.15625 2.140625 0.15625 C 1.453125 0.15625 0.894531 0.34375 0.46875 0.71875 L 0.46875 3.90625 C 0.46875 4.195312 0.460938 4.421875 0.453125 4.578125 C 0.441406 4.734375 0.429688 4.851562 0.421875 4.9375 C 0.410156 5.019531 0.394531 5.066406 0.375 5.078125 C 0.363281 5.097656 0.332031 5.109375 0.28125 5.109375 C 0.21875 5.097656 0.160156 5.066406 0.109375 5.015625 C 0.0664062 4.960938 0.0351562 4.898438 0.015625 4.828125 C 0.00390625 4.765625 0 4.679688 0 4.578125 Z M 0 4.578125 "/>
</symbol>
<symbol overflow="visible" id="glyph2-6">
<path style="stroke:none;" d="M 1.546875 -1.484375 C 1.359375 -1.316406 1.144531 -1.234375 0.90625 -1.234375 C 0.675781 -1.234375 0.46875 -1.316406 0.28125 -1.484375 C 0.09375 -1.660156 0 -1.882812 0 -2.15625 C 0 -2.425781 0.09375 -2.644531 0.28125 -2.8125 C 0.46875 -2.988281 0.675781 -3.078125 0.90625 -3.078125 C 1.144531 -3.078125 1.359375 -2.988281 1.546875 -2.8125 C 1.734375 -2.644531 1.828125 -2.425781 1.828125 -2.15625 C 1.828125 -1.882812 1.734375 -1.660156 1.546875 -1.484375 Z M 1.546875 -1.484375 "/>
</symbol>
<symbol overflow="visible" id="glyph2-7">
<path style="stroke:none;" d="M 0.484375 -9.96875 L 0.484375 7.578125 C 0.234375 7.585938 0.0703125 7.613281 0 7.65625 L 0 -9.890625 C 0.0820312 -9.941406 0.242188 -9.96875 0.484375 -9.96875 Z M 0.484375 -9.96875 "/>
</symbol>
<symbol overflow="visible" id="glyph2-8">
<path style="stroke:none;" d="M 3.390625 0.703125 C 3.242188 0.703125 3.035156 0.695312 2.765625 0.6875 C 2.492188 0.675781 2.25 0.671875 2.03125 0.671875 C 1.8125 0.671875 1.5625 0.675781 1.28125 0.6875 C 1 0.695312 0.8125 0.703125 0.71875 0.703125 C 0.414062 0.703125 0.21875 0.6875 0.125 0.65625 C 0.0390625 0.632812 0 0.570312 0 0.46875 L 0 -3 C 0 -3.15625 0.0507812 -3.234375 0.15625 -3.234375 L 0.265625 -3.234375 C 0.378906 -3.210938 0.9375 -3.203125 1.9375 -3.203125 L 2.8125 -3.203125 C 3.101562 -3.203125 3.304688 -3.207031 3.421875 -3.21875 C 3.535156 -3.226562 3.628906 -3.257812 3.703125 -3.3125 C 3.785156 -3.375 3.828125 -3.484375 3.828125 -3.640625 C 3.828125 -4.421875 3.316406 -4.8125 2.296875 -4.8125 C 1.472656 -4.8125 0.800781 -4.628906 0.28125 -4.265625 L 0.28125 -7.59375 C 0.28125 -8.457031 0.953125 -8.890625 2.296875 -8.890625 C 2.828125 -8.890625 3.289062 -8.789062 3.6875 -8.59375 C 4.09375 -8.394531 4.296875 -8.0625 4.296875 -7.59375 L 4.296875 0.4375 C 4.296875 0.488281 4.28125 0.53125 4.25 0.5625 C 4.226562 0.601562 4.171875 0.628906 4.078125 0.640625 C 3.992188 0.660156 3.894531 0.675781 3.78125 0.6875 C 3.675781 0.695312 3.546875 0.703125 3.390625 0.703125 Z M 3.390625 0.703125 "/>
</symbol>
<symbol overflow="visible" id="glyph2-9">
<path style="stroke:none;" d="M 0 -3.234375 C 0 -3.640625 0.175781 -3.945312 0.53125 -4.15625 C 0.882812 -4.363281 1.421875 -4.46875 2.140625 -4.46875 C 3.578125 -4.46875 4.296875 -4.054688 4.296875 -3.234375 L 4.296875 6.4375 C 4.296875 6.75 4.195312 6.929688 4 6.984375 C 3.945312 6.984375 3.910156 6.972656 3.890625 6.953125 C 3.878906 6.929688 3.867188 6.878906 3.859375 6.796875 C 3.847656 6.722656 3.835938 6.609375 3.828125 6.453125 C 3.828125 6.304688 3.828125 6.078125 3.828125 5.765625 L 3.828125 0.71875 C 3.390625 0.34375 2.828125 0.15625 2.140625 0.15625 C 1.160156 0.15625 0.445312 0.378906 0 0.828125 Z M 0 -3.234375 "/>
</symbol>
<symbol overflow="visible" id="glyph2-10">
<path style="stroke:none;" d="M -0.125 -0.40625 L 4.46875 -0.40625 L 4.421875 0.40625 L -0.1875 0.40625 Z M -0.125 -0.40625 "/>
</symbol>
<symbol overflow="visible" id="glyph2-11">
<path style="stroke:none;" d="M 0 -1.546875 L 2.0625 -5.0625 L 4.78125 -1.9375 L 2.6875 1.53125 Z M 0 -1.546875 "/>
</symbol>
<symbol overflow="visible" id="glyph2-12">
<path style="stroke:none;" d="M 0 -14.234375 L 0.484375 -14.234375 L 0.484375 10.5625 L 0 10.5625 Z M 0 -14.234375 "/>
</symbol>
<symbol overflow="visible" id="glyph2-13">
<path style="stroke:none;" d="M 0 6.4375 L 0 -3.234375 C 0 -4.054688 0.722656 -4.46875 2.171875 -4.46875 C 2.890625 -4.46875 3.421875 -4.363281 3.765625 -4.15625 C 4.117188 -3.945312 4.296875 -3.640625 4.296875 -3.234375 L 4.296875 0.75 C 4.390625 0.0625 5.09375 -0.28125 6.40625 -0.28125 C 7.851562 -0.28125 8.578125 0.125 8.578125 0.9375 L 8.578125 4.984375 C 8.109375 4.523438 7.390625 4.296875 6.421875 4.296875 C 5.460938 4.296875 4.753906 4.523438 4.296875 4.984375 L 4.296875 0.828125 C 3.847656 0.378906 3.128906 0.15625 2.140625 0.15625 C 1.453125 0.15625 0.894531 0.34375 0.46875 0.71875 L 0.46875 5.765625 C 0.46875 6.078125 0.460938 6.304688 0.453125 6.453125 C 0.441406 6.609375 0.429688 6.722656 0.421875 6.796875 C 0.410156 6.878906 0.394531 6.929688 0.375 6.953125 C 0.363281 6.972656 0.332031 6.984375 0.28125 6.984375 C 0.195312 6.960938 0.128906 6.90625 0.078125 6.8125 C 0.0234375 6.71875 0 6.59375 0 6.4375 Z M 0 6.4375 "/>
</symbol>
<symbol overflow="visible" id="glyph2-14">
<path style="stroke:none;" d="M 0 0 L 0 -4.625 C 0.15625 -4.488281 0.296875 -4.378906 0.421875 -4.296875 C 0.554688 -4.222656 0.703125 -4.171875 0.859375 -4.140625 C 1.023438 -4.117188 1.226562 -4.109375 1.46875 -4.109375 L 1.46875 -12.5625 C 1.46875 -13.0625 1.539062 -13.3125 1.6875 -13.3125 L 1.703125 -13.3125 C 1.859375 -13.3125 1.9375 -13.171875 1.9375 -12.890625 C 1.9375 -12.773438 1.921875 -12.625 1.890625 -12.4375 L 1.890625 1.265625 C 0.628906 1.078125 0 0.65625 0 0 Z M 0 0 "/>
</symbol>
<symbol overflow="visible" id="glyph2-15">
<path style="stroke:none;" d="M 0 -17.65625 L 0.484375 -17.65625 L 0.484375 -9.40625 C 0.242188 -9.425781 0.0820312 -9.488281 0 -9.59375 Z M 0 -17.65625 "/>
</symbol>
<symbol overflow="visible" id="glyph2-16">
<path style="stroke:none;" d="M 0 8.1875 L 0 -4.5 C 0.0195312 -4.71875 0.191406 -4.828125 0.515625 -4.828125 C 1.441406 -4.816406 2.597656 -4.566406 3.984375 -4.078125 C 4.222656 -4.015625 4.34375 -3.921875 4.34375 -3.796875 L 4.34375 3.828125 C 4.34375 3.929688 4.320312 4.019531 4.28125 4.09375 C 4.25 4.175781 4.195312 4.242188 4.125 4.296875 C 4.0625 4.347656 3.984375 4.390625 3.890625 4.421875 C 3.796875 4.453125 3.6875 4.46875 3.5625 4.46875 C 3.1875 4.46875 2.863281 4.335938 2.59375 4.078125 C 2.332031 3.828125 2.203125 3.535156 2.203125 3.203125 L 2.203125 1.078125 C 2.453125 1.390625 2.820312 1.554688 3.3125 1.578125 C 3.425781 1.578125 3.539062 1.503906 3.65625 1.359375 C 3.769531 1.222656 3.832031 1.070312 3.84375 0.90625 C 3.8125 0.675781 3.71875 0.53125 3.5625 0.46875 C 3.25 0.363281 2.804688 0.265625 2.234375 0.171875 C 1.671875 0.078125 1.226562 0.03125 0.90625 0.03125 C 0.820312 0.03125 0.726562 0.0664062 0.625 0.140625 C 0.53125 0.222656 0.476562 0.3125 0.46875 0.40625 L 0.46875 7.515625 C 0.46875 7.804688 0.460938 8.03125 0.453125 8.1875 C 0.441406 8.34375 0.429688 8.460938 0.421875 8.546875 C 0.410156 8.640625 0.394531 8.691406 0.375 8.703125 C 0.363281 8.722656 0.332031 8.734375 0.28125 8.734375 C 0.195312 8.703125 0.128906 8.640625 0.078125 8.546875 C 0.0234375 8.460938 0 8.34375 0 8.1875 Z M 0 8.1875 "/>
</symbol>
<symbol overflow="visible" id="glyph2-17">
<path style="stroke:none;" d="M 0.390625 -1.890625 L 0.390625 -3.515625 L 1.078125 -3.40625 L 2.359375 -2.71875 C 3.023438 -2.320312 3.453125 -2.007812 3.640625 -1.78125 C 3.828125 -1.5625 3.921875 -1.253906 3.921875 -0.859375 C 3.921875 -0.421875 3.707031 -0.203125 3.28125 -0.203125 C 3.007812 -0.203125 2.628906 -0.34375 2.140625 -0.625 C 1.660156 -0.914062 1.25 -1.195312 0.90625 -1.46875 Z M 0.390625 -1.890625 "/>
</symbol>
<symbol overflow="visible" id="glyph2-18">
<path style="stroke:none;" d="M 1.1875 -4.625 C 1.5 -4.625 1.804688 -4.582031 2.109375 -4.5 C 2.421875 -4.425781 2.695312 -4.320312 2.9375 -4.1875 C 3.1875 -4.050781 3.40625 -3.90625 3.59375 -3.75 C 3.78125 -3.59375 3.925781 -3.425781 4.03125 -3.25 C 4.132812 -3.082031 4.1875 -2.929688 4.1875 -2.796875 L 4.140625 1.21875 C 2.484375 1.21875 1.15625 0.691406 0.15625 -0.359375 C 0.0507812 -2.929688 0 -4.601562 0 -5.375 C 0 -5.375 0 -6.113281 0 -7.59375 C 0 -8.0625 0.113281 -8.296875 0.34375 -8.296875 C 0.53125 -8.296875 0.625 -8.070312 0.625 -7.625 L 0.546875 -1.890625 C 1.472656 -0.859375 2.347656 -0.34375 3.171875 -0.34375 C 3.566406 -0.34375 3.765625 -0.546875 3.765625 -0.953125 C 3.765625 -1.296875 3.675781 -1.570312 3.5 -1.78125 C 3.332031 -1.988281 2.941406 -2.273438 2.328125 -2.640625 L 1.1875 -3.28125 Z M 1.1875 -4.625 "/>
</symbol>
<symbol overflow="visible" id="glyph2-19">
<path style="stroke:none;" d="M 0 0 L 0 -4.625 C 0.238281 -4.414062 0.453125 -4.273438 0.640625 -4.203125 C 0.835938 -4.140625 1.113281 -4.109375 1.46875 -4.109375 L 1.46875 -9.828125 C 1.46875 -10.148438 1.53125 -10.3125 1.65625 -10.3125 L 1.6875 -10.3125 C 1.820312 -10.289062 1.890625 -10.015625 1.890625 -9.484375 L 1.890625 1.265625 C 0.628906 1.078125 0 0.65625 0 0 Z M 0 0 "/>
</symbol>
<symbol overflow="visible" id="glyph3-0">
<path style="stroke:none;" d="M 0.5 0 L 4.484375 0 L 4.484375 -4.828125 L 0.5 -4.828125 Z M 1 -0.5 L 1 -4.328125 L 3.984375 -4.328125 L 3.984375 -0.5 Z M 1 -0.5 "/>
</symbol>
<symbol overflow="visible" id="glyph3-1">
<path style="stroke:none;" d="M 0.171875 -2.1875 L 0.21875 -2.140625 L 2.8125 -2.140625 L 3.109375 -2.8125 L 3.0625 -2.859375 L 0.4375 -2.859375 Z M 0.171875 -2.1875 "/>
</symbol>
<symbol overflow="visible" id="glyph3-2">
<path style="stroke:none;" d="M 0.15625 0.03125 C 0.578125 0.015625 1 0 1.421875 0 C 1.828125 0 2.21875 0.015625 2.609375 0.03125 L 2.609375 -0.265625 L 2.1875 -0.296875 C 1.859375 -0.3125 1.828125 -0.390625 1.828125 -1.015625 L 1.828125 -3.125 C 1.828125 -3.578125 2.484375 -4.0625 3.078125 -4.0625 C 3.625 -4.0625 3.984375 -3.5625 3.984375 -2.796875 L 3.984375 -1.015625 C 3.984375 -0.390625 3.953125 -0.3125 3.625 -0.296875 L 3.15625 -0.265625 L 3.15625 0.03125 C 3.578125 0.015625 3.984375 0 4.40625 0 C 4.828125 0 5.234375 0.015625 5.65625 0.03125 L 5.65625 -0.265625 L 5.1875 -0.296875 C 4.859375 -0.3125 4.828125 -0.390625 4.828125 -1.015625 L 4.828125 -3.125 C 4.828125 -3.578125 5.484375 -4.0625 6.078125 -4.0625 C 6.625 -4.0625 6.984375 -3.5625 6.984375 -2.796875 L 6.984375 0.03125 C 7.25 0.015625 7.515625 0 7.78125 0 C 8.078125 0 8.359375 0.015625 8.65625 0.03125 L 8.65625 -0.265625 L 8.1875 -0.296875 C 7.859375 -0.3125 7.828125 -0.390625 7.828125 -1.015625 L 7.828125 -3.078125 C 7.828125 -4.0625 7.25 -4.671875 6.328125 -4.671875 C 5.984375 -4.671875 5.6875 -4.578125 5.515625 -4.421875 L 4.75 -3.75 C 4.4375 -4.40625 4.03125 -4.671875 3.34375 -4.671875 C 2.96875 -4.671875 2.6875 -4.578125 2.515625 -4.421875 L 1.828125 -3.78125 L 1.828125 -4.640625 L 1.734375 -4.671875 C 1.21875 -4.46875 0.703125 -4.328125 0.171875 -4.265625 L 0.171875 -3.984375 L 0.546875 -3.984375 C 0.953125 -3.984375 0.984375 -3.921875 0.984375 -3.265625 L 0.984375 -1.015625 C 0.984375 -0.390625 0.953125 -0.3125 0.625 -0.296875 L 0.15625 -0.265625 Z M 0.15625 0.03125 "/>
</symbol>
<symbol overflow="visible" id="glyph3-3">
<path style="stroke:none;" d="M 0.3125 -1.109375 C 0.3125 -0.328125 0.78125 0.125 1.578125 0.125 C 1.75 0.125 1.921875 0.09375 2 0.046875 L 3.234375 -0.8125 L 3.1875 0.03125 C 3.4375 0.015625 3.703125 0 3.953125 0 C 4.203125 0 4.453125 0.015625 4.6875 0.03125 L 4.6875 -0.265625 L 4.3125 -0.296875 C 4.0625 -0.296875 4.03125 -0.375 4.03125 -0.875 L 4.03125 -2.6875 C 4.03125 -4.140625 3.609375 -4.671875 2.453125 -4.671875 C 2.03125 -4.671875 1.625 -4.5625 1.25 -4.34375 L 0.71875 -4.015625 L 0.71875 -3.375 L 0.984375 -3.296875 L 1.109375 -3.609375 C 1.3125 -4.078125 1.421875 -4.140625 1.875 -4.140625 C 2.8125 -4.140625 3.203125 -3.78125 3.234375 -2.875 L 2.25 -2.6875 C 0.890625 -2.4375 0.3125 -1.96875 0.3125 -1.109375 Z M 1.171875 -1.25 C 1.171875 -1.609375 1.375 -1.96875 1.671875 -2.15625 C 1.921875 -2.296875 2.46875 -2.4375 3.234375 -2.546875 L 3.234375 -1.234375 C 2.9375 -0.828125 2.3125 -0.453125 1.921875 -0.453125 C 1.53125 -0.453125 1.171875 -0.8125 1.171875 -1.25 Z M 1.5625 -5.046875 L 1.96875 -5.046875 L 3.40625 -5.9375 C 3.734375 -6.15625 3.796875 -6.234375 3.796875 -6.40625 C 3.796875 -6.59375 3.65625 -6.75 3.484375 -6.75 C 3.34375 -6.75 3.15625 -6.640625 2.9375 -6.421875 Z M 1.5625 -5.046875 "/>
</symbol>
<symbol overflow="visible" id="glyph3-4">
<path style="stroke:none;" d="M 0.0625 -4.296875 L 0.40625 -4.28125 C 0.578125 -4.265625 0.609375 -4.171875 0.703125 -3.953125 L 2.421875 0.0625 L 2.921875 0.0625 C 2.984375 -0.265625 3.125 -0.5625 3.328125 -1.015625 L 4.5 -3.609375 C 4.734375 -4.109375 4.859375 -4.265625 5.0625 -4.28125 L 5.375 -4.296875 L 5.375 -4.578125 C 5.0625 -4.5625 4.75 -4.546875 4.4375 -4.546875 C 4.125 -4.546875 3.8125 -4.5625 3.5 -4.578125 L 3.5 -4.296875 L 3.90625 -4.28125 C 4.234375 -4.25 4.234375 -3.96875 3.953125 -3.296875 L 3.53125 -2.234375 L 2.921875 -0.84375 L 1.734375 -3.703125 C 1.625 -3.984375 1.578125 -4.265625 1.890625 -4.28125 L 2.375 -4.296875 L 2.375 -4.578125 C 2 -4.5625 1.609375 -4.546875 1.21875 -4.546875 C 0.828125 -4.546875 0.453125 -4.5625 0.0625 -4.578125 Z M 0.0625 -4.296875 "/>
</symbol>
<symbol overflow="visible" id="glyph3-5">
<path style="stroke:none;" d="M 0.203125 0.03125 C 0.625 0.015625 1.03125 0 1.453125 0 C 1.875 0 2.28125 0.015625 2.703125 0.03125 L 2.703125 -0.265625 L 2.25 -0.296875 C 1.90625 -0.3125 1.875 -0.390625 1.875 -1.015625 L 1.875 -4.640625 L 1.78125 -4.671875 C 1.28125 -4.46875 0.75 -4.328125 0.234375 -4.265625 L 0.234375 -3.984375 L 0.59375 -3.984375 C 1 -3.984375 1.03125 -3.921875 1.03125 -3.265625 L 1.03125 -1.015625 C 1.03125 -0.390625 1 -0.3125 0.671875 -0.296875 L 0.203125 -0.265625 Z M 0.953125 -5.90625 C 0.953125 -5.609375 1.15625 -5.40625 1.453125 -5.40625 C 1.75 -5.40625 1.953125 -5.609375 1.953125 -5.90625 C 1.953125 -6.1875 1.75 -6.40625 1.46875 -6.40625 C 1.15625 -6.40625 0.953125 -6.203125 0.953125 -5.90625 Z M 0.953125 -5.90625 "/>
</symbol>
<symbol overflow="visible" id="glyph3-6">
<path style="stroke:none;" d="M 0.21875 -3.765625 L 0.984375 -3.8125 L 0.984375 -0.9375 C 0.984375 -0.203125 1.3125 0.125 2.078125 0.125 C 2.296875 0.125 2.546875 0.0625 2.609375 0 L 3.078125 -0.53125 L 2.953125 -0.703125 C 2.703125 -0.5625 2.546875 -0.515625 2.359375 -0.515625 C 1.96875 -0.515625 1.8125 -0.703125 1.8125 -1.203125 L 1.8125 -3.8125 L 3.09375 -3.8125 L 3.1875 -4.34375 L 1.8125 -4.28125 L 1.8125 -4.671875 C 1.8125 -5.078125 1.84375 -5.4375 1.921875 -6.078125 L 1.796875 -6.1875 C 1.5625 -6.046875 1.265625 -5.90625 0.953125 -5.8125 C 0.984375 -5.515625 1 -5.328125 1 -5.03125 L 1 -4.328125 L 0.21875 -3.984375 Z M 0.21875 -3.765625 "/>
</symbol>
<symbol overflow="visible" id="glyph3-7">
<path style="stroke:none;" d="M 0.265625 -2.1875 C 0.265625 -1.5625 0.40625 -1.015625 0.671875 -0.640625 C 1.0625 -0.109375 1.75 0.203125 2.5 0.203125 C 2.859375 0.203125 3.234375 0.125 3.640625 -0.0625 C 3.90625 -0.171875 4.109375 -0.296875 4.15625 -0.359375 L 4.359375 -0.703125 L 4.234375 -0.796875 C 3.59375 -0.421875 3.359375 -0.328125 2.9375 -0.328125 C 2.28125 -0.328125 1.75 -0.625 1.46875 -1.109375 C 1.28125 -1.4375 1.203125 -1.71875 1.1875 -2.296875 L 2.640625 -2.296875 C 3.328125 -2.296875 3.765625 -2.328125 4.453125 -2.4375 C 4.453125 -2.578125 4.46875 -2.65625 4.46875 -2.78125 C 4.46875 -3.921875 3.734375 -4.671875 2.609375 -4.671875 C 2.25 -4.671875 1.8125 -4.546875 1.40625 -4.3125 C 0.59375 -3.84375 0.265625 -3.21875 0.265625 -2.1875 Z M 1.203125 -2.6875 C 1.203125 -3.15625 1.25 -3.375 1.375 -3.640625 C 1.578125 -4.078125 2.015625 -4.34375 2.5 -4.34375 C 2.828125 -4.34375 3.078125 -4.21875 3.265625 -3.953125 C 3.484375 -3.625 3.578125 -3.328125 3.578125 -2.65625 L 2.46875 -2.625 C 2 -2.625 1.75 -2.640625 1.203125 -2.6875 Z M 1.203125 -2.6875 "/>
</symbol>
<symbol overflow="visible" id="glyph3-8">
<path style="stroke:none;" d="M 0.171875 -3.984375 L 0.546875 -3.984375 C 0.953125 -3.984375 0.984375 -3.921875 0.984375 -3.265625 L 0.984375 -1.578125 C 0.984375 -0.890625 1.046875 -0.578125 1.21875 -0.328125 C 1.453125 -0.03125 1.828125 0.125 2.390625 0.125 C 2.84375 0.125 3.234375 -0.015625 3.515625 -0.265625 L 4.171875 -0.890625 C 4.171875 -0.59375 4.171875 -0.4375 4.140625 0.03125 C 4.421875 0.015625 4.6875 0 4.96875 0 C 5.25 0 5.515625 0.015625 5.796875 0.03125 L 5.796875 -0.265625 L 5.390625 -0.296875 C 5.046875 -0.3125 5.015625 -0.375 5.015625 -1.015625 L 5.015625 -4.640625 L 4.921875 -4.671875 C 4.421875 -4.46875 3.890625 -4.328125 3.375 -4.265625 L 3.375 -3.984375 L 3.734375 -3.984375 C 4.140625 -3.984375 4.171875 -3.921875 4.171875 -3.265625 L 4.171875 -1.640625 C 4.171875 -1.421875 4.03125 -1.140625 3.8125 -0.90625 C 3.53125 -0.625 3.203125 -0.484375 2.828125 -0.484375 C 2.46875 -0.484375 2.1875 -0.59375 2.03125 -0.78125 C 1.890625 -0.953125 1.828125 -1.25 1.828125 -1.6875 L 1.828125 -4.640625 L 1.734375 -4.671875 C 1.21875 -4.46875 0.703125 -4.328125 0.171875 -4.265625 Z M 0.171875 -3.984375 "/>
</symbol>
<symbol overflow="visible" id="glyph3-9">
<path style="stroke:none;" d="M 0.21875 -6.59375 L 0.625 -6.5625 C 1.078125 -6.546875 1.125 -6.453125 1.125 -5.671875 L 1.125 -0.953125 C 1.125 -0.65625 1.03125 -0.4375 0.875 -0.359375 L 0.5625 -0.203125 L 0.5625 0.03125 C 1.03125 0.015625 1.5 0 1.953125 0 C 2.4375 0 2.921875 0.03125 3.40625 0.03125 C 4.671875 0.03125 5.625 -0.296875 6.328125 -0.984375 C 7.046875 -1.6875 7.484375 -2.765625 7.484375 -3.84375 C 7.484375 -5.6875 6.109375 -6.890625 4 -6.890625 C 3.421875 -6.890625 2.84375 -6.875 2.265625 -6.875 C 1.578125 -6.875 0.90625 -6.875 0.21875 -6.890625 Z M 2.078125 -0.484375 L 2.078125 -6.421875 C 2.328125 -6.46875 2.6875 -6.5 3.1875 -6.5 C 4.28125 -6.5 5.1875 -6.296875 5.71875 -5.765625 C 6.1875 -5.296875 6.421875 -4.578125 6.421875 -3.578125 C 6.421875 -2.46875 6.078125 -1.609375 5.421875 -1.0625 C 4.828125 -0.578125 4.234375 -0.40625 3.09375 -0.40625 C 2.640625 -0.40625 2.328125 -0.421875 2.078125 -0.484375 Z M 2.078125 -0.484375 "/>
</symbol>
<symbol overflow="visible" id="glyph3-10">
<path style="stroke:none;" d="M 0.3125 -2.15625 C 0.3125 -0.75 1.203125 0.203125 2.5 0.203125 C 4.03125 0.203125 5.125 -0.875 5.125 -2.359375 C 5.125 -3.703125 4.140625 -4.671875 2.78125 -4.671875 C 1.328125 -4.671875 0.3125 -3.65625 0.3125 -2.15625 Z M 1.25 -2.5 C 1.25 -3.703125 1.71875 -4.34375 2.609375 -4.34375 C 3.515625 -4.34375 4.203125 -3.34375 4.203125 -2 C 4.203125 -0.84375 3.6875 -0.125 2.875 -0.125 C 1.90625 -0.125 1.25 -1.09375 1.25 -2.5 Z M 1.890625 -5.046875 L 2.296875 -5.046875 L 3.734375 -5.9375 C 4.0625 -6.15625 4.125 -6.234375 4.125 -6.40625 C 4.125 -6.59375 3.984375 -6.75 3.8125 -6.75 C 3.671875 -6.75 3.484375 -6.640625 3.265625 -6.421875 Z M 1.890625 -5.046875 "/>
</symbol>
<symbol overflow="visible" id="glyph3-11">
<path style="stroke:none;" d="M 0.0625 0.03125 C 0.46875 0.015625 0.890625 0 1.296875 0 C 1.703125 0 2.125 0.015625 2.53125 0.03125 L 2.53125 -0.265625 L 2.078125 -0.296875 C 1.75 -0.3125 1.71875 -0.390625 1.71875 -1.015625 L 1.71875 -3.125 C 1.71875 -3.578125 2.375 -4.0625 2.984375 -4.0625 C 3.65625 -4.0625 4.09375 -3.5625 4.09375 -2.796875 L 4.09375 0.03125 C 4.34375 0.015625 4.609375 0 4.875 0 C 5.15625 0 5.421875 0.015625 5.703125 0.03125 L 5.703125 -0.265625 L 5.296875 -0.296875 C 4.953125 -0.3125 4.921875 -0.375 4.921875 -1.015625 L 4.921875 -2.9375 C 4.921875 -4.109375 4.375 -4.671875 3.265625 -4.671875 C 2.890625 -4.671875 2.6875 -4.609375 2.46875 -4.421875 L 1.71875 -3.765625 L 1.71875 -4.640625 L 1.625 -4.671875 C 1.109375 -4.46875 0.59375 -4.328125 0.0625 -4.265625 L 0.0625 -3.984375 L 0.4375 -3.984375 C 0.84375 -3.984375 0.875 -3.921875 0.875 -3.265625 L 0.875 -1.015625 C 0.875 -0.390625 0.84375 -0.3125 0.515625 -0.296875 L 0.0625 -0.265625 Z M 0.0625 0.03125 "/>
</symbol>
<symbol overflow="visible" id="glyph3-12">
<path style="stroke:none;" d="M 0.296875 -0.046875 C 0.8125 0.125 1.203125 0.203125 1.671875 0.203125 C 2.96875 0.203125 3.890625 -0.5 3.890625 -1.46875 C 3.890625 -1.78125 3.8125 -2.015625 3.625 -2.21875 C 3.359375 -2.46875 3.03125 -2.578125 2.15625 -2.75 C 1.328125 -2.90625 1.0625 -3.109375 1.0625 -3.5625 C 1.0625 -4.0625 1.421875 -4.34375 2.03125 -4.34375 C 2.6875 -4.34375 3.203125 -4 3.203125 -3.53125 L 3.203125 -3.296875 L 3.484375 -3.296875 C 3.484375 -3.875 3.5 -4.109375 3.53125 -4.421875 C 3 -4.609375 2.640625 -4.671875 2.234375 -4.671875 C 1.078125 -4.671875 0.375 -4.125 0.375 -3.234375 C 0.375 -2.75 0.59375 -2.40625 1.046875 -2.203125 C 1.3125 -2.078125 1.84375 -1.921875 2.515625 -1.78125 C 2.96875 -1.671875 3.15625 -1.46875 3.15625 -1.09375 C 3.15625 -0.546875 2.65625 -0.171875 1.953125 -0.171875 C 1.21875 -0.171875 0.703125 -0.515625 0.703125 -1.015625 L 0.703125 -1.421875 L 0.40625 -1.421875 C 0.40625 -0.734375 0.375 -0.4375 0.296875 -0.046875 Z M 0.296875 -0.046875 "/>
</symbol>
<symbol overflow="visible" id="glyph3-13">
<path style="stroke:none;" d="M 0.15625 1.4375 L 0.296875 1.546875 L 0.703125 1.359375 C 1.515625 0.3125 1.890625 -0.3125 2.171875 -1.09375 L 2.03125 -1.21875 C 1.765625 -1.140625 1.578125 -1.078125 1.0625 -0.921875 C 0.984375 -0.171875 0.734375 0.484375 0.15625 1.4375 Z M 0.15625 1.4375 "/>
</symbol>
<symbol overflow="visible" id="glyph3-14">
<path style="stroke:none;" d="M 0.3125 -2.15625 C 0.3125 -0.75 1.203125 0.203125 2.5 0.203125 C 4.03125 0.203125 5.125 -0.875 5.125 -2.359375 C 5.125 -3.703125 4.140625 -4.671875 2.78125 -4.671875 C 1.328125 -4.671875 0.3125 -3.65625 0.3125 -2.15625 Z M 1.25 -2.5 C 1.25 -3.703125 1.71875 -4.34375 2.609375 -4.34375 C 3.515625 -4.34375 4.203125 -3.34375 4.203125 -2 C 4.203125 -0.84375 3.6875 -0.125 2.875 -0.125 C 1.90625 -0.125 1.25 -1.09375 1.25 -2.5 Z M 1.25 -2.5 "/>
</symbol>
<symbol overflow="visible" id="glyph3-15">
<path style="stroke:none;" d="M 0.203125 0.03125 C 0.625 0.015625 1.03125 0 1.4375 0 C 1.90625 0 2.375 0.015625 2.859375 0.03125 L 2.859375 -0.265625 L 2.34375 -0.296875 C 1.890625 -0.328125 1.875 -0.359375 1.875 -1.015625 L 1.875 -2.734375 C 1.875 -3.328125 2.265625 -3.828125 2.765625 -3.828125 C 3.0625 -3.828125 3.265625 -3.6875 3.421875 -3.375 L 3.640625 -3.375 L 3.734375 -4.5625 C 3.625 -4.640625 3.4375 -4.671875 3.265625 -4.671875 C 2.953125 -4.671875 2.640625 -4.515625 2.4375 -4.265625 L 1.875 -3.609375 L 1.875 -4.640625 L 1.78125 -4.671875 C 1.28125 -4.46875 0.75 -4.328125 0.234375 -4.265625 L 0.234375 -3.984375 L 0.59375 -3.984375 C 1 -3.984375 1.03125 -3.921875 1.03125 -3.265625 L 1.03125 -1.015625 C 1.03125 -0.390625 1 -0.3125 0.671875 -0.296875 L 0.203125 -0.265625 Z M 0.203125 0.03125 "/>
</symbol>
<symbol overflow="visible" id="glyph3-16">
<path style="stroke:none;" d="M 0.65625 -0.53125 C 0.65625 -0.234375 0.921875 0.046875 1.21875 0.046875 C 1.53125 0.046875 1.8125 -0.21875 1.8125 -0.53125 C 1.8125 -0.828125 1.53125 -1.109375 1.21875 -1.109375 C 0.921875 -1.109375 0.65625 -0.828125 0.65625 -0.53125 Z M 0.65625 -3.96875 C 0.65625 -3.671875 0.921875 -3.390625 1.21875 -3.390625 C 1.53125 -3.390625 1.8125 -3.65625 1.8125 -3.953125 C 1.8125 -4.265625 1.53125 -4.546875 1.21875 -4.546875 C 0.921875 -4.546875 0.65625 -4.265625 0.65625 -3.96875 Z M 0.65625 -3.96875 "/>
</symbol>
<symbol overflow="visible" id="glyph3-17">
<path style="stroke:none;" d="M 0.203125 0.03125 C 0.625 0.015625 1.03125 0 1.453125 0 C 1.875 0 2.28125 0.015625 2.703125 0.03125 L 2.703125 -0.265625 L 2.25 -0.296875 C 1.90625 -0.3125 1.875 -0.390625 1.875 -1.015625 L 1.875 -7.15625 L 1.78125 -7.234375 C 1.34375 -7.0625 1.015625 -6.984375 0.234375 -6.875 L 0.234375 -6.59375 L 0.78125 -6.59375 C 0.96875 -6.59375 1.03125 -6.484375 1.03125 -6.1875 L 1.03125 -1.015625 C 1.03125 -0.390625 1 -0.3125 0.671875 -0.296875 L 0.203125 -0.265625 Z M 0.203125 0.03125 "/>
</symbol>
<symbol overflow="visible" id="glyph3-18">
<path style="stroke:none;" d="M 0.3125 -1.109375 C 0.3125 -0.328125 0.78125 0.125 1.578125 0.125 C 1.75 0.125 1.921875 0.09375 2 0.046875 L 3.234375 -0.8125 L 3.1875 0.03125 C 3.4375 0.015625 3.703125 0 3.953125 0 C 4.203125 0 4.453125 0.015625 4.6875 0.03125 L 4.6875 -0.265625 L 4.3125 -0.296875 C 4.0625 -0.296875 4.03125 -0.375 4.03125 -0.875 L 4.03125 -2.6875 C 4.03125 -4.140625 3.609375 -4.671875 2.453125 -4.671875 C 2.03125 -4.671875 1.625 -4.5625 1.25 -4.34375 L 0.71875 -4.015625 L 0.71875 -3.375 L 0.984375 -3.296875 L 1.109375 -3.609375 C 1.3125 -4.078125 1.421875 -4.140625 1.875 -4.140625 C 2.8125 -4.140625 3.203125 -3.78125 3.234375 -2.875 L 2.25 -2.6875 C 0.890625 -2.4375 0.3125 -1.96875 0.3125 -1.109375 Z M 1.171875 -1.25 C 1.171875 -1.609375 1.375 -1.96875 1.671875 -2.15625 C 1.921875 -2.296875 2.46875 -2.4375 3.234375 -2.546875 L 3.234375 -1.234375 C 2.9375 -0.828125 2.3125 -0.453125 1.921875 -0.453125 C 1.53125 -0.453125 1.171875 -0.8125 1.171875 -1.25 Z M 1.171875 -1.25 "/>
</symbol>
<symbol overflow="visible" id="glyph3-19">
<path style="stroke:none;" d="M 0.3125 1.28125 C 0.3125 2.1875 1.203125 2.828125 2.46875 2.828125 C 3.984375 2.828125 5.15625 1.875 5.15625 0.65625 C 5.15625 -0.0625 4.6875 -0.5625 3.984375 -0.5625 L 2.390625 -0.5625 C 1.875 -0.5625 1.640625 -0.671875 1.640625 -0.953125 C 1.640625 -1.078125 1.71875 -1.1875 1.96875 -1.40625 C 2.03125 -1.453125 2.046875 -1.46875 2.09375 -1.515625 C 2.1875 -1.5 2.25 -1.5 2.328125 -1.5 C 2.765625 -1.5 3.296875 -1.6875 3.703125 -1.96875 C 4.140625 -2.296875 4.359375 -2.703125 4.359375 -3.234375 C 4.359375 -3.421875 4.34375 -3.5625 4.25 -3.765625 L 5.171875 -3.765625 L 5.421875 -4.171875 L 5.390625 -4.296875 L 3.96875 -4.25 C 3.59375 -4.5625 3.234375 -4.671875 2.75 -4.671875 C 2.3125 -4.671875 1.796875 -4.53125 1.390625 -4.296875 C 0.84375 -3.984375 0.546875 -3.484375 0.546875 -2.875 C 0.546875 -2.140625 1 -1.640625 1.75 -1.5625 L 0.953125 -0.953125 C 0.859375 -0.796875 0.8125 -0.671875 0.8125 -0.515625 C 0.8125 -0.234375 0.984375 -0.078125 1.46875 0.0625 L 0.59375 0.53125 C 0.453125 0.609375 0.3125 0.984375 0.3125 1.28125 Z M 1.078125 1.265625 C 1.078125 0.8125 1.328125 0.421875 1.734375 0.234375 C 1.890625 0.171875 2.171875 0.140625 2.859375 0.140625 C 3.984375 0.140625 4.375 0.375 4.375 1.015625 C 4.375 1.875 3.59375 2.515625 2.546875 2.515625 C 1.671875 2.515625 1.078125 2 1.078125 1.265625 Z M 1.390625 -3.125 C 1.390625 -3.890625 1.75 -4.34375 2.390625 -4.34375 C 3.078125 -4.34375 3.53125 -3.78125 3.53125 -2.9375 C 3.53125 -2.28125 3.109375 -1.828125 2.5 -1.828125 C 1.828125 -1.828125 1.390625 -2.359375 1.390625 -3.125 Z M 1.390625 -3.125 "/>
</symbol>
<symbol overflow="visible" id="glyph3-20">
<path style="stroke:none;" d="M 0.296875 -1.0625 C 0.296875 -0.296875 0.828125 0.203125 1.65625 0.203125 C 1.890625 0.203125 2.109375 0.15625 2.203125 0.0625 L 3.421875 -0.890625 C 3.59375 -0.59375 3.703125 -0.484375 3.875 -0.328125 C 4.25 0 4.78125 0.203125 5.34375 0.203125 C 5.71875 0.203125 6.109375 0.109375 6.515625 -0.0625 C 6.78125 -0.171875 6.984375 -0.296875 7.015625 -0.359375 L 7.21875 -0.703125 L 7.078125 -0.796875 C 6.484375 -0.421875 6.203125 -0.328125 5.765625 -0.328125 C 5.109375 -0.328125 4.5625 -0.609375 4.28125 -1.109375 C 4.09375 -1.4375 4.03125 -1.71875 4.015625 -2.296875 L 5.46875 -2.296875 C 6.15625 -2.296875 6.59375 -2.328125 7.28125 -2.4375 C 7.28125 -2.578125 7.296875 -2.65625 7.296875 -2.765625 C 7.296875 -3.171875 7.203125 -3.546875 7.0625 -3.8125 C 6.734375 -4.34375 6.125 -4.671875 5.4375 -4.671875 C 4.859375 -4.671875 4.46875 -4.5 3.828125 -3.96875 C 3.4375 -4.46875 3.015625 -4.671875 2.375 -4.671875 C 2.09375 -4.671875 1.890625 -4.625 1.671875 -4.5 L 0.6875 -3.984375 L 0.6875 -3.359375 L 0.953125 -3.296875 C 1.015625 -3.5625 1.125 -3.796875 1.203125 -3.875 C 1.3125 -4.015625 1.765625 -4.140625 2.109375 -4.140625 C 2.453125 -4.140625 2.78125 -3.984375 2.953125 -3.734375 C 3.15625 -3.453125 3.203125 -3.21875 3.234375 -2.640625 L 2.671875 -2.578125 C 1.828125 -2.5 1 -2.265625 0.703125 -2.046875 C 0.4375 -1.828125 0.296875 -1.5 0.296875 -1.0625 Z M 1.15625 -1.21875 C 1.15625 -1.4375 1.21875 -1.640625 1.328125 -1.796875 C 1.421875 -1.921875 1.5625 -2 1.890625 -2.09375 C 2.328125 -2.21875 2.421875 -2.234375 3.234375 -2.328125 L 3.234375 -1.171875 C 2.796875 -0.640625 2.46875 -0.453125 2 -0.453125 C 1.46875 -0.453125 1.15625 -0.734375 1.15625 -1.21875 Z M 4.03125 -2.6875 C 4.0625 -3.265625 4.140625 -3.5625 4.34375 -3.84375 C 4.5625 -4.140625 4.96875 -4.34375 5.375 -4.34375 C 5.75 -4.34375 6.015625 -4.171875 6.234375 -3.765625 C 6.40625 -3.4375 6.46875 -3.1875 6.46875 -2.65625 L 5.296875 -2.625 C 4.828125 -2.625 4.578125 -2.640625 4.03125 -2.6875 Z M 4.03125 -2.6875 "/>
</symbol>
<symbol overflow="visible" id="glyph3-21">
<path style="stroke:none;" d="M 0.203125 0.03125 C 0.625 0.015625 1.03125 0 1.453125 0 C 1.875 0 2.28125 0.015625 2.703125 0.03125 L 2.703125 -0.265625 L 2.25 -0.296875 C 1.90625 -0.3125 1.875 -0.390625 1.875 -1.015625 L 1.875 -4.640625 L 1.78125 -4.671875 C 1.28125 -4.46875 0.75 -4.328125 0.234375 -4.265625 L 0.234375 -3.984375 L 0.59375 -3.984375 C 1 -3.984375 1.03125 -3.921875 1.03125 -3.265625 L 1.03125 -1.015625 C 1.03125 -0.390625 1 -0.3125 0.671875 -0.296875 L 0.203125 -0.265625 Z M 0.5625 -5.046875 L 0.96875 -5.046875 L 2.40625 -5.9375 C 2.734375 -6.15625 2.796875 -6.234375 2.796875 -6.40625 C 2.796875 -6.59375 2.65625 -6.75 2.5 -6.75 C 2.34375 -6.75 2.15625 -6.640625 1.9375 -6.421875 Z M 0.5625 -5.046875 "/>
</symbol>
<symbol overflow="visible" id="glyph3-22">
<path style="stroke:none;" d="M 0.34375 -2.15625 C 0.34375 -1.359375 0.625 -0.703125 1.109375 -0.296875 C 1.453125 -0.015625 1.90625 0.125 2.5625 0.125 C 2.765625 0.125 2.984375 0.078125 3.046875 0.046875 L 4.140625 -0.890625 L 4.09375 0.03125 C 4.359375 0.015625 4.609375 0 4.859375 0 C 5.15625 0 5.46875 0.015625 5.765625 0.03125 L 5.765625 -0.265625 L 5.3125 -0.296875 C 4.96875 -0.3125 4.9375 -0.390625 4.9375 -1.015625 L 4.9375 -7.15625 L 4.859375 -7.234375 C 4.421875 -7.0625 4.09375 -6.984375 3.296875 -6.875 L 3.296875 -6.59375 L 3.859375 -6.59375 C 4.03125 -6.59375 4.109375 -6.484375 4.109375 -6.1875 L 4.109375 -4.359375 C 3.546875 -4.59375 3.265625 -4.671875 2.921875 -4.671875 C 2.65625 -4.671875 2.40625 -4.609375 2.15625 -4.484375 L 1.28125 -4.03125 C 0.71875 -3.734375 0.34375 -3 0.34375 -2.15625 Z M 1.21875 -2.484375 C 1.21875 -3.5625 1.75 -4.203125 2.65625 -4.203125 C 3.03125 -4.203125 3.421875 -4.078125 3.78125 -3.84375 C 3.984375 -3.703125 4.109375 -3.5625 4.109375 -3.484375 L 4.109375 -2.203125 C 4.109375 -1.5625 4.09375 -1.453125 3.953125 -1.21875 C 3.671875 -0.75 3.1875 -0.453125 2.71875 -0.453125 C 1.84375 -0.453125 1.21875 -1.296875 1.21875 -2.484375 Z M 1.21875 -2.484375 "/>
</symbol>
<symbol overflow="visible" id="glyph3-23">
<path style="stroke:none;" d="M 0.078125 2.5 L 0.078125 2.796875 C 0.5 2.78125 0.90625 2.765625 1.328125 2.765625 C 1.75 2.765625 2.15625 2.78125 2.578125 2.796875 L 2.578125 2.5 L 2.109375 2.46875 C 1.78125 2.453125 1.75 2.375 1.75 1.75 L 1.75 -0.125 C 2.046875 0.046875 2.359375 0.125 2.8125 0.125 C 3.09375 0.125 3.359375 0.0625 3.515625 -0.046875 L 4.65625 -0.78125 C 5.046875 -1.03125 5.515625 -2.0625 5.515625 -2.703125 C 5.515625 -3.8125 4.609375 -4.671875 3.453125 -4.671875 C 3.078125 -4.671875 2.71875 -4.578125 2.5625 -4.421875 L 1.75 -3.671875 L 1.75 -4.640625 L 1.65625 -4.671875 C 1.140625 -4.46875 0.625 -4.328125 0.09375 -4.265625 L 0.09375 -3.984375 L 0.46875 -3.984375 C 0.875 -3.984375 0.90625 -3.921875 0.90625 -3.265625 L 0.90625 1.75 C 0.90625 2.375 0.875 2.453125 0.53125 2.46875 Z M 1.75 -0.984375 L 1.75 -3.046875 C 1.75 -3.1875 1.796875 -3.296875 1.921875 -3.46875 C 2.21875 -3.84375 2.625 -4.03125 3.125 -4.03125 C 4.0625 -4.03125 4.65625 -3.375 4.65625 -2.328125 C 4.65625 -1.21875 3.984375 -0.390625 3.09375 -0.390625 C 2.546875 -0.390625 2.140625 -0.5625 1.75 -0.984375 Z M 1.75 -0.984375 "/>
</symbol>
<symbol overflow="visible" id="glyph3-24">
<path style="stroke:none;" d="M 0.265625 -2.09375 C 0.265625 -0.75 1.203125 0.203125 2.546875 0.203125 C 3.0625 0.203125 3.8125 0.015625 3.90625 -0.140625 L 4.109375 -0.453125 L 4.015625 -0.609375 C 3.65625 -0.40625 3.328125 -0.3125 2.96875 -0.3125 C 1.859375 -0.3125 1.140625 -1.171875 1.140625 -2.5 C 1.140625 -3.5625 1.640625 -4.15625 2.53125 -4.15625 C 2.96875 -4.15625 3.453125 -3.953125 3.625 -3.703125 L 3.703125 -3.09375 L 3.984375 -3.09375 C 3.984375 -3.5625 4.03125 -3.96875 4.109375 -4.328125 C 3.71875 -4.5625 3.375 -4.671875 2.953125 -4.671875 C 2.484375 -4.671875 1.921875 -4.484375 1.328125 -4.109375 C 0.625 -3.671875 0.265625 -2.96875 0.265625 -2.09375 Z M 0.265625 -2.09375 "/>
</symbol>
<symbol overflow="visible" id="glyph3-25">
<path style="stroke:none;" d="M 0.671875 -0.53125 C 0.671875 -0.234375 0.9375 0.046875 1.21875 0.046875 C 1.546875 0.046875 1.828125 -0.21875 1.828125 -0.53125 C 1.828125 -0.828125 1.546875 -1.109375 1.234375 -1.109375 C 0.9375 -1.109375 0.671875 -0.828125 0.671875 -0.53125 Z M 0.671875 -0.53125 "/>
</symbol>
<symbol overflow="visible" id="glyph3-26">
<path style="stroke:none;" d="M 0.15625 0.03125 C 0.515625 0.015625 0.875 0 1.234375 0 C 1.640625 0 2.046875 0.015625 2.4375 0.03125 L 2.4375 -0.265625 L 2.078125 -0.296875 C 1.71875 -0.328125 1.59375 -0.40625 1.59375 -0.5625 C 1.59375 -0.6875 1.734375 -1.109375 1.9375 -1.609375 L 2.21875 -2.28125 L 5.09375 -2.28125 L 5.546875 -1.140625 C 5.71875 -0.71875 5.765625 -0.59375 5.765625 -0.5 C 5.765625 -0.390625 5.609375 -0.3125 5.359375 -0.296875 L 4.890625 -0.265625 L 4.890625 0.03125 C 5.34375 0.015625 5.8125 0 6.265625 0 C 6.6875 0 7.125 0.015625 7.53125 0.03125 L 7.53125 -0.265625 L 7.203125 -0.296875 C 6.9375 -0.3125 6.828125 -0.515625 6.484375 -1.3125 L 4.0625 -6.984375 L 3.75 -6.984375 C 3.75 -6.984375 3.640625 -6.640625 3.265625 -5.796875 L 1.0625 -0.78125 C 0.921875 -0.5 0.734375 -0.3125 0.515625 -0.296875 L 0.15625 -0.265625 Z M 2.390625 -2.6875 L 3.65625 -5.65625 L 4.921875 -2.6875 Z M 2.390625 -2.6875 "/>
</symbol>
<symbol overflow="visible" id="glyph3-27">
<path style="stroke:none;" d="M 0.171875 -3.984375 L 0.546875 -3.984375 C 0.953125 -3.984375 0.984375 -3.921875 0.984375 -3.265625 L 0.984375 -1.578125 C 0.984375 -0.890625 1.046875 -0.578125 1.21875 -0.328125 C 1.453125 -0.03125 1.828125 0.125 2.390625 0.125 C 2.84375 0.125 3.234375 -0.015625 3.515625 -0.265625 L 4.171875 -0.890625 C 4.171875 -0.59375 4.171875 -0.4375 4.140625 0.03125 C 4.421875 0.015625 4.6875 0 4.96875 0 C 5.25 0 5.515625 0.015625 5.796875 0.03125 L 5.796875 -0.265625 L 5.390625 -0.296875 C 5.046875 -0.3125 5.015625 -0.375 5.015625 -1.015625 L 5.015625 -4.640625 L 4.921875 -4.671875 C 4.421875 -4.46875 3.890625 -4.328125 3.375 -4.265625 L 3.375 -3.984375 L 3.734375 -3.984375 C 4.140625 -3.984375 4.171875 -3.921875 4.171875 -3.265625 L 4.171875 -1.640625 C 4.171875 -1.421875 4.03125 -1.140625 3.8125 -0.90625 C 3.53125 -0.625 3.203125 -0.484375 2.828125 -0.484375 C 2.46875 -0.484375 2.1875 -0.59375 2.03125 -0.78125 C 1.890625 -0.953125 1.828125 -1.25 1.828125 -1.6875 L 1.828125 -4.640625 L 1.734375 -4.671875 C 1.21875 -4.46875 0.703125 -4.328125 0.171875 -4.265625 Z M 2.109375 -5.046875 L 2.515625 -5.046875 L 3.953125 -5.9375 C 4.28125 -6.15625 4.34375 -6.234375 4.34375 -6.40625 C 4.34375 -6.59375 4.203125 -6.75 4.03125 -6.75 C 3.890625 -6.75 3.703125 -6.640625 3.484375 -6.421875 Z M 2.109375 -5.046875 "/>
</symbol>
<symbol overflow="visible" id="glyph4-0">
<path style="stroke:none;" d="M 0.328125 0 L 0.328125 -6.640625 L 2.96875 -6.640625 L 2.96875 0 Z M 0.65625 -0.328125 L 2.640625 -0.328125 L 2.640625 -6.3125 L 0.65625 -6.3125 Z M 0.65625 -0.328125 "/>
</symbol>
<symbol overflow="visible" id="glyph4-1">
<path style="stroke:none;" d="M 2.40625 -3.875 L 2.40625 -3.953125 C 2.132812 -3.785156 1.960938 -3.664062 1.890625 -3.59375 C 1.816406 -3.53125 1.675781 -3.378906 1.46875 -3.140625 C 1.320312 -2.984375 1.179688 -2.90625 1.046875 -2.90625 C 0.828125 -2.9375 0.707031 -3.050781 0.6875 -3.25 C 0.6875 -3.4375 0.816406 -3.570312 1.078125 -3.65625 C 1.140625 -3.664062 1.21875 -3.679688 1.3125 -3.703125 C 1.65625 -3.765625 1.957031 -3.875 2.21875 -4.03125 C 2.25 -4.050781 2.285156 -4.070312 2.328125 -4.09375 L 2.21875 -4.171875 C 2.03125 -4.296875 1.742188 -4.394531 1.359375 -4.46875 C 0.921875 -4.539062 0.695312 -4.695312 0.6875 -4.9375 C 0.6875 -5.101562 0.765625 -5.21875 0.921875 -5.28125 C 0.960938 -5.289062 1 -5.296875 1.03125 -5.296875 C 1.164062 -5.296875 1.320312 -5.1875 1.5 -4.96875 C 1.78125 -4.664062 2.066406 -4.429688 2.359375 -4.265625 L 2.40625 -4.25 L 2.40625 -4.375 C 2.40625 -4.644531 2.351562 -4.945312 2.25 -5.28125 C 2.1875 -5.507812 2.15625 -5.679688 2.15625 -5.796875 C 2.15625 -5.960938 2.234375 -6.070312 2.390625 -6.125 C 2.421875 -6.132812 2.457031 -6.140625 2.5 -6.140625 C 2.664062 -6.140625 2.78125 -6.0625 2.84375 -5.90625 C 2.851562 -5.863281 2.859375 -5.816406 2.859375 -5.765625 C 2.859375 -5.671875 2.828125 -5.519531 2.765625 -5.3125 C 2.648438 -4.988281 2.59375 -4.710938 2.59375 -4.484375 L 2.59375 -4.234375 L 2.65625 -4.265625 C 2.882812 -4.390625 3.125 -4.601562 3.375 -4.90625 C 3.613281 -5.175781 3.800781 -5.3125 3.9375 -5.3125 C 4.125 -5.3125 4.238281 -5.222656 4.28125 -5.046875 C 4.289062 -5.003906 4.296875 -4.960938 4.296875 -4.921875 C 4.296875 -4.734375 4.191406 -4.609375 3.984375 -4.546875 C 3.921875 -4.535156 3.851562 -4.519531 3.78125 -4.5 C 3.445312 -4.445312 3.125 -4.335938 2.8125 -4.171875 L 2.671875 -4.09375 L 2.75 -4.03125 C 3.019531 -3.863281 3.34375 -3.753906 3.71875 -3.703125 C 4.0625 -3.648438 4.253906 -3.539062 4.296875 -3.375 L 4.3125 -3.265625 C 4.3125 -3.054688 4.21875 -2.9375 4.03125 -2.90625 L 3.953125 -2.890625 C 3.785156 -2.890625 3.585938 -3.03125 3.359375 -3.3125 C 3.097656 -3.625 2.863281 -3.828125 2.65625 -3.921875 L 2.59375 -3.953125 L 2.59375 -3.875 C 2.59375 -3.488281 2.660156 -3.117188 2.796875 -2.765625 C 2.847656 -2.617188 2.875 -2.507812 2.875 -2.4375 C 2.875 -2.269531 2.789062 -2.148438 2.625 -2.078125 C 2.582031 -2.054688 2.535156 -2.046875 2.484375 -2.046875 C 2.328125 -2.046875 2.21875 -2.117188 2.15625 -2.265625 C 2.144531 -2.316406 2.140625 -2.363281 2.140625 -2.40625 C 2.140625 -2.53125 2.175781 -2.6875 2.25 -2.875 C 2.351562 -3.164062 2.40625 -3.414062 2.40625 -3.625 Z M 2.40625 -3.875 "/>
</symbol>
<symbol overflow="visible" id="glyph5-0">
<path style="stroke:none;" d="M 0.5 0 L 4.484375 0 L 4.484375 -4.828125 L 0.5 -4.828125 Z M 1 -0.5 L 1 -4.328125 L 3.984375 -4.328125 L 3.984375 -0.5 Z M 1 -0.5 "/>
</symbol>
<symbol overflow="visible" id="glyph5-1">
<path style="stroke:none;" d="M 0.53125 -5.265625 L 0.8125 -5.265625 L 0.96875 -5.859375 C 1.015625 -6.078125 1.09375 -6.234375 1.140625 -6.3125 C 1.203125 -6.375 1.578125 -6.4375 1.953125 -6.4375 L 3.078125 -6.4375 L 2.21875 -1.25 C 2.0625 -0.34375 2.03125 -0.296875 1.640625 -0.28125 L 1.125 -0.25 L 1.09375 0.03125 C 1.5625 0.015625 2.03125 0 2.5 0 C 2.953125 0 3.390625 0.015625 3.828125 0.03125 L 3.859375 -0.25 L 3.265625 -0.28125 C 3.015625 -0.296875 2.90625 -0.375 2.90625 -0.578125 C 2.90625 -0.671875 2.90625 -0.71875 2.953125 -0.921875 L 3.890625 -6.4375 L 4.609375 -6.4375 C 5.390625 -6.4375 5.75 -6.390625 5.78125 -6.265625 C 5.8125 -6.1875 5.828125 -6 5.828125 -5.90625 L 5.78125 -5.265625 L 6.0625 -5.265625 L 6.328125 -6.890625 C 5.390625 -6.875 4.453125 -6.875 3.515625 -6.875 C 2.578125 -6.875 1.640625 -6.875 0.703125 -6.890625 Z M 0.53125 -5.265625 "/>
</symbol>
<symbol overflow="visible" id="glyph5-2">
<path style="stroke:none;" d="M 0.53125 -0.421875 C 0.53125 -0.125 0.703125 0.046875 0.96875 0.046875 C 1.296875 0.046875 1.578125 -0.265625 1.578125 -0.640625 C 1.578125 -0.90625 1.375 -1.109375 1.125 -1.109375 C 0.796875 -1.109375 0.53125 -0.796875 0.53125 -0.421875 Z M 0.53125 -0.421875 "/>
</symbol>
<symbol overflow="visible" id="glyph5-3">
<path style="stroke:none;" d="M 0.09375 0.03125 C 0.53125 0.015625 0.96875 0 1.40625 0 C 1.875 0 2.328125 0.015625 2.796875 0.03125 L 2.828125 -0.25 L 2.171875 -0.28125 C 1.90625 -0.296875 1.8125 -0.375 1.8125 -0.578125 C 1.8125 -0.671875 1.828125 -0.734375 1.859375 -0.921875 L 2.671875 -5.78125 C 2.671875 -5.78125 2.71875 -5.984375 2.765625 -6.1875 C 2.765625 -6.234375 2.796875 -6.328125 2.828125 -6.453125 C 3.1875 -6.515625 3.34375 -6.546875 3.53125 -6.546875 C 4.5625 -6.546875 5.046875 -6.09375 5.046875 -5.171875 C 5.046875 -4.09375 4.328125 -3.21875 3.453125 -3.21875 C 3.234375 -3.21875 3.03125 -3.265625 2.65625 -3.40625 L 2.6875 -3.09375 C 3.046875 -2.921875 3.25 -2.875 3.53125 -2.875 C 4.828125 -2.875 5.921875 -4.03125 5.921875 -5.390625 C 5.921875 -6.40625 4.96875 -6.890625 4.109375 -6.890625 C 3.65625 -6.890625 3.1875 -6.875 2.734375 -6.875 C 2.171875 -6.875 1.625 -6.875 1.078125 -6.890625 L 1.046875 -6.625 L 1.59375 -6.59375 C 1.828125 -6.59375 1.9375 -6.515625 1.9375 -6.328125 C 1.9375 -6.1875 1.90625 -5.875 1.859375 -5.578125 L 1.109375 -1.25 C 0.953125 -0.34375 0.9375 -0.3125 0.53125 -0.28125 L 0.125 -0.25 Z M 0.09375 0.03125 "/>
</symbol>
</g>
<clipPath id="clip1">
  <path d="M 42 6 L 347.761719 6 L 347.761719 8 L 42 8 Z M 42 6 "/>
</clipPath>
<clipPath id="clip2">
  <path d="M 42 14 L 347.761719 14 L 347.761719 16 L 42 16 Z M 42 14 "/>
</clipPath>
<clipPath id="clip3">
  <path d="M 42 23 L 347.761719 23 L 347.761719 24 L 42 24 Z M 42 23 "/>
</clipPath>
<clipPath id="clip4">
  <path d="M 42 31 L 347.761719 31 L 347.761719 32 L 42 32 Z M 42 31 "/>
</clipPath>
<clipPath id="clip5">
  <path d="M 345 11 L 347.761719 11 L 347.761719 27 L 345 27 Z M 345 11 "/>
</clipPath>
<clipPath id="clip6">
  <path d="M 0 61 L 347.761719 61 L 347.761719 62 L 0 62 Z M 0 61 "/>
</clipPath>
<clipPath id="clip7">
  <path d="M 0 69 L 347.761719 69 L 347.761719 71 L 0 71 Z M 0 69 "/>
</clipPath>
<clipPath id="clip8">
  <path d="M 0 77 L 347.761719 77 L 347.761719 79 L 0 79 Z M 0 77 "/>
</clipPath>
<clipPath id="clip9">
  <path d="M 0 85 L 347.761719 85 L 347.761719 87 L 0 87 Z M 0 85 "/>
</clipPath>
<clipPath id="clip10">
  <path d="M 345 73 L 347.761719 73 L 347.761719 86 L 345 86 Z M 345 73 "/>
</clipPath>
<clipPath id="clip11">
  <path d="M 0 116 L 347.761719 116 L 347.761719 117 L 0 117 Z M 0 116 "/>
</clipPath>
<clipPath id="clip12">
  <path d="M 0 124 L 347.761719 124 L 347.761719 125 L 0 125 Z M 0 124 "/>
</clipPath>
<clipPath id="clip13">
  <path d="M 0 132 L 347.761719 132 L 347.761719 133 L 0 133 Z M 0 132 "/>
</clipPath>
<clipPath id="clip14">
  <path d="M 0 140 L 347.761719 140 L 347.761719 142 L 0 142 Z M 0 140 "/>
</clipPath>
</defs>
<g id="surface1">
<g style="fill:rgb(0%,0%,0%);fill-opacity:1;">
  <use xlink:href="#glyph0-1" x="5.669" y="48.711"/>
</g>
<g style="fill:rgb(0%,0%,0%);fill-opacity:1;">
  <use xlink:href="#glyph1-1" x="19.627" y="12.388"/>
</g>
<g clip-path="url(#clip1)" clip-rule="nonzero">
<path style="fill:none;stroke-width:0.388;stroke-linecap:butt;stroke-linejoin:miter;stroke:rgb(0%,0%,0%);stroke-opacity:1;stroke-miterlimit:10;" d="M 0.00175 -0.0010625 L 305.419719 -0.0010625 " transform="matrix(1,0,0,-1,42.342,6.913)"/>
</g>
<g clip-path="url(#clip2)" clip-rule="nonzero">
<path style="fill:none;stroke-width:0.388;stroke-linecap:butt;stroke-linejoin:miter;stroke:rgb(0%,0%,0%);stroke-opacity:1;stroke-miterlimit:10;" d="M 0.00175 -0.0006875 L 305.419719 -0.0006875 " transform="matrix(1,0,0,-1,42.342,15.054)"/>
</g>
<g clip-path="url(#clip3)" clip-rule="nonzero">
<path style="fill:none;stroke-width:0.388;stroke-linecap:butt;stroke-linejoin:miter;stroke:rgb(0%,0%,0%);stroke-opacity:1;stroke-miterlimit:10;" d="M 0.00175 -0.0013125 L 305.419719 -0.0013125 " transform="matrix(1,0,0,-1,42.342,23.194)"/>
</g>
<g clip-path="url(#clip4)" clip-rule="nonzero">
<path style="fill:none;stroke-width:0.388;stroke-linecap:butt;stroke-linejoin:miter;stroke:rgb(0%,0%,0%);stroke-opacity:1;stroke-miterlimit:10;" d="M 0.00175 -0.0009375 L 305.419719 -0.0009375 " transform="matrix(1,0,0,-1,42.342,31.335)"/>
</g>
<g style="fill:rgb(0%,0%,0%);fill-opacity:1;">
  <use xlink:href="#glyph2-1" x="42.342" y="12.792"/>
</g>
<g style="fill:rgb(0%,0%,0%);fill-opacity:1;">
  <use xlink:href="#glyph3-1" x="53.792" y="48.711"/>
</g>
<g style="fill:rgb(0%,0%,0%);fill-opacity:1;">
  <use xlink:href="#glyph2-2" x="51.648" y="37.214"/>
</g>
<g style="fill:rgb(0%,0%,0%);fill-opacity:1;">
  <use xlink:href="#glyph3-2" x="57.997" y="48.711"/>
  <use xlink:href="#glyph3-3" x="66.794011" y="48.711"/>
</g>
<g style="fill:rgb(0%,0%,0%);fill-opacity:1;">
  <use xlink:href="#glyph2-2" x="62.741" y="33.144"/>
</g>
<g style="fill:rgb(0%,0%,0%);fill-opacity:1;">
  <use xlink:href="#glyph2-3" x="64.446" y="37.572"/>
</g>
<g style="fill:rgb(0%,0%,0%);fill-opacity:1;">
  <use xlink:href="#glyph3-4" x="71.775" y="48.711"/>
  <use xlink:href="#glyph3-5" x="77.403892" y="48.711"/>
  <use xlink:href="#glyph3-6" x="80.263169" y="48.711"/>
</g>
<g style="fill:rgb(0%,0%,0%);fill-opacity:1;">
  <use xlink:href="#glyph2-2" x="75.498" y="25.003"/>
</g>
<g style="fill:rgb(0%,0%,0%);fill-opacity:1;">
  <use xlink:href="#glyph3-7" x="88.013" y="48.711"/>
  <use xlink:href="#glyph3-1" x="92.785105" y="48.711"/>
</g>
<g style="fill:rgb(0%,0%,0%);fill-opacity:1;">
  <use xlink:href="#glyph2-4" x="88.254" y="25.003"/>
</g>
<g style="fill:rgb(0%,0%,0%);fill-opacity:1;">
  <use xlink:href="#glyph3-8" x="100.525" y="48.711"/>
  <use xlink:href="#glyph3-2" x="106.532472" y="48.711"/>
</g>
<g style="fill:rgb(0%,0%,0%);fill-opacity:1;">
  <use xlink:href="#glyph2-5" x="103.637" y="33.144"/>
</g>
<g style="fill:rgb(0%,0%,0%);fill-opacity:1;">
  <use xlink:href="#glyph3-9" x="119.831" y="48.711"/>
  <use xlink:href="#glyph3-10" x="127.542083" y="48.711"/>
  <use xlink:href="#glyph3-1" x="132.981685" y="48.711"/>
</g>
<g style="fill:rgb(0%,0%,0%);fill-opacity:1;">
  <use xlink:href="#glyph2-2" x="124.261" y="33.144"/>
</g>
<g style="fill:rgb(0%,0%,0%);fill-opacity:1;">
  <use xlink:href="#glyph3-2" x="136.299" y="48.711"/>
  <use xlink:href="#glyph3-5" x="145.096011" y="48.711"/>
</g>
<g style="fill:rgb(0%,0%,0%);fill-opacity:1;">
  <use xlink:href="#glyph2-4" x="137.837" y="25.003"/>
</g>
<g style="fill:rgb(0%,0%,0%);fill-opacity:1;">
  <use xlink:href="#glyph3-11" x="147.955" y="48.711"/>
  <use xlink:href="#glyph3-8" x="153.753256" y="48.711"/>
  <use xlink:href="#glyph3-12" x="159.760728" y="48.711"/>
  <use xlink:href="#glyph3-13" x="163.984888" y="48.711"/>
</g>
<g style="fill:rgb(0%,0%,0%);fill-opacity:1;">
  <use xlink:href="#glyph2-2" x="155.071" y="33.144"/>
</g>
<g style="fill:rgb(0%,0%,0%);fill-opacity:1;">
  <use xlink:href="#glyph2-5" x="161.29917" y="33.144"/>
</g>
<g style="fill:rgb(0%,0%,0%);fill-opacity:1;">
  <use xlink:href="#glyph2-6" x="171.273" y="37.784"/>
</g>
<g style="fill:rgb(0%,0%,0%);fill-opacity:1;">
  <use xlink:href="#glyph4-1" x="172.179" y="48.711"/>
</g>
<g style="fill:rgb(0%,0%,0%);fill-opacity:1;">
  <use xlink:href="#glyph2-7" x="177.699" y="20.933"/>
</g>
<g style="fill:rgb(0%,0%,0%);fill-opacity:1;">
  <use xlink:href="#glyph3-7" x="182.752" y="48.711"/>
  <use xlink:href="#glyph3-6" x="187.524105" y="48.711"/>
</g>
<g style="fill:rgb(0%,0%,0%);fill-opacity:1;">
  <use xlink:href="#glyph2-2" x="184.617" y="25.003"/>
</g>
<g style="fill:rgb(0%,0%,0%);fill-opacity:1;">
  <use xlink:href="#glyph3-14" x="195.273" y="48.711"/>
  <use xlink:href="#glyph3-15" x="200.712601" y="48.711"/>
</g>
<g style="fill:rgb(0%,0%,0%);fill-opacity:1;">
  <use xlink:href="#glyph3-1" x="204.348965" y="48.711"/>
</g>
<g style="fill:rgb(0%,0%,0%);fill-opacity:1;">
  <use xlink:href="#glyph2-8" x="197.816" y="20.933"/>
</g>
<g style="fill:rgb(0%,0%,0%);fill-opacity:1;">
  <use xlink:href="#glyph3-11" x="207.809" y="48.711"/>
  <use xlink:href="#glyph3-3" x="213.607256" y="48.711"/>
  <use xlink:href="#glyph3-1" x="218.588576" y="48.711"/>
</g>
<g style="fill:rgb(0%,0%,0%);fill-opacity:1;">
  <use xlink:href="#glyph2-4" x="208.909" y="16.863"/>
</g>
<g style="fill:rgb(0%,0%,0%);fill-opacity:1;">
  <use xlink:href="#glyph3-4" x="221.906" y="48.711"/>
  <use xlink:href="#glyph3-5" x="227.534892" y="48.711"/>
  <use xlink:href="#glyph3-6" x="230.394169" y="48.711"/>
</g>
<g style="fill:rgb(0%,0%,0%);fill-opacity:1;">
  <use xlink:href="#glyph2-8" x="225.629" y="25.003"/>
</g>
<g style="fill:rgb(0%,0%,0%);fill-opacity:1;">
  <use xlink:href="#glyph3-7" x="238.144" y="48.711"/>
  <use xlink:href="#glyph3-1" x="242.916105" y="48.711"/>
</g>
<g style="fill:rgb(0%,0%,0%);fill-opacity:1;">
  <use xlink:href="#glyph2-9" x="238.385" y="20.933"/>
</g>
<g style="fill:rgb(0%,0%,0%);fill-opacity:1;">
  <use xlink:href="#glyph2-10" x="238.385" y="12.144"/>
</g>
<g style="fill:rgb(0%,0%,0%);fill-opacity:1;">
  <use xlink:href="#glyph2-11" x="244.145" y="25.003"/>
</g>
<g style="fill:rgb(0%,0%,0%);fill-opacity:1;">
  <use xlink:href="#glyph2-11" x="251.064" y="33.144"/>
</g>
<g style="fill:rgb(0%,0%,0%);fill-opacity:1;">
  <use xlink:href="#glyph3-8" x="256.146" y="48.711"/>
  <use xlink:href="#glyph3-2" x="262.153472" y="48.711"/>
  <use xlink:href="#glyph3-16" x="270.950483" y="48.711"/>
</g>
<g style="fill:rgb(0%,0%,0%);fill-opacity:1;">
  <use xlink:href="#glyph2-2" x="262.649" y="33.144"/>
</g>
<g style="fill:rgb(0%,0%,0%);fill-opacity:1;">
  <use xlink:href="#glyph2-6" x="268.331" y="30.863"/>
</g>
<g style="fill:rgb(0%,0%,0%);fill-opacity:1;">
  <use xlink:href="#glyph2-12" x="275.255" y="20.933"/>
</g>
<g style="fill:rgb(0%,0%,0%);fill-opacity:1;">
  <use xlink:href="#glyph3-12" x="278.485" y="48.711"/>
</g>
<g style="fill:rgb(0%,0%,0%);fill-opacity:1;">
  <use xlink:href="#glyph3-6" x="282.55972" y="48.711"/>
</g>
<g style="fill:rgb(0%,0%,0%);fill-opacity:1;">
  <use xlink:href="#glyph3-14" x="285.707914" y="48.711"/>
</g>
<g style="fill:rgb(0%,0%,0%);fill-opacity:1;">
  <use xlink:href="#glyph2-2" x="282.671" y="20.933"/>
</g>
<g style="fill:rgb(0%,0%,0%);fill-opacity:1;">
  <use xlink:href="#glyph3-17" x="291.147" y="48.711"/>
  <use xlink:href="#glyph3-18" x="294.046128" y="48.711"/>
  <use xlink:href="#glyph3-2" x="299.027448" y="48.711"/>
</g>
<g style="fill:rgb(0%,0%,0%);fill-opacity:1;">
  <use xlink:href="#glyph2-2" x="297.341" y="20.933"/>
</g>
<g style="fill:rgb(0%,0%,0%);fill-opacity:1;">
  <use xlink:href="#glyph2-3" x="299.047" y="27.193"/>
</g>
<g style="fill:rgb(0%,0%,0%);fill-opacity:1;">
  <use xlink:href="#glyph3-19" x="312.326" y="48.711"/>
  <use xlink:href="#glyph3-17" x="317.865228" y="48.711"/>
  <use xlink:href="#glyph3-10" x="320.764356" y="48.711"/>
  <use xlink:href="#glyph3-1" x="326.203958" y="48.711"/>
</g>
<g style="fill:rgb(0%,0%,0%);fill-opacity:1;">
  <use xlink:href="#glyph2-2" x="317.12" y="16.863"/>
</g>
<g style="fill:rgb(0%,0%,0%);fill-opacity:1;">
  <use xlink:href="#glyph3-15" x="329.522" y="48.711"/>
  <use xlink:href="#glyph3-5" x="333.457243" y="48.711"/>
  <use xlink:href="#glyph3-1" x="336.31652" y="48.711"/>
</g>
<g style="fill:rgb(0%,0%,0%);fill-opacity:1;">
  <use xlink:href="#glyph2-13" x="330.774" y="20.933"/>
</g>
<g clip-path="url(#clip5)" clip-rule="nonzero">
<g style="fill:rgb(0%,0%,0%);fill-opacity:1;">
  <use xlink:href="#glyph2-14" x="345.874" y="25.003"/>
</g>
</g>
<g clip-path="url(#clip6)" clip-rule="nonzero">
<path style="fill:none;stroke-width:0.388;stroke-linecap:butt;stroke-linejoin:miter;stroke:rgb(0%,0%,0%);stroke-opacity:1;stroke-miterlimit:10;" d="M 0 0.00096875 L 347.761719 0.00096875 " transform="matrix(1,0,0,-1,0,61.708)"/>
</g>
<g clip-path="url(#clip7)" clip-rule="nonzero">
<path style="fill:none;stroke-width:0.388;stroke-linecap:butt;stroke-linejoin:miter;stroke:rgb(0%,0%,0%);stroke-opacity:1;stroke-miterlimit:10;" d="M 0 0.00034375 L 347.761719 0.00034375 " transform="matrix(1,0,0,-1,0,69.848)"/>
</g>
<g clip-path="url(#clip8)" clip-rule="nonzero">
<path style="fill:none;stroke-width:0.388;stroke-linecap:butt;stroke-linejoin:miter;stroke:rgb(0%,0%,0%);stroke-opacity:1;stroke-miterlimit:10;" d="M 0 0.00071875 L 347.761719 0.00071875 " transform="matrix(1,0,0,-1,0,77.989)"/>
</g>
<g clip-path="url(#clip9)" clip-rule="nonzero">
<path style="fill:none;stroke-width:0.388;stroke-linecap:butt;stroke-linejoin:miter;stroke:rgb(0%,0%,0%);stroke-opacity:1;stroke-miterlimit:10;" d="M 0 0.00009375 L 347.761719 0.00009375 " transform="matrix(1,0,0,-1,0,86.129)"/>
</g>
<g style="fill:rgb(0%,0%,0%);fill-opacity:1;">
  <use xlink:href="#glyph2-1" x="0" y="67.587"/>
</g>
<g style="fill:rgb(0%,0%,0%);fill-opacity:1;">
  <use xlink:href="#glyph3-20" x="9.179" y="103.506"/>
</g>
<g style="fill:rgb(0%,0%,0%);fill-opacity:1;">
  <use xlink:href="#glyph2-2" x="10.81" y="79.798"/>
</g>
<g style="fill:rgb(0%,0%,0%);fill-opacity:1;">
  <use xlink:href="#glyph2-15" x="20.209" y="75.727"/>
</g>
<g style="fill:rgb(0%,0%,0%);fill-opacity:1;">
  <use xlink:href="#glyph3-21" x="23.652" y="103.506"/>
  <use xlink:href="#glyph3-11" x="26.511278" y="103.506"/>
  <use xlink:href="#glyph3-1" x="32.309534" y="103.506"/>
</g>
<g style="fill:rgb(0%,0%,0%);fill-opacity:1;">
  <use xlink:href="#glyph2-16" x="25.81" y="79.798"/>
</g>
<g style="fill:rgb(0%,0%,0%);fill-opacity:1;">
  <use xlink:href="#glyph3-22" x="35.627" y="103.506"/>
  <use xlink:href="#glyph3-8" x="41.714173" y="103.506"/>
  <use xlink:href="#glyph3-1" x="47.721645" y="103.506"/>
</g>
<g style="fill:rgb(0%,0%,0%);fill-opacity:1;">
  <use xlink:href="#glyph2-2" x="39.53" y="87.938"/>
</g>
<g style="fill:rgb(0%,0%,0%);fill-opacity:1;">
  <use xlink:href="#glyph3-5" x="51.04" y="103.506"/>
  <use xlink:href="#glyph3-6" x="53.899278" y="103.506"/>
</g>
<g style="fill:rgb(0%,0%,0%);fill-opacity:1;">
  <use xlink:href="#glyph2-4" x="51.948" y="79.798"/>
</g>
<g style="fill:rgb(0%,0%,0%);fill-opacity:1;">
  <use xlink:href="#glyph3-7" x="67.955" y="103.506"/>
  <use xlink:href="#glyph3-1" x="72.727105" y="103.506"/>
</g>
<g style="fill:rgb(0%,0%,0%);fill-opacity:1;">
  <use xlink:href="#glyph2-5" x="68.196" y="87.938"/>
</g>
<g style="fill:rgb(0%,0%,0%);fill-opacity:1;">
  <use xlink:href="#glyph3-8" x="77.077" y="103.506"/>
  <use xlink:href="#glyph3-2" x="83.084472" y="103.506"/>
  <use xlink:href="#glyph3-13" x="91.881483" y="103.506"/>
</g>
<g style="fill:rgb(0%,0%,0%);fill-opacity:1;">
  <use xlink:href="#glyph2-2" x="83.579" y="92.008"/>
</g>
<g style="fill:rgb(0%,0%,0%);fill-opacity:1;">
  <use xlink:href="#glyph2-6" x="89.243" y="92.579"/>
</g>
<g style="fill:rgb(0%,0%,0%);fill-opacity:1;">
  <use xlink:href="#glyph2-7" x="95.551" y="75.727"/>
</g>
<g style="fill:rgb(0%,0%,0%);fill-opacity:1;">
  <use xlink:href="#glyph3-7" x="100.486" y="103.506"/>
  <use xlink:href="#glyph3-6" x="105.258105" y="103.506"/>
</g>
<g style="fill:rgb(0%,0%,0%);fill-opacity:1;">
  <use xlink:href="#glyph2-2" x="102.351" y="92.008"/>
</g>
<g style="fill:rgb(0%,0%,0%);fill-opacity:1;">
  <use xlink:href="#glyph3-18" x="112.773" y="103.506"/>
  <use xlink:href="#glyph3-22" x="117.75432" y="103.506"/>
</g>
<g style="fill:rgb(0%,0%,0%);fill-opacity:1;">
  <use xlink:href="#glyph2-2" x="116.162" y="87.938"/>
</g>
<g style="fill:rgb(0%,0%,0%);fill-opacity:1;">
  <use xlink:href="#glyph3-23" x="128.108" y="103.506"/>
  <use xlink:href="#glyph3-14" x="134.095547" y="103.506"/>
  <use xlink:href="#glyph3-15" x="139.535148" y="103.506"/>
</g>
<g style="fill:rgb(0%,0%,0%);fill-opacity:1;">
  <use xlink:href="#glyph2-2" x="133.644" y="79.798"/>
</g>
<g style="fill:rgb(0%,0%,0%);fill-opacity:1;">
  <use xlink:href="#glyph2-3" x="135.35" y="84.226"/>
</g>
<g style="fill:rgb(0%,0%,0%);fill-opacity:1;">
  <use xlink:href="#glyph3-6" x="143.47" y="103.506"/>
  <use xlink:href="#glyph3-18" x="146.717821" y="103.506"/>
  <use xlink:href="#glyph3-12" x="151.699141" y="103.506"/>
</g>
<g style="fill:rgb(0%,0%,0%);fill-opacity:1;">
  <use xlink:href="#glyph2-2" x="147.552" y="87.938"/>
</g>
<g style="fill:rgb(0%,0%,0%);fill-opacity:1;">
  <use xlink:href="#glyph3-23" x="160.19" y="103.506"/>
  <use xlink:href="#glyph3-18" x="166.177547" y="103.506"/>
  <use xlink:href="#glyph3-1" x="171.158867" y="103.506"/>
</g>
<g style="fill:rgb(0%,0%,0%);fill-opacity:1;">
  <use xlink:href="#glyph2-2" x="163.53" y="83.868"/>
</g>
<g style="fill:rgb(0%,0%,0%);fill-opacity:1;">
  <use xlink:href="#glyph3-15" x="174.477" y="103.506"/>
</g>
<g style="fill:rgb(0%,0%,0%);fill-opacity:1;">
  <use xlink:href="#glyph3-18" x="178.262803" y="103.506"/>
  <use xlink:href="#glyph3-1" x="183.244123" y="103.506"/>
</g>
<g style="fill:rgb(0%,0%,0%);fill-opacity:1;">
  <use xlink:href="#glyph2-2" x="176.715" y="79.798"/>
</g>
<g style="fill:rgb(0%,0%,0%);fill-opacity:1;">
  <use xlink:href="#glyph3-22" x="186.562" y="103.506"/>
  <use xlink:href="#glyph3-21" x="192.649173" y="103.506"/>
  <use xlink:href="#glyph3-1" x="195.508451" y="103.506"/>
</g>
<g style="fill:rgb(0%,0%,0%);fill-opacity:1;">
  <use xlink:href="#glyph2-8" x="188.89" y="75.727"/>
</g>
<g style="fill:rgb(0%,0%,0%);fill-opacity:1;">
  <use xlink:href="#glyph3-12" x="201" y="103.506"/>
  <use xlink:href="#glyph3-5" x="205.224159" y="103.506"/>
</g>
<g style="fill:rgb(100%,100%,100%);fill-opacity:1;">
  <use xlink:href="#glyph2-17" x="196.015" y="67.587"/>
</g>
<g style="fill:rgb(0%,0%,0%);fill-opacity:1;">
  <use xlink:href="#glyph2-18" x="196.015" y="67.587"/>
</g>
<g style="fill:rgb(0%,0%,0%);fill-opacity:1;">
  <use xlink:href="#glyph2-4" x="202.397" y="71.657"/>
</g>
<g style="fill:rgb(0%,0%,0%);fill-opacity:1;">
  <use xlink:href="#glyph2-8" x="212.88927" y="71.657"/>
</g>
<g style="fill:rgb(0%,0%,0%);fill-opacity:1;">
  <use xlink:href="#glyph2-11" x="218.626423" y="71.657"/>
</g>
<g style="fill:rgb(0%,0%,0%);fill-opacity:1;">
  <use xlink:href="#glyph2-11" x="222.299" y="75.727"/>
</g>
<g style="fill:rgb(0%,0%,0%);fill-opacity:1;">
  <use xlink:href="#glyph2-3" x="224.296" y="81.987"/>
</g>
<g style="fill:rgb(0%,0%,0%);fill-opacity:1;">
  <use xlink:href="#glyph2-2" x="229.003" y="75.727"/>
</g>
<g style="fill:rgb(0%,0%,0%);fill-opacity:1;">
  <use xlink:href="#glyph2-15" x="238.668293" y="75.727"/>
</g>
<g style="fill:rgb(0%,0%,0%);fill-opacity:1;">
  <use xlink:href="#glyph3-24" x="241.784" y="103.506"/>
  <use xlink:href="#glyph3-14" x="246.207412" y="103.506"/>
  <use xlink:href="#glyph3-1" x="251.647014" y="103.506"/>
</g>
<g style="fill:rgb(0%,0%,0%);fill-opacity:1;">
  <use xlink:href="#glyph2-2" x="244.571" y="83.868"/>
</g>
<g style="fill:rgb(0%,0%,0%);fill-opacity:1;">
  <use xlink:href="#glyph2-3" x="246.276" y="90.128"/>
</g>
<g style="fill:rgb(0%,0%,0%);fill-opacity:1;">
  <use xlink:href="#glyph3-15" x="254.965" y="103.506"/>
  <use xlink:href="#glyph3-14" x="258.900243" y="103.506"/>
  <use xlink:href="#glyph3-1" x="264.339844" y="103.506"/>
</g>
<g style="fill:rgb(0%,0%,0%);fill-opacity:1;">
  <use xlink:href="#glyph2-2" x="257.507" y="79.798"/>
</g>
<g style="fill:rgb(0%,0%,0%);fill-opacity:1;">
  <use xlink:href="#glyph3-11" x="267.657" y="103.506"/>
  <use xlink:href="#glyph3-3" x="273.455256" y="103.506"/>
  <use xlink:href="#glyph3-1" x="278.436576" y="103.506"/>
</g>
<g style="fill:rgb(0%,0%,0%);fill-opacity:1;">
  <use xlink:href="#glyph2-2" x="270.902" y="75.727"/>
</g>
<g style="fill:rgb(0%,0%,0%);fill-opacity:1;">
  <use xlink:href="#glyph3-4" x="281.754" y="103.506"/>
  <use xlink:href="#glyph3-5" x="287.382892" y="103.506"/>
  <use xlink:href="#glyph3-6" x="290.242169" y="103.506"/>
</g>
<g style="fill:rgb(0%,0%,0%);fill-opacity:1;">
  <use xlink:href="#glyph2-4" x="283.332" y="79.798"/>
</g>
<g style="fill:rgb(0%,0%,0%);fill-opacity:1;">
  <use xlink:href="#glyph3-7" x="299.339" y="103.506"/>
  <use xlink:href="#glyph3-1" x="304.111105" y="103.506"/>
</g>
<g style="fill:rgb(0%,0%,0%);fill-opacity:1;">
  <use xlink:href="#glyph2-2" x="299.58" y="87.938"/>
</g>
<g style="fill:rgb(0%,0%,0%);fill-opacity:1;">
  <use xlink:href="#glyph2-6" x="305.244" y="85.658"/>
</g>
<g style="fill:rgb(0%,0%,0%);fill-opacity:1;">
  <use xlink:href="#glyph3-8" x="307.385" y="103.506"/>
  <use xlink:href="#glyph3-2" x="313.392472" y="103.506"/>
  <use xlink:href="#glyph3-25" x="322.189483" y="103.506"/>
</g>
<g style="fill:rgb(0%,0%,0%);fill-opacity:1;">
  <use xlink:href="#glyph2-2" x="313.887" y="87.938"/>
</g>
<g style="fill:rgb(0%,0%,0%);fill-opacity:1;">
  <use xlink:href="#glyph2-6" x="319.551" y="85.658"/>
</g>
<g style="fill:rgb(0%,0%,0%);fill-opacity:1;">
  <use xlink:href="#glyph5-1" x="329.462" y="103.506"/>
</g>
<g style="fill:rgb(0%,0%,0%);fill-opacity:1;">
  <use xlink:href="#glyph5-2" x="334.602722" y="103.506"/>
</g>
<g style="fill:rgb(0%,0%,0%);fill-opacity:1;">
  <use xlink:href="#glyph5-3" x="339.584042" y="103.506"/>
</g>
<g style="fill:rgb(0%,0%,0%);fill-opacity:1;">
  <use xlink:href="#glyph5-2" x="344.525512" y="103.506"/>
</g>
<g style="fill:rgb(0%,0%,0%);fill-opacity:1;">
  <use xlink:href="#glyph2-12" x="335.245" y="75.727"/>
</g>
<g style="fill:rgb(0%,0%,0%);fill-opacity:1;">
  <use xlink:href="#glyph2-12" x="338.837181" y="75.727"/>
</g>
<g clip-path="url(#clip10)" clip-rule="nonzero">
<g style="fill:rgb(0%,0%,0%);fill-opacity:1;">
  <use xlink:href="#glyph2-19" x="345.848" y="83.868"/>
</g>
</g>
<g clip-path="url(#clip11)" clip-rule="nonzero">
<path style="fill:none;stroke-width:0.388;stroke-linecap:butt;stroke-linejoin:miter;stroke:rgb(0%,0%,0%);stroke-opacity:1;stroke-miterlimit:10;" d="M 0 -0.00190625 L 347.761719 -0.00190625 " transform="matrix(1,0,0,-1,0,116.502)"/>
</g>
<g clip-path="url(#clip12)" clip-rule="nonzero">
<path style="fill:none;stroke-width:0.388;stroke-linecap:butt;stroke-linejoin:miter;stroke:rgb(0%,0%,0%);stroke-opacity:1;stroke-miterlimit:10;" d="M 0 -0.00153125 L 347.761719 -0.00153125 " transform="matrix(1,0,0,-1,0,124.643)"/>
</g>
<g clip-path="url(#clip13)" clip-rule="nonzero">
<path style="fill:none;stroke-width:0.388;stroke-linecap:butt;stroke-linejoin:miter;stroke:rgb(0%,0%,0%);stroke-opacity:1;stroke-miterlimit:10;" d="M 0 0.00175 L 347.761719 0.00175 " transform="matrix(1,0,0,-1,0,132.783)"/>
</g>
<g clip-path="url(#clip14)" clip-rule="nonzero">
<path style="fill:none;stroke-width:0.388;stroke-linecap:butt;stroke-linejoin:miter;stroke:rgb(0%,0%,0%);stroke-opacity:1;stroke-miterlimit:10;" d="M 0 -0.00178125 L 347.761719 -0.00178125 " transform="matrix(1,0,0,-1,0,140.924)"/>
</g>
<g style="fill:rgb(0%,0%,0%);fill-opacity:1;">
  <use xlink:href="#glyph2-1" x="0" y="122.381"/>
</g>
<g style="fill:rgb(0%,0%,0%);fill-opacity:1;">
  <use xlink:href="#glyph3-26" x="7.629" y="158.3"/>
  <use xlink:href="#glyph3-17" x="15.379934" y="158.3"/>
  <use xlink:href="#glyph3-1" x="18.279062" y="158.3"/>
</g>
<g style="fill:rgb(0%,0%,0%);fill-opacity:1;">
  <use xlink:href="#glyph2-2" x="10.81" y="138.662"/>
</g>
<g style="fill:rgb(0%,0%,0%);fill-opacity:1;">
  <use xlink:href="#glyph3-17" x="21.597" y="158.3"/>
  <use xlink:href="#glyph3-7" x="24.496128" y="158.3"/>
  <use xlink:href="#glyph3-1" x="29.268233" y="158.3"/>
</g>
<g style="fill:rgb(0%,0%,0%);fill-opacity:1;">
  <use xlink:href="#glyph2-4" x="23.288" y="134.592"/>
</g>
<g style="fill:rgb(0%,0%,0%);fill-opacity:1;">
  <use xlink:href="#glyph3-27" x="37.812" y="158.3"/>
  <use xlink:href="#glyph3-1" x="43.819472" y="158.3"/>
</g>
<g style="fill:rgb(0%,0%,0%);fill-opacity:1;">
  <use xlink:href="#glyph2-2" x="38.671" y="142.733"/>
</g>
<g style="fill:rgb(0%,0%,0%);fill-opacity:1;">
  <use xlink:href="#glyph2-6" x="44.378" y="140.452"/>
</g>
<g style="fill:rgb(0%,0%,0%);fill-opacity:1;">
  <use xlink:href="#glyph3-5" x="48.161" y="158.3"/>
  <use xlink:href="#glyph3-18" x="51.020278" y="158.3"/>
  <use xlink:href="#glyph3-25" x="56.001598" y="158.3"/>
</g>
<g style="fill:rgb(0%,0%,0%);fill-opacity:1;">
  <use xlink:href="#glyph2-2" x="51.182" y="142.733"/>
</g>
<g style="fill:rgb(0%,0%,0%);fill-opacity:1;">
  <use xlink:href="#glyph2-6" x="56.889" y="140.452"/>
</g>
<g style="fill:rgb(0%,0%,0%);fill-opacity:1;">
  <use xlink:href="#glyph2-12" x="65.157" y="130.522"/>
</g>
<g style="fill:rgb(0%,0%,0%);fill-opacity:1;">
  <use xlink:href="#glyph2-12" x="68.749181" y="130.522"/>
</g>
</g>
</svg>
